(16,(((9,(10,12)),(3,14)),(11,(8,((13,(7,(2,4))),(1,(5,(6,15))))))));
(16,((8,((7,(6,15)),((2,4),(13,(1,5))))),((3,14),(11,(12,(9,10))))));
(16,((8,((1,13),((6,(5,15)),(7,(2,4))))),(11,((3,14),(9,(10,12))))));
(16,((8,((13,(1,5)),((6,15),(7,(2,4))))),(11,((3,14),(9,(10,12))))));
(16,((8,(13,(2,((1,5),((6,15),(4,7)))))),(11,((3,14),(10,(9,12))))));
(16,((8,(((6,15),(7,(2,4))),(13,(1,5)))),((9,(10,12)),(11,(3,14)))));
(16,((8,(13,((7,(2,4)),((6,15),(1,5))))),(11,((3,14),(9,(10,12))))));
(16,(((13,(1,(6,(5,15)))),(8,(7,(2,4)))),(11,((3,14),(9,(10,12))))));
(16,((8,((13,(1,5)),((6,15),(7,(2,4))))),(11,((3,14),(9,(10,12))))));
(16,((8,((1,13),((6,(5,15)),(4,(2,7))))),(11,((3,14),(9,(10,12))))));
(16,((8,(7,(((6,15),(2,4)),(13,(1,5))))),(11,((3,14),(9,(10,12))))));
(16,((13,(8,((7,(6,15)),((2,4),(1,5))))),(11,((3,14),(9,(10,12))))));
(16,(11,((8,((6,15),((1,5),(13,(7,(2,4)))))),((3,14),(12,(9,10))))));
(16,((8,((5,(6,15)),(7,((2,4),(1,13))))),(11,((3,14),(9,(10,12))))));
(16,((8,(((6,15),(7,(2,4))),(13,(1,5)))),(11,((3,14),(9,(10,12))))));
(16,((8,((13,(1,5)),((6,15),(7,(2,4))))),(11,((3,14),(9,(10,12))))));
(16,(((7,(2,4)),(8,((1,5),(13,(6,15))))),(11,((3,14),(12,(9,10))))));
(16,((8,(1,(13,((15,(5,6)),(7,(2,4)))))),(11,((3,14),(12,(9,10))))));
(16,(11,(((1,5),(8,(13,(7,((6,15),(2,4)))))),((3,14),(9,(10,12))))));
(16,((11,(9,(3,14))),((10,12),(8,((7,(2,4)),((6,15),(13,(1,5))))))));
(16,(((8,(1,5)),(13,((6,15),(7,(2,4))))),(11,((3,14),(9,(10,12))))));
(16,((((6,15),(7,(13,(1,5)))),(8,(2,4))),(11,((3,14),(9,(10,12))))));
(16,((8,(7,(13,((1,5),((6,15),(2,4)))))),(11,((3,14),(9,(10,12))))));
(16,(((10,12),(9,(3,14))),(11,(8,(1,((2,4),(13,(7,(6,(5,15))))))))));
(16,(((13,((2,4),(7,(6,15)))),(8,(1,5))),(11,((3,14),(9,(10,12))))));
(16,(11,((13,(8,((2,(6,15)),((4,7),(1,5))))),((3,14),(9,(10,12))))));
(16,((8,((1,(5,13)),(7,((2,4),(6,15))))),(11,((3,14),(10,(9,12))))));
(16,((8,(((6,15),(7,(2,4))),(1,(5,13)))),(11,((3,14),(9,(10,12))))));
(16,((8,(((2,4),(6,15)),(7,(13,(1,5))))),(11,((10,12),(9,(3,14))))));
(16,((((1,5),(13,(6,15))),(8,(2,(4,7)))),(11,((3,14),(10,(9,12))))));
(16,((8,((7,(2,4)),((6,15),(13,(1,5))))),(11,((3,14),(9,(10,12))))));
(16,((8,(13,((7,(2,4)),((6,15),(1,5))))),(11,((3,14),(9,(10,12))))));
(16,((8,((7,(2,4)),((6,15),(13,(1,5))))),((3,14),(11,(12,(9,10))))));
(16,((8,((6,15),((7,(2,4)),(13,(1,5))))),(11,((3,14),(12,(9,10))))));
(16,((((1,5),(13,(4,(6,15)))),(8,(2,7))),(11,((3,14),(9,(10,12))))));
(16,((8,((1,5),(13,((6,15),(7,(2,4)))))),(11,((3,14),(9,(10,12))))));
(16,((8,(13,((6,15),((1,5),(7,(2,4)))))),(11,((9,(10,12)),(3,14)))));
(16,(((1,13),(8,(5,(4,((6,15),(2,7)))))),(11,((3,14),(9,(10,12))))));
(16,((8,((13,(7,(5,(6,15)))),(1,(2,4)))),(11,((3,14),(9,(10,12))))));
(16,((8,((7,(2,4)),((1,5),(13,(6,15))))),(11,((3,14),(9,(10,12))))));
(16,((8,((13,(1,5)),((6,15),(7,(2,4))))),(11,((3,14),(9,(10,12))))));
(16,((8,(((5,(6,15)),(7,(2,4))),(1,13))),(11,((3,14),(9,(10,12))))));
(16,((8,((7,(2,4)),((6,15),(13,(1,5))))),(11,((3,14),(9,(10,12))))));
(16,((8,((1,13),((6,(5,15)),(7,(2,4))))),(11,((3,14),(9,(10,12))))));
(16,((8,(4,((2,7),(13,((6,15),(1,5)))))),(11,((3,14),(9,(10,12))))));
(16,((7,(8,(((1,5),(2,4)),(13,(6,15))))),(11,((3,14),(9,(10,12))))));
(16,((8,((13,(1,5)),((6,15),(7,(2,4))))),(11,((3,14),(9,(10,12))))));
(16,((11,((3,14),(9,(10,12)))),((13,((1,5),(2,4))),(8,(7,(6,15))))));
(16,((8,((13,(1,5)),((6,15),(7,(2,4))))),(11,((3,14),(9,(10,12))))));
(16,((8,((7,(2,4)),((1,5),(13,(6,15))))),(11,((3,14),(9,(10,12))))));
(16,((8,((2,4),((1,13),(7,(6,(5,15)))))),((9,(10,12)),(11,(3,14)))));
(16,(((13,(1,5)),(8,((2,4),(7,(6,15))))),(11,((3,14),(12,(9,10))))));
(16,((8,(((6,15),(7,(2,4))),(13,(1,5)))),(11,((3,14),(9,(10,12))))));
(16,(((7,(2,4)),(8,((6,(5,15)),(1,13)))),(11,((9,(10,12)),(3,14)))));
(16,((8,((13,(1,5)),(7,((6,15),(2,4))))),(11,((3,14),(10,(9,12))))));
(16,((8,((5,13),(1,(7,((6,15),(2,4)))))),(11,((3,14),(9,(10,12))))));
(16,(11,(((3,14),(9,(10,12))),((7,(2,4)),(8,((6,15),(13,(1,5))))))));
(16,(11,(((10,12),(9,(3,14))),(8,((7,(2,4)),((6,15),(13,(1,5))))))));
(16,(11,(((13,((6,15),(7,(2,4)))),(8,(1,5))),((9,(10,12)),(3,14)))));
(16,((8,((7,(2,4)),((6,15),(13,(1,5))))),(11,((3,14),(9,(10,12))))));
(16,((8,((1,5),(13,((7,(2,4)),(6,15))))),(11,((3,14),(9,(10,12))))));
(16,((8,(13,((1,5),(7,((6,15),(2,4)))))),((9,(10,12)),(11,(3,14)))));
(16,(((7,(2,4)),(8,(1,(13,(5,(6,15)))))),(11,((9,10),(12,(3,14))))));
(16,((8,(((7,(2,4)),(6,15)),(13,(1,5)))),(11,((3,14),(9,(10,12))))));
(16,((8,((6,(5,15)),((7,(2,4)),(1,13)))),(11,((3,14),(9,(10,12))))));
(16,((8,(1,(13,((6,(5,15)),(7,(2,4)))))),(11,((9,12),(10,(3,14))))));
(16,((5,(8,((1,(6,15)),(13,(7,(2,4)))))),(11,((3,14),(9,(10,12))))));
(16,(11,(((3,14),(9,(10,12))),(8,((13,(1,5)),((6,15),(7,(2,4))))))));
(16,((8,(((6,15),(7,(2,4))),(13,(1,5)))),(11,((3,14),(9,(10,12))))));
(16,((8,((1,13),((6,(5,15)),(7,(2,4))))),(11,((3,14),(9,(10,12))))));
(16,((8,(((2,4),(7,(6,15))),(13,(1,5)))),(11,((3,14),(12,(9,10))))));
(16,((8,(1,(13,((6,(5,15)),(7,(2,4)))))),(11,((3,14),(9,(10,12))))));
(16,(((3,14),(9,(10,12))),(11,((13,((2,4),(7,(6,15)))),(8,(1,5))))));
(16,((8,(((5,15),(7,(2,4))),(6,(1,13)))),(11,((3,14),(9,(10,12))))));
(16,(((13,((2,4),(7,(6,15)))),(8,(1,5))),(11,((10,12),(9,(3,14))))));
(16,((8,((13,(1,5)),(7,((6,15),(2,4))))),(11,((3,14),(9,(10,12))))));
(16,((8,(6,(((2,4),(7,15)),(5,(1,13))))),(11,((3,14),(10,(9,12))))));
(16,((8,(((1,5),(7,(2,4))),(13,(6,15)))),(11,((3,14),(10,(9,12))))));
(16,((8,(((15,(5,6)),(7,(2,4))),(1,13))),(11,((3,14),(12,(9,10))))));
(16,((8,(((6,(5,15)),(4,7)),(13,(1,2)))),(11,((3,14),(9,(10,12))))));
(16,((8,((1,5),(13,((6,15),(4,(2,7)))))),(11,((3,14),(9,(10,12))))));
(16,((8,((7,(2,4)),((6,15),(13,(1,5))))),(11,((3,14),(10,(9,12))))));
(16,((8,((7,(2,4)),((6,15),(13,(1,5))))),(11,((3,14),(10,(9,12))))));
(16,(((3,14),(9,(10,12))),(11,(8,((1,5),(13,((6,15),(7,(2,4)))))))));
(16,((8,((5,(1,13)),((6,15),(7,(2,4))))),(11,((3,14),(9,(10,12))))));
(16,(((3,14),(9,(10,12))),(11,(8,(((6,15),(7,(2,4))),(13,(1,5)))))));
(16,((8,((1,13),((5,(7,15)),(6,(2,4))))),(11,((3,14),(10,(9,12))))));
(16,((8,(13,((15,(5,6)),(1,(7,(2,4)))))),(11,((3,14),(10,(9,12))))));
(16,((8,((13,(1,5)),((6,15),(4,(2,7))))),(11,((3,14),(10,(9,12))))));
(16,(((13,(6,15)),(8,((1,5),(7,(2,4))))),(11,((3,14),(9,(10,12))))));
(16,((1,(8,(13,((6,(5,15)),(7,(2,4)))))),(11,((3,14),(9,(10,12))))));
(16,((8,((1,5),((6,15),(13,(7,(2,4)))))),(11,((3,14),(9,(10,12))))));
(16,((8,(5,((7,((6,15),(2,4))),(1,13)))),(11,((3,14),(9,(10,12))))));
(16,((8,(((6,15),(7,(2,4))),(13,(1,5)))),(11,((3,14),(9,(10,12))))));
(16,((8,((5,13),(15,((7,(2,4)),(1,6))))),(11,((3,14),(9,(10,12))))));
(16,((8,((1,(7,(2,4))),((6,15),(5,13)))),(11,((3,14),(9,(10,12))))));
(16,((8,((13,(1,5)),((6,15),(7,(2,4))))),(11,((3,14),(9,(10,12))))));
(16,(11,((8,((7,(2,4)),((6,(5,15)),(1,13)))),((3,14),(10,(9,12))))));
(16,((8,((2,4),(7,((6,15),(13,(1,5)))))),(11,((3,14),(9,(10,12))))));
(16,((8,(13,((4,(2,7)),((6,15),(1,5))))),(11,((3,14),(9,(10,12))))));
(16,((8,((13,(1,5)),((6,15),(7,(2,4))))),(11,((3,14),(9,(10,12))))));
(16,((1,(8,(13,((6,(5,15)),(7,(2,4)))))),(11,((3,14),(9,(10,12))))));
(16,((8,((7,((2,4),(6,15))),(13,(1,5)))),(11,((3,14),(9,(10,12))))));
(16,((((6,15),(13,(1,5))),(8,(7,(2,4)))),(11,((3,14),(9,(10,12))))));
(16,((8,(((1,5),(7,(2,4))),(13,(6,15)))),(11,((3,14),(9,(10,12))))));
(16,((8,(13,((6,15),((7,(2,4)),(1,5))))),(11,((3,14),(12,(9,10))))));
(16,((((7,(2,4)),((6,15),(1,5))),(8,13)),(11,((9,(10,12)),(3,14)))));
(16,((((1,5),(13,(4,(2,7)))),(8,(6,15))),(11,((3,14),(9,(10,12))))));
(16,((8,((7,(2,4)),((6,15),(13,(1,5))))),(11,((3,14),(9,(10,12))))));
(16,((8,(1,((6,15),(5,(13,(7,(2,4))))))),(11,((3,14),(12,(9,10))))));
(16,((((5,(6,15)),(7,(2,4))),(8,(1,13))),(11,((3,14),(9,(10,12))))));
(16,(((3,14),(10,(9,12))),(11,(8,(((1,5),(2,4)),(7,(13,(6,15))))))));
(16,((8,((13,(1,5)),(4,((6,15),(2,7))))),(11,((3,14),(9,(10,12))))));
(16,((13,(8,((1,5),(2,((6,15),(4,7)))))),(11,((3,14),(9,(10,12))))));
(16,((8,(7,((6,15),(5,(13,(1,(2,4))))))),(11,((3,14),(9,(10,12))))));
(16,((8,((6,15),((1,5),(7,(13,(2,4)))))),(11,(10,((9,12),(3,14))))));
(16,(((3,14),(9,(10,12))),(11,(8,((5,13),(1,((6,15),(7,(2,4)))))))));
(16,(11,(((3,14),(9,(10,12))),(8,(7,((1,5),(13,((6,15),(2,4)))))))));
(16,(((3,14),(9,(10,12))),(11,((6,(13,(1,5))),(8,(15,(7,(2,4))))))));
(16,((8,(1,((6,(5,15)),(7,(13,(2,4)))))),(11,((3,14),(9,(10,12))))));
(16,((8,((1,13),((7,(2,4)),(5,(6,15))))),(11,((3,14),(9,(10,12))))));
(16,((8,(13,((1,5),(7,((2,4),(6,15)))))),(11,((3,14),(9,(10,12))))));
(16,((8,((13,(1,5)),((6,15),(7,(2,4))))),(11,(9,((10,12),(3,14))))));
(16,((8,(1,((6,15),((7,(2,4)),(5,13))))),(11,((3,14),(10,(9,12))))));
(16,((8,((5,(6,15)),((7,(2,4)),(1,13)))),(11,((9,(10,12)),(3,14)))));
(16,((8,((6,15),((4,(2,7)),(13,(1,5))))),(11,((3,14),(9,(10,12))))));
(16,((8,((1,13),((2,4),(7,(6,(5,15)))))),(11,((3,14),(12,(9,10))))));
(16,((8,((1,5),(13,((2,4),(7,(6,15)))))),(11,((3,14),(9,(10,12))))));
(16,((8,((13,(1,5)),(7,((2,4),(6,15))))),(11,((3,14),(10,(9,12))))));
(16,((8,(((6,15),(7,(2,4))),(13,(1,5)))),(11,((3,14),(9,(10,12))))));
(16,(((13,(1,5)),(8,((6,15),(7,(2,4))))),(11,((3,14),(12,(9,10))))));
(16,((8,((7,(2,4)),((5,(6,15)),(1,13)))),(11,(9,((3,14),(10,12))))));
(16,(((5,(13,(1,15))),(8,(6,(7,(2,4))))),(11,((3,14),(9,(10,12))))));
(16,((8,(7,(13,((1,5),((6,15),(2,4)))))),(11,((3,14),(10,(9,12))))));
(16,((8,((7,(2,4)),((6,15),(13,(1,5))))),(11,((3,14),(9,(10,12))))));
(16,((8,((13,(1,5)),(2,((6,15),(4,7))))),(11,((3,14),(9,(10,12))))));
(16,((8,((1,(6,(5,15))),(13,(7,(2,4))))),(11,((3,14),(12,(9,10))))));
(16,(11,(((3,14),(9,(10,12))),((1,(7,((2,4),(6,(5,15))))),(8,13)))));
(16,(11,(((3,14),(12,(9,10))),(8,((1,((15,(5,6)),(4,7))),(2,13))))));
(16,(((3,14),(10,(9,12))),(11,(8,(((6,15),(1,5)),(13,(7,(2,4))))))));
(16,(((3,14),(9,(10,12))),(11,(8,((4,(2,7)),((6,15),(13,(1,5))))))));
(16,((8,((13,(1,5)),((2,7),(4,(6,15))))),(11,((3,14),(9,(10,12))))));
(16,(((3,14),(9,(10,12))),(11,((1,13),(8,((2,4),(7,(6,(5,15)))))))));
(16,((8,(((6,15),(1,5)),(13,(7,(2,4))))),(11,((9,(10,12)),(3,14)))));
(16,(((3,14),(9,(10,12))),(11,(8,(((6,15),(7,(2,4))),(13,(1,5)))))));
(16,((8,((2,(4,7)),((6,15),(13,(1,5))))),(11,((3,14),(9,(10,12))))));
(16,((8,((6,15),((1,5),(13,(7,(2,4)))))),(11,((3,14),(9,(10,12))))));
(16,((8,(5,(((6,15),(1,13)),(4,(2,7))))),(11,((3,14),(9,(10,12))))));
(16,((8,((7,(2,4)),((6,15),(13,(1,5))))),(11,((3,14),(12,(9,10))))));
(16,((8,(7,(13,((1,5),((6,15),(2,4)))))),(11,((3,14),(9,(10,12))))));
(16,((8,((5,13),(1,((6,15),(7,(2,4)))))),(11,((3,14),(9,(10,12))))));
(16,((8,(((2,4),(1,5)),(13,(7,(6,15))))),(11,((3,14),(10,(9,12))))));
(16,(11,(((3,14),(12,(9,10))),(8,(((6,15),(7,(2,4))),(13,(1,5)))))));
(16,(((8,((6,15),(7,(2,4)))),(13,(1,5))),(11,((3,14),(10,(9,12))))));
(16,(((3,14),(9,(10,12))),(11,(8,((1,5),(13,((6,15),(7,(2,4)))))))));
(16,((8,((7,(2,4)),((6,15),(5,(1,13))))),(11,((3,14),(9,(10,12))))));
(16,((8,((6,15),((1,5),(13,(2,(4,7)))))),(11,((3,14),(10,(9,12))))));
(16,((8,((4,7),(13,((1,5),(2,(6,15)))))),(11,((3,14),(9,(10,12))))));
(16,((8,((1,5),(13,((6,15),(7,(2,4)))))),(11,((3,14),(12,(9,10))))));
(16,((8,((5,(6,15)),((7,(2,4)),(1,13)))),(11,((3,14),(10,(9,12))))));
(16,(((7,(2,4)),(8,((6,(5,15)),(1,13)))),(11,((3,14),(9,(10,12))))));
(16,((8,((6,15),((7,(2,4)),(13,(1,5))))),(11,((3,14),(9,(10,12))))));
(16,((8,((2,4),((1,5),(13,(7,(6,15)))))),(11,((3,14),(12,(9,10))))));
(16,((8,((1,5),(13,((6,15),(7,(2,4)))))),(11,((3,14),(10,(9,12))))));
(16,((8,((6,15),((4,(2,7)),(13,(1,5))))),(11,((3,14),(9,(10,12))))));
(16,((8,((13,(1,5)),((6,15),(2,(4,7))))),(11,((3,14),(9,(10,12))))));
(16,((8,(13,(1,((6,(5,15)),(4,(2,7)))))),(11,((3,14),(10,(9,12))))));
(16,((8,((7,(2,4)),(13,((6,15),(1,5))))),(11,((3,14),(10,(9,12))))));
(16,((8,((2,4),((7,(6,15)),(13,(1,5))))),(11,((3,14),(9,(10,12))))));
(16,(((15,(6,(2,4))),(8,(7,(13,(1,5))))),(11,((3,14),(9,(10,12))))));
(16,(((7,(2,4)),(8,((1,5),(13,(6,15))))),(11,((3,14),(9,(10,12))))));
(16,((8,((13,(1,5)),((6,15),(7,(2,4))))),(11,((10,12),(9,(3,14))))));
(16,((8,(((2,4),(1,5)),(13,(7,(6,15))))),(11,((3,14),(9,(10,12))))));
(16,(11,((8,(7,(((6,15),(2,4)),(13,(1,5))))),((3,14),(9,(10,12))))));
(16,((3,14),((8,((7,(1,5)),((6,15),(13,(2,4))))),(11,(9,(10,12))))));
(16,((8,((6,15),((7,(2,4)),(13,(1,5))))),(11,((3,14),(12,(9,10))))));
(16,(((3,14),(9,(10,12))),(11,(8,((6,15),(1,((5,13),(4,(2,7)))))))));
(16,((((6,15),(4,(2,7))),(8,(5,(1,13)))),(11,((3,14),(10,(9,12))))));
(16,((8,((7,(6,15)),(13,((2,4),(1,5))))),(11,((3,14),(9,(10,12))))));
(16,((8,(((1,5),(2,7)),((6,15),(4,13)))),(11,((3,14),(9,(10,12))))));
(16,(11,((8,(13,((1,5),((6,15),(7,(2,4)))))),((3,14),(12,(9,10))))));
(16,((8,(((6,15),(7,(2,4))),(13,(1,5)))),(11,((3,14),(9,(10,12))))));
(16,((8,((6,15),((7,(2,4)),(13,(1,5))))),(11,((3,14),(9,(10,12))))));
(16,(((3,14),(9,(10,12))),(11,(8,((13,(1,5)),((6,15),(7,(2,4))))))));
(16,(11,(((1,(5,13)),(8,((6,15),(7,(2,4))))),((3,14),(9,(10,12))))));
(16,((8,((13,(1,5)),((6,15),(7,(2,4))))),(11,((3,14),(9,(10,12))))));
(16,((8,((2,4),((13,(1,5)),(7,(6,15))))),(11,(12,((3,14),(9,10))))));
(16,((8,((7,(2,4)),(13,(1,(5,(6,15)))))),(11,((3,14),(9,(10,12))))));
(16,((8,(((6,15),(2,4)),(7,(13,(1,5))))),(11,((3,14),(9,(10,12))))));
(16,((8,((13,(2,4)),(1,(5,(7,(6,15)))))),(11,((12,(9,10)),(3,14)))));
(16,((8,((5,7),((1,13),((6,15),(2,4))))),(11,((3,14),(9,(10,12))))));
(16,((11,((3,14),(9,(10,12)))),((1,13),(8,(6,(7,((5,15),(2,4))))))));
(16,((8,((13,(1,5)),((6,15),(7,(2,4))))),(11,((3,14),(10,(9,12))))));
(16,((8,((7,(2,4)),((6,15),(13,(1,5))))),(11,((3,14),(12,(9,10))))));
(16,((8,(7,((13,(1,5)),((6,15),(2,4))))),(11,((3,14),(12,(9,10))))));
(16,((8,(((1,5),(7,(2,4))),(13,(6,15)))),(11,((3,14),(10,(9,12))))));
(16,((11,(3,14)),((9,(10,12)),(8,((7,(2,4)),(13,(15,(6,(1,5)))))))));
(16,((8,(((7,(5,6)),(15,(2,4))),(1,13))),(11,((3,9),(14,(10,12))))));
(16,((8,(((5,(6,15)),(7,(2,4))),(1,13))),(11,((3,14),(9,(10,12))))));
(16,((8,((7,(2,4)),((6,15),(1,(5,13))))),(11,((3,14),(9,(10,12))))));
(16,((8,((13,(1,5)),((6,15),(7,(2,4))))),(11,((3,14),(9,(10,12))))));
(16,((8,(7,((13,(1,5)),((2,4),(6,15))))),(11,((3,14),(12,(9,10))))));
(16,((8,((13,(1,5)),((6,15),(7,(2,4))))),(11,((3,14),(9,(10,12))))));
(16,((8,((6,15),((7,(2,4)),(13,(1,5))))),(11,((3,14),(9,(10,12))))));
(16,((8,((6,15),((7,(2,4)),(13,(1,5))))),(11,(3,(14,(9,(10,12)))))));
(16,((8,((6,15),((7,(2,4)),(13,(1,5))))),(11,((3,14),(9,(10,12))))));
(16,(11,(((10,12),(9,(3,14))),(8,((1,5),(13,((6,15),(4,(2,7)))))))));
(16,((8,((1,13),(7,((6,(5,15)),(2,4))))),(11,((3,14),(9,(10,12))))));
(16,((8,(5,(1,(13,((6,15),(7,(2,4))))))),(11,((3,14),(9,(10,12))))));
(16,((8,((5,13),((7,(2,4)),(1,(6,15))))),(11,((3,14),(10,(9,12))))));
(16,((8,(13,((15,(7,(2,4))),(6,(1,5))))),(11,((12,(9,10)),(3,14)))));
(16,(((13,(1,5)),(8,((6,15),(7,(2,4))))),(11,((3,14),(10,(9,12))))));
(16,((13,(8,((1,5),((2,4),(7,(6,15)))))),(11,((3,14),(12,(9,10))))));
(16,((8,(((1,5),((6,15),(4,7))),(2,13))),(11,((3,14),(9,(10,12))))));
(16,((8,(13,((1,5),(7,((6,15),(2,4)))))),(11,((3,14),(9,(10,12))))));
(16,((8,((7,(2,4)),((1,5),(13,(6,15))))),(11,((9,(10,12)),(3,14)))));
(16,((8,((6,15),(13,((5,(2,4)),(1,7))))),(11,((3,14),(9,(10,12))))));
(16,((8,(5,(((6,15),(2,7)),(4,(1,13))))),(11,((3,14),(9,(10,12))))));
(16,((8,(13,((1,5),((6,15),(7,(2,4)))))),(11,((3,14),(10,(9,12))))));
(16,(((5,8),((6,15),(1,(13,(7,(2,4)))))),(11,((3,14),(10,(9,12))))));
(16,((((6,15),(2,4)),(8,((1,5),(7,13)))),(11,((3,14),(9,(10,12))))));
(16,(((3,14),(9,(10,12))),(11,(8,(7,((6,(5,15)),((2,4),(1,13))))))));
(16,((((6,15),(1,5)),(8,(13,(7,(2,4))))),(11,((3,14),(10,(9,12))))));
(16,((8,((5,(2,4)),((1,13),(7,(6,15))))),(11,((3,14),(9,(10,12))))));
(16,((8,((13,(1,5)),((7,(2,4)),(6,15)))),(11,((3,14),(9,(10,12))))));
(16,((((2,4),(13,(1,5))),(8,(7,(6,15)))),(11,((3,14),(12,(9,10))))));
(16,((8,(13,((1,5),((6,15),(7,(2,4)))))),(11,((3,14),(9,(10,12))))));
(16,((8,(((6,15),(5,(7,(2,4)))),(1,13))),(11,((3,14),(9,(10,12))))));
(16,((((6,15),(7,(2,4))),(8,(13,(1,5)))),(11,((3,14),(12,(9,10))))));
(16,((8,((6,15),((2,(4,7)),(13,(1,5))))),(11,((3,14),(9,(10,12))))));
(16,((8,(13,((1,5),((6,15),(7,(2,4)))))),(11,((3,14),(9,(10,12))))));
(16,(((3,14),(10,(9,12))),(11,(8,((1,5),((6,15),(13,(7,(2,4)))))))));
(16,((8,((6,(5,15)),((7,(2,4)),(1,13)))),(11,((3,14),(9,(10,12))))));
(16,((((6,(5,15)),(1,(2,7))),(8,(4,13))),(11,((3,14),(9,(10,12))))));
(16,((8,((7,(2,4)),((6,15),(13,(1,5))))),(11,((3,14),(9,(10,12))))));
(16,((8,((1,5),(13,((6,15),(7,(2,4)))))),(11,((3,14),(10,(9,12))))));
(16,((8,((6,(2,15)),(4,(7,(13,(1,5)))))),(11,((9,(10,12)),(3,14)))));
(16,(((3,14),(9,(10,12))),(11,(8,((5,13),((6,15),(1,(7,(2,4)))))))));
(16,((8,((1,5),(13,((2,4),(7,(6,15)))))),(11,((3,14),(9,(10,12))))));
(16,(((3,14),(9,(10,12))),(11,(8,((6,15),((1,5),(13,(7,(2,4)))))))));
(16,((11,((3,14),(9,(10,12)))),(8,((7,(2,4)),((1,5),(13,(6,15)))))));
(16,((8,((13,(1,5)),((6,15),(2,(4,7))))),(11,((9,(10,12)),(3,14)))));
(16,(11,((8,(((2,4),(1,5)),(13,(7,(6,15))))),((3,14),(9,(10,12))))));
(16,((8,((7,(2,4)),((1,5),(13,(6,15))))),(11,((3,14),(10,(9,12))))));
(16,((8,(13,((1,5),((6,15),(7,(2,4)))))),(11,((3,14),(10,(9,12))))));
(16,((8,(((6,15),(7,(2,4))),(13,(1,5)))),(11,((3,14),(9,(10,12))))));
(16,((8,(1,((5,15),((7,(2,4)),(6,13))))),(11,((3,14),(10,(9,12))))));
(16,((((7,(2,4)),((6,15),(1,5))),(8,13)),(11,((3,14),(9,(10,12))))));
(16,(((7,(2,4)),(8,((6,15),(13,(1,5))))),(11,((9,(10,12)),(3,14)))));
(16,((8,((2,(6,15)),((4,7),(13,(1,5))))),(11,((3,14),(10,(9,12))))));
(16,((8,((1,5),((7,(6,15)),(13,(2,4))))),(11,((10,12),(9,(3,14))))));
(16,((8,((13,(1,5)),((2,4),(7,(6,15))))),(11,((12,(9,10)),(3,14)))));
(16,((8,(((4,7),(2,(6,15))),(13,(1,5)))),(11,((3,14),(9,(10,12))))));
(16,(((7,13),(8,((2,4),((6,15),(1,5))))),(11,((3,14),(9,(10,12))))));
(16,((8,((13,(1,5)),((6,15),(2,(4,7))))),(11,((3,14),(9,(10,12))))));
(16,((8,(13,((1,5),((6,15),(7,(2,4)))))),(11,((3,14),(9,(10,12))))));
(16,((8,((2,4),((6,15),(7,(13,(1,5)))))),(11,((14,(9,10)),(3,12)))));
(16,((((1,5),(7,((2,4),(6,15)))),(8,13)),(11,((3,14),(9,(10,12))))));
(16,((8,(13,((7,(2,4)),((6,15),(1,5))))),(11,((3,14),(9,(10,12))))));
(16,((8,(13,((1,5),((6,15),(4,(2,7)))))),(11,((3,14),(9,(10,12))))));
(16,((8,((13,(1,5)),((6,15),(7,(2,4))))),(11,((3,14),(9,(10,12))))));
(16,((8,(((1,5),(7,(2,4))),(6,(13,15)))),((9,(3,14)),(11,(10,12)))));
(16,(11,(((6,15),(8,((7,(2,4)),(13,(1,5))))),((3,14),(12,(9,10))))));
(16,((8,(((6,(5,15)),(7,(2,4))),(1,13))),(11,((3,14),(9,(10,12))))));
(16,((8,((1,7),((5,13),((2,4),(6,15))))),(11,((3,14),(9,(10,12))))));
(16,(11,(((12,(9,10)),(3,14)),(8,((1,(2,4)),(13,(7,(15,(5,6)))))))));
(16,(11,((8,(13,((5,(6,15)),(1,(7,(2,4)))))),((3,14),(9,(10,12))))));
(16,((8,((13,(2,4)),((1,5),(7,(6,15))))),(11,((3,14),(9,(10,12))))));
(16,(((12,(9,10)),(3,14)),(11,(8,(1,((6,(5,15)),(13,(7,(2,4)))))))));
(16,(((13,((1,5),(7,(2,4)))),(8,(6,15))),(11,((3,14),(9,(10,12))))));
(16,((8,(13,((6,15),((7,(2,4)),(1,5))))),(11,((3,14),(10,(9,12))))));
(16,((8,(((6,15),(13,(2,4))),(7,(1,5)))),(11,((3,14),(9,(10,12))))));
(16,((8,(7,((6,15),((1,5),(13,(2,4)))))),(11,((3,14),(9,(10,12))))));
(16,((8,(13,((7,(2,4)),(1,(6,(5,15)))))),(11,((3,14),(9,(10,12))))));
(16,((8,((7,(2,4)),((6,15),(13,(1,5))))),(11,((3,14),(10,(9,12))))));
(16,((8,(((2,4),(7,(6,15))),(13,(1,5)))),(11,((3,14),(9,(10,12))))));
(16,((8,(((6,15),(1,5)),(13,(7,(2,4))))),(11,((3,14),(9,(10,12))))));
(16,((8,((1,13),((6,(5,15)),(7,(2,4))))),(11,((3,14),(9,(10,12))))));
(16,(11,(((3,14),(9,(10,12))),(8,(7,((1,13),((2,4),(5,(6,15)))))))));
(16,((8,((1,5),(13,((2,4),(7,(6,15)))))),(11,(12,((9,10),(3,14))))));
(16,((8,(((6,15),(7,(2,4))),(13,(1,5)))),(11,((3,14),(9,(10,12))))));
(16,(((13,((7,15),(6,(2,4)))),(8,(1,5))),(11,((3,14),(9,(10,12))))));
(16,(11,((((1,5),((2,4),(13,(6,15)))),(7,8)),((3,14),(9,(10,12))))));
(16,(((3,14),(9,(10,12))),(11,(8,((13,(1,5)),((6,15),(7,(2,4))))))));
(16,((8,(13,((7,(2,4)),((6,15),(1,5))))),(11,((3,14),(9,(10,12))))));
(16,((8,((1,5),((6,15),(13,(7,(2,4)))))),(11,((3,14),(9,(10,12))))));
(16,((10,(9,12)),((8,((1,5),(13,(7,((6,15),(2,4)))))),(11,(3,14)))));
(16,((8,((1,5),(13,((6,15),(7,(2,4)))))),(11,((3,14),(9,(10,12))))));
(16,((8,((6,15),((7,(2,4)),(13,(1,5))))),(11,((3,14),(9,(10,12))))));
(16,((8,(((6,15),(7,(2,4))),(13,(1,5)))),(11,((3,14),(10,(9,12))))));
(16,((8,((1,13),(5,((6,15),(7,(2,4)))))),(11,((3,14),(12,(9,10))))));
(16,((8,((15,(7,(2,4))),(6,(13,(1,5))))),(11,((3,14),(10,(9,12))))));
(16,((8,((7,(2,4)),((6,15),(13,(1,5))))),(11,((3,14),(10,(9,12))))));
(16,((8,((13,(1,5)),((6,15),(7,(2,4))))),(11,((3,14),(9,(10,12))))));
(16,(((9,(10,12)),(3,14)),(11,(8,(((6,15),(7,(2,4))),(1,(5,13)))))));
(16,((8,(((6,15),(7,(2,4))),(13,(1,5)))),((3,14),(11,(10,(9,12))))));
(16,(11,(((3,14),(9,(10,12))),(8,(((2,4),(6,15)),(13,(7,(1,5))))))));
(16,((8,((6,15),((1,5),(13,(7,(2,4)))))),(11,((9,(10,12)),(3,14)))));
(16,(11,((8,(1,((6,((5,15),(2,4))),(7,13)))),((3,14),(10,(9,12))))));
(16,((8,((1,5),((6,15),(13,(7,(2,4)))))),(11,((3,14),(9,(10,12))))));
(16,((8,(13,((1,5),(7,((6,15),(2,4)))))),(11,((3,14),(9,(10,12))))));
(16,((8,((2,4),((6,15),(7,(13,(1,5)))))),(11,((10,12),(9,(3,14))))));
(16,((8,(((6,15),(2,4)),((1,5),(7,13)))),(11,((3,14),(9,(10,12))))));
(16,((8,(((15,(5,6)),(2,(4,7))),(1,13))),(11,((3,14),(10,(9,12))))));
(16,(((3,14),(12,(9,10))),(11,(8,(((1,5),((6,15),(2,4))),(7,13))))));
(16,((8,(((1,5),(6,15)),((4,7),(2,13)))),(11,((3,14),(9,(10,12))))));
(16,((8,((13,(1,5)),((6,15),(7,(2,4))))),(11,((3,14),(10,(9,12))))));
(16,(11,(((3,14),(10,(9,12))),(8,((1,5),((6,15),(13,(7,(2,4)))))))));
(16,((((2,7),(4,(6,15))),(8,(13,(1,5)))),(11,((9,10),(12,(3,14))))));
(16,(11,(((1,5),(8,(13,((2,4),(7,(6,15)))))),((3,14),(9,(10,12))))));
(16,((8,((15,((5,6),(7,(2,4)))),(1,13))),(11,((9,(10,12)),(3,14)))));
(16,(11,(((3,14),(9,(10,12))),(8,((7,(2,4)),((6,15),(13,(1,5))))))));
(16,((11,((3,14),(9,(10,12)))),(8,((7,(2,4)),((1,5),(13,(6,15)))))));
(16,((8,((1,5),((6,15),(13,(7,(2,4)))))),(11,((3,14),(9,(10,12))))));
(16,(((3,14),(10,(9,12))),(11,(8,((13,(1,5)),((6,15),(7,(2,4))))))));
(16,((8,((5,13),(1,((6,15),(7,(2,4)))))),(11,((3,14),(9,(10,12))))));
(16,((8,(7,((6,15),((2,4),(13,(1,5)))))),(11,((3,14),(12,(9,10))))));
(16,(((4,(2,7)),(8,((1,5),(13,(6,15))))),(11,((3,14),(9,(10,12))))));
(16,((8,((2,(4,7)),(1,(13,(6,(5,15)))))),(11,((3,14),(10,(9,12))))));
(16,((8,(7,((1,13),((5,(6,15)),(2,4))))),(11,((3,14),(9,(10,12))))));
(16,((8,((13,(1,5)),((6,15),(7,(2,4))))),(11,((9,(10,12)),(3,14)))));
(16,((8,(13,((6,(5,15)),(1,(7,(2,4)))))),(11,((3,14),(9,(10,12))))));
(16,((8,(((6,15),(2,(4,7))),(13,(1,5)))),(11,((3,14),(9,(10,12))))));
(16,((((1,5),((6,15),(2,4))),(8,(7,13))),(11,((3,14),(9,(10,12))))));
(16,((((6,15),(13,(1,5))),(8,(7,(2,4)))),(11,((3,14),(9,(10,12))))));
(16,((8,((1,(7,(2,4))),(13,(5,(6,15))))),(11,((3,14),(9,(10,12))))));
(16,((8,(1,((5,7),(13,((6,15),(2,4)))))),(11,((3,14),(9,(10,12))))));
(16,((8,((1,5),((6,15),(13,(7,(2,4)))))),(11,((3,14),(9,(10,12))))));
(16,((8,((7,(6,15)),((1,5),(13,(2,4))))),(11,((3,14),(9,(10,12))))));
(16,((8,(((1,5),(7,(2,4))),(13,(6,15)))),(11,((3,14),(12,(9,10))))));
(16,((((2,4),(7,(6,15))),(8,(13,(1,5)))),(11,((3,14),(9,(10,12))))));
(16,((((7,(2,4)),(13,(1,5))),(8,(6,15))),(11,((3,14),(9,(10,12))))));
(16,((8,(13,((1,5),((6,15),(7,(2,4)))))),(11,((3,14),(9,(10,12))))));
(16,(((3,14),(12,(9,10))),(11,(8,(7,((2,4),((1,5),(13,(6,15)))))))));
(16,(11,(((3,14),(9,(10,12))),(8,((1,5),(((2,4),(6,15)),(7,13)))))));
(16,((8,(((6,15),(1,5)),(13,(2,(4,7))))),(11,((3,14),(9,(10,12))))));
(16,((8,(13,((1,5),((6,15),(7,(2,4)))))),(11,((3,14),(9,(10,12))))));
(16,((8,((7,(6,(5,15))),((2,4),(1,13)))),(11,((3,14),(9,(10,12))))));
(16,((8,(6,(5,15))),(((7,(2,4)),(1,13)),(11,(9,((10,12),(3,14)))))));
(16,((8,(((1,5),(2,4)),(13,(7,(6,15))))),(11,((3,14),(9,(10,12))))));
(16,((((1,5),(13,(7,(6,15)))),(8,(2,4))),(11,((3,14),(9,(10,12))))));
(16,(11,(((3,14),(10,(9,12))),((13,(7,((2,4),(6,15)))),(8,(1,5))))));
(16,((8,((6,15),((1,5),(13,(7,(2,4)))))),(11,((3,14),(9,(10,12))))));
(16,((8,(((6,15),(2,7)),(4,(13,(1,5))))),(11,((3,14),(12,(9,10))))));
(((11,((3,14),(9,(10,12)))),(8,(((6,15),(7,(2,4))),(13,(1,5))))),16);
(16,((((6,15),(13,(2,4))),(8,(7,(1,5)))),(11,((3,14),(9,(10,12))))));
(16,((8,(((6,15),(7,(2,4))),(13,(1,5)))),(11,((3,14),(9,(10,12))))));
(16,(((3,14),(10,(9,12))),(11,(8,(((2,4),(7,(6,(5,15)))),(1,13))))));
(16,((8,((13,(1,5)),((6,15),(2,(4,7))))),((3,14),(11,(9,(10,12))))));
(16,((8,((13,(1,5)),((6,15),(7,(2,4))))),(11,((3,14),(9,(10,12))))));
(16,((((13,(1,5)),((2,4),(6,15))),(7,8)),(11,((3,14),(9,(10,12))))));
(16,((8,(7,((1,5),((2,4),(13,(6,15)))))),(11,((3,14),(9,(10,12))))));
(16,(11,((8,(((5,13),(6,(7,(2,4)))),(1,15))),((3,14),(9,(10,12))))));
(16,((8,(13,((6,(5,15)),(1,(7,(2,4)))))),(11,((3,14),(10,(9,12))))));
(16,((8,((2,4),(13,((1,5),(7,(6,15)))))),(11,((3,14),(9,(10,12))))));
(16,((8,(((6,15),(7,(2,4))),(13,(1,5)))),(11,((3,14),(12,(9,10))))));
(16,((8,(1,(13,((6,(5,15)),(7,(2,4)))))),(11,((3,14),(9,(10,12))))));
(16,((8,((1,5),(13,((6,15),(7,(2,4)))))),(11,((3,14),(9,(10,12))))));
(16,((8,((1,(5,13)),((6,15),(7,(2,4))))),((9,(10,12)),(11,(3,14)))));
(16,((8,((1,5),(13,((6,15),(7,(2,4)))))),(11,((3,14),(9,(10,12))))));
(16,((8,((7,(2,4)),((1,5),(13,(6,15))))),(11,((3,14),(9,(10,12))))));
(16,((8,(((6,15),(2,(4,7))),(13,(1,5)))),(11,((3,14),(9,(10,12))))));
(16,((8,((6,(4,(2,7))),(15,(13,(1,5))))),(11,(12,((3,14),(9,10))))));
(16,(((7,(2,4)),(8,((1,5),(13,(6,15))))),(11,((3,14),(9,(10,12))))));
(16,((8,(((6,15),(2,4)),(7,(13,(1,5))))),(11,((3,14),(9,(10,12))))));
(16,(((1,(6,(15,(5,(7,(2,4)))))),(8,13)),(11,((3,14),(9,(10,12))))));
(16,((8,(13,(((6,15),(1,5)),(7,(2,4))))),(11,(10,((3,14),(9,12))))));
(16,((8,((7,(2,4)),((6,15),(13,(1,5))))),(11,((3,14),(12,(9,10))))));
(16,((8,((7,(6,15)),(13,((2,4),(1,5))))),((12,(9,10)),(11,(3,14)))));
(16,((8,(7,((6,15),((1,(2,4)),(5,13))))),(11,((3,14),(10,(9,12))))));
(16,((8,(13,((1,5),((6,15),(7,(2,4)))))),(11,((3,14),(10,(9,12))))));
(16,(11,(((3,14),(9,(10,12))),(8,((2,(4,7)),((6,(5,15)),(1,13)))))));
(16,((8,((7,(2,4)),(5,((6,15),(1,13))))),(11,((3,14),(9,(10,12))))));
(16,(((3,14),(9,(10,12))),(11,(8,(((2,4),(7,(1,5))),(13,(6,15)))))));
(16,((8,(((2,4),(6,15)),(7,(13,(1,5))))),(11,((3,14),(9,(10,12))))));
(16,((8,(((6,15),(1,5)),(13,(4,(2,7))))),(11,((3,14),(12,(9,10))))));
(16,((((7,(2,4)),(13,(1,5))),(8,(6,15))),(11,(9,((3,14),(10,12))))));
(16,((8,(7,(1,((2,4),(13,(6,(5,15))))))),(11,((3,14),(9,(10,12))))));
(16,((8,(7,(((6,15),(1,5)),(13,(2,4))))),(11,((3,14),(9,(10,12))))));
(16,((8,((7,(2,4)),((6,(5,15)),(1,13)))),(11,((3,14),(10,(9,12))))));
(16,(((13,(1,5)),(8,((6,15),(7,(2,4))))),(11,((3,14),(9,(10,12))))));
(16,((8,((1,5),(13,((6,15),(7,(2,4)))))),(11,((3,14),(10,(9,12))))));
(16,((((13,(1,5)),((2,4),(6,15))),(7,8)),(11,((3,14),(9,(10,12))))));
(16,((8,((1,5),(13,((6,15),(7,(2,4)))))),(11,((3,14),(9,(10,12))))));
(16,(((3,14),(9,(10,12))),(11,(8,((13,(15,(5,6))),(1,(7,(2,4))))))));
(16,((8,(((2,7),(4,(6,15))),(13,(1,5)))),(11,((3,14),(12,(9,10))))));
(16,(((3,14),(9,(10,12))),(11,((7,((2,4),(13,(1,5)))),(8,(6,15))))));
(16,((8,(((4,7),(2,(6,15))),(1,(5,13)))),(11,((3,14),(9,(10,12))))));
(16,((8,(((6,15),(7,(2,4))),(13,(1,5)))),(11,((3,14),(9,(10,12))))));
(16,((8,((13,(1,5)),((6,15),(7,(2,4))))),(11,((3,14),(9,(10,12))))));
(16,((((6,15),(13,(1,5))),(8,(7,(2,4)))),(11,((3,14),(9,(10,12))))));
(16,((11,((3,14),(9,(10,12)))),(8,((6,15),((7,(2,4)),(13,(1,5)))))));
(16,(((7,(2,4)),(8,(13,((6,15),(1,5))))),(11,((3,14),(9,(10,12))))));
(16,((8,((4,((6,15),(2,7))),(13,(1,5)))),(11,((3,14),(9,(10,12))))));
(16,((8,(13,(1,((6,(5,15)),(7,(2,4)))))),(11,((3,14),(10,(9,12))))));
(16,((8,((13,(6,15)),((1,5),(7,(2,4))))),(11,((3,14),(9,(10,12))))));
(16,((8,(((6,15),(2,(4,7))),(13,(1,5)))),(11,(3,(14,(9,(10,12)))))));
(16,((8,(1,(13,((6,(5,15)),(4,(2,7)))))),(11,((3,14),(10,(9,12))))));
(16,((8,(13,((2,4),((1,5),(7,(6,15)))))),(11,((3,14),(9,(10,12))))));
(16,((8,((13,(1,5)),((6,15),(7,(2,4))))),(11,((3,14),(9,(10,12))))));
(16,((8,((7,(2,4)),((6,(5,15)),(1,13)))),(11,((3,14),(10,(9,12))))));
(16,(11,(((3,14),(9,(10,12))),((15,(6,(7,(2,4)))),(8,(13,(1,5)))))));
(16,((8,((1,5),((2,4),(13,(7,(6,15)))))),(11,((3,14),(9,(10,12))))));
(16,((8,((6,15),((2,4),((7,13),(1,5))))),(11,((3,14),(9,(10,12))))));
(16,((8,((5,(6,15)),(1,(13,(7,(2,4)))))),(11,((3,14),(9,(10,12))))));
(16,((8,(6,((7,(2,4)),(15,(13,(1,5)))))),(11,((3,14),(9,(10,12))))));
(16,((8,((7,(2,4)),((6,(5,15)),(1,13)))),(11,(9,((3,14),(10,12))))));
(16,((8,((13,(1,5)),(2,((6,15),(4,7))))),(11,((3,14),(9,(10,12))))));
(16,((8,((4,(6,15)),((2,7),(13,(1,5))))),(11,((3,14),(9,(10,12))))));
(16,((8,(13,((1,5),((6,15),(7,(2,4)))))),(11,((3,14),(10,(9,12))))));
(16,(((3,14),(10,(9,12))),(11,(8,(((1,5),((6,15),(2,4))),(7,13))))));
(16,((((6,15),(1,5)),(8,((2,4),(7,13)))),(11,((3,14),(9,(10,12))))));
(16,((8,((6,(5,15)),(13,(1,(2,(4,7)))))),(11,((3,14),(9,(10,12))))));
(16,((8,((1,5),((6,15),(13,(4,(2,7)))))),((3,14),(11,(9,(10,12))))));
(16,((8,((13,(1,5)),((2,4),(7,(6,15))))),(11,((3,14),(9,(10,12))))));
(16,((8,((13,(7,(2,4))),((6,15),(1,5)))),(11,((3,14),(9,(10,12))))));
(16,((((6,15),(1,5)),(8,(13,(7,(2,4))))),(11,((3,14),(9,(10,12))))));
(16,((8,((6,15),(13,(5,(1,(7,(2,4))))))),(11,(14,(3,(12,(9,10)))))));
(16,(11,((((6,15),(7,(2,4))),(8,(13,(1,5)))),((9,(10,12)),(3,14)))));
(16,((8,((2,7),((4,(6,15)),(13,(1,5))))),(11,((3,14),(9,(10,12))))));
(16,((8,((6,15),(13,((1,5),(7,(2,4)))))),(11,((3,14),(9,(10,12))))));
(16,((8,((7,(2,4)),((1,5),(13,(6,15))))),(11,((3,14),(9,(10,12))))));
(16,((8,(((2,4),(13,(1,5))),(7,(6,15)))),(11,((3,14),(9,(10,12))))));
(16,(11,((8,(((6,15),(7,(2,4))),(13,(1,5)))),((3,14),(10,(9,12))))));
(16,(((3,14),(9,(10,12))),(11,((7,13),(8,((2,4),((1,5),(6,15))))))));
(16,((8,((5,(1,13)),((7,(2,4)),(6,15)))),(11,((3,14),(10,(9,12))))));
(16,((8,((2,(4,7)),((6,15),(13,(1,5))))),(11,((3,14),(9,(10,12))))));
(16,((8,((13,((2,4),(6,15))),(7,(1,5)))),(11,((3,14),(12,(9,10))))));
(16,((8,((6,15),((2,4),(7,(13,(1,5)))))),(11,((9,(10,12)),(3,14)))));
(16,((8,((7,13),((1,5),((2,4),(6,15))))),(11,((9,(10,12)),(3,14)))));
(16,(8,((((6,15),(7,(2,4))),(1,(5,13))),(11,((3,14),(9,(10,12)))))));
(16,((8,(((2,4),(6,15)),(7,(13,(1,5))))),(11,((9,(10,12)),(3,14)))));
(16,((8,((6,(5,15)),(13,(1,(7,(2,4)))))),(11,((3,14),(9,(10,12))))));
(16,((8,((13,(1,5)),((7,(2,4)),(6,15)))),(11,((3,14),(9,(10,12))))));
(16,((8,(1,(13,((2,7),(4,(6,(5,15))))))),(11,((3,14),(9,(10,12))))));
(16,(((12,(9,10)),(3,14)),(11,(8,(5,((1,13),((6,15),(7,(2,4)))))))));
(16,(11,(((9,10),(12,(3,14))),(8,((13,(1,5)),((6,15),(7,(2,4))))))));
(16,(((5,((2,4),(1,13))),(8,(7,(6,15)))),(11,((3,14),(9,(10,12))))));
(16,((8,(((6,15),(7,(2,4))),(13,(1,5)))),(11,((9,(10,12)),(3,14)))));
(16,((8,(13,((1,5),((6,15),(7,(2,4)))))),(11,((3,14),(9,(10,12))))));
(16,((8,((6,15),((7,(2,4)),(13,(1,5))))),(11,((3,14),(9,(10,12))))));
(16,((11,((3,14),(9,(10,12)))),(8,((13,(7,(2,4))),((6,15),(1,5))))));
(16,((8,((2,(4,(13,(6,15)))),(7,(1,5)))),(11,((3,14),(10,(9,12))))));
(16,((8,((4,(2,7)),((6,15),(1,(5,13))))),(11,((3,14),(9,(10,12))))));
(16,((8,(((6,15),(7,(2,4))),(13,(1,5)))),(11,((3,14),(10,(9,12))))));
(16,(((3,14),(12,(9,10))),(11,(8,((13,(1,5)),((6,15),(7,(2,4))))))));
(16,((8,((1,5),((6,15),(13,(2,(4,7)))))),(11,((9,(10,12)),(3,14)))));
(16,((8,(13,((1,5),((2,4),(7,(6,15)))))),(11,((3,14),(9,(10,12))))));
(16,((8,((1,13),((6,(2,7)),(4,(5,15))))),(11,((10,12),(9,(3,14))))));
(16,((8,((1,13),((15,(7,(2,4))),(5,6)))),(11,((9,(10,12)),(3,14)))));
(16,((8,((13,(1,5)),((6,15),(7,(2,4))))),(11,((3,14),(9,(10,12))))));
(16,((8,((6,15),((1,13),(5,(7,(2,4)))))),(11,((3,14),(9,(10,12))))));
(16,((8,((7,(2,4)),((6,15),(13,(1,5))))),((9,(10,12)),(11,(3,14)))));
(16,((8,((13,(1,5)),((2,4),(7,(6,15))))),(11,((3,14),(9,(10,12))))));
(16,(((3,14),(9,(10,12))),(11,(8,((13,(1,5)),((6,15),(7,(2,4))))))));
(16,((((6,15),(1,(7,(2,4)))),(8,(5,13))),(11,((3,14),(9,(10,12))))));
(16,((8,((13,(1,5)),((6,15),(7,(2,4))))),(11,((3,14),(12,(9,10))))));
(16,(((((6,15),(2,4)),(7,(1,5))),(8,13)),(11,((3,14),(10,(9,12))))));
(16,((8,(((1,5),((6,15),(4,7))),(2,13))),(11,((3,14),(12,(9,10))))));
(16,((8,((7,(2,4)),((6,15),(13,(1,5))))),(11,((3,14),(12,(9,10))))));
(16,((8,((13,(1,5)),((6,15),(2,(4,7))))),(11,((3,14),(12,(9,10))))));
(16,(((13,((6,15),(4,(2,7)))),(8,(1,5))),(11,((3,14),(9,(10,12))))));
(16,(((1,5),(8,(13,((6,15),(7,(2,4)))))),(11,((3,14),(10,(9,12))))));
(16,(((3,14),(9,(10,12))),(11,(8,((13,(1,5)),((6,15),(7,(2,4))))))));
(16,((8,((7,(2,4)),((6,15),(13,(1,5))))),(11,((3,14),(9,(10,12))))));
(16,(((1,15),(8,((5,6),(13,(7,(2,4)))))),(11,((3,14),(9,(10,12))))));
(16,((8,(13,((1,5),((6,15),(7,(2,4)))))),(11,((3,14),(9,(10,12))))));
(16,((8,((6,15),((1,13),(5,(7,(2,4)))))),(11,((3,14),(9,(10,12))))));
(16,((8,(13,((1,5),((6,15),(7,(2,4)))))),(11,((3,14),(12,(9,10))))));
(16,((8,((13,(1,5)),((6,15),(4,(2,7))))),(11,((3,14),(9,(10,12))))));
(16,(11,(((3,14),(9,(10,12))),(8,((13,(7,(6,15))),((2,4),(1,5)))))));
(16,((8,((7,((2,4),(6,15))),(5,(1,13)))),(11,((3,14),(10,(9,12))))));
(16,((13,(8,(7,(1,((2,4),(5,(6,15))))))),(11,((3,14),(9,(10,12))))));
(16,((8,(((6,15),(2,4)),(7,(13,(1,5))))),(11,(9,((3,14),(10,12))))));
(16,((8,(13,(7,((1,5),((6,15),(2,4)))))),(11,((3,14),(9,(10,12))))));
(16,((8,((1,5),((6,15),(13,(7,(2,4)))))),(11,((3,14),(12,(9,10))))));
(16,(((3,14),(9,(10,12))),(11,(8,(((6,15),(4,7)),((1,5),(2,13)))))));
(16,((8,((7,(6,15)),((2,4),(13,(1,5))))),(11,((3,14),(10,(9,12))))));
(16,((8,(13,((1,5),((6,15),(7,(2,4)))))),(11,((3,14),(9,(10,12))))));
(16,((8,((7,(2,4)),(13,(1,(5,(6,15)))))),(11,(12,((3,14),(9,10))))));
(16,(((1,5),(8,((2,(4,7)),(13,(6,15))))),(11,((3,14),(9,(10,12))))));
(16,((8,((1,13),((15,(5,6)),(7,(2,4))))),(11,((9,12),(10,(3,14))))));
(16,((8,((6,15),((4,(2,7)),(13,(1,5))))),(11,((3,14),(9,(10,12))))));
(16,((8,(13,((6,15),((1,5),(7,(2,4)))))),(11,((3,14),(9,(10,12))))));
(16,((8,(((6,15),(1,5)),(13,(4,(2,7))))),((9,(10,12)),(11,(3,14)))));
(16,((((2,4),(7,(6,15))),(8,(13,(1,5)))),(11,(14,(3,(9,(10,12)))))));
(16,(((3,14),(9,(10,12))),(11,(8,((2,(6,15)),((1,5),(13,(4,7))))))));
(16,((8,((13,(1,5)),((6,15),(7,(2,4))))),(11,((3,14),(9,(10,12))))));
(16,(((1,7),(8,(13,((6,(5,15)),(2,4))))),(11,((3,14),(9,(10,12))))));
(16,((8,((6,15),((7,(2,4)),(13,(1,5))))),(11,((10,12),(9,(3,14))))));
(16,((8,(13,((1,5),((6,15),(7,(2,4)))))),(11,((3,14),(9,(10,12))))));
(16,((8,((13,(1,5)),((6,15),(7,(2,4))))),(11,((3,14),(9,(10,12))))));
(16,((8,(13,((1,5),(7,((6,15),(2,4)))))),(11,((3,14),(9,(10,12))))));
(16,((11,(9,((3,14),(10,12)))),(8,((7,(2,4)),((6,15),(13,(1,5)))))));
(16,(((7,(6,15)),(8,((2,4),(13,(1,5))))),(11,((3,14),(9,(10,12))))));
(16,((8,(((4,6),(13,15)),((1,5),(2,7)))),(11,((3,14),(9,(10,12))))));
(16,(((3,14),(9,(10,12))),(11,(8,((13,(6,15)),((1,5),(7,(2,4))))))));
(16,((((7,(2,4)),((1,5),(6,15))),(8,13)),(11,((3,14),(12,(9,10))))));
(16,((8,(13,((1,5),((6,15),(7,(2,4)))))),(11,((9,(10,12)),(3,14)))));
(16,((11,(9,(10,12))),((3,14),(((2,4),(7,(6,15))),(8,(13,(1,5)))))));
(16,((((6,15),(7,(2,4))),(8,(13,(1,5)))),(11,((3,14),(9,(10,12))))));
(16,((8,((13,(1,5)),((6,15),(7,(2,4))))),(11,((3,14),(9,(10,12))))));
(16,((8,(13,((1,5),((6,15),(7,(2,4)))))),(11,(10,((9,12),(3,14))))));
(16,((11,((3,14),(9,(10,12)))),(((6,15),(13,(1,5))),(8,(7,(2,4))))));
(16,((8,(1,((7,(2,4)),(13,(6,(5,15)))))),(11,((3,14),(10,(9,12))))));
(16,((8,((6,15),(13,((1,5),(7,(2,4)))))),((3,14),(11,(9,(10,12))))));
(16,((8,(7,(13,((1,5),((6,15),(2,4)))))),((9,(10,12)),(11,(3,14)))));
(16,((8,((1,5),((6,15),(13,(7,(2,4)))))),(11,((3,14),(9,(10,12))))));
(16,((((6,15),(13,(1,5))),(8,(7,(2,4)))),(11,(12,((3,14),(9,10))))));
(16,((8,(7,((1,5),(13,((6,15),(2,4)))))),(11,((3,14),(9,(10,12))))));
(16,(((((2,4),(6,15)),(7,(1,5))),(8,13)),(11,((3,14),(10,(9,12))))));
(16,((8,((13,(1,5)),((6,15),(7,(2,4))))),(11,((3,14),(9,(10,12))))));
(16,((8,((6,7),((13,(1,5)),(15,(2,4))))),(11,((3,14),(12,(9,10))))));
(16,((8,(((1,5),(7,(2,4))),(13,(6,15)))),(11,((3,14),(9,(10,12))))));
(16,((8,((7,(13,(2,4))),((6,15),(1,5)))),(11,((3,14),(12,(9,10))))));
(16,(((2,(4,7)),(8,((6,15),(13,(1,5))))),(11,((3,14),(9,(10,12))))));
(16,((8,((7,(6,(5,15))),((2,4),(1,13)))),(11,(12,((3,14),(9,10))))));
(16,(11,(((3,14),(10,(9,12))),(8,(((6,(5,15)),(7,(2,4))),(1,13))))));
(16,((8,((13,(6,15)),(4,((1,5),(2,7))))),(11,((3,14),(9,(10,12))))));
(16,((8,((15,(6,7)),((2,4),(13,(1,5))))),(11,((3,14),(9,(10,12))))));
(16,((8,(((6,15),(7,(2,4))),(13,(1,5)))),(11,(3,(14,(12,(9,10)))))));
(16,((8,(1,(13,(5,((6,15),(2,(4,7))))))),(11,((3,14),(9,(10,12))))));
(16,((((2,4),(7,(6,(5,15)))),(8,(1,13))),(11,((3,14),(12,(9,10))))));
(16,((8,((13,(1,5)),(15,(6,(7,(2,4)))))),(11,((3,14),(9,(10,12))))));
(16,(((3,14),(9,(10,12))),(11,(8,(((1,5),(4,7)),(13,(2,(6,15))))))));
(16,((8,(((6,15),(2,(4,7))),(13,(1,5)))),(11,((3,14),(9,(10,12))))));
(16,(((9,(10,12)),(3,14)),(11,((13,(2,(4,7))),(8,((6,15),(1,5)))))));
(16,((8,(1,(13,((2,4),(7,(15,(5,6))))))),(11,((3,14),(9,(10,12))))));
(16,(((1,(2,7)),(8,((6,15),(4,(5,13))))),(11,((9,(10,12)),(3,14)))));
(16,((8,((1,13),(7,((6,(5,15)),(2,4))))),(11,((3,14),(9,(10,12))))));
(16,((8,((13,(1,5)),((2,4),(7,(6,15))))),(11,((10,12),(9,(3,14))))));
(16,((((2,(4,7)),(13,(1,5))),(8,(6,15))),(11,((3,14),(10,(9,12))))));
(16,((8,((7,(6,(5,15))),((2,4),(1,13)))),(11,((10,(9,12)),(3,14)))));
(16,((8,(5,(((6,15),(7,(2,4))),(1,13)))),(11,((3,14),(9,(10,12))))));
(16,((((7,(2,4)),(13,(6,15))),(8,(1,5))),(11,((3,14),(9,(10,12))))));
(16,((((4,(2,7)),(13,(6,15))),(8,(1,5))),(11,((3,14),(9,(10,12))))));
(16,((8,((7,(6,15)),((2,4),(13,(1,5))))),(11,((3,14),(10,(9,12))))));
(16,((8,((6,15),((7,(2,4)),(13,(1,5))))),(11,((3,14),(10,(9,12))))));
(16,((8,(13,((1,5),(7,((6,15),(2,4)))))),(11,((3,14),(10,(9,12))))));
(16,(((((2,4),(6,15)),(7,(1,5))),(8,13)),(11,((3,14),(9,(10,12))))));
(16,((13,(8,(1,((6,(5,15)),(7,(2,4)))))),((9,(10,12)),(11,(3,14)))));
(16,((8,((13,(6,15)),((1,5),(7,(2,4))))),(((3,14),(10,12)),(9,11))));
(16,((8,((13,((5,6),(7,(2,4)))),(1,15))),(11,((9,(10,12)),(3,14)))));
(16,(((2,4),(8,((7,13),((1,5),(6,15))))),(11,((3,14),(9,(10,12))))));
(16,((8,((6,15),((7,(2,4)),(13,(1,5))))),(11,((3,14),(9,(10,12))))));
(16,((8,((2,4),((13,(1,5)),(7,(6,15))))),(11,((9,(10,12)),(3,14)))));
(16,(11,(((3,14),(9,(10,12))),(8,(((6,15),(7,(2,4))),(13,(1,5)))))));
(16,((8,(((6,(5,15)),(7,(2,4))),(1,13))),(11,((3,14),(10,(9,12))))));
(16,((8,((13,(1,5)),((6,15),(2,(4,7))))),(11,((3,14),(10,(9,12))))));
(16,((8,((7,(2,4)),((6,15),(13,(1,5))))),(11,((3,14),(9,(10,12))))));
(16,((8,(1,((7,(6,(5,15))),(13,(2,4))))),(11,((3,14),(9,(10,12))))));
(16,(((13,(2,7)),(8,((1,5),(4,(6,15))))),(11,((3,14),(9,(10,12))))));
(16,((8,((1,5),(13,((6,15),(4,(2,7)))))),(11,((3,14),(9,(10,12))))));
(16,((((6,15),(7,(2,4))),(13,(1,5))),(8,(11,((3,14),(9,(10,12)))))));
(16,(11,((8,(((6,15),(4,7)),(2,(13,(1,5))))),((3,14),(9,(10,12))))));
(16,((8,((7,(2,4)),((1,13),(5,(6,15))))),(11,((3,14),(9,(10,12))))));
(16,((8,((1,13),((2,4),(7,(15,(5,6)))))),(11,((3,14),(9,(10,12))))));
(16,(11,((8,((13,(6,15)),((1,5),(4,(2,7))))),((12,(9,10)),(3,14)))));
(16,((8,(((6,15),(7,(2,4))),(13,(1,5)))),(11,((9,(10,12)),(3,14)))));
(16,((8,((6,15),((2,(4,7)),(13,(1,5))))),(11,((9,(10,12)),(3,14)))));
(16,(((2,4),(8,(7,((6,15),(13,(1,5)))))),(11,((3,14),(9,(10,12))))));
(16,((8,(13,((1,5),((6,15),(7,(2,4)))))),(11,((3,14),(12,(9,10))))));
(16,((8,((13,(1,5)),((6,15),(7,(2,4))))),(11,((3,14),(9,(10,12))))));
(16,((8,(((2,4),(6,15)),(7,(13,(1,5))))),(11,((3,14),(9,(10,12))))));
(16,(((13,(1,5)),(8,((6,15),(7,(2,4))))),(11,((3,14),(10,(9,12))))));
(16,((8,(13,((1,5),((6,15),(7,(2,4)))))),((3,14),(11,(9,(10,12))))));
(16,((8,((4,(2,7)),((6,15),(13,(1,5))))),(11,((9,10),(12,(3,14))))));
(16,((((6,15),(1,5)),(8,(13,(7,(2,4))))),(11,((3,14),(12,(9,10))))));
(16,((8,((6,(5,15)),((7,(2,4)),(1,13)))),(11,((3,14),(9,(10,12))))));
(16,((8,(((6,15),(2,(4,7))),(13,(1,5)))),(11,((3,14),(12,(9,10))))));
(16,(((3,14),(10,(9,12))),(11,(8,(7,(((2,4),(6,15)),(13,(1,5))))))));
(16,((8,((1,((6,(5,15)),(2,4))),(7,13))),(11,((3,14),(9,(10,12))))));
(16,((8,((1,13),((6,(5,15)),(7,(2,4))))),(11,((10,(9,12)),(3,14)))));
(16,((8,(((6,15),(7,(2,4))),(13,(1,5)))),(11,((3,14),(10,(9,12))))));
(16,((8,((1,5),(13,((6,15),(7,(2,4)))))),(11,((3,14),(9,(10,12))))));
(16,((8,((4,7),(5,((2,(6,15)),(1,13))))),(11,((3,14),(9,(10,12))))));
(16,((8,(((6,(5,15)),(2,4)),(7,(1,13)))),(11,((3,14),(10,(9,12))))));
(16,(((5,13),(8,(1,((6,15),(4,(2,7)))))),(11,((3,14),(9,(10,12))))));
(16,((8,(((2,4),(6,(5,15))),(7,(1,13)))),(11,(9,((3,14),(10,12))))));
(16,(((2,7),(8,((13,(1,5)),(4,(6,15))))),(11,((3,14),(10,(9,12))))));
(16,((8,((1,5),(13,(15,(6,(7,(2,4))))))),(11,((9,(10,12)),(3,14)))));
(16,(((7,(13,(6,(15,(2,4))))),(8,(1,5))),(11,((3,14),(9,(10,12))))));
(16,((8,((6,15),((13,(1,5)),(7,(2,4))))),(11,((3,14),(9,(10,12))))));
(16,(((2,4),(8,(7,((6,15),(13,(1,5)))))),(11,((3,14),(9,(10,12))))));
(16,((((6,15),(13,(2,4))),(8,(7,(1,5)))),(11,((3,14),(9,(10,12))))));
(16,((8,((13,(7,(2,4))),((6,15),(1,5)))),(11,((3,14),(9,(10,12))))));
(16,((8,((5,13),((6,15),(1,(7,(2,4)))))),(11,((3,14),(9,(10,12))))));
(16,((8,(((6,(5,15)),(7,(2,4))),(1,13))),(11,((3,14),(9,(10,12))))));
(16,((8,((2,(4,7)),((6,15),(13,(1,5))))),(11,((3,14),(9,(10,12))))));
(16,(11,(((3,14),(9,(10,12))),(8,(15,(6,((7,(2,4)),(13,(1,5)))))))));
(16,(11,((8,(((1,5),(7,(2,4))),(13,(6,15)))),((3,14),(9,(10,12))))));
(16,((8,((7,(2,4)),((6,15),(13,(1,5))))),(11,((3,14),(9,(10,12))))));
(16,((8,(13,((1,5),((6,15),(7,(2,4)))))),(11,((3,14),(9,(10,12))))));
(16,(((3,14),(9,(10,12))),(11,(((6,15),(7,(2,4))),(8,(13,(1,5)))))));
(16,((8,((13,(6,(7,(2,4)))),(15,(1,5)))),(11,((3,14),(10,(9,12))))));
(16,((8,((13,(1,5)),((2,4),(7,(6,15))))),(11,((3,14),(9,(10,12))))));
(16,((8,((15,(2,4)),(13,((1,5),(6,7))))),(11,((3,14),(9,(10,12))))));
(((11,((3,14),(9,(10,12)))),(8,((5,(6,15)),((1,13),(7,(2,4)))))),16);
(16,((8,((13,(1,5)),((6,15),(2,(4,7))))),(11,((3,14),(9,(10,12))))));
(16,(11,(((3,14),(9,(10,12))),(8,((5,13),(((6,15),(2,4)),(1,7)))))));
(16,((((6,15),(7,(2,4))),(8,(13,(1,5)))),(11,((3,14),(9,(10,12))))));
(16,((8,(((7,(2,4)),(1,5)),(13,(6,15)))),(11,((3,14),(9,(10,12))))));
(16,((8,((13,(1,5)),((2,4),(7,(6,15))))),((12,(9,10)),(11,(3,14)))));
(16,((8,((6,15),((7,(2,4)),(13,(1,5))))),(11,((3,14),(10,(9,12))))));
(16,((8,((1,5),(13,((6,15),(7,(2,4)))))),(11,((9,(10,12)),(3,14)))));
(16,((8,((5,(6,15)),((7,(2,4)),(1,13)))),((3,14),(11,(12,(9,10))))));
(16,((8,((1,13),((6,(5,15)),(7,(2,4))))),(11,((3,14),(9,(10,12))))));
(16,((8,((13,(1,5)),((6,15),(7,(2,4))))),(11,((3,14),(9,(10,12))))));
(16,((8,((1,5),(13,((6,15),(7,(2,4)))))),(11,((3,14),(9,(10,12))))));
(16,((((1,5),(13,((6,15),(2,4)))),(7,8)),(11,(10,((3,14),(9,12))))));
(16,(((3,14),(9,(10,12))),(11,(8,((13,(1,5)),((2,4),(7,(6,15))))))));
(16,(((13,((2,4),((1,5),(6,7)))),(8,15)),(11,((3,14),(9,(10,12))))));
(16,((8,(((4,(2,7)),(1,13)),(5,(6,15)))),(11,((3,14),(9,(10,12))))));
(16,((11,((3,14),(10,(9,12)))),(8,((6,(13,(1,5))),(15,(2,(4,7)))))));
(16,(11,((8,((5,(2,4)),((1,13),(7,(6,15))))),((3,14),(9,(10,12))))));
(16,((8,((1,5),(6,(13,(15,(7,(2,4))))))),(11,((3,14),(10,(9,12))))));
(16,(11,(((3,14),(9,(10,12))),((6,15),(8,((1,5),(13,(7,(2,4)))))))));
(16,((8,(((6,(5,15)),(2,(4,7))),(1,13))),(11,((3,14),(9,(10,12))))));
(16,((8,(((1,5),(7,(6,15))),(13,(2,4)))),(11,((3,14),(9,(10,12))))));
(16,((8,((6,(5,15)),((4,(2,7)),(1,13)))),((12,(9,10)),(11,(3,14)))));
(16,((11,(10,((3,14),(9,12)))),(8,(((2,4),(7,(6,(5,15)))),(1,13)))));
(16,((8,((13,(1,5)),((6,15),(2,(4,7))))),(11,((3,14),(9,(10,12))))));
(16,((8,(((6,15),(7,(2,4))),(5,(1,13)))),(11,((9,(10,12)),(3,14)))));
(16,((8,((1,5),((7,(2,4)),(13,(6,15))))),(11,((9,(10,12)),(3,14)))));
(16,((8,((7,(6,15)),((2,4),(13,(1,5))))),(11,((9,12),(10,(3,14))))));
(16,((8,(13,((2,4),((1,5),(7,(6,15)))))),(11,((3,14),(10,(9,12))))));
(16,((8,((13,(1,5)),((6,15),(7,(2,4))))),(11,((3,14),(9,(10,12))))));
(16,(((3,14),(9,(10,12))),(11,(8,((13,(1,5)),(7,((6,15),(2,4))))))));
(16,((8,(((2,4),(7,(6,15))),(13,(1,5)))),(11,((3,14),(10,(9,12))))));
(16,((((1,5),(7,((6,15),(2,4)))),(8,13)),(11,((3,14),(12,(9,10))))));
(16,((8,((7,(2,4)),((1,5),(13,(6,15))))),(11,((3,14),(9,(10,12))))));
(16,((8,(13,((1,5),(7,((6,15),(2,4)))))),(11,((3,14),(9,(10,12))))));
(16,((8,(13,((1,5),((7,(2,4)),(6,15))))),(11,((3,14),(9,(10,12))))));
(16,((8,((1,5),((7,(2,4)),(13,(6,15))))),((9,(10,12)),(11,(3,14)))));
(16,(((1,5),(8,(13,((6,15),(4,(2,7)))))),(11,((3,14),(9,(10,12))))));
(16,((8,((6,15),((1,5),(13,(7,(2,4)))))),(11,((3,14),(9,(10,12))))));
(16,((8,(((6,15),(7,(2,4))),(13,(1,5)))),(11,((3,14),(10,(9,12))))));
(16,((8,((13,(1,5)),((6,15),(4,(2,7))))),(11,((3,14),(10,(9,12))))));
(16,((((5,13),(1,(6,15))),(8,(2,(4,7)))),(11,((3,14),(10,(9,12))))));
(16,((8,((13,(1,5)),((6,15),(7,(2,4))))),(11,((3,14),(12,(9,10))))));
(16,((8,((2,(4,7)),((6,15),(13,(1,5))))),(11,((3,14),(9,(10,12))))));
(16,((8,(((6,15),(7,(2,4))),(13,(1,5)))),(11,((3,14),(9,(10,12))))));
(16,(((3,14),(9,(10,12))),(11,(8,((7,(2,4)),((6,15),(13,(1,5))))))));
(16,((8,((7,(2,4)),((6,15),(13,(1,5))))),(11,((9,(10,12)),(3,14)))));
(16,((8,((6,15),((7,(2,4)),(13,(1,5))))),(11,((3,14),(9,(10,12))))));
(16,((8,((4,(2,7)),((6,15),(13,(1,5))))),((9,(10,12)),(11,(3,14)))));
(16,((8,(((6,15),(7,(2,4))),(13,(1,5)))),(11,((9,(10,12)),(3,14)))));
(16,((8,(7,((13,(1,5)),((6,15),(2,4))))),(11,((3,14),(10,(9,12))))));
(16,(((1,(13,(15,(5,6)))),(8,(7,(2,4)))),(11,((12,(9,10)),(3,14)))));
(16,((8,(((6,15),(7,(2,4))),(13,(1,5)))),(11,((3,14),(9,(10,12))))));
(16,((((7,(2,4)),((6,15),(1,5))),(8,13)),(11,((3,14),(9,(10,12))))));
(16,((8,((1,13),(5,((2,4),(7,(6,15)))))),(11,((3,14),(9,(10,12))))));
(16,(((3,14),(12,(9,10))),(11,(8,((2,4),((7,(6,15)),(13,(1,5))))))));
(16,((((6,15),(13,(1,5))),(8,(7,(2,4)))),(11,(10,((9,12),(3,14))))));
(16,((3,14),((11,(10,(9,12))),((1,5),(8,(13,((6,15),(7,(2,4)))))))));
(16,(((1,5),(8,(13,((6,15),(2,(4,7)))))),(11,((3,14),(9,(10,12))))));
(16,((8,((4,(2,7)),(1,(13,(6,(5,15)))))),(11,((3,14),(9,(10,12))))));
(16,(((3,14),(10,(9,12))),(11,(8,(((6,15),(7,(2,4))),(13,(1,5)))))));
(16,((8,((1,13),((6,15),(5,(7,(2,4)))))),(11,((3,14),(9,(10,12))))));
(16,((8,((13,(1,5)),((6,15),(7,(2,4))))),(11,((3,14),(9,(10,12))))));
(16,(((13,(2,4)),(8,((1,5),(7,(6,15))))),(11,((3,14),(9,(10,12))))));
(16,((8,((6,15),((7,(2,4)),(13,(1,5))))),(11,((3,14),(9,(10,12))))));
(16,((8,(((2,4),(1,5)),(7,(13,(6,15))))),(11,((3,14),(9,(10,12))))));
(16,((8,((6,15),((2,4),(7,(13,(1,5)))))),(11,((3,14),(9,(10,12))))));
(16,((8,(((6,15),(7,(2,4))),(13,(1,5)))),(11,((3,14),(9,(10,12))))));
(16,((((2,(4,7)),(1,13)),(8,(5,(6,15)))),(11,(9,((3,14),(10,12))))));
(16,((8,((5,13),((7,(2,4)),(1,(6,15))))),(11,((3,14),(9,(10,12))))));
(16,((8,((13,(7,(2,4))),((6,15),(1,5)))),(11,((3,14),(9,(10,12))))));
(16,((8,((1,13),((15,(5,6)),(7,(2,4))))),(11,((3,14),(9,(10,12))))));
(16,((8,((13,(1,5)),((2,4),(7,(6,15))))),(11,((3,14),(9,(10,12))))));
(16,((7,(8,(13,((1,5),((6,15),(2,4)))))),(11,((3,14),(9,(10,12))))));
(16,((8,((13,(1,5)),((6,15),(7,(2,4))))),(11,((3,14),(9,(10,12))))));
(16,(11,((8,((1,5),(13,((6,15),(7,(2,4)))))),((3,14),(9,(10,12))))));
(16,((8,(((6,(5,15)),(7,(2,4))),(1,13))),(11,((3,14),(9,(10,12))))));
(16,((8,(13,((1,5),((6,15),(7,(2,4)))))),(11,((3,14),(10,(9,12))))));
(16,((8,((13,(1,5)),((6,15),(7,(2,4))))),(11,((3,14),(12,(9,10))))));
(16,((8,(((7,(2,4)),(6,15)),(5,(1,13)))),((9,(3,14)),(11,(10,12)))));
(16,((8,((13,(6,15)),((1,5),(7,(2,4))))),(11,((3,14),(9,(10,12))))));
(16,((8,((1,(5,13)),((6,15),(7,(2,4))))),(11,((3,14),(9,(10,12))))));
(16,((8,(13,((1,5),((6,15),(7,(2,4)))))),(11,((3,14),(9,(10,12))))));
(16,((8,((1,5),(13,((2,4),(7,(6,15)))))),(11,((3,14),(9,(10,12))))));
(16,((8,((1,5),(13,((6,15),(7,(2,4)))))),(11,((3,14),(9,(10,12))))));
(16,((8,(1,((7,(2,4)),(13,(6,(5,15)))))),(11,((3,14),(12,(9,10))))));
(16,((11,((3,14),(9,(10,12)))),(((1,5),((6,15),(4,7))),(8,(2,13)))));
(16,(((13,(1,5)),(8,(7,((6,15),(2,4))))),(11,((3,14),(9,(10,12))))));
(16,((8,((6,15),((2,4),(7,(13,(1,5)))))),(11,((3,14),(10,(9,12))))));
(16,((8,((13,((2,4),(6,(5,15)))),(1,7))),(11,(9,((3,14),(10,12))))));
(16,((8,(1,(13,((6,(5,15)),(7,(2,4)))))),(11,((3,14),(9,(10,12))))));
(16,((8,(1,(13,((6,(5,15)),(7,(2,4)))))),(11,((3,14),(9,(10,12))))));
(16,((8,(((6,15),(2,(4,7))),(5,(1,13)))),(11,((3,14),(9,(10,12))))));
(16,((8,((7,(6,15)),((2,4),(13,(1,5))))),(11,((3,14),(9,(10,12))))));
(16,(((3,14),(12,(9,10))),(11,(8,((2,4),(7,((6,15),(13,(1,5)))))))));
(16,((8,((6,15),((13,(1,5)),(7,(2,4))))),(11,((3,14),(9,(10,12))))));
(16,((((2,7),(13,(1,5))),(8,(4,(6,15)))),(11,((3,14),(9,(10,12))))));
(16,((8,((13,((6,15),(1,5))),(7,(2,4)))),(11,((3,14),(10,(9,12))))));
(16,((8,((7,(2,4)),((6,15),(13,(1,5))))),(11,((3,14),(9,(10,12))))));
(16,((8,((15,(5,13)),((2,4),(1,(6,7))))),(11,((3,14),(9,(10,12))))));
(16,((8,(13,(1,((6,(5,15)),(7,(2,4)))))),(11,((3,14),(9,(10,12))))));
(16,(11,((8,(((6,15),(7,(2,4))),(1,(5,13)))),((3,14),(9,(10,12))))));
(16,((8,((5,((6,15),(7,(2,4)))),(1,13))),(11,((3,14),(10,(9,12))))));
(16,((8,((7,(2,4)),((6,15),(13,(1,5))))),(11,((3,14),(9,(10,12))))));
(16,(((13,(1,5)),(8,((2,4),(7,(6,15))))),(11,(9,((3,14),(10,12))))));
(16,((8,((13,(1,5)),(7,((6,15),(2,4))))),(11,((3,14),(9,(10,12))))));
(16,((8,((13,(1,5)),((2,4),(7,(6,15))))),(11,((3,14),(10,(9,12))))));
(16,(((3,14),(10,(9,12))),(11,((5,(1,(6,15))),(8,(13,(7,(2,4))))))));
(16,(((7,(2,4)),(8,((6,15),(13,(1,5))))),(11,((3,14),(10,(9,12))))));
(16,((8,((7,(2,4)),((6,15),(13,(1,5))))),(11,((3,14),(9,(10,12))))));
(16,((8,((13,(1,5)),(2,((6,15),(4,7))))),(11,((3,14),(9,(10,12))))));
(16,((8,(13,((1,5),((6,15),(7,(2,4)))))),(11,((3,14),(9,(10,12))))));
(16,(11,(((3,14),(9,(10,12))),(8,((7,13),((1,5),((6,15),(2,4))))))));
(16,((8,((13,(1,5)),((6,15),(7,(2,4))))),(11,((3,14),(9,(10,12))))));
(16,(((3,14),(12,(9,10))),(11,(8,(13,(1,((6,(5,15)),(7,(2,4)))))))));
(16,((8,((15,(6,7)),((2,4),(5,(1,13))))),(11,((3,14),(9,(10,12))))));
(16,((((6,15),(4,(2,7))),(8,(13,(1,5)))),(11,((9,(10,12)),(3,14)))));
(16,((8,(13,((7,(2,4)),((6,15),(1,5))))),(11,((3,14),(9,(10,12))))));
(16,((8,(13,((1,5),(4,((6,15),(2,7)))))),((3,14),(11,(12,(9,10))))));
(16,((8,(((5,6),(15,(2,4))),(13,(1,7)))),(11,((3,14),(9,(10,12))))));
(16,(((1,13),(8,((5,(6,15)),(7,(2,4))))),(11,((3,14),(9,(10,12))))));
(16,(11,(((3,14),(9,(10,12))),(8,(13,((1,5),((7,(2,4)),(6,15))))))));
(16,((8,(((6,(5,15)),(2,4)),(13,(1,7)))),(11,((3,14),(12,(9,10))))));
(16,((11,((3,14),(9,(10,12)))),(8,((13,(7,(2,4))),((6,15),(1,5))))));
(16,(11,(((3,14),(9,(10,12))),((1,5),(8,(7,((2,4),(13,(6,15)))))))));
(16,(((13,(2,(4,7))),(8,((6,15),(1,5)))),(11,((3,14),(9,(10,12))))));
(16,((8,(13,(1,((7,(2,4)),(15,(5,6)))))),(11,((3,14),(12,(9,10))))));
(16,((8,((1,13),((5,(6,15)),(7,(2,4))))),(11,((3,14),(10,(9,12))))));
(16,((8,((13,(1,5)),((7,(2,4)),(6,15)))),(11,((3,14),(9,(10,12))))));
(16,((8,((6,15),(5,((7,(2,4)),(1,13))))),((9,(10,12)),(11,(3,14)))));
(16,((8,((2,4),((13,(1,5)),(7,(6,15))))),(11,((3,14),(9,(10,12))))));
(16,((8,((1,13),((6,(5,15)),(7,(2,4))))),(11,((3,14),(9,(10,12))))));
(16,((8,((13,(1,5)),((6,15),(7,(2,4))))),(11,((3,14),(9,(10,12))))));
(16,((((6,15),(7,(2,4))),(8,(13,(1,5)))),(11,((3,14),(9,(10,12))))));
(16,(11,(((3,14),(12,(9,10))),((7,(1,(2,4))),(8,(13,(6,(5,15))))))));
(16,((8,(((6,15),(7,(2,4))),(13,(1,5)))),(11,((3,14),(10,(9,12))))));
(16,((8,((1,(5,13)),((6,15),(7,(2,4))))),(11,((3,14),(9,(10,12))))));
(16,(((((6,15),(2,4)),(1,13)),(8,(5,7))),(11,((9,(10,12)),(3,14)))));
(16,((8,((13,(1,5)),(6,(15,(7,(2,4)))))),(11,(10,((3,14),(9,12))))));
(16,((8,((7,(2,4)),((13,(1,5)),(6,15)))),(11,((3,14),(9,(10,12))))));
(16,(((1,13),(8,((6,(5,15)),(7,(2,4))))),(11,((3,14),(9,(10,12))))));
(16,((8,(((6,15),(7,(2,4))),(13,(1,5)))),(11,((3,14),(9,(10,12))))));
(16,((8,((13,((6,15),(5,(2,4)))),(1,7))),(11,((3,14),(9,(10,12))))));
(16,(((9,(10,12)),(3,14)),(11,((1,13),(8,(7,(5,((6,15),(2,4)))))))));
(16,((8,((13,(1,5)),(7,((6,15),(2,4))))),(11,((3,14),(9,(10,12))))));
(16,((8,((4,((6,15),(2,7))),(13,(1,5)))),(11,((3,14),(12,(9,10))))));
(16,((8,((1,5),(13,((7,(2,4)),(6,15))))),(11,((3,14),(12,(9,10))))));
(16,((((6,(7,(2,4))),(13,(1,5))),(8,15)),(11,((3,14),(10,(9,12))))));
(16,((8,(13,((7,(2,4)),((6,15),(1,5))))),(11,((3,14),(9,(10,12))))));
(16,((8,(7,(((6,15),(2,4)),(13,(1,5))))),(11,((3,14),(9,(10,12))))));
(16,((8,(1,((5,13),((6,15),(7,(2,4)))))),(11,((3,14),(9,(10,12))))));
(16,((9,(10,12)),(((6,15),(8,((7,(2,4)),(13,(1,5))))),(11,(3,14)))));
(16,(((3,14),(12,(9,10))),(11,(8,((7,(2,4)),(5,((6,15),(1,13))))))));
(16,(11,((8,(((1,5),(7,(2,4))),(13,(6,15)))),((3,14),(9,(10,12))))));
(16,(((10,12),(9,(3,14))),(11,(8,(13,((6,15),((2,4),(7,(1,5)))))))));
(16,((8,((7,((2,4),(6,(5,15)))),(1,13))),(11,((3,14),(12,(9,10))))));
(16,((8,((13,(1,5)),((6,15),(7,(2,4))))),(11,((3,14),(10,(9,12))))));
(16,((((2,4),(7,(6,15))),(8,(13,(1,5)))),(11,((9,12),(10,(3,14))))));
(16,((8,((1,13),((5,(6,15)),(7,(2,4))))),(11,((3,14),(10,(9,12))))));
(16,((8,((6,15),(13,((1,5),(7,(2,4)))))),(11,((3,14),(9,(10,12))))));
(16,(((1,13),(8,((7,(2,4)),(5,(6,15))))),(11,((3,14),(9,(10,12))))));
(16,(11,(((3,14),(12,(9,10))),(8,(((1,5),(7,(2,4))),(13,(6,15)))))));
(16,((8,((6,15),((13,(1,5)),(7,(2,4))))),(11,((3,14),(9,(10,12))))));
(16,((8,((6,15),((7,(2,4)),(13,(1,5))))),(11,((3,14),(9,(10,12))))));
(16,((8,((13,(1,5)),((6,15),(7,(2,4))))),(11,((3,14),(9,(10,12))))));
(16,((8,((6,15),((13,(1,5)),(4,(2,7))))),(11,((3,14),(9,(10,12))))));
(16,((8,(((6,15),(1,13)),(5,(7,(2,4))))),(11,((3,14),(10,(9,12))))));
(16,((8,(13,((1,5),((6,15),(7,(2,4)))))),(11,((3,14),(10,(9,12))))));
(16,((8,((7,(6,15)),((2,4),(13,(1,5))))),(11,((3,14),(12,(9,10))))));
(16,((((6,(5,15)),(1,(7,(2,4)))),(8,13)),(11,((3,14),(12,(9,10))))));
(16,(11,(((3,14),(9,(10,12))),(((1,5),(13,(6,15))),(8,(7,(2,4)))))));
(16,(11,((8,((13,(2,4)),(1,(7,(6,(5,15)))))),((3,14),(9,(10,12))))));
(16,((8,(((2,4),(7,(15,(5,6)))),(1,13))),(11,((3,14),(10,(9,12))))));
(16,((8,((1,5),(((2,4),(6,15)),(7,13)))),(11,((3,14),(10,(9,12))))));
(16,((8,((1,5),(7,((2,4),(13,(6,15)))))),(11,((3,14),(9,(10,12))))));
(16,(((13,(1,5)),(8,((6,15),(7,(2,4))))),(11,((3,14),(9,(10,12))))));
(16,(((3,14),(12,(9,10))),(11,(8,((5,13),(1,((6,15),(7,(2,4)))))))));
(16,((8,(((1,5),((2,4),(6,7))),(13,15))),(11,((3,14),(10,(9,12))))));
(16,(((12,(9,10)),(3,14)),(11,(8,((6,15),((7,(2,4)),(13,(1,5))))))));
(16,((8,((13,(1,5)),((2,4),(7,(6,15))))),(11,((3,14),(10,(9,12))))));
(16,((8,((7,(2,4)),((6,(5,15)),(1,13)))),(11,((3,14),(9,(10,12))))));
(16,((8,((6,15),(13,((1,5),(7,(2,4)))))),(11,((9,(10,12)),(3,14)))));
(16,(11,(((3,14),(9,(10,12))),(8,((1,5),(13,((6,15),(7,(2,4)))))))));
(16,((8,(2,((4,7),((6,15),(13,(1,5)))))),(11,((3,14),(9,(10,12))))));
(16,((11,((3,14),(9,(10,12)))),(8,(15,((6,(7,(2,4))),(13,(1,5)))))));
(16,((8,(5,(((6,15),(7,(2,4))),(1,13)))),(11,((3,14),(9,(10,12))))));
(16,((8,(13,((1,5),((6,15),(7,(2,4)))))),(11,((3,14),(10,(9,12))))));
(16,((8,((15,(7,(2,4))),(6,(13,(1,5))))),(11,((3,14),(9,(10,12))))));
(16,(((13,(1,5)),(8,((2,4),(7,(6,15))))),((12,(9,10)),(11,(3,14)))));
(16,(((13,(6,15)),(8,((1,5),(7,(2,4))))),(11,(12,((9,10),(3,14))))));
(16,((8,(((6,15),(5,(1,13))),(2,(4,7)))),(11,((9,12),(10,(3,14))))));
(16,((8,(13,(1,(5,((6,15),(4,(2,7))))))),(11,((3,14),(9,(10,12))))));
(16,((((6,15),(7,(2,4))),(8,(13,(1,5)))),(11,((3,14),(9,(10,12))))));
(16,((8,(13,((5,(6,15)),(1,(7,(2,4)))))),(11,((3,14),(9,(10,12))))));
(16,((11,((3,14),(10,(9,12)))),(8,(13,((1,5),((2,4),(7,(6,15))))))));
(16,((8,((7,(2,4)),((6,15),(13,(1,5))))),(11,((3,14),(12,(9,10))))));
(16,((8,((6,7),((15,(2,4)),(13,(1,5))))),(11,((3,14),(10,(9,12))))));
(16,((8,(((2,4),(7,(6,15))),(5,(1,13)))),(9,(11,((3,14),(10,12))))));
(16,((8,((1,5),(13,(7,((2,4),(6,15)))))),(11,((3,14),(9,(10,12))))));
(16,((8,((1,5),(13,((6,15),(7,(2,4)))))),(11,((3,14),(9,(10,12))))));
(16,((8,((7,(6,15)),((2,4),(13,(1,5))))),(11,((9,(10,12)),(3,14)))));
(16,((8,((1,5),(13,((2,4),(7,(6,15)))))),(11,((3,14),(12,(9,10))))));
(16,((8,(((6,15),(4,7)),(2,(13,(1,5))))),(11,((9,12),(10,(3,14))))));
(16,(((3,14),(9,(10,12))),(11,(8,(7,((13,(1,5)),((6,15),(2,4))))))));
(16,((8,((4,(2,7)),((6,(5,15)),(1,13)))),(11,(9,((10,12),(3,14))))));
(16,(((3,14),(9,(10,12))),(11,(8,(((6,15),(7,(2,4))),(13,(1,5)))))));
(16,((8,(((4,7),(6,(2,15))),(13,(1,5)))),((9,(10,12)),(11,(3,14)))));
(16,((8,((1,5),(13,((2,4),(7,(6,15)))))),((9,(10,12)),(11,(3,14)))));
(16,((8,(((6,15),(2,(4,7))),(13,(1,5)))),(11,((3,14),(9,(10,12))))));
(16,((8,((13,(1,5)),(7,((6,15),(2,4))))),(11,((3,14),(9,(10,12))))));
(16,((13,(2,4)),((((6,15),(1,5)),(7,8)),(11,((3,14),(9,(10,12)))))));
(16,((8,((13,(1,5)),((6,15),(4,(2,7))))),(11,((3,14),(9,(10,12))))));
(16,((8,((7,(2,4)),((6,15),(13,(1,5))))),(11,((3,14),(9,(10,12))))));
(16,((11,((3,14),(9,(10,12)))),(8,((13,(1,5)),((6,15),(7,(2,4)))))));
(16,((8,((2,4),((7,(5,(6,15))),(1,13)))),(11,((3,14),(9,(10,12))))));
(16,((8,((13,(2,4)),((1,5),(7,(6,15))))),(11,((10,12),(9,(3,14))))));
(16,(((3,14),(10,(9,12))),(11,(8,(((6,15),(7,(2,4))),(1,(5,13)))))));
(16,(((13,((2,4),(6,(5,15)))),(8,(1,7))),(11,((3,14),(9,(10,12))))));
(16,((8,((13,(1,5)),((6,15),(2,(4,7))))),(11,((3,14),(12,(9,10))))));
(16,((8,(7,((13,(2,4)),((6,15),(1,5))))),(11,((3,14),(9,(10,12))))));
(16,(11,((8,(13,((1,5),(6,(15,(7,(2,4))))))),((3,14),(9,(10,12))))));
(16,(((13,(1,5)),(8,(7,((2,4),(6,15))))),(11,((3,14),(9,(10,12))))));
(16,((8,(7,(((6,15),(2,4)),(13,(1,5))))),((9,(10,12)),(11,(3,14)))));
(16,((8,(13,((7,(2,4)),((1,5),(6,15))))),(11,((3,14),(9,(10,12))))));
(16,(11,((8,((1,5),(13,((6,15),(7,(2,4)))))),((3,14),(9,(10,12))))));
(16,((8,((6,15),((5,13),(1,(7,(2,4)))))),(11,((3,14),(9,(10,12))))));
(16,((8,((6,15),((7,(2,4)),(13,(1,5))))),(11,((3,14),(9,(10,12))))));
(16,(11,(((3,14),(9,(10,12))),(8,((5,13),((6,15),(1,(7,(2,4)))))))));
(16,((8,((7,(2,4)),((6,(5,15)),(1,13)))),(11,((3,14),(9,(10,12))))));
(16,((8,((13,(6,(4,(2,7)))),(15,(1,5)))),(11,((3,14),(9,(10,12))))));
(16,((8,(1,((7,(2,4)),(13,(6,(5,15)))))),(11,((3,14),(9,(10,12))))));
(16,((8,((7,(2,4)),((6,15),(13,(1,5))))),(11,((3,14),(9,(10,12))))));
(16,(11,((8,(7,((1,5),(13,((6,15),(2,4)))))),((3,14),(9,(10,12))))));
(16,((8,(((6,15),(2,(4,7))),(13,(1,5)))),(11,((3,14),(12,(9,10))))));
(16,((8,((((6,15),(2,4)),(5,13)),(1,7))),(11,((3,14),(9,(10,12))))));
(16,((8,((13,(7,(2,4))),(1,(6,(5,15))))),(11,((3,14),(9,(10,12))))));
(16,((8,((7,(6,(5,15))),((2,4),(1,13)))),(11,((3,14),(9,(10,12))))));
(16,((11,((3,14),(9,(10,12)))),(8,((7,(2,4)),((6,15),(13,(1,5)))))));
(16,(((7,(2,4)),(8,((6,15),(13,(1,5))))),(11,((3,14),(9,(10,12))))));
(16,((8,((7,(2,4)),((6,15),(13,(1,5))))),(11,((10,(9,12)),(3,14)))));
(16,((8,(1,((6,(5,15)),(13,(7,(2,4)))))),(11,((3,14),(12,(9,10))))));
(16,((8,((13,(1,5)),((6,15),(7,(2,4))))),(11,((3,14),(9,(10,12))))));
(16,((8,(13,((7,(2,4)),(1,(6,(5,15)))))),(11,((3,14),(10,(9,12))))));
(16,(((13,(7,(2,4))),(8,(1,(6,(5,15))))),(11,((3,14),(9,(10,12))))));
(16,((8,((13,(1,5)),((2,4),(7,(6,15))))),(11,((9,(10,12)),(3,14)))));
(16,((8,(1,((7,(2,4)),((6,15),(5,13))))),(11,((10,12),(9,(3,14))))));
(16,((8,((1,13),((7,(5,15)),(6,(2,4))))),(11,((3,14),(9,(10,12))))));
(16,((8,((6,(1,5)),((7,(2,4)),(13,15)))),(11,((3,14),(9,(10,12))))));
(16,((8,((7,(6,15)),((2,4),(1,(5,13))))),(11,((3,14),(12,(9,10))))));
(16,((8,(13,((7,(2,4)),(1,(6,(5,15)))))),(11,((3,14),(9,(10,12))))));
(16,((8,((13,(1,5)),((6,15),(7,(2,4))))),(11,((3,14),(9,(10,12))))));
(16,((8,((7,13),((1,5),((6,15),(2,4))))),(11,((3,14),(9,(10,12))))));
(16,(((3,14),(9,(10,12))),(11,(8,(((6,15),(1,5)),(13,(7,(2,4))))))));
(16,((8,(((1,5),(7,(2,4))),(13,(6,15)))),(11,((3,14),(9,(10,12))))));
(16,((8,((13,(1,5)),((15,(2,4)),(6,7)))),(11,((3,14),(12,(9,10))))));
(16,((8,(((6,15),(7,(2,4))),(13,(1,5)))),(11,((3,14),(10,(9,12))))));
(16,((8,(((7,(2,4)),(1,5)),(13,(6,15)))),(11,((3,14),(9,(10,12))))));
(16,(((1,13),(8,((15,(5,6)),(4,(2,7))))),(11,((3,14),(10,(9,12))))));
(16,((((7,(2,4)),(13,(1,5))),(8,(6,15))),(11,((3,14),(9,(10,12))))));
(16,((8,((6,15),((7,(2,4)),(13,(1,5))))),(11,((3,14),(9,(10,12))))));
(16,((8,((1,5),(13,(7,((6,15),(2,4)))))),(11,((3,14),(10,(9,12))))));
(16,((8,(((6,15),(7,(2,4))),(13,(1,5)))),(11,((3,14),(9,(10,12))))));
(16,((8,((6,15),(13,((1,5),(2,(4,7)))))),(11,((3,14),(9,(10,12))))));
(16,(((7,(2,4)),(8,((15,(5,6)),(1,13)))),((9,(10,12)),(11,(3,14)))));
(16,((8,((6,15),((4,(2,7)),(13,(1,5))))),(11,((3,14),(9,(10,12))))));
(16,((8,(13,((1,5),((6,15),(2,(4,7)))))),(11,((3,14),(9,(10,12))))));
(16,(11,(((3,14),(12,(9,10))),(8,((4,(2,7)),((6,15),(13,(1,5))))))));
(16,(11,((8,(((1,5),(6,15)),(13,(7,(2,4))))),((3,14),(12,(9,10))))));
(16,((8,(((6,15),(2,4)),(13,(7,(1,5))))),(11,((3,14),(9,(10,12))))));
(16,((8,((7,(1,5)),(13,((2,4),(6,15))))),(11,((3,14),(10,(9,12))))));
(16,((8,((7,(2,4)),((6,15),(13,(1,5))))),(11,((3,14),(9,(10,12))))));
(16,((8,((13,(1,5)),((2,4),(7,(6,15))))),(11,((3,14),(12,(9,10))))));
(16,(((7,(2,4)),(8,((6,15),(13,(1,5))))),(11,((3,14),(12,(9,10))))));
(16,((8,(((6,15),(7,(2,4))),(13,(1,5)))),(11,((3,14),(10,(9,12))))));
(16,(11,(((3,14),(9,(10,12))),((7,(13,(1,5))),(8,((6,15),(2,4)))))));
(16,((8,((6,15),((7,(2,4)),(13,(1,5))))),(11,((3,14),(9,(10,12))))));
(16,((8,(13,((7,(2,4)),((6,15),(1,5))))),(11,((3,14),(12,(9,10))))));
(16,((8,((13,(6,15)),((1,5),(7,(2,4))))),(11,((3,14),(9,(10,12))))));
(16,((8,((7,(6,15)),((2,4),(5,(1,13))))),(11,((3,14),(9,(10,12))))));
(16,((8,((6,15),(5,((2,(4,7)),(1,13))))),(11,((3,14),(9,(10,12))))));
(16,((8,(13,((1,5),(7,((6,15),(2,4)))))),(11,((3,14),(9,(10,12))))));
(16,((11,((3,14),(9,(10,12)))),(8,(((1,5),(6,15)),(13,(7,(2,4)))))));
(16,((11,((3,14),(10,(9,12)))),(8,((13,(1,5)),((6,15),(2,(4,7)))))));
(16,((8,((7,(2,4)),((6,15),(13,(1,5))))),(11,((3,14),(12,(9,10))))));
(16,((((1,(6,15)),(13,(5,7))),(8,(2,4))),(11,((3,14),(9,(10,12))))));
(16,((8,((13,(6,15)),((7,(2,4)),(1,5)))),(11,((3,14),(9,(10,12))))));
(16,((8,((1,5),((6,15),(13,(2,(4,7)))))),(11,(14,(3,(9,(10,12)))))));
(16,(((1,13),(8,(7,((5,(6,15)),(2,4))))),(11,((3,14),(9,(10,12))))));
(16,(11,((8,(((6,15),(2,(4,7))),(13,(1,5)))),((3,14),(10,(9,12))))));
(16,((8,((7,(2,4)),((6,15),(13,(1,5))))),(11,((3,14),(12,(9,10))))));
(16,((8,((13,(1,5)),((6,15),(2,(4,7))))),(11,((3,14),(9,(10,12))))));
(16,((8,(((6,15),(7,(2,4))),(13,(1,5)))),(11,((3,14),(9,(10,12))))));
(16,((8,((7,(1,5)),((2,4),(13,(6,15))))),(11,((3,14),(9,(10,12))))));
(16,((8,((1,(5,13)),((6,15),(7,(2,4))))),(11,((3,14),(12,(9,10))))));
(16,((8,(((6,15),(4,7)),((1,5),(2,13)))),(11,((3,14),(9,(10,12))))));
(16,((8,((7,(2,4)),((6,15),(13,(1,5))))),(11,((3,14),(10,(9,12))))));
(16,((8,((7,(2,4)),((6,15),(13,(1,5))))),(11,((3,14),(9,(10,12))))));
(16,((8,(13,((1,5),((6,15),(7,(2,4)))))),(11,((3,14),(12,(9,10))))));
(16,((8,(15,((13,(1,5)),(6,(7,(2,4)))))),(11,((3,14),(9,(10,12))))));
(16,((8,(7,((13,(1,5)),((2,4),(6,15))))),(11,((3,14),(9,(10,12))))));
(16,((8,(((6,15),(7,(2,4))),(13,(1,5)))),(11,((3,14),(9,(10,12))))));
(16,((11,((3,14),(9,(10,12)))),(8,(13,((1,5),((6,15),(7,(2,4))))))));
(16,((8,((6,15),((7,(2,4)),(13,(1,5))))),(11,((3,14),(9,(10,12))))));
(16,((7,(8,((13,(1,5)),(15,(6,(2,4)))))),(11,((3,14),(12,(9,10))))));
(16,((8,(((6,15),(7,(2,4))),(13,(1,5)))),(11,((3,14),(10,(9,12))))));
(16,((12,((3,14),(9,10))),(11,(8,((13,(1,5)),((7,(2,4)),(6,15)))))));
(16,((8,(13,((2,(4,7)),((6,15),(1,5))))),(11,((3,14),(9,(10,12))))));
(16,((8,(1,((5,13),((6,15),(7,(2,4)))))),(11,((3,14),(9,(10,12))))));
(16,((8,((1,5),(13,((6,15),(7,(2,4)))))),(11,((3,14),(10,(9,12))))));
(16,((8,((13,(1,5)),((6,15),(7,(2,4))))),(11,((3,14),(9,(10,12))))));
(16,((8,((13,(6,15)),((1,5),(4,(2,7))))),(11,((3,14),(9,(10,12))))));
(16,((8,((5,(6,15)),((7,(2,4)),(1,13)))),(11,((3,14),(9,(10,12))))));
(16,((8,((7,(2,4)),((5,13),(1,(6,15))))),(11,((3,14),(10,(9,12))))));
(16,((8,((13,(1,5)),((6,15),(7,(2,4))))),(11,((10,12),(9,(3,14))))));
(16,((8,(1,((6,(5,15)),(13,(7,(2,4)))))),(11,((3,14),(9,(10,12))))));
(16,((8,(13,((1,5),((6,15),(7,(2,4)))))),(11,((3,14),(9,(10,12))))));
(16,(((3,14),(9,(10,12))),(11,(8,((6,15),((7,(2,4)),(13,(1,5))))))));
(16,(((3,14),(9,(10,12))),(11,(8,(13,((1,5),((2,4),(7,(6,15)))))))));
(16,((8,((13,(1,5)),((6,15),(7,(2,4))))),(11,((3,14),(9,(10,12))))));
(16,(11,((((6,15),(13,(1,5))),(8,(7,(2,4)))),((3,14),(9,(10,12))))));
(16,((8,((7,(2,4)),((6,15),(13,(1,5))))),(11,((9,(10,12)),(3,14)))));
(16,((8,(7,((2,4),((6,15),(13,(1,5)))))),(11,((3,14),(9,(10,12))))));
(16,((8,((7,(6,15)),(13,((2,4),(1,5))))),(11,((3,14),(9,(10,12))))));
(16,((8,((6,15),((7,(2,4)),(13,(1,5))))),(11,((3,14),(9,(10,12))))));
(16,((8,((6,15),(7,((1,5),(13,(2,4)))))),(11,((3,14),(9,(10,12))))));
(16,((8,(((2,4),(7,(5,15))),(6,(1,13)))),(11,((3,14),(9,(10,12))))));
((((3,14),(10,(9,12))),(11,(8,((13,(1,5)),((6,15),(4,(2,7))))))),16);
(16,((8,((1,((6,15),(2,4))),(7,(5,13)))),(11,((3,14),(9,(10,12))))));
(16,((8,((1,5),(13,((2,4),(7,(6,15)))))),(11,((3,14),(9,(10,12))))));
(16,((8,((13,(1,5)),((6,15),(7,(2,4))))),(11,((3,14),(10,(9,12))))));
(16,((8,((1,(5,13)),(7,((6,15),(2,4))))),(11,(14,(3,(9,(10,12)))))));
(16,((8,((13,(1,5)),((6,15),(7,(2,4))))),(11,((10,12),(9,(3,14))))));
(16,((9,((3,14),(10,12))),(11,(8,(((6,15),(7,(2,4))),(13,(1,5)))))));
(16,(11,(((13,(1,7)),(8,((15,(5,6)),(2,4)))),((3,14),(9,(10,12))))));
(16,((13,(8,((1,5),((6,15),(7,(2,4)))))),(11,((3,14),(12,(9,10))))));
(16,((8,((7,(2,4)),(13,((6,15),(1,5))))),(11,((3,14),(9,(10,12))))));
(16,((8,(((6,15),(7,(2,4))),(13,(1,5)))),(11,((3,14),(9,(10,12))))));
(16,((8,((6,15),((7,(2,4)),(1,(5,13))))),(11,((3,14),(9,(10,12))))));
(16,(11,((8,(((6,15),(7,(2,4))),(13,(1,5)))),((3,14),(9,(10,12))))));
(16,((8,((2,7),(4,(13,((6,15),(1,5)))))),(11,((3,14),(9,(10,12))))));
(16,((8,((1,5),(13,(4,((6,15),(2,7)))))),(11,((3,14),(12,(9,10))))));
(16,((8,(7,((1,13),((15,(5,6)),(2,4))))),(11,((3,14),(9,(10,12))))));
(16,((8,(5,(1,(13,((2,4),(7,(6,15))))))),(11,((10,12),(9,(3,14))))));
(16,((8,(((6,15),(2,4)),(7,(13,(1,5))))),(11,((3,14),(9,(10,12))))));
(16,((8,((6,15),(13,((1,5),(7,(2,4)))))),(11,((3,14),(9,(10,12))))));
(16,((8,(((6,15),(13,(1,5))),(7,(2,4)))),(11,((9,(10,12)),(3,14)))));
(16,((8,((2,4),((7,(6,(5,15))),(1,13)))),(11,((3,14),(9,(10,12))))));
(16,((8,((6,(5,15)),(1,(13,(7,(2,4)))))),(11,((9,(10,12)),(3,14)))));
(16,(((6,15),(8,((1,5),(13,(7,(2,4)))))),(11,((3,14),(12,(9,10))))));
(16,((8,(2,((13,(1,5)),((6,15),(4,7))))),(11,((3,14),(9,(10,12))))));
(16,((8,(1,((5,13),((6,15),(7,(2,4)))))),(11,((3,14),(12,(9,10))))));
(16,(((13,(6,15)),(8,((1,5),(7,(2,4))))),(11,((3,14),(9,(10,12))))));
(16,(((3,14),(12,(9,10))),(11,(8,(((6,(5,15)),(7,(2,4))),(1,13))))));
(16,((8,((15,(5,6)),((7,(2,4)),(1,13)))),(11,((9,(10,12)),(3,14)))));
(16,((((13,(1,5)),(7,(2,4))),(8,(6,15))),(11,((3,14),(9,(10,12))))));
(16,((8,((13,(1,5)),((6,15),(7,(2,4))))),(11,((3,14),(12,(9,10))))));
(16,((8,((4,13),((1,5),((2,7),(6,15))))),(11,((3,14),(10,(9,12))))));
(16,((8,((13,(1,5)),((6,15),(7,(2,4))))),(11,((3,14),(10,(9,12))))));
(16,((((7,(2,4)),(1,(6,(5,15)))),(8,13)),(11,((3,14),(12,(9,10))))));
(16,((8,(1,(13,((7,(2,4)),(6,(5,15)))))),(11,((9,(10,12)),(3,14)))));
(16,((8,(13,((6,15),((1,5),(7,(2,4)))))),(11,((3,14),(9,(10,12))))));
(16,(((13,(1,5)),(8,((6,15),(7,(2,4))))),(11,((3,14),(12,(9,10))))));
(16,((8,(13,((1,5),((6,15),(2,(4,7)))))),(11,((3,14),(9,(10,12))))));
(16,(((7,(13,(1,5))),(8,((6,15),(2,4)))),(11,((3,14),(9,(10,12))))));
(16,((8,((7,(2,4)),((6,15),(13,(1,5))))),(11,((3,14),(9,(10,12))))));
(16,((8,((7,(2,4)),(13,((6,15),(1,5))))),(11,((3,14),(9,(10,12))))));
(16,(((3,14),(10,(9,12))),(11,(8,((4,(6,15)),((5,13),(1,(2,7))))))));
(16,((8,(((6,15),(7,(2,4))),(13,(1,5)))),(11,((3,14),(12,(9,10))))));
(16,(((13,(1,5)),(8,((6,15),(7,(2,4))))),(11,((3,14),(10,(9,12))))));
(16,((8,(13,((1,5),((6,15),(7,(2,4)))))),(11,((3,14),(9,(10,12))))));
(16,((8,((5,(6,15)),(1,(13,(7,(2,4)))))),(11,((3,14),(9,(10,12))))));
(16,((((7,(2,4)),(13,(1,5))),(8,(6,15))),(11,((3,14),(9,(10,12))))));
(16,((8,((13,(7,(6,15))),((2,4),(1,5)))),(11,((3,14),(9,(10,12))))));
(16,((8,((1,5),(13,(7,((6,15),(2,4)))))),(11,((3,14),(9,(10,12))))));
(16,((13,(8,((1,5),((2,4),(7,(6,15)))))),(11,((3,14),(9,(10,12))))));
(16,((8,(((1,5),(7,(2,4))),(13,(6,15)))),(11,(3,(14,(9,(10,12)))))));
(16,((8,((6,(5,15)),((7,(2,4)),(1,13)))),(11,((3,14),(9,(10,12))))));
(16,(((5,(6,15)),(8,((7,(2,4)),(1,13)))),(11,((3,14),(9,(10,12))))));
(16,((8,(1,((5,13),((6,15),(2,(4,7)))))),(11,((3,14),(12,(9,10))))));
(16,((8,((1,13),((5,(6,15)),(2,(4,7))))),(11,((10,(9,12)),(3,14)))));
(16,(((13,((6,15),(7,(2,4)))),(8,(1,5))),(11,((3,14),(9,(10,12))))));
(16,((8,((13,(1,5)),(7,((6,15),(2,4))))),(11,((3,14),(9,(10,12))))));
(16,((8,((1,5),((7,(6,15)),(13,(2,4))))),(11,((10,12),(9,(3,14))))));
(((8,((13,(1,(6,15))),(5,(4,(2,7))))),(11,((3,14),(9,(10,12))))),16);
(16,((8,((6,15),((2,4),(7,(13,(1,5)))))),(11,((3,14),(12,(9,10))))));
(16,((((1,5),(13,(7,(2,4)))),(8,(6,15))),(11,((3,14),(12,(9,10))))));
(16,((8,((1,13),((4,7),(2,(6,(5,15)))))),(11,((3,14),(9,(10,12))))));
(16,((8,((7,(2,4)),((6,15),(13,(1,5))))),(11,((3,14),(9,(10,12))))));
(((11,((3,14),(9,(10,12)))),(8,((6,15),((7,(2,4)),(13,(1,5)))))),16);
(16,((8,((7,(2,4)),((6,15),(1,(5,13))))),(11,((3,14),(9,(10,12))))));
(16,((8,(13,((1,5),((6,15),(7,(2,4)))))),(11,((3,14),(9,(10,12))))));
(16,((8,((2,4),((1,13),(7,(6,(5,15)))))),(11,((3,14),(9,(10,12))))));
(16,((8,(15,((7,(2,4)),(6,(13,(1,5)))))),(11,((3,14),(9,(10,12))))));
(16,(((5,(6,15)),(8,((7,(2,4)),(1,13)))),(11,((3,14),(9,(10,12))))));
(16,((8,((13,(1,5)),((6,15),(7,(2,4))))),(11,((3,14),(12,(9,10))))));
(16,((8,((7,(2,4)),((1,5),(13,(6,15))))),(11,((3,14),(12,(9,10))))));
(16,((8,(13,(15,((1,5),(6,(7,(2,4))))))),(11,((3,14),(9,(10,12))))));
(16,((8,((6,15),(13,((1,5),(7,(2,4)))))),((3,14),(11,(12,(9,10))))));
(16,((8,(((6,15),(13,(1,5))),(4,(2,7)))),(11,((3,14),(10,(9,12))))));
(16,(((3,14),(9,(10,12))),(11,(((5,15),(7,(6,(2,4)))),(8,(1,13))))));
(16,((8,(7,((13,(1,5)),((6,15),(2,4))))),(11,((3,14),(9,(10,12))))));
(16,(((3,14),(9,(10,12))),(11,(8,((1,5),((2,4),(13,(7,(6,15)))))))));
(16,((11,(14,(3,(9,(10,12))))),(8,((13,(1,5)),((6,15),(7,(2,4)))))));
