((((((8,(7,(18,1))),((4,6),(10,15))),(3,16)),((11,20),(2,17))),(12,(9,((13,19),(5,14))))),21);
((((((((1,7),8),18),(10,(6,(4,15)))),(3,16)),(12,((13,19),(9,(5,14))))),((11,20),(2,17))),21);
(((((((1,7),(8,18)),((10,15),(4,6))),(3,16)),(12,((9,(5,14)),(13,19)))),((11,20),(2,17))),21);
(((((((4,6),(10,15)),((1,7),(8,18))),(3,16)),(12,((13,19),(9,(5,14))))),((11,20),(2,17))),21);
(((((((1,(7,18)),8),(6,(4,(10,15)))),(3,16)),((11,20),(2,17))),(12,((5,14),(9,(13,19))))),21);
(((((11,20),(2,17)),((3,16),(((4,6),(10,15)),(18,(8,(1,7)))))),((19,(5,13)),(12,(9,14)))),21);
((((11,20),(2,17)),((12,((9,(5,14)),(13,19))),(18,((8,(1,7)),((3,16),((4,6),(10,15))))))),21);
(((((11,20),(18,((3,16),(((4,6),(10,15)),(7,(1,8)))))),(2,17)),(12,(19,((5,13),(9,14))))),21);
((((12,((5,(9,14)),(13,19))),(((1,7),(8,18)),((3,16),((4,6),(10,15))))),((11,20),(2,17))),21);
(((((((18,(1,7)),8),((4,6),(10,15))),(3,16)),((11,20),(2,17))),(12,((9,14),(5,(13,19))))),21);
(((((((7,18),(1,8)),((4,6),(10,15))),(3,16)),(17,(11,20))),(2,(12,((5,9),(14,(13,19)))))),21);
(((((((1,7),18),(15,(10,(4,6)))),(8,(3,16))),(2,(17,(11,20)))),((13,(5,(9,14))),(12,19))),21);
(((((((1,7),(8,18)),((4,6),(10,15))),(3,16)),(17,(2,(11,20)))),(12,((9,14),(5,(13,19))))),21);
(((((11,20),(2,17)),((18,(8,(1,7))),((6,(10,(4,15))),(3,16)))),(12,((9,(5,14)),(13,19)))),21);
(((((3,16),((8,(18,(1,7))),((10,15),(4,6)))),((11,20),(2,17))),((5,14),(12,(9,(13,19))))),21);
(((((8,((15,(10,(4,6))),(7,(1,18)))),(3,16)),((11,20),(2,17))),(12,(14,((5,9),(13,19))))),21);
(((((((1,18),(7,8)),(6,(10,(4,15)))),(3,16)),((11,20),(2,17))),(12,((13,19),(9,(5,14))))),21);
((((2,(17,(11,20))),((18,(8,(1,7))),((3,16),(15,(6,(4,10)))))),(12,((19,(5,14)),(9,13)))),21);
((((((7,(18,(1,8))),(3,16)),(6,(10,(4,15)))),(12,((13,19),(5,(9,14))))),((11,20),(2,17))),21);
(((((18,(8,(1,7))),((6,(10,(4,15))),(3,16))),((11,20),(2,17))),(12,(13,((14,(5,9)),19)))),21);
((((((8,(7,(18,1))),((4,6),(10,15))),(3,16)),((11,20),(2,17))),(12,((19,(5,13)),(9,14)))),21);
((((((4,6),(10,15)),((3,16),(8,(18,(7,1))))),(12,(9,((5,14),(13,19))))),(2,(17,(11,20)))),21);
(((((((8,(1,7)),18),(3,16)),(6,(4,(10,15)))),((11,20),(2,17))),(12,((9,(5,14)),(13,19)))),21);
((((((1,(18,7)),8),((10,(15,(4,6))),(3,16))),(12,(13,(19,(9,(5,14)))))),((11,20),(2,17))),21);
((((11,20),(2,17)),((12,((5,(13,19)),(9,14))),((1,(7,18)),((3,16),(6,(8,(10,(4,15)))))))),21);
((((((1,7),(18,8)),(6,(10,(4,15)))),(3,16)),((12,(13,(19,(14,(5,9))))),((11,20),(2,17)))),21);
((((((1,18),(7,8)),((3,16),(15,(6,(4,10))))),((11,20),(2,17))),(12,((13,19),(5,(9,14))))),21);
((((((8,(1,(7,18))),(15,(10,(4,6)))),(3,16)),((2,17),(11,20))),(13,(12,(19,(9,(5,14)))))),21);
((((((4,6),(10,15)),(3,16)),((7,18),(1,8))),(((11,20),(2,17)),(12,((5,(13,19)),(9,14))))),21);
(((((((4,(10,15)),6),(8,(18,(1,7)))),(3,16)),((11,20),(2,17))),(12,((13,19),(9,(5,14))))),21);
(((((3,16),((8,(18,(1,7))),(10,(15,(4,6))))),((11,20),(2,17))),(12,((13,19),(9,(5,14))))),21);
(((((3,16),((6,(4,(10,15))),((1,8),(7,18)))),((11,20),(2,17))),(12,((14,(5,9)),(13,19)))),21);
((((((18,(8,(1,7))),((4,6),(10,15))),(3,16)),((11,20),(2,17))),(12,((9,(5,14)),(13,19)))),21);
(((((4,6),(10,15)),((3,16),(1,(8,(7,18))))),(((11,20),(2,17)),(12,(13,((5,9),(14,19)))))),21);
(((((11,20),(2,17)),((3,16),((10,(6,(4,15))),((1,7),(8,18))))),(12,((9,14),(19,(5,13))))),21);
(((((17,(11,20)),2),((3,16),(((4,6),(10,15)),(18,(8,(7,1)))))),(12,((9,(5,14)),(13,19)))),21);
(((((3,16),((11,20),(2,17))),(((4,6),(10,15)),(18,(8,(1,7))))),(12,((9,(5,14)),(13,19)))),21);
(((((((8,18),(1,7)),(10,(15,(4,6)))),(3,16)),((11,20),(2,17))),(12,(14,((13,19),(5,9))))),21);
((((((18,(1,7)),8),((3,16),((4,6),(10,15)))),((11,20),(2,17))),((9,(5,14)),(12,(13,19)))),21);
((((((((7,1),8),18),(3,16)),(6,(4,(10,15)))),((13,19),(12,(14,(5,9))))),((11,20),(2,17))),21);
(((((10,(15,(4,6))),(18,(1,(7,8)))),(3,16)),(((11,20),(2,17)),(12,((19,(5,13)),(9,14))))),21);
(((((((8,18),(1,7)),((10,15),(4,6))),(3,16)),((11,20),(2,17))),(12,((5,(19,13)),(9,14)))),21);
((((6,(10,(4,15))),(1,(7,(8,18)))),((12,(14,(9,(19,(5,13))))),((3,16),(2,((11,20),17))))),21);
((((((((4,6),(10,15)),18),(8,(1,7))),(3,16)),((11,20),(2,17))),((9,14),(12,(19,(5,13))))),21);
((((((((1,7),18),8),((4,6),(10,15))),(3,16)),((11,20),(2,17))),(12,(19,(13,(5,(9,14)))))),21);
(((((((8,(7,18)),1),(10,(15,(4,6)))),(3,16)),((11,20),(2,17))),(12,((13,19),(9,(5,14))))),21);
(((((((4,6),(10,15)),(18,(8,(1,7)))),(3,16)),((11,20),(2,17))),(12,((5,13),(19,(9,14))))),21);
((((((((8,7),1),(4,6)),(16,(18,(10,15)))),3),((11,20),(2,17))),(12,((13,19),(9,(5,14))))),21);
(((((((8,(7,18)),1),(10,(6,(4,15)))),(3,16)),(17,(2,(11,20)))),(12,((13,19),(9,(5,14))))),21);
(((((((15,(4,6)),((1,7),(8,18))),(3,16)),10),((11,20),(2,17))),(12,((9,14),(5,(13,19))))),21);
(((((8,18),(1,7)),((4,6),(10,15))),((12,((19,(5,14)),(9,13))),((3,16),((11,20),(2,17))))),21);
(((((((10,15),(4,6)),((1,7),(8,18))),(3,16)),((11,20),(2,17))),(12,((13,(5,19)),(9,14)))),21);
((((((4,(6,(10,15))),(8,(1,(18,7)))),(3,16)),(12,(9,((5,14),(13,19))))),(17,(2,(11,20)))),21);
((((((((7,18),8),1),((4,6),(10,15))),(3,16)),((11,20),(2,17))),(12,((13,19),(9,(5,14))))),21);
(((((((4,6),(10,15)),((7,8),(1,18))),(3,16)),((11,20),(2,17))),(12,((5,14),(9,(13,19))))),21);
((((((1,(18,(7,8))),(3,16)),(6,(10,(4,15)))),((11,20),(2,17))),((9,14),(12,(5,(13,19))))),21);
(((((((7,(18,1)),8),(3,16)),((4,6),(10,15))),(17,(2,(11,20)))),(12,((14,(9,5)),(13,19)))),21);
(((((11,20),(2,17)),(((10,15),(4,6)),((1,7),(8,18)))),((12,((19,(5,13)),(9,14))),(3,16))),21);
((((((((6,15),10),4),(18,(8,(1,7)))),(3,16)),((11,20),(2,17))),(12,((9,(5,14)),(13,19)))),21);
(((((18,(10,(15,(4,6)))),((3,16),(7,(1,8)))),((9,14),(12,(19,(5,13))))),((11,20),(2,17))),21);
((((12,((9,19),(13,(5,14)))),((3,16),(((10,15),(4,6)),(8,(18,(1,7)))))),((11,20),(2,17))),21);
(((((((15,(10,(4,6))),(18,(1,8))),7),(3,16)),((11,20),(2,17))),(12,(19,(13,(9,(5,14)))))),21);
(((((8,(18,(1,7))),((15,(10,(4,6))),(3,16))),((11,20),(2,17))),(12,((13,19),(9,(5,14))))),21);
((((((18,(8,(1,7))),((4,6),(10,15))),(3,16)),((11,20),(2,17))),(12,((13,19),(14,(5,9))))),21);
((((12,((13,19),(5,(14,9)))),(((10,15),(4,6)),(18,(8,(1,7))))),((3,16),((11,20),(2,17)))),21);
(((((((8,18),(1,7)),((4,6),(10,15))),(3,16)),((11,20),(2,17))),(12,((9,14),(19,(5,13))))),21);
(((((((4,6),(10,15)),(8,(18,(1,7)))),(3,16)),((11,20),(2,17))),(12,((19,(5,13)),(9,14)))),21);
((((((8,(18,(7,1))),(15,(4,(10,6)))),(3,16)),((11,20),(2,17))),((9,14),(12,(19,(5,13))))),21);
(((((((18,(8,(1,7))),((4,6),(10,15))),3),16),((11,20),(2,17))),(12,((9,14),(19,(5,13))))),21);
(((((8,(18,(1,7))),((3,16),(15,(10,(4,6))))),(12,((13,19),(9,(5,14))))),((11,20),(2,17))),21);
((((17,(2,(11,20))),((7,(1,(8,18))),(((10,15),(4,6)),(3,16)))),(12,(9,((5,14),(13,19))))),21);
((((3,16),((8,((18,(1,7)),((4,6),(10,15)))),((11,20),(2,17)))),(12,((13,19),(9,(5,14))))),21);
(((((2,17),(((4,6),(10,15)),((3,16),(8,(18,(1,7)))))),(11,20)),(12,(19,(13,(9,(5,14)))))),21);
(((((8,(3,16)),(((4,6),(10,15)),(18,(1,7)))),(12,(9,(14,(13,(5,19)))))),((11,20),(2,17))),21);
(((((((7,8),18),1),(6,(4,(10,15)))),(3,16)),((12,((13,19),(5,(9,14)))),((11,20),(2,17)))),21);
(((((((1,7),(8,18)),((10,15),(4,6))),(3,16)),((11,20),(17,2))),((9,13),(12,(19,(5,14))))),21);
(((((3,16),((8,(1,7)),(18,(10,(6,(4,15)))))),((11,20),(2,17))),(12,(13,(19,(5,(9,14)))))),21);
(((17,((2,(11,20)),((3,16),(((4,6),(10,15)),((1,7),(8,18)))))),(12,((14,(5,9)),(13,19)))),21);
((((((3,16),(6,(4,(15,10)))),(7,(8,(1,18)))),((11,20),(2,17))),(12,(5,((9,14),(13,19))))),21);
((((((((8,18),7),1),((4,6),(10,15))),(3,16)),((11,20),(2,17))),(12,(19,(13,(9,(5,14)))))),21);
(((((((1,8),(7,18)),((4,6),(10,15))),(3,16)),((11,20),(2,17))),(12,((13,19),(9,(5,14))))),21);
(((((((1,18),(7,8)),(6,(10,(4,15)))),(3,16)),(2,(17,(11,20)))),(12,((9,14),(19,(5,13))))),21);
(((((((8,18),(1,7)),((4,6),(10,15))),(3,16)),((11,20),(2,17))),(12,((19,(5,13)),(9,14)))),21);
((((((18,(8,(1,7))),((4,6),(10,15))),(3,16)),(17,(2,(11,20)))),(12,(19,((5,14),(9,13))))),21);
(((((7,18),((6,(10,(4,15))),(1,8))),(3,16)),(((11,20),(2,17)),(12,((5,(13,19)),(9,14))))),21);
(((((((4,6),(10,15)),(16,((1,7),(8,18)))),3),(12,(13,(19,(5,(14,9)))))),((11,20),(2,17))),21);
((((((8,(1,7)),18),(((4,6),(10,15)),(3,16))),((11,20),(2,17))),(5,(12,((9,14),(13,19))))),21);
(((((((8,(1,7)),18),((4,6),(10,15))),(3,16)),((11,20),(2,17))),(12,((13,19),(9,(5,14))))),21);
(((((11,20),(2,17)),(12,((13,19),(9,(5,14))))),((6,(4,(10,15))),((3,16),(18,(8,(1,7)))))),21);
((((((8,(18,(1,7))),(3,16)),((4,6),(10,15))),((11,20),(2,17))),((13,19),(12,(14,(5,9))))),21);
(((((8,(18,(1,7))),((4,6),(10,15))),(3,16)),(((11,20),(2,17)),(12,((13,19),(9,(5,14)))))),21);
((((((1,(7,(8,18))),((4,15),(6,10))),(3,16)),((11,20),(2,17))),(12,((13,19),(9,(5,14))))),21);
((((((((1,7),18),8),(3,16)),(15,(10,(4,6)))),((11,20),(2,17))),(12,((13,19),(5,(9,14))))),21);
((((((((4,6),(10,15)),(1,8)),(7,18)),(3,16)),(2,(17,(11,20)))),(12,(13,(19,(9,(5,14)))))),21);
((((((18,(8,(1,7))),(6,(10,(4,15)))),(3,16)),(12,((5,9),((13,19),14)))),(17,(2,(11,20)))),21);
(((((((8,(1,7)),((10,15),(4,6))),(3,16)),18),(17,(2,(11,20)))),(12,((9,(5,14)),(13,19)))),21);
(((((((5,(9,14)),19),13),12),(((4,6),(10,15)),(8,(18,(1,7))))),((3,16),((11,20),(2,17)))),21);
(((((((4,6),(10,15)),(18,(8,(1,7)))),(3,16)),(2,(17,(11,20)))),(12,((9,(5,14)),(13,19)))),21);
(((((((1,7),(8,18)),(6,(10,(4,15)))),(3,16)),((11,20),(2,17))),(12,((13,19),(9,(5,14))))),21);
(((((((7,8),(1,18)),((10,15),(4,6))),(3,16)),(2,(17,(11,20)))),((13,19),(12,(14,(5,9))))),21);
(((((3,16),((7,18),(((4,6),(10,15)),(1,8)))),((11,20),(2,17))),((9,(5,14)),(12,(13,19)))),21);
(((((((18,(8,1)),7),((10,15),(4,6))),(3,16)),((11,20),(2,17))),((9,(5,14)),(12,(13,19)))),21);
((((((8,18),((1,7),(6,(15,(4,10))))),3),16),(((11,20),(2,17)),(12,(9,(14,(5,(13,19))))))),21);
(((((11,20),(2,17)),((14,(5,9)),(12,(13,19)))),(((1,7),(8,18)),((3,16),(10,(15,(4,6)))))),21);
(((((((8,(1,7)),18),(6,(10,(4,15)))),(3,16)),(12,((13,19),(14,(5,9))))),((11,20),(2,17))),21);
(((((((18,(8,(1,7))),((4,6),(10,15))),(3,16)),(2,(11,20))),17),(12,((9,14),(19,(5,13))))),21);
((((((3,16),(8,(1,(18,7)))),(6,(10,(4,15)))),((11,20),(2,17))),(12,((13,19),(9,(5,14))))),21);
(((((((1,7),(8,18)),(10,(6,(4,15)))),(3,16)),((11,20),(2,17))),(12,(13,(19,(9,(5,14)))))),21);
(((((11,20),((18,(8,(1,7))),(3,(16,((4,6),(10,15)))))),(2,17)),(12,((13,19),(5,(9,14))))),21);
((((((((4,6),(10,15)),(7,(8,(1,18)))),3),16),((11,20),(2,17))),(12,((9,(5,14)),(19,13)))),21);
(((((((4,6),(10,15)),(7,(1,(8,18)))),(3,16)),(12,((13,19),(9,(5,14))))),((11,20),(2,17))),21);
(((((8,(18,(1,7))),((3,16),((4,6),(10,15)))),(2,(17,(11,20)))),(12,(14,((19,(5,13)),9)))),21);
((((((((8,(7,18)),1),((4,6),(10,15))),(3,16)),(11,20)),(2,17)),(12,((13,19),(9,(5,14))))),21);
((((((18,(1,7)),(3,(16,(8,(6,(4,(10,15))))))),(2,17)),(12,(19,(13,(9,(5,14)))))),(11,20)),21);
(((((((4,15),(6,10)),(8,(18,(1,7)))),(3,16)),((11,20),(2,17))),(12,(9,((5,14),(13,19))))),21);
((((((1,7),(8,18)),(3,16)),(6,(4,(10,15)))),((12,((9,(5,14)),(13,19))),((11,20),(2,17)))),21);
(((((((18,(1,7)),8),(4,(6,(10,15)))),(3,16)),(12,((19,(5,13)),(9,14)))),((11,20),(2,17))),21);
(((((((7,18),(1,8)),((4,6),(10,15))),(3,16)),(17,(2,(11,20)))),(12,(9,(5,(14,(13,19)))))),21);
(((((((7,18),(1,8)),((10,15),(6,4))),(3,16)),((11,20),(2,17))),(12,((13,19),(9,(14,5))))),21);
(((((((8,(18,(1,7))),(4,6)),(3,16)),(10,15)),((11,20),(2,17))),((13,19),(12,(9,(5,14))))),21);
(((((18,(1,7)),((3,16),(8,((4,6),(10,15))))),(12,(13,(14,(19,(5,9)))))),((11,20),(2,17))),21);
((((((3,16),(6,(15,(4,10)))),((7,8),(1,18))),((11,20),(2,17))),(13,(12,(14,(19,(5,9)))))),21);
(((((((8,18),(1,7)),(3,16)),((10,15),(4,6))),((11,20),(2,17))),(12,((13,19),(9,(5,14))))),21);
((((((18,(1,7)),(8,(10,(15,(4,6))))),(3,16)),((11,20),(2,17))),(12,((9,14),(19,(5,13))))),21);
((((((((8,18),(1,7)),(4,6)),(10,15)),(3,16)),((11,20),(2,17))),(12,((5,(13,19)),(9,14)))),21);
((((((4,6),(10,15)),((1,7),(8,18))),(((11,20),(2,17)),(3,16))),(9,(12,((5,14),(13,19))))),21);
(((((3,16),((15,(10,(4,6))),((1,7),(8,18)))),((11,20),(2,17))),(12,((9,(5,14)),(13,19)))),21);
(((((8,(1,(7,18))),((3,16),(6,(10,(4,15))))),((11,20),(2,17))),(12,((14,(5,9)),(13,19)))),21);
((((((3,16),(8,(18,(1,7)))),(4,(6,(10,15)))),((11,20),(2,17))),((9,(5,14)),(12,(13,19)))),21);
((((((((1,18),8),7),((4,6),(10,15))),(3,16)),((11,20),(2,17))),(12,((13,19),(14,(5,9))))),21);
((((((((1,8),18),7),((4,6),(10,15))),(3,16)),(12,((5,(9,14)),(13,19)))),((11,20),(2,17))),21);
(((((((1,8),(7,18)),(6,(10,(4,15)))),(3,16)),(2,(17,(11,20)))),(12,((13,19),(14,(9,5))))),21);
(((((((1,(8,18)),7),(10,(15,(4,6)))),(3,16)),((11,20),(17,2))),(14,(12,((5,9),(13,19))))),21);
((((((7,8),(1,18)),((4,6),(10,15))),(3,16)),((12,((13,19),(9,(5,14)))),((11,20),(2,17)))),21);
(((((((4,(6,(10,15))),((1,7),(8,18))),(3,16)),(11,20)),(2,17)),(12,((9,14),(13,(5,19))))),21);
(((((((8,(1,7)),18),((4,6),(10,15))),(3,16)),((11,20),(2,17))),(12,((9,14),((13,19),5)))),21);
((((((7,(1,8)),18),(3,16)),((4,6),(10,15))),(((11,20),(2,17)),(12,((9,(5,14)),(13,19))))),21);
(((((3,16),(7,(((4,6),(10,15)),(1,(8,18))))),((11,20),(2,17))),(12,(19,(13,(14,(5,9)))))),21);
(((((11,20),(2,17)),(((6,(10,(4,15))),((1,7),(8,18))),(3,16))),(12,(13,(19,(9,(5,14)))))),21);
(((((((1,7),(8,18)),(6,(10,(4,15)))),(3,16)),((11,20),(2,17))),((19,(14,(5,9))),(13,12))),21);
(((((6,(15,(4,10))),((11,20),(2,17))),((3,16),((7,18),(1,8)))),(12,(14,((13,19),(5,9))))),21);
((((2,(11,20)),(17,((3,16),((18,(1,7)),(8,((4,6),(10,15))))))),(12,(19,(13,(9,(5,14)))))),21);
((((((((1,18),7),8),((10,15),(4,6))),(3,16)),((11,20),(2,17))),(13,(12,(19,(9,(5,14)))))),21);
(((((11,20),(2,17)),((3,16),((18,(1,7)),(8,((4,6),(10,15)))))),(12,((9,(5,14)),(13,19)))),21);
((((11,20),(2,17)),((12,((5,(13,19)),(9,14))),((((10,15),(6,4)),(1,8)),((3,16),(7,18))))),21);
((((11,20),((2,17),((3,16),(((4,6),(10,15)),((7,18),(1,8)))))),(12,(19,(13,(5,(14,9)))))),21);
((((((3,16),(8,(7,(1,18)))),(15,(10,(4,6)))),((11,20),(2,17))),(12,((13,19),(14,(5,9))))),21);
(((((18,(8,(1,7))),((4,15),(10,6))),(3,16)),(((11,20),(2,17)),(12,(19,(13,(5,(14,9))))))),21);
((((((8,18),((1,7),((4,15),(6,10)))),(3,16)),((11,20),(2,17))),(((13,19),(9,14)),(12,5))),21);
((((((6,(4,(10,15))),(8,(7,(18,1)))),(3,16)),((11,20),(2,17))),(12,((9,14),(13,(5,19))))),21);
((((((8,(1,7)),((4,6),(18,(10,15)))),(3,16)),((11,20),(2,17))),(12,(14,((13,19),(5,9))))),21);
(((((((4,6),(10,15)),((7,18),(1,8))),(3,16)),((11,20),(2,17))),(12,((13,19),(5,(9,14))))),21);
(((((((4,6),((1,7),(8,18))),(3,16)),(10,15)),((11,20),(2,17))),((5,9),(14,(12,(13,19))))),21);
((((((3,16),((10,15),(4,6))),(18,(8,(1,7)))),((11,20),(2,17))),(12,(13,(19,(9,(5,14)))))),21);
(((((((7,18),(1,8)),(10,(15,(4,6)))),(3,16)),((11,20),(2,17))),(12,((5,14),(9,(13,19))))),21);
((((((6,10),(4,15)),(18,(8,(1,7)))),(3,16)),(((11,20),(2,17)),(12,((13,19),(5,(14,9)))))),21);
(((((2,(11,20)),((1,7),(18,8))),(17,((3,16),(10,(15,(4,6)))))),(12,((13,19),(9,(5,14))))),21);
((((((8,(18,(1,7))),((4,6),(10,15))),(3,16)),(2,(17,(11,20)))),(12,((9,(5,14)),(13,19)))),21);
((((((15,(10,(4,6))),((1,7),(8,18))),(12,((13,19),(9,(5,14))))),((11,20),(2,17))),(3,16)),21);
((((((((18,7),1),8),((10,15),(4,6))),(3,16)),((11,20),(2,17))),(12,(13,(19,(5,(9,14)))))),21);
((((((4,6),(10,15)),((3,16),(18,((1,7),8)))),((11,20),(2,17))),(12,(9,((13,19),(5,14))))),21);
(((((11,20),(2,17)),((3,16),(((4,6),(10,15)),(18,(8,(1,7)))))),(13,(12,(19,(5,(9,14)))))),21);
((((((1,7),(8,18)),(((4,6),(10,15)),(3,16))),((11,20),(2,17))),(12,(13,(19,(9,(5,14)))))),21);
(((((((18,(1,7)),8),(10,(15,(4,6)))),(3,16)),(17,(2,(11,20)))),(12,((13,19),(9,(5,14))))),21);
((((((18,(1,7)),8),((4,6),(10,15))),(3,16)),(((14,(5,9)),(19,(12,13))),((11,20),(2,17)))),21);
(((((3,16),(((4,6),(10,15)),((1,7),(8,18)))),((11,20),(2,17))),(12,((13,19),(9,(5,14))))),21);
(((((((18,(1,7)),8),(15,(10,(4,6)))),(3,16)),((11,20),(2,17))),(12,((5,(9,19)),(13,14)))),21);
((((12,((9,14),(19,(5,13)))),((3,16),(((1,7),(8,18)),((10,15),(4,6))))),((11,20),(2,17))),21);
((((((7,(8,(1,18))),(3,16)),((4,6),(10,15))),((11,20),(2,17))),(12,((9,(5,14)),(13,19)))),21);
((((((((7,18),(1,8)),(4,15)),(3,16)),(6,10)),(2,(17,(11,20)))),(12,(9,((13,19),(5,14))))),21);
((((((((7,8),1),18),((4,6),(10,15))),(3,16)),((11,20),(2,17))),(12,((9,(5,14)),(13,19)))),21);
((((((((10,15),(4,6)),(18,(1,7))),8),(3,16)),(2,(17,(11,20)))),(12,((19,(5,13)),(9,14)))),21);
(((((18,(8,(1,7))),(6,(10,(4,15)))),(3,16)),((12,((5,9),(13,(14,19)))),((11,20),(2,17)))),21);
(((((3,16),(((10,15),(4,6)),((1,7),(8,18)))),((11,20),(2,17))),((9,(5,14)),(12,(13,19)))),21);
((((11,20),(2,17)),((12,((13,19),(9,(5,14)))),((8,(3,16)),((6,(10,(4,15))),(18,(1,7)))))),21);
(((((((8,(1,7)),18),(4,(15,(6,10)))),(3,16)),((11,20),(2,17))),((13,19),(12,(9,(5,14))))),21);
(((((((8,(1,7)),18),(6,(10,(4,15)))),(3,16)),((11,20),(2,17))),((13,19),(12,(9,(5,14))))),21);
((((((18,(1,(7,8))),((4,6),(10,15))),(3,16)),((11,20),(2,17))),(12,((13,19),(9,(5,14))))),21);
(((((((7,8),(1,18)),((4,6),(10,15))),(3,16)),(17,(2,(11,20)))),(12,((9,(5,14)),(13,19)))),21);
((((((((8,18),(15,(10,(4,6)))),(1,7)),16),3),(12,((9,(5,14)),(13,19)))),(2,(17,(11,20)))),21);
(((((16,3),((8,(18,(1,7))),((10,15),(4,6)))),(2,(17,(11,20)))),(12,((13,19),(9,(5,14))))),21);
(((((((7,(1,8)),18),((10,15),(4,6))),(3,16)),(12,((13,19),(5,(9,14))))),(17,(2,(11,20)))),21);
(((((((1,8),(7,18)),((10,15),(4,6))),(3,16)),((11,20),(2,17))),(12,((13,19),(5,(9,14))))),21);
((((((10,(15,(4,6))),(8,(1,7))),(18,(3,16))),((11,20),(2,17))),(12,((5,13),(19,(9,14))))),21);
((((((7,8),(1,18)),(3,16)),((4,6),(10,15))),((12,(9,(13,(19,(5,14))))),((11,20),(2,17)))),21);
(((((3,16),((6,(4,(10,15))),(8,(18,(1,7))))),((2,17),(11,20))),(12,((13,19),(9,(5,14))))),21);
(((((((8,(1,7)),18),(15,(4,10))),6),(3,16)),((12,((13,19),(14,(5,9)))),(2,(17,(11,20))))),21);
(((((7,(18,(1,8))),((3,16),((10,15),(4,6)))),((11,20),(2,17))),(12,((13,19),(9,(5,14))))),21);
((((((3,16),(8,((10,15),(4,6)))),(18,(1,7))),(12,((9,(5,14)),(13,19)))),((11,20),(2,17))),21);
((((((10,(4,15)),6),((1,7),(8,18))),((11,20),(2,17))),((3,16),((9,(5,14)),(12,(13,19))))),21);
((((((((10,15),(4,6)),(18,(1,7))),8),(2,(17,(11,20)))),(3,16)),(12,((19,(5,13)),(9,14)))),21);
(((((2,(11,20)),17),((3,16),((10,(15,(4,6))),((1,7),(8,18))))),(12,(13,(19,(9,(5,14)))))),21);
((((2,(17,(11,20))),((8,(18,(1,7))),((3,16),((4,15),(6,10))))),(12,((13,19),(9,(5,14))))),21);
((((((15,(10,(4,6))),(3,16)),(8,(18,(1,7)))),((11,20),(2,17))),(12,(13,((5,9),(14,19))))),21);
((((((6,(4,(10,15))),(18,(8,(1,7)))),(3,16)),(2,(17,(11,20)))),(12,((14,(5,9)),(13,19)))),21);
((((16,(3,(((4,6),(10,15)),((1,7),(8,18))))),(2,(17,(11,20)))),((9,14),(12,(13,(5,19))))),21);
(((((3,16),(((4,6),(10,15)),(8,(18,(1,7))))),((11,20),(2,17))),(12,((5,9),(14,(13,19))))),21);
(((((((4,6),(10,15)),1),((3,16),(7,(8,18)))),((11,20),(2,17))),(12,((19,(5,13)),(9,14)))),21);
(((((((8,18),(1,7)),((4,6),(10,15))),(3,16)),((11,20),(2,17))),(13,(12,(19,(5,(9,14)))))),21);
((((((1,(8,7)),18),(4,(6,(15,10)))),(3,16)),((12,((13,19),(14,(5,9)))),((11,20),(2,17)))),21);
((((3,16),(((11,20),(2,17)),(12,(9,((13,19),(5,14)))))),(((4,6),(10,15)),(18,(8,(1,7))))),21);
((((((((8,18),(10,(4,15))),6),(1,7)),(3,16)),((11,20),(2,17))),(12,((9,14),(5,(13,19))))),21);
((((((1,18),(7,8)),(17,(2,(11,20)))),(((4,6),(10,15)),(3,16))),(12,(14,((13,19),(5,9))))),21);
((((3,16),((15,(10,(4,6))),(8,(18,(1,7))))),(((11,20),(2,17)),(12,((5,14),(9,(13,19)))))),21);
(((((((1,7),(8,18)),((4,6),(10,15))),(3,16)),((11,20),(2,17))),(12,((13,19),(9,(5,14))))),21);
(((((((8,(1,7)),18),(15,(10,(4,6)))),(3,16)),((11,20),(17,2))),(19,(12,((5,14),(9,13))))),21);
(((((11,20),(2,17)),((3,16),(((1,7),(8,18)),((10,15),(4,6))))),(12,(19,(13,(5,(14,9)))))),21);
(((((((8,(1,18)),7),((4,6),(10,15))),(3,16)),(12,((13,19),(9,(5,14))))),((11,20),(2,17))),21);
(((((11,20),(2,17)),((8,(7,1)),((3,16),(18,((4,6),(10,15)))))),(12,((5,14),((13,19),9)))),21);
((((12,((13,19),(9,(5,14)))),(17,(2,(11,20)))),((3,16),((1,8),(((4,6),(10,15)),(7,18))))),21);
((((((((8,18),7),1),((4,6),(10,15))),(3,16)),((11,20),(2,17))),(12,((13,19),(5,(9,14))))),21);
(((((15,(10,(4,6))),((3,16),(18,(8,(1,7))))),((11,20),(2,17))),((19,(9,(5,14))),(12,13))),21);
(((((((3,16),(10,(15,(4,6)))),(1,18)),(7,8)),((11,20),(2,17))),(12,((13,19),(9,(5,14))))),21);
((((12,((5,14),(9,(13,19)))),((3,16),(((4,6),(10,15)),(18,(8,(1,7)))))),((11,20),(2,17))),21);
(((((3,16),(((4,6),(10,15)),(8,(18,(1,7))))),((11,20),(2,17))),(12,(9,((5,14),(13,19))))),21);
((((((4,6),(10,15)),(18,(8,(1,7)))),(3,16)),((12,(19,(13,(14,(5,9))))),((11,20),(2,17)))),21);
(((((((1,7),(8,18)),((4,6),(10,15))),(3,16)),((11,20),(2,17))),(12,(13,((5,(9,14)),19)))),21);
((((((((1,7),18),8),(15,(10,(4,6)))),(3,16)),((11,20),(2,17))),(12,((5,(9,14)),(13,19)))),21);
((((13,19),(12,(14,(5,9)))),(((11,20),(2,17)),((6,18),((3,16),((10,(4,15)),(8,(7,1))))))),21);
(((((((4,6),(10,15)),((1,7),(8,18))),(3,16)),((11,20),(2,17))),(12,(5,((9,14),(13,19))))),21);
(((((((4,6),(10,15)),(18,(8,(1,7)))),(3,16)),((11,20),(2,17))),(12,((13,19),(9,(5,14))))),21);
(((((3,16),(((4,6),(10,15)),((1,7),(8,18)))),(2,(17,(11,20)))),(12,((9,14),(5,(13,19))))),21);
((((((10,(6,(4,15))),(8,(18,(1,7)))),(3,16)),((11,20),(2,17))),(12,((13,19),(9,(5,14))))),21);
(((((15,(10,(4,6))),((3,16),(8,(18,(1,7))))),((11,20),(2,17))),(12,((13,19),(9,(5,14))))),21);
((((((((8,(18,7)),1),(15,(10,(4,6)))),16),3),(2,(17,(11,20)))),(12,(9,(13,(19,(5,14)))))),21);
(((((3,16),(((4,6),(10,15)),(18,(8,(1,7))))),(2,17)),((11,20),(12,((5,14),(9,(13,19)))))),21);
((((((((1,8),7),18),(4,(6,(10,15)))),(3,16)),(12,((13,19),(9,(5,14))))),((11,20),(2,17))),21);
(((((8,((3,16),((4,6),(10,15)))),(1,(7,18))),((11,20),(2,17))),(12,((9,(5,14)),(13,19)))),21);
((((((8,(1,7)),18),((3,16),(15,(10,(4,6))))),((11,20),(2,17))),(12,(9,((5,13),(14,19))))),21);
(((((((1,7),(8,18)),((4,6),(10,15))),(3,16)),((11,20),(2,17))),(12,((13,19),(9,(5,14))))),21);
(((((((7,8),1),18),(10,(15,(4,6)))),(3,16)),(((11,20),(2,17)),(12,((14,(5,9)),(13,19))))),21);
((((((1,7),(8,18)),(6,(10,(4,15)))),(3,16)),(((11,20),(2,17)),(12,((13,19),(9,(5,14)))))),21);
((((((4,6),(10,15)),((3,16),(18,(8,(1,7))))),((11,20),(2,17))),(12,((9,(5,14)),(13,19)))),21);
((((((8,(18,(1,7))),(10,(15,(4,6)))),(3,16)),(12,((9,(5,14)),(13,19)))),((11,20),(2,17))),21);
(((((((4,6),(10,15)),(18,(7,8))),(1,(3,16))),((11,20),(2,17))),(12,((13,19),(5,(9,14))))),21);
(((((8,18),(3,16)),((1,7),(4,(6,(10,15))))),((12,((13,19),(14,(5,9)))),((11,20),(2,17)))),21);
(((((((10,15),(4,6)),(18,(8,(1,7)))),(3,16)),((11,20),(2,17))),(12,(14,(9,(19,(5,13)))))),21);
(((((((7,18),8),((4,6),(10,15))),(1,(3,16))),((11,20),(2,17))),(12,((9,14),(5,(13,19))))),21);
((((((3,16),((1,7),(8,18))),((4,6),(10,15))),((11,20),(2,17))),(12,((13,19),(5,(9,14))))),21);
((((((1,7),(((4,6),(10,15)),(8,18))),(3,16)),((11,20),(2,17))),(12,((13,19),(9,(5,14))))),21);
(((((11,20),(2,17)),((3,16),((1,7),((6,(10,(4,15))),(8,18))))),(12,(((13,5),(9,14)),19))),21);
((((((4,6),(10,15)),((7,18),(1,8))),(3,16)),((12,((13,19),(9,(5,14)))),((11,20),(2,17)))),21);
(((((8,(7,(1,18))),(((10,15),(4,6)),(3,16))),((11,20),(2,17))),(12,((14,(5,9)),(13,19)))),21);
(((((11,20),(2,17)),((3,16),(((4,6),(10,15)),((1,7),(8,18))))),(12,((19,(5,13)),(9,14)))),21);
(((((11,20),(2,17)),((8,(1,7)),((3,16),(18,(6,(10,(4,15))))))),(12,((13,19),(5,(9,14))))),21);
((((((((1,18),8),7),((4,6),(10,15))),(3,16)),((11,20),(2,17))),(12,((13,19),(9,(5,14))))),21);
(((((((1,7),(8,18)),((4,6),(10,15))),(3,16)),((11,20),(2,17))),(12,((9,(5,14)),(13,19)))),21);
(((((11,20),(2,17)),(((1,8),((4,6),(10,15))),((3,16),(7,18)))),((19,(5,13)),(12,(9,14)))),21);
((((((((1,8),7),18),(3,16)),(6,(10,(4,15)))),(12,((13,19),(9,(5,14))))),((11,20),(2,17))),21);
(((((((7,8),1),18),(15,(10,(4,6)))),(3,16)),(((11,20),(2,17)),(12,((5,9),(14,(13,19)))))),21);
((((((8,(7,18)),1),((3,16),((4,6),(10,15)))),(12,((9,14),(19,(5,13))))),((11,20),(2,17))),21);
(((((((18,(1,7)),8),(10,((4,6),15))),(3,16)),(17,(2,(11,20)))),(12,((9,(5,14)),(13,19)))),21);
(((((((18,(8,1)),7),(15,(10,(4,6)))),(3,16)),(17,(2,(11,20)))),(12,((9,14),(5,(13,19))))),21);
((((((8,(1,7)),(18,((10,15),(4,6)))),(3,16)),((11,20),(2,17))),((9,(5,14)),(12,(13,19)))),21);
((((((8,(6,(10,(4,15)))),(3,16)),(18,(1,7))),((11,20),(2,17))),(12,(9,(14,(13,(5,19)))))),21);
((((((8,(7,18)),1),(((4,6),(10,15)),(3,16))),((11,20),(2,17))),(12,((9,(5,14)),(13,19)))),21);
((((((7,18),(1,8)),(6,(10,(4,15)))),(3,16)),((12,((5,14),(9,(13,19)))),((11,20),(2,17)))),21);
(((((11,20),(2,17)),(((4,6),(10,15)),((3,16),(8,(18,(1,7)))))),(12,((13,19),(9,(5,14))))),21);
(((((((1,7),(8,18)),((4,6),(10,15))),(3,16)),((11,20),(2,17))),((19,(5,13)),(12,(9,14)))),21);
((((((8,(18,(1,7))),(3,(4,6))),(16,(10,15))),(2,(17,(11,20)))),(12,((5,14),(9,(13,19))))),21);
((((((6,(10,(4,15))),((7,18),(1,8))),(3,16)),((11,20),(2,17))),(12,((13,19),(9,(5,14))))),21);
((((((8,(1,(7,18))),(3,16)),((4,6),(10,15))),((11,20),(17,2))),(12,(14,((5,9),(13,19))))),21);
(((((7,18),((3,16),(((4,6),(10,15)),(1,8)))),((11,20),(2,17))),((9,(13,19)),(12,(5,14)))),21);
((((3,16),(((4,6),(10,15)),(18,(8,(1,7))))),(((11,20),(2,17)),(12,((13,19),(14,(5,9)))))),21);
(((((((1,7),(8,18)),((4,15),(6,10))),(3,16)),((11,20),(2,17))),(12,((13,19),(9,(5,14))))),21);
(((((((((1,7),18),8),(10,15)),(4,6)),((11,20),(2,17))),(3,16)),(12,((5,9),(14,(13,19))))),21);
((((((((8,18),1),7),(3,16)),((4,6),(10,15))),((11,20),(2,17))),(12,(9,((13,19),(5,14))))),21);
(((((11,20),(2,17)),((3,16),(((4,6),(10,15)),(18,(8,(1,7)))))),(((13,19),(14,(5,9))),12)),21);
(((((3,16),((6,(10,(4,15))),(18,(8,(1,7))))),((11,20),(2,17))),(12,((19,(5,13)),(9,14)))),21);
(((((((8,18),(1,7)),((4,6),(10,15))),(3,16)),((11,20),(2,17))),(12,((5,14),(9,(13,19))))),21);
((((((7,(8,(1,18))),(3,16)),((4,6),(10,15))),(17,(2,(11,20)))),(12,((9,14),(5,(13,19))))),21);
(((((((1,7),(18,8)),((4,6),(10,15))),(3,16)),((11,20),(2,17))),(12,((5,(9,14)),(13,19)))),21);
(((((((18,7),(8,1)),((4,6),(10,15))),(3,16)),((11,20),(2,17))),(12,(9,((5,14),(13,19))))),21);
(((((3,16),((10,(4,15)),(8,(6,(18,(1,7)))))),(2,(17,(11,20)))),(12,((5,14),(13,(9,19))))),21);
((((((((1,7),18),8),((4,6),(10,15))),(3,16)),((11,20),(2,17))),(12,((13,19),(9,(5,14))))),21);
(((((((10,15),(4,6)),(8,(18,(1,7)))),(3,16)),((11,20),(2,17))),(12,((13,19),(14,(9,5))))),21);
(((((((7,(1,18)),8),((4,6),(10,15))),(3,16)),(2,(17,(11,20)))),(12,((14,(5,9)),(13,19)))),21);
((((((8,18),(((4,6),(10,15)),(1,7))),(3,16)),((11,20),(2,17))),(12,(19,(13,(9,(5,14)))))),21);
((((12,((9,(5,14)),(13,19))),(((4,6),(10,15)),((3,16),((1,7),(8,18))))),((11,20),(2,17))),21);
(((((3,16),((10,(15,(4,6))),(8,(18,(1,7))))),((11,20),(2,17))),(12,((9,14),(19,(5,13))))),21);
(((((((18,(7,1)),8),((4,6),(10,15))),(3,16)),((11,20),(2,17))),((5,9),(12,(14,(13,19))))),21);
(((((3,16),((6,(10,(4,15))),(8,(18,(1,7))))),((11,20),(2,17))),(12,((9,(5,14)),(13,19)))),21);
(((((1,((10,(15,(4,6))),(18,(7,8)))),(3,16)),(2,(17,(11,20)))),(12,((5,14),(9,(13,19))))),21);
(((((((7,(1,18)),8),(3,16)),((4,6),(10,15))),((11,20),(2,17))),(12,(9,((13,19),(5,14))))),21);
((((((1,(18,(7,8))),((4,15),(6,10))),(3,16)),((11,20),(2,17))),((9,(5,14)),(12,(13,19)))),21);
(((((11,20),(2,17)),((3,16),(((4,6),(10,15)),((7,18),(1,8))))),(12,((13,19),(9,(5,14))))),21);
((((((((1,8),18),7),(15,(10,(4,6)))),(3,16)),((11,20),(2,17))),(12,((13,19),(14,(5,9))))),21);
((((((7,(8,18)),((4,6),(10,15))),(1,(3,16))),((11,20),(2,17))),(12,((9,14),(19,(5,13))))),21);
((((((((4,6),10),15),(8,(18,(1,7)))),(3,16)),((11,20),(2,17))),(12,(19,(13,(5,(9,14)))))),21);
(((((((4,6),(10,15)),((1,7),(8,18))),(3,16)),((11,20),(2,17))),(12,((13,19),(14,(5,9))))),21);
(((12,((13,19),(5,(9,14)))),((((1,8),(7,18)),((3,16),(6,(10,(4,15))))),((11,20),(2,17)))),21);
((((8,((6,(10,(4,15))),(18,(1,7)))),(3,16)),((17,(2,(11,20))),(12,((13,19),(9,(5,14)))))),21);
(((((13,19),(12,(9,(5,14)))),((11,20),(2,17))),(((10,15),(4,6)),((3,16),(8,(18,(1,7)))))),21);
(((((((18,(1,7)),8),(6,(10,(4,15)))),(3,16)),(17,(2,(11,20)))),(12,((13,19),(9,(5,14))))),21);
((((12,(14,((9,(5,19)),13))),((3,16),((15,(10,(4,6))),(8,(18,(1,7)))))),((11,20),(2,17))),21);
((((((6,(10,(4,15))),(8,(18,(1,7)))),(3,16)),((11,20),(2,17))),(12,((13,19),(9,(5,14))))),21);
(((((((((1,(7,8)),18),((4,6),(10,15))),3),16),(2,17)),(11,20)),(12,(9,(14,(19,(5,13)))))),21);
(((((((1,18),(7,8)),(3,16)),(6,(10,(4,15)))),(17,(2,(11,20)))),(12,((13,19),(9,(5,14))))),21);
(((((((4,6),(10,15)),(3,16)),((1,7),(8,18))),((11,20),(2,17))),((13,19),(12,(9,(5,14))))),21);
((((12,((13,19),(5,(9,14)))),(((10,15),(4,6)),((3,16),(8,(18,(1,7)))))),((11,20),(2,17))),21);
(((((((1,7),(8,18)),((4,6),(10,15))),(3,16)),((11,20),(2,17))),((9,(5,14)),(12,(13,19)))),21);
(((((((4,6),(10,15)),((1,7),(8,18))),(3,16)),((11,20),(2,17))),(12,((9,14),(19,(5,13))))),21);
((((((8,(18,7)),1),((11,20),(2,17))),((10,(15,(4,6))),(3,16))),(12,((13,19),(5,(9,14))))),21);
(((((((7,(8,18)),1),((4,6),(10,15))),(3,16)),((11,20),(2,17))),(12,((9,(5,14)),(13,19)))),21);
(((((8,(18,(1,7))),((3,16),(15,(10,(4,6))))),((11,20),(2,17))),(12,((19,(5,13)),(9,14)))),21);
(((((((4,6),(10,15)),(18,(8,(1,7)))),(3,16)),((11,20),(2,17))),((13,19),(12,(9,(5,14))))),21);
(((((((4,6),(10,15)),((1,7),(8,18))),(3,16)),((11,20),(2,17))),(12,((13,19),(9,(5,14))))),21);
(((((((8,18),(1,7)),((4,6),(10,15))),(3,16)),((11,20),(2,17))),(12,(9,((5,14),(13,19))))),21);
((((((10,(15,(4,6))),(18,(7,(1,8)))),(3,16)),(12,((14,(5,9)),(13,19)))),((11,20),(2,17))),21);
((((((1,7),(18,8)),((3,16),((4,6),(10,15)))),((11,20),(2,17))),(12,((13,19),(14,(5,9))))),21);
((((11,20),(((3,16),(((4,6),(10,15)),(8,(18,(1,7))))),(2,17))),((13,19),(12,(5,(9,14))))),21);
(((((18,(3,16)),((8,(1,7)),((10,15),(4,6)))),((11,20),(2,17))),((13,19),(12,(5,(9,14))))),21);
((((((4,6),(10,15)),((3,16),(18,(8,(1,7))))),((11,20),(2,17))),(12,((9,(5,14)),(13,19)))),21);
((((((((1,7),8),18),(4,(6,(10,15)))),(3,16)),((11,20),(2,17))),(12,(9,((5,14),(13,19))))),21);
(((((((18,(1,7)),8),(15,(10,(4,6)))),(3,16)),((2,17),(11,20))),(12,((9,(5,14)),(13,19)))),21);
(((((((4,6),(10,15)),(16,(8,((1,7),18)))),3),((11,20),(2,17))),(12,((13,19),(9,(5,14))))),21);
(((((((18,8),(1,7)),(3,16)),((4,6),(10,15))),(17,(2,(11,20)))),(12,((13,19),(9,(5,14))))),21);
((((((10,(15,(4,6))),(8,(18,(1,7)))),(3,16)),((11,20),(2,17))),(12,((13,19),(9,(5,14))))),21);
(((((8,(7,(1,18))),((3,16),(6,(10,(4,15))))),((11,20),(2,17))),(12,((9,14),(13,(5,19))))),21);
(((((((10,15),(4,6)),(18,(8,(1,7)))),(3,16)),(12,((13,19),(5,(9,14))))),((11,20),(2,17))),21);
(((((((1,7),(8,18)),(3,16)),((4,6),(10,15))),((11,20),(2,17))),(12,((9,14),(5,(13,19))))),21);
((((((8,(1,7)),18),((3,16),((4,6),(10,15)))),((11,20),(2,17))),(12,((5,9),(14,(13,19))))),21);
(((((((7,8),(1,18)),((10,15),(4,6))),(3,16)),(12,((13,19),(14,(5,9))))),(2,(17,(11,20)))),21);
(((((((18,(1,7)),8),(10,(15,(4,6)))),(3,16)),((11,20),(2,17))),(12,((13,19),(9,(5,14))))),21);
((((((1,18),7),8),((3,16),((4,6),(10,15)))),((12,((13,19),(5,(9,14)))),(17,(2,(11,20))))),21);
((((((1,7),(8,18)),((3,16),(15,(10,(4,6))))),((11,20),(2,17))),(12,((13,19),(9,(5,14))))),21);
((((12,(13,(19,(9,(5,14))))),((11,20),(2,17))),((3,16),(((4,6),(10,15)),(18,(8,(1,7)))))),21);
((((((((1,8),18),7),((4,15),(6,10))),(3,16)),((11,20),(2,17))),(12,(9,((5,14),(13,19))))),21);
(((((3,16),(((1,7),(18,8)),((10,15),(4,6)))),((11,20),(2,17))),(12,((9,19),(13,(5,14))))),21);
(((((((8,(1,18)),7),((4,6),(10,15))),(3,16)),((11,20),(2,17))),(12,((9,(5,14)),(13,19)))),21);
(((((((15,(10,(4,6))),(8,(1,7))),18),(3,16)),((11,20),(2,17))),(12,((13,19),(9,(5,14))))),21);
((((((1,7),(6,(10,(4,15)))),((3,16),(8,18))),((2,17),(11,20))),(12,((9,14),(19,(5,13))))),21);
(((((3,16),((18,(8,(1,7))),(10,(15,(4,6))))),((11,20),(2,17))),((9,(13,19)),(12,(5,14)))),21);
((((((10,15),(7,(8,(1,18)))),(4,6)),(3,16)),(((11,20),(2,17)),(12,((13,19),(5,(9,14)))))),21);
((((((4,6),(10,15)),((3,16),(18,(8,(1,7))))),((11,20),(2,17))),(12,(9,((5,14),(13,19))))),21);
(((((((1,7),18),8),(((4,6),(10,15)),(3,16))),(12,(13,(19,(9,(5,14)))))),((11,20),(2,17))),21);
(((((((8,(1,7)),18),(3,16)),((4,6),(10,15))),((11,20),(2,17))),(12,((5,14),(19,(9,13))))),21);
((((((8,(18,(1,7))),((3,16),((10,15),(4,6)))),(2,17)),(11,20)),(12,((19,(5,13)),(9,14)))),21);
(((((((18,(1,7)),8),((10,15),(4,6))),(3,16)),(2,(17,(11,20)))),(12,((9,(5,14)),(13,19)))),21);
(((((11,20),(2,17)),((3,16),(((10,15),(4,6)),(8,(1,(7,18)))))),(12,((13,19),(5,(9,14))))),21);
(((((3,16),(((10,15),(4,6)),((1,7),(8,18)))),((11,20),(2,17))),(12,((9,(5,14)),(13,19)))),21);
(((((11,20),(2,17)),((3,16),(((4,6),(10,15)),((1,7),(8,18))))),((9,(5,14)),(12,(13,19)))),21);
((((((((7,1),18),8),(3,16)),((4,6),(10,15))),((11,20),(2,17))),(12,((9,(5,14)),(13,19)))),21);
(((((((1,7),(8,18)),((10,15),(4,6))),(3,16)),((11,20),(2,17))),((13,19),(12,(5,(9,14))))),21);
(((((18,(8,(1,7))),(((4,6),(10,15)),(3,16))),(17,(2,(11,20)))),(12,((13,19),(5,(9,14))))),21);
((((12,((13,19),(9,(5,14)))),(((4,6),(10,15)),((3,16),(8,(18,(1,7)))))),((11,20),(2,17))),21);
((((((4,6),(10,15)),((3,16),(18,(8,(1,7))))),((11,20),(2,17))),(12,((13,19),(9,(5,14))))),21);
(((((((1,7),(8,18)),((4,6),(10,15))),(3,16)),((11,20),(2,17))),(12,((9,14),(13,(5,19))))),21);
(((((3,16),(((4,6),(10,15)),(18,(1,7)))),(8,((11,20),(2,17)))),(12,((13,19),(9,(5,14))))),21);
((((((8,(1,7)),18),((4,6),(10,15))),(3,16)),((12,(19,(13,(5,(9,14))))),((11,20),(2,17)))),21);
((((((4,6),(10,15)),((8,18),3)),(1,7)),((12,((13,19),(14,(5,9)))),(16,((11,20),(2,17))))),21);
(((((((1,8),(7,18)),((4,6),(10,15))),(3,16)),(2,(17,(11,20)))),(12,((9,(5,14)),(13,19)))),21);
(((((2,17),(((4,6),(10,15)),((3,16),((1,7),(8,18))))),(11,20)),(12,(9,(14,(19,(5,13)))))),21);
(((((6,(4,(10,15))),((7,18),(1,8))),(3,16)),((12,((13,19),(9,(5,14)))),(17,(2,(11,20))))),21);
((((((7,(1,8)),18),(15,(10,(4,6)))),(3,16)),(((11,20),(17,2)),(12,((9,14),(5,(13,19)))))),21);
((((((15,(10,(4,6))),(3,16)),(7,(1,(8,18)))),((11,20),(2,17))),(12,((9,(5,14)),(13,19)))),21);
(((((((1,18),(7,8)),(6,(10,(4,15)))),(3,16)),(17,(2,(11,20)))),(12,((13,19),(5,(9,14))))),21);
((((((6,(15,(4,10))),(8,(18,(1,7)))),(3,16)),((11,20),(2,17))),(12,((13,19),(9,(5,14))))),21);
(((12,((9,(5,14)),(13,19))),(((4,6),(10,15)),(((11,20),(2,17)),((3,16),(18,(8,(1,7))))))),21);
(((((3,16),((1,18),(7,8))),(6,(10,(4,15)))),((12,((13,19),(9,(5,14)))),((11,20),(2,17)))),21);
(((((16,(((4,15),(6,10)),((1,7),(8,18)))),3),((11,20),(17,2))),(12,(13,(19,(5,(9,14)))))),21);
((((((18,(7,1)),8),((3,16),((4,6),(10,15)))),((11,20),(2,17))),(12,((19,(5,13)),(9,14)))),21);
(((((((1,7),(8,18)),(3,16)),((4,6),(10,15))),((11,20),(2,17))),(12,((13,19),(14,(5,9))))),21);
(((((13,19),(12,(5,(9,14)))),((11,20),(2,17))),((18,(8,(1,7))),(((4,6),(10,15)),(3,16)))),21);
(((((((18,8),1),(3,16)),(7,((4,6),(10,15)))),((11,20),(2,17))),(13,(12,(19,(14,(5,9)))))),21);
((((3,16),(((4,10),(6,15)),(1,(7,(8,18))))),(((11,20),(2,17)),(((5,14),(9,13)),(12,19)))),21);
((((((18,(1,7)),((4,6),(10,15))),(8,(3,16))),((11,20),(2,17))),(12,((9,(5,14)),(13,19)))),21);
((((((((1,8),18),7),(6,(10,(4,15)))),(3,16)),((11,20),(2,17))),((13,19),(12,(9,(5,14))))),21);
(((((8,((10,15),(4,6))),((1,(7,18)),(3,16))),((11,20),(2,17))),(12,((13,19),(14,(5,9))))),21);
(((((((1,7),(8,18)),(4,(6,(10,15)))),(3,16)),(17,(2,(11,20)))),(12,(19,(13,(14,(5,9)))))),21);
((((((((7,18),1),8),(6,(4,(10,15)))),(3,16)),((11,20),(2,17))),(12,(13,((5,19),(9,14))))),21);
((((((8,1),(7,18)),(3,((4,6),(10,15)))),16),((12,((19,(5,13)),(9,14))),((11,20),(2,17)))),21);
((((((8,(7,(1,18))),(3,16)),(6,(4,(10,15)))),((11,20),(2,17))),((9,(5,14)),(12,(13,19)))),21);
(((((((1,7),(8,18)),((4,6),(10,15))),(3,16)),((11,20),(2,17))),(12,((13,19),(14,(5,9))))),21);
((((((3,16),(((4,6),(10,15)),(7,8))),(1,18)),((11,20),(2,17))),((9,14),(12,(5,(13,19))))),21);
((((((8,(1,7)),(18,(10,(15,(4,6))))),(3,16)),((11,20),(2,17))),(12,((9,14),(5,(19,13))))),21);
(((((((1,7),(8,18)),(3,16)),((4,6),(10,15))),((11,20),(2,17))),(12,(19,((5,13),(9,14))))),21);
(((((17,(11,20)),2),((3,16),(8,(((10,15),(4,6)),(7,(1,18)))))),(12,((9,(5,14)),(13,19)))),21);
((((((1,(8,18)),((3,16),((4,6),(10,15)))),7),((11,20),(2,17))),(12,(19,(13,(9,(5,14)))))),21);
((((((((18,8),(1,7)),(10,15)),(4,6)),(3,16)),((11,20),(2,17))),(12,((13,19),(9,(5,14))))),21);
(((12,((13,19),(9,(5,14)))),(((11,20),(2,17)),((3,16),(((10,15),(4,6)),(8,(18,(1,7))))))),21);
((((((3,16),(1,8)),((7,18),((4,6),(10,15)))),((11,20),(2,17))),((13,19),(12,(9,(5,14))))),21);
(((((((7,8),18),1),((3,16),((4,6),(10,15)))),((11,20),(2,17))),(12,(13,(19,(9,(5,14)))))),21);
((((((18,(1,7)),8),(6,(4,(10,15)))),(3,16)),((12,((5,(9,14)),(13,19))),(2,(17,(11,20))))),21);
(((((3,16),(8,((6,(10,(4,15))),(7,(1,18))))),((11,20),(2,17))),(12,((5,14),(9,(13,19))))),21);
(((((((8,(1,7)),18),(4,(6,(10,15)))),(3,16)),(12,((13,19),(9,(5,14))))),((11,20),(2,17))),21);
((((((((8,18),1),7),(3,16)),(15,(10,(4,6)))),(17,(2,(11,20)))),(12,(13,(19,(14,(5,9)))))),21);
(((((((8,(1,7)),18),(15,(10,(4,6)))),(3,16)),((11,20),(2,17))),(12,(19,(13,(5,(9,14)))))),21);
(((((6,(10,(4,15))),((1,7),(8,18))),(3,16)),(((11,20),(2,17)),(12,(9,((13,19),(5,14)))))),21);
((((((8,18),(1,7)),((3,16),(15,(6,(4,10))))),((11,20),(2,17))),(12,((14,(5,9)),(13,19)))),21);
((((3,16),(((10,(15,(4,6))),((7,18),(1,8))),((11,20),(2,17)))),(12,((13,19),(9,(5,14))))),21);
(((((3,16),((15,(10,(4,6))),(8,(1,(7,18))))),((11,20),(2,17))),(12,(14,((13,19),(5,9))))),21);
(((((((7,8),(18,1)),((4,6),(10,15))),(3,16)),(17,(2,(11,20)))),(12,((5,14),(9,(13,19))))),21);
((((((((8,(7,18)),1),(6,(10,(4,15)))),3),16),(2,(17,(11,20)))),(12,((9,(5,14)),(13,19)))),21);
((((((4,6),(10,15)),((3,16),(8,(18,(1,7))))),((11,20),(2,17))),(12,((14,(5,9)),(13,19)))),21);
((((((7,(1,(8,18))),((4,6),(10,15))),(3,16)),((11,20),(2,17))),((9,(5,14)),(12,(13,19)))),21);
((((((1,7),(6,(15,(4,10)))),((3,16),(8,18))),(2,((11,20),17))),(12,(9,((5,14),(13,19))))),21);
((((((6,(10,15)),(4,((1,7),(8,18)))),(3,16)),((11,20),(2,17))),((9,(5,14)),(12,(13,19)))),21);
((((((((4,6),(10,15)),(8,(1,7))),18),(3,16)),((11,20),(2,17))),(12,((13,19),(9,(5,14))))),21);
(((((((4,6),(10,15)),((1,7),(8,18))),(3,16)),(2,(17,(11,20)))),(12,((13,19),(14,(5,9))))),21);
((((((1,7),(8,18)),((4,6),(10,15))),(3,16)),(((11,20),(2,17)),(12,(9,((5,14),(13,19)))))),21);
((((((8,18),((1,7),((4,6),(10,15)))),(3,16)),(2,(17,(11,20)))),(12,((13,19),(9,(5,14))))),21);
((((((1,(18,(7,8))),((4,6),(10,15))),(3,16)),((11,20),(2,17))),(12,((5,(9,14)),(13,19)))),21);
((((((4,6),(10,15)),((1,18),(7,8))),(3,16)),((12,(13,((5,14),(9,19)))),((11,20),(2,17)))),21);
(((((((7,(8,18)),1),((4,6),(10,15))),(3,16)),((2,17),(11,20))),(12,((9,14),(19,(5,13))))),21);
(((((3,16),((8,(18,(1,7))),(6,(4,(10,15))))),((11,20),(2,17))),(12,((13,19),(9,(5,14))))),21);
(((((((18,(1,7)),8),((10,15),(4,6))),(3,16)),((11,20),(2,17))),(12,(19,((9,(5,14)),13)))),21);
((((((((1,7),18),8),((4,6),(10,15))),(3,16)),(2,(17,(11,20)))),(12,((13,19),(9,(5,14))))),21);
(((((((1,18),(7,8)),((4,6),(10,15))),(3,16)),((11,20),(2,17))),(12,((19,(5,13)),(9,14)))),21);
(((((((18,(1,7)),8),((10,15),(4,6))),(3,16)),((11,20),(2,17))),(12,((13,19),(9,(5,14))))),21);
((((((3,16),((7,8),(6,(15,(4,10))))),(1,18)),((11,20),(2,17))),(12,((13,19),(9,(5,14))))),21);
((((((((4,6),(10,15)),(1,7)),(8,18)),(3,16)),(2,(17,(11,20)))),(12,(14,((13,19),(5,9))))),21);
((((((3,16),((7,(8,18)),(1,((4,6),(10,15))))),(11,20)),(2,17)),(12,((13,19),(9,(5,14))))),21);
(((((((1,7),(18,8)),(4,(15,(6,10)))),(3,16)),((11,20),(2,17))),(12,(19,(13,(14,(5,9)))))),21);
(((((((8,7),18),1),(3,16)),(4,(6,(10,15)))),((12,(13,(19,(9,(5,14))))),((11,20),(2,17)))),21);
(((((3,16),(((4,6),(10,15)),(1,(8,(7,18))))),(17,(2,(11,20)))),(12,((9,14),(19,(5,13))))),21);
((((17,(2,(11,20))),((18,(8,(7,1))),(((4,6),(10,15)),(3,16)))),(12,(9,((5,14),(13,19))))),21);
(((((((7,(1,18)),8),(3,16)),(15,(10,(4,6)))),((11,20),(2,17))),(12,(13,(19,(9,(5,14)))))),21);
((((((4,6),(10,15)),(18,(1,7))),(8,(3,16))),((12,((13,(5,19)),(9,14))),(2,(17,(11,20))))),21);
((((((8,(18,(1,7))),10),((3,16),(15,(4,6)))),((11,20),(2,17))),(12,((5,14),(9,(13,19))))),21);
(((((((8,18),(1,7)),6),((4,(10,15)),(3,16))),((11,20),(2,17))),(12,((13,19),(14,(5,9))))),21);
((((((8,(7,(18,1))),(10,15)),((4,6),(3,16))),((11,20),(2,17))),(12,((14,(5,9)),(13,19)))),21);
(((((((1,7),18),8),((4,6),(10,15))),(3,16)),(((11,20),(2,17)),(12,((13,19),(9,(5,14)))))),21);
(((((((18,(1,7)),8),((4,6),(10,15))),(3,16)),(17,(2,(11,20)))),((13,19),(12,(14,(5,9))))),21);
(((((((1,7),(18,8)),((4,6),(10,15))),(3,16)),(17,(2,(11,20)))),(12,((9,(5,14)),(13,19)))),21);
((((((1,(7,18)),8),(3,16)),((10,15),(4,6))),(((19,(5,(9,14))),(12,13)),((11,20),(2,17)))),21);
((((((8,(1,(7,18))),((10,15),(4,6))),(3,16)),((11,20),(2,17))),(12,((9,14),(5,(13,19))))),21);
((((17,(2,(11,20))),((12,((9,(5,14)),(13,19))),((3,16),((4,6),(10,15))))),(18,(8,(1,7)))),21);
((((((8,(18,(1,7))),(3,16)),((4,6),(10,15))),((11,20),(2,17))),(12,(5,((13,19),(9,14))))),21);
(((((8,(18,(1,7))),((4,6),(10,15))),(3,16)),(((11,20),(2,17)),(12,((13,19),(14,(5,9)))))),21);
(((((3,16),((18,(8,(1,7))),((4,6),(10,15)))),(12,(9,((5,14),(13,19))))),(2,((11,20),17))),21);
(((((((4,6),(10,15)),((1,7),(8,18))),(3,16)),((11,20),(2,17))),(12,((13,19),(9,(5,14))))),21);
((((((6,(10,(4,15))),((1,7),(8,18))),(3,16)),((11,20),(2,17))),(12,((9,(5,14)),(13,19)))),21);
((((2,(17,(11,20))),((3,16),((8,(1,7)),(18,((4,6),(10,15)))))),(12,((13,19),(9,(5,14))))),21);
(((12,((13,19),(9,(5,14)))),(((11,20),(2,17)),(((1,7),((4,6),(10,15))),((8,18),(3,16))))),21);
(((((((18,(1,7)),8),(10,(15,(4,6)))),(3,16)),((11,20),(2,17))),((9,(5,14)),(12,(13,19)))),21);
((((3,16),(8,(((4,6),(10,15)),(1,(7,18))))),(((11,20),(2,17)),(12,((13,19),(9,(5,14)))))),21);
((((((6,(4,(10,15))),((3,16),8)),(18,(1,7))),((11,20),(2,17))),(12,((13,19),(9,(5,14))))),21);
((((((8,(18,(1,7))),((4,6),(10,15))),(3,16)),((11,20),(17,2))),(12,(9,((5,14),(13,19))))),21);
((((((((1,7),8),18),(3,16)),((10,15),(4,6))),((11,20),(2,17))),(12,((5,9),(14,(13,19))))),21);
((((((4,6),(10,15)),(18,(8,(1,7)))),((3,16),((11,20),(2,17)))),(12,((13,19),(9,(5,14))))),21);
((((2,(17,(11,20))),(((4,6),(10,15)),((3,16),(8,(18,(1,7)))))),(12,(14,((9,13),(5,19))))),21);
((((((7,(8,(1,18))),((4,6),(10,15))),(3,16)),(12,((5,19),(13,(9,14))))),(17,(2,(11,20)))),21);
(((((((6,(10,(4,15))),(8,(1,7))),18),(3,16)),((11,20),(2,17))),(12,((9,(5,14)),(13,19)))),21);
(((((((4,6),(10,15)),(8,(18,(1,7)))),(3,16)),((11,20),(2,17))),(12,((9,(5,14)),(13,19)))),21);
(((((3,16),((11,20),(2,17))),(12,((13,19),(9,(5,14))))),(((4,6),(10,15)),((1,7),(8,18)))),21);
((((((1,18),(7,8)),((4,6),(10,15))),(3,16)),((12,(19,(13,(9,(5,14))))),((11,20),(2,17)))),21);
((((((8,18),((4,6),(10,15))),((1,7),(3,16))),((11,20),(2,17))),(12,((9,(5,14)),(13,19)))),21);
(((((10,(15,(4,6))),(3,16)),((1,7),(8,18))),((12,((13,19),(9,(5,14)))),((11,20),(2,17)))),21);
((((11,20),(2,17)),(((3,16),(((4,6),(10,15)),(18,(8,(1,7))))),(12,((9,(5,14)),(13,19))))),21);
((((((8,((4,6),(10,15))),(7,(1,18))),(3,16)),((11,20),(2,17))),(12,((9,(5,14)),(13,19)))),21);
(((((11,20),(2,17)),(((10,15),(4,6)),((3,16),(8,(18,(1,7)))))),((9,(5,14)),(12,(13,19)))),21);
((((((7,(8,(1,18))),((4,6),(10,15))),(3,16)),((11,20),(2,17))),(12,((5,9),(14,(13,19))))),21);
(((((3,16),(((4,6),(10,15)),(8,(18,(1,7))))),((11,20),(2,17))),(12,((13,19),(9,(5,14))))),21);
(((((((8,(1,7)),18),((4,6),(10,15))),(3,16)),(12,(13,(19,(9,(5,14)))))),((11,20),(2,17))),21);
((((((3,16),(6,(8,(1,7)))),(18,(4,(10,15)))),((11,20),(2,17))),((13,19),(12,(9,(5,14))))),21);
((((((18,(8,(1,7))),(4,(6,(10,15)))),(3,16)),((11,20),(2,17))),(12,((13,19),(9,(5,14))))),21);
((((((18,(8,(1,7))),((6,15),(4,10))),(3,16)),((11,20),(2,17))),(12,((13,19),(9,(5,14))))),21);
(((((((8,(1,18)),7),((4,6),(10,15))),(3,16)),((11,20),(2,17))),(12,((13,19),(14,(5,9))))),21);
(((((((4,6),(10,15)),(8,18)),((3,16),(1,7))),(17,(2,(11,20)))),(12,((9,(5,14)),(13,19)))),21);
(((((6,(10,(4,15))),(8,(7,(1,18)))),(3,16)),((12,((13,19),(14,(5,9)))),((11,20),(2,17)))),21);
(((((11,20),(2,17)),((((4,6),(10,15)),(18,(8,(1,7)))),(3,16))),(12,((13,19),(14,(5,9))))),21);
((((((8,18),(1,7)),((4,6),(10,15))),(3,16)),(((9,(5,14)),(12,(13,19))),((11,20),(2,17)))),21);
(((((8,(18,(1,7))),((4,6),(10,15))),(3,16)),(((11,20),(2,17)),(12,((13,19),(14,(5,9)))))),21);
(((12,(13,(19,(5,(9,14))))),((((7,18),(1,8)),((3,16),((4,6),(10,15)))),((11,20),(2,17)))),21);
((((((6,(4,(10,15))),(8,(18,(1,7)))),(3,16)),((11,20),(2,17))),(12,((13,19),(5,(9,14))))),21);
((((8,(3,16)),(((10,15),(18,(1,7))),(4,6))),((12,((13,19),(9,(5,14)))),((11,20),(2,17)))),21);
(((((((18,(1,7)),8),((10,15),(4,6))),(3,16)),((11,20),(2,17))),(12,(5,(13,((9,14),19))))),21);
((((16,((6,(4,(10,15))),(18,(8,(1,7))))),3),((17,(2,(11,20))),(12,((9,14),(5,(13,19)))))),21);
((((((18,(1,7)),(8,(6,(10,(4,15))))),(3,16)),((11,20),(2,17))),(12,((13,19),(9,(5,14))))),21);
((((((10,(15,(4,6))),((7,8),(1,18))),(3,16)),((11,20),(2,17))),(12,((9,(5,14)),(13,19)))),21);
(((((3,16),(((10,15),(4,6)),(8,(18,(1,7))))),((11,20),(2,17))),(12,((13,19),(9,(5,14))))),21);
((((((3,16),((1,18),(7,8))),((4,6),(10,15))),((11,20),(2,17))),(9,(12,((5,14),(13,19))))),21);
(((((((18,(1,8)),7),((4,6),(10,15))),(3,16)),((11,20),(2,17))),((13,19),((5,(9,14)),12))),21);
(((((((1,8),7),18),((3,16),((10,15),(4,6)))),((11,20),(2,17))),(12,((13,19),(9,(5,14))))),21);
((((((((1,18),7),8),((4,15),(6,10))),(3,16)),(12,((13,19),(9,(5,14))))),((11,20),(2,17))),21);
((((((3,16),(7,(1,(8,18)))),((10,15),(6,4))),((11,20),(2,17))),(12,((13,19),(9,(5,14))))),21);
((((((((8,7),18),1),((4,6),(10,15))),(3,16)),((11,20),(2,17))),(12,((13,(5,19)),(9,14)))),21);
((((((7,(1,18)),8),(((4,6),(10,15)),(3,16))),((11,20),(2,17))),((9,19),((14,(5,13)),12))),21);
(((((7,18),((4,6),(10,15))),((3,16),(1,8))),((12,((14,(5,9)),(13,19))),((11,20),(2,17)))),21);
((((((8,(18,(1,7))),(3,16)),((4,6),(10,15))),((11,20),(2,17))),((5,(13,19)),(12,(9,14)))),21);
(((((2,11),(17,20)),((3,16),((6,(10,(4,15))),(8,(18,(1,7)))))),(12,((13,19),(14,(5,9))))),21);
(((((7,18),((3,16),((1,8),((4,6),(10,15))))),((11,20),(2,17))),(12,((5,(13,19)),(9,14)))),21);
(((((((15,(4,6)),(7,(8,(1,18)))),10),(3,16)),(12,((5,14),(9,(13,19))))),((11,20),(2,17))),21);
(((((((((1,7),18),8),10),(3,16)),(15,(4,6))),((11,20),(2,17))),(12,((13,(5,19)),(9,14)))),21);
((((17,(2,(11,20))),((7,(18,(1,8))),((3,16),(10,(15,(4,6)))))),(12,((13,19),(9,(5,14))))),21);
((((((15,(10,(4,6))),(18,(8,(1,7)))),(3,16)),((11,20),(2,17))),(12,((5,19),(13,(9,14))))),21);
(((((2,(11,20)),17),((3,16),((10,(6,(4,15))),((1,7),(8,18))))),(12,((9,(5,14)),(13,19)))),21);
((((((10,(4,15)),(8,(18,(1,7)))),6),(3,16)),(((11,20),(2,17)),(9,(12,((5,14),(13,19)))))),21);
(((((3,16),(((4,6),(10,15)),((1,7),(8,18)))),((11,20),(2,17))),(12,(13,((5,19),(9,14))))),21);
(((((((4,10),(6,15)),((1,7),(18,8))),(3,16)),((11,20),(2,17))),(12,((13,19),(9,(5,14))))),21);
((((((1,(7,(18,8))),((4,6),(10,15))),(3,16)),((11,20),(2,17))),(12,(13,(19,(14,(5,9)))))),21);
((((((((8,1),7),18),((4,6),(10,15))),(3,16)),(12,((5,14),(9,(13,19))))),(17,(2,(11,20)))),21);
(((((8,(18,(1,7))),(6,(4,(10,15)))),(3,16)),(((11,20),(2,17)),(12,((5,(13,19)),(9,14))))),21);
((((3,16),(((4,6),(10,15)),(8,(18,(1,7))))),((12,(13,(19,(9,(5,14))))),((11,20),(2,17)))),21);
((((12,((19,(5,13)),(9,14))),((7,((4,6),(10,15))),(17,(2,(11,20))))),((18,(1,8)),(3,16))),21);
((((((8,(1,7)),18),((3,16),((4,6),(10,15)))),(2,(17,(11,20)))),(12,((13,19),(9,(5,14))))),21);
(((((((4,6),(10,15)),((7,18),(1,8))),(3,16)),((11,20),(2,17))),((13,19),((5,(9,14)),12))),21);
(((((((8,18),(1,7)),(3,16)),(6,(4,(10,15)))),((11,20),(2,17))),(12,(9,((13,19),(5,14))))),21);
((((((8,18),(1,7)),((4,6),(10,15))),((3,16),((11,20),(2,17)))),(12,(13,(19,(5,(9,14)))))),21);
((((((8,(1,7)),(18,(6,(15,(4,10))))),(3,16)),(17,(2,(11,20)))),(12,(19,(13,(9,(5,14)))))),21);
(((((((15,(4,10)),6),((1,7),(8,18))),(3,16)),(17,(2,(11,20)))),(12,((13,19),(9,(5,14))))),21);
(((((((18,(1,7)),8),(15,(10,(4,6)))),(3,16)),((11,20),(2,17))),(12,((9,14),(5,(13,19))))),21);
(((((2,17),(11,20)),((3,16),(((4,6),(10,15)),(8,(18,(1,7)))))),(12,((13,19),(14,(5,9))))),21);
(((((((1,7),(8,18)),((4,6),(10,15))),(3,16)),(12,(19,(13,(5,(9,14)))))),((11,20),(2,17))),21);
(((((11,20),(2,17)),(((4,6),(10,15)),((3,16),(18,(8,(1,7)))))),(12,((13,19),(14,(5,9))))),21);
((((((((18,1),8),7),(15,(10,(4,6)))),(3,16)),((11,20),(2,17))),(12,((5,9),(14,(13,19))))),21);
((((((((8,18),1),7),((10,15),(4,6))),(3,16)),((11,20),(2,17))),(12,((5,9),(14,(13,19))))),21);
((((((7,((1,18),8)),(3,16)),(6,(10,(4,15)))),((11,20),(2,17))),(12,(5,((9,14),(13,19))))),21);
(((((3,16),(18,((4,6),(10,15)))),(8,(1,7))),((((5,14),(13,19)),(9,12)),(2,(17,(11,20))))),21);
((((((18,(8,(1,7))),(6,(10,(4,15)))),(3,16)),((11,20),(2,17))),((19,(14,(5,9))),(13,12))),21);
((((((10,(18,(1,7))),(8,(15,(4,6)))),(3,16)),((2,17),(11,20))),(12,((14,(5,9)),(13,19)))),21);
(((((((8,18),(1,7)),(3,16)),(10,(15,(4,6)))),(17,(2,(11,20)))),(12,((13,19),(14,(5,9))))),21);
((((((((1,8),7),18),((4,6),(10,15))),(3,16)),((11,20),(2,17))),(12,((13,19),(9,(5,14))))),21);
((((((1,7),(8,18)),(15,(10,(4,6)))),(3,16)),((12,((5,14),(9,(13,19)))),((11,20),(2,17)))),21);
((((((1,8),((4,6),(10,15))),((3,16),(7,18))),((11,20),(2,17))),(12,((13,19),(9,(5,14))))),21);
(((((((4,6),(10,15)),(7,8)),((1,18),(3,16))),(12,((13,19),(9,(5,14))))),(17,(2,(11,20)))),21);
(((2,(17,(11,20))),((((7,18),(1,8)),((3,16),((4,6),(10,15)))),(12,((13,19),(14,(5,9)))))),21);
((((((((1,7),18),8),(3,16)),(6,((10,15),4))),((9,(5,14)),(12,(13,19)))),((11,20),(2,17))),21);
((((((18,(1,7)),8),(15,(10,(4,6)))),(3,16)),((12,((13,19),(9,(5,14)))),((11,20),(2,17)))),21);
(((((((7,18),(1,8)),((4,6),(10,15))),(3,16)),((11,20),(2,17))),(12,(((14,13),(5,9)),19))),21);
((((((((18,(1,7)),8),(4,6)),(3,16)),(10,15)),((11,20),(2,17))),((13,19),(12,(9,(5,14))))),21);
(((((((8,(1,7)),18),(6,(10,(4,15)))),(3,16)),((11,20),(2,17))),(12,((9,(5,14)),(13,19)))),21);
(((((11,20),(2,17)),((3,16),(((4,6),(10,15)),(8,(18,(1,7)))))),(12,((13,19),(9,(5,14))))),21);
((((((3,16),((10,(15,(4,6))),(8,(1,7)))),((11,20),(2,17))),18),(12,((13,19),(9,(5,14))))),21);
((((((8,(1,7)),18),((4,6),(10,15))),(3,16)),((12,(19,(13,(9,(5,14))))),((11,20),(2,17)))),21);
(((((((18,(1,7)),((4,6),(10,15))),(3,16)),8),(2,(17,(11,20)))),(12,((13,19),(9,(5,14))))),21);
((((((1,8),(7,18)),((4,6),(10,15))),(3,16)),(((11,20),(2,17)),(12,(9,(13,(19,(5,14))))))),21);
(((((3,16),(8,(18,(1,7)))),((4,6),(10,15))),((12,((9,(5,14)),(13,19))),((11,20),(2,17)))),21);
((((((7,(8,18)),1),((4,6),(10,15))),(3,16)),(((11,20),(2,17)),(12,((13,19),(5,(9,14)))))),21);
(((((11,20),(2,17)),((18,(8,(1,7))),((3,16),((10,15),(4,6))))),(12,((13,19),(9,(5,14))))),21);
(((((((18,(1,7)),8),(6,(10,(4,15)))),(3,16)),((11,20),(2,17))),(12,((13,19),(5,(9,14))))),21);
((((2,17),(((3,16),(((4,6),(10,15)),((1,7),(8,18)))),(11,20))),(12,((13,19),(9,(5,14))))),21);
((((((((1,7),18),8),((4,6),(10,15))),(3,16)),(12,((9,(5,14)),(13,19)))),((11,20),(2,17))),21);
(((((((7,(1,8)),18),((4,6),(10,15))),(3,16)),((11,20),(2,17))),(12,(9,((13,19),(5,14))))),21);
(((((((18,(1,7)),8),((4,6),(10,15))),(3,16)),((11,20),(2,17))),((13,(5,19)),(12,(9,14)))),21);
((((((3,16),(18,(8,(1,7)))),((4,6),(10,15))),(2,(17,(11,20)))),(12,((13,19),(9,(5,14))))),21);
((((7,((3,16),(((4,6),(10,15)),(18,(1,8))))),((11,20),(2,17))),(9,(12,((5,14),(13,19))))),21);
((((((18,(8,(1,7))),((4,6),(10,15))),(3,16)),(12,((9,14),(13,(5,19))))),((11,20),(2,17))),21);
((((((8,(18,(1,7))),((4,6),(10,15))),(3,16)),(12,((19,(5,13)),(9,14)))),((11,20),(2,17))),21);
(((((1,(7,8)),(((10,15),(4,6)),(18,(3,16)))),((11,20),(2,17))),(12,(19,(13,(9,(5,14)))))),21);
(((((3,16),(((10,15),(4,6)),(18,(8,(1,7))))),((11,20),(2,17))),(12,((13,19),(9,(5,14))))),21);
(((((18,(8,(1,7))),((3,16),(15,(10,(4,6))))),(2,(17,(11,20)))),(12,((13,19),(9,(5,14))))),21);
((((((1,(7,(8,18))),(3,16)),((4,6),(10,15))),((11,20),(2,17))),(12,((13,19),(5,(9,14))))),21);
(((((3,(16,(10,(15,(4,6))))),(8,(18,(1,7)))),((11,20),(2,17))),(12,((9,(5,14)),(13,19)))),21);
((((((3,16),((8,(1,7)),((4,6),(10,15)))),18),((11,20),(2,17))),(12,((13,19),(9,(5,14))))),21);
(((((3,16),(((1,7),(8,18)),((4,6),(10,15)))),((11,20),(2,17))),(12,((9,(5,14)),(13,19)))),21);
((((((((8,7),18),1),(6,(4,(10,15)))),(3,16)),((11,20),(2,17))),(12,((5,(13,9)),(14,19)))),21);
((((((3,16),(6,(4,(10,15)))),(8,(18,(1,7)))),(12,(13,(14,(19,(5,9)))))),((11,20),(2,17))),21);
(((((3,16),((6,(10,(4,15))),(18,(8,(1,7))))),((13,19),(12,(14,(5,9))))),((11,20),(2,17))),21);
((((((8,(1,7)),((4,6),(10,15))),(18,(3,16))),(2,(17,(11,20)))),(12,((13,19),(5,(9,14))))),21);
((((3,16),((6,(4,(10,15))),(8,(1,(7,18))))),((12,(9,((5,14),(13,19)))),((11,20),(2,17)))),21);
(((((3,16),((6,(10,(4,15))),((7,18),(1,8)))),(17,(2,(11,20)))),(12,(19,(13,(9,(5,14)))))),21);
((((((18,(8,(1,7))),(3,16)),(10,(15,(4,6)))),(17,(2,(11,20)))),(12,((13,(5,19)),(9,14)))),21);
(((((16,3),((8,(1,(7,18))),(15,(10,(4,6))))),((11,20),(2,17))),((9,(5,14)),(12,(13,19)))),21);
(((((((4,(10,15)),6),8),((3,16),(18,(1,7)))),((11,20),(2,17))),(12,((5,14),(9,(13,19))))),21);
((((((18,(8,(1,7))),(4,(6,(10,15)))),(3,16)),((11,20),(2,17))),(12,((13,19),(14,(5,9))))),21);
(((((((1,7),(8,18)),((4,6),(10,15))),(3,16)),((11,20),(2,17))),(12,((13,19),(9,(5,14))))),21);
(((((11,20),(2,17)),((3,16),(((10,15),(4,6)),(8,(18,(1,7)))))),((13,(9,(5,14))),(12,19))),21);
(((((((8,(1,7)),18),((4,6),(10,15))),(3,16)),((11,20),(2,17))),(12,((14,(5,9)),(13,19)))),21);
((((((18,(3,16)),(8,(1,7))),(6,(4,(10,15)))),((11,20),(2,17))),(12,(13,(19,(9,(5,14)))))),21);
((((((((1,7),18),8),((4,6),(10,15))),(3,16)),(12,((13,19),(9,(5,14))))),((11,20),(2,17))),21);
(((((7,((1,(8,18)),(10,15))),((4,6),(3,16))),((11,20),(2,17))),(12,((5,(13,19)),(14,9)))),21);
((((((((7,18),(1,8)),(4,6)),(10,15)),(3,16)),(17,(2,(11,20)))),((13,19),(12,(9,(5,14))))),21);
(((((((1,7),(8,18)),(3,16)),((4,6),(10,15))),((11,20),(2,17))),(12,((13,(5,19)),(9,14)))),21);
(((((4,6),(10,15)),((3,16),((1,7),(8,18)))),(((11,20),(2,17)),(12,(13,(19,(9,(5,14))))))),21);
(((((((7,(8,(1,18))),((4,6),(10,15))),16),3),((11,20),(17,2))),(12,((13,19),(5,(9,14))))),21);
(((((8,(18,(1,7))),((10,15),(4,6))),(3,16)),(((9,(5,14)),(12,(13,19))),((11,20),(2,17)))),21);
(((((11,20),(2,17)),(((4,6),((1,7),(8,18))),((10,15),(3,16)))),((9,(5,14)),(12,(13,19)))),21);
(((((((1,7),(8,18)),(10,(15,(4,6)))),(3,16)),((11,20),(2,17))),(12,((13,19),(5,(9,14))))),21);
((((((18,(1,8)),7),((6,(10,(4,15))),(3,16))),(2,(17,(11,20)))),((9,14),(12,(13,(5,19))))),21);
(((((((8,18),(1,7)),((4,6),(10,15))),(3,16)),((11,20),(2,17))),(12,(13,(19,(9,(5,14)))))),21);
(((((((1,7),18),8),(4,6)),(((11,20),(2,17)),((10,15),(3,16)))),(12,((9,(5,14)),(13,19)))),21);
(((((((8,7),(1,18)),((4,6),(10,15))),(3,16)),((11,20),(2,17))),(12,((13,19),(9,(5,14))))),21);
(((((18,(8,(1,7))),(3,16)),((10,15),(4,6))),((12,((9,(5,14)),(13,19))),((11,20),(2,17)))),21);
((((((8,(7,(1,18))),((4,6),(10,15))),(3,16)),((11,20),(2,17))),(12,((9,14),(5,(19,13))))),21);
((((((10,15),(8,(18,(1,7)))),((4,6),(3,16))),((11,20),(2,17))),(12,(13,(19,(14,(5,9)))))),21);
((((((10,(15,(4,6))),(18,(8,(1,7)))),(3,16)),((11,20),(2,17))),(12,((13,19),(5,(14,9))))),21);
((((((8,(7,18)),(1,(6,(10,(4,15))))),(3,16)),(12,((13,19),((5,14),9)))),((11,20),(2,17))),21);
(((((((7,(18,8)),1),(3,16)),((4,6),(10,15))),((11,20),(2,17))),(12,((19,(5,13)),(9,14)))),21);
((((((7,(1,18)),8),(6,(10,(4,15)))),((3,16),((11,20),(2,17)))),(12,((13,(5,19)),(9,14)))),21);
(((((2,17),(11,20)),((((4,6),(10,15)),(3,16)),(1,(7,(8,18))))),(12,((13,19),(9,(5,14))))),21);
(((((((7,(1,8)),18),(6,(15,(4,10)))),(3,16)),(12,((13,19),(14,(5,9))))),((11,20),(2,17))),21);
((((((7,8),(3,16)),(((4,6),(10,15)),(1,18))),((11,20),(2,17))),((9,14),(12,(5,(13,19))))),21);
((((((8,(1,7)),(18,(6,(15,(4,10))))),(3,16)),((11,20),(2,17))),(12,((9,(5,14)),(13,19)))),21);
(((((11,20),(2,17)),((3,16),(8,(((4,6),(10,15)),(7,(1,18)))))),(12,((5,(9,14)),(13,19)))),21);
((((((18,(8,(1,7))),(6,(10,(4,15)))),(3,16)),((11,20),(2,17))),(9,(12,((13,19),(5,14))))),21);
(((((11,20),(2,17)),(((1,7),(3,16)),(((4,6),(10,15)),(8,18)))),(12,((9,(5,14)),(13,19)))),21);
(((((((8,18),(1,7)),(10,(6,(4,15)))),(3,16)),((11,20),(2,17))),(12,(13,(19,(9,(5,14)))))),21);
((((((((1,7),18),8),(15,(4,(6,10)))),(3,16)),(17,(2,(11,20)))),(12,((19,(5,13)),(9,14)))),21);
((((((((1,7),18),8),((10,15),(4,6))),(3,16)),((11,20),(2,17))),(12,((19,(5,13)),(9,14)))),21);
(((((((8,(1,7)),18),((4,6),(10,15))),(3,16)),((11,20),(2,17))),((13,19),(12,(9,(5,14))))),21);
((((((8,(18,(1,7))),((4,6),(10,15))),(3,16)),(12,((5,(9,14)),(13,19)))),((11,20),(2,17))),21);
((((((10,15),(4,6)),(7,(8,(1,18)))),(3,16)),(((9,(5,14)),(12,(13,19))),((11,20),(2,17)))),21);
((((((((1,7),8),18),(6,(10,(4,15)))),(3,16)),((11,20),(2,17))),(12,((13,19),(14,(5,9))))),21);
(((((8,18),((1,7),((3,16),((4,6),(10,15))))),(12,((13,19),(9,(5,14))))),(2,((11,20),17))),21);
(((((((1,7),(8,18)),((4,6),(10,15))),(3,16)),((11,20),(17,2))),(12,((13,19),(14,(5,9))))),21);
((((((8,(7,18)),1),((3,16),(10,(15,(4,6))))),((11,20),(2,17))),(12,((13,19),(5,(9,14))))),21);
(((((8,(18,(1,7))),((6,(10,(4,15))),(3,16))),(2,(17,(11,20)))),(12,((13,19),(9,(5,14))))),21);
(((((((7,(1,18)),8),(6,(4,(15,10)))),(3,16)),((11,20),(2,17))),(12,((13,19),(9,(5,14))))),21);
((((((10,(15,(4,6))),(8,(18,(1,7)))),(3,16)),((11,20),(2,17))),(12,((9,(5,14)),(13,19)))),21);
((((((((8,18),1),7),((10,15),(4,6))),(3,16)),((11,20),(2,17))),(12,((13,19),(9,(5,14))))),21);
((((((3,16),(7,18)),((1,8),(15,(10,(4,6))))),((11,20),(2,17))),(12,(9,((5,14),(13,19))))),21);
((((8,(18,(1,7))),(((4,6),(10,15)),(3,16))),((12,((14,(13,19)),(5,9))),(17,(2,(11,20))))),21);
(((((((7,8),(1,18)),((10,15),(4,6))),(3,16)),((11,20),(2,17))),(12,(13,(19,(5,(14,9)))))),21);
(((((11,20),(2,17)),(((1,7),(8,18)),(((4,6),(10,15)),(3,16)))),(12,(9,(14,(19,(5,13)))))),21);
(((((12,(19,(13,(9,(5,14))))),(7,(3,16))),((11,20),(2,17))),(((10,15),(4,6)),(18,(1,8)))),21);
(((((((1,7),(8,18)),((4,6),(10,15))),(3,16)),((11,20),(2,17))),(12,((9,14),(13,(5,19))))),21);
((((((8,(1,7)),(18,((4,6),(10,15)))),(3,16)),((11,20),(2,17))),((14,(5,9)),(12,(13,19)))),21);
(((((((8,18),(1,7)),(3,16)),(10,((4,6),15))),((11,20),(2,17))),(12,((9,(5,14)),(13,19)))),21);
(((((3,16),((10,(6,(4,15))),((1,7),(8,18)))),((11,20),(2,17))),(12,((9,(5,14)),(13,19)))),21);
(((((11,20),(2,17)),((1,7),((3,16),(((4,6),(10,15)),(8,18))))),(12,((13,19),(14,(5,9))))),21);
(((((((7,8),(1,18)),(3,16)),((10,15),(4,6))),((11,20),(2,17))),(12,((9,(5,14)),(13,19)))),21);
((((((((1,8),18),7),((10,15),(4,6))),(3,16)),((11,20),(2,17))),(12,((13,19),(5,(9,14))))),21);
((((((4,6),(10,15)),((3,16),((1,7),(8,18)))),((11,20),(2,17))),(12,((9,(5,14)),(13,19)))),21);
(((((((8,18),(1,7)),(3,16)),(4,(6,(10,15)))),((11,20),(2,17))),(12,(9,((5,14),(13,19))))),21);
((((((18,(4,(6,(10,15)))),(8,(1,7))),(3,16)),(2,(17,(11,20)))),(12,((13,19),(5,(9,14))))),21);
(((((((18,(1,7)),8),((4,6),(10,15))),(3,16)),((11,20),(2,17))),(12,(19,(13,(5,(9,14)))))),21);
(((((16,(((4,6),(10,15)),(8,(18,(1,7))))),((11,20),(2,17))),3),((9,(5,14)),((13,19),12))),21);
((((((4,(6,(10,15))),((1,7),(18,8))),(3,16)),((11,20),(2,17))),(12,((19,(5,13)),(9,14)))),21);
((((12,((13,19),(5,(9,14)))),((18,(8,(1,7))),(((10,15),(4,6)),(3,16)))),((11,20),(2,17))),21);
(((((1,7),(((4,6),(10,15)),(8,18))),(3,16)),(((9,(5,14)),(12,(13,19))),(2,(17,(11,20))))),21);
((((((16,(18,(8,(1,7)))),((4,6),(10,15))),3),((11,20),(2,17))),(12,((13,19),(9,(5,14))))),21);
((((((8,18),(1,7)),(((10,15),(4,6)),(3,16))),((11,20),(2,17))),((9,14),((19,(5,13)),12))),21);
((((((10,(4,15)),((1,7),(8,18))),(6,(3,16))),((11,20),(2,17))),(12,(14,((5,9),(13,19))))),21);
(((((18,((8,(1,7)),((4,6),(10,15)))),(3,16)),(17,(2,(11,20)))),(12,((5,14),(9,(13,19))))),21);
(((((((4,6),(10,15)),(8,(18,(1,7)))),(3,16)),((11,20),(2,17))),(12,((14,(5,9)),(13,19)))),21);
(((((((1,7),(8,18)),((4,6),(10,15))),(3,16)),((11,20),(2,17))),(12,((13,19),(14,(5,9))))),21);
(((((((8,18),(1,7)),((4,6),(10,15))),(3,16)),(12,((13,19),(9,(5,14))))),((11,20),(2,17))),21);
((((((8,(18,(1,7))),((10,15),(4,6))),(3,16)),((2,17),(11,20))),(12,((13,19),(9,(5,14))))),21);
(((12,((13,19),(9,(5,14)))),(((11,20),(2,17)),(((8,18),(1,7)),((3,16),((10,15),(4,6)))))),21);
(((((((8,18),(1,7)),((4,6),(10,15))),(3,16)),((11,20),(2,17))),(12,((5,(9,14)),(13,19)))),21);
((((((11,20),(2,17)),((3,16),((4,6),(10,15)))),(18,(8,(1,7)))),(12,((13,19),(14,(5,9))))),21);
(((((18,(8,(1,7))),(((4,6),(10,15)),(3,16))),(12,((13,19),(5,(9,14))))),((11,20),(2,17))),21);
(((((((4,6),(10,15)),((1,7),(8,18))),(3,16)),((11,20),(2,17))),(12,((13,19),(9,(5,14))))),21);
((((3,16),((7,18),((6,(4,(10,15))),(1,8)))),((12,((13,19),(9,(5,14)))),((11,20),(2,17)))),21);
(((((((7,(8,18)),(1,(4,6))),(10,15)),(3,16)),((11,20),(2,17))),(12,((14,(5,9)),(13,19)))),21);
(((((11,20),(2,17)),((3,16),(((8,18),(1,7)),((4,6),(10,15))))),(12,(13,(19,(5,(9,14)))))),21);
(((((((10,15),(4,6)),(3,16)),((11,20),(2,17))),(18,(8,(1,7)))),((9,(5,14)),(12,(13,19)))),21);
(((((((8,(1,7)),18),(3,16)),((4,6),(10,15))),((11,20),(2,17))),((14,(19,(5,13))),(9,12))),21);
((((17,(2,(11,20))),((((4,6),(10,15)),(18,(7,(1,8)))),(3,16))),(12,((13,19),(9,(5,14))))),21);
((((((3,16),((1,7),(6,(10,(4,15))))),(8,18)),(12,((13,19),(5,(9,14))))),((11,20),(2,17))),21);
((((((4,(6,(10,15))),(18,(8,(1,7)))),(3,16)),((14,((5,9),13)),(12,19))),((11,20),(2,17))),21);
(((((((8,18),(1,7)),((4,6),(10,15))),(3,16)),(2,((11,20),17))),(12,(5,((13,19),(9,14))))),21);
(((((3,16),(((4,6),(10,15)),((1,7),(8,18)))),((11,20),(2,17))),((13,19),(12,(9,(5,14))))),21);
(((((((7,1),8),18),((3,16),(10,(15,(4,6))))),(12,((9,14),(19,(13,5))))),((11,20),(2,17))),21);
(((((11,20),(2,17)),(((1,7),(8,18)),((3,16),(4,(6,(10,15)))))),(12,((9,14),(19,(5,13))))),21);
((((((8,(18,(1,7))),((4,6),(10,15))),(3,16)),((11,20),(2,17))),(12,((5,(13,19)),(9,14)))),21);
((((2,(11,20)),(12,((19,(5,13)),(9,14)))),(17,((3,16),(((4,6),(10,15)),((1,8),(7,18)))))),21);
((((((((1,18),8),7),(10,(6,(4,15)))),(3,16)),((11,20),(2,17))),(12,((5,14),(9,(13,19))))),21);
((((((6,(10,(4,15))),((1,7),(8,18))),(3,16)),(12,((13,19),(9,(5,14))))),((11,20),(2,17))),21);
((((((11,20),(2,17)),(12,((13,19),(14,(5,9))))),(8,(18,(1,7)))),((3,16),(10,(15,(4,6))))),21);
(((((((1,7),((4,6),(10,15))),(3,16)),(8,18)),((11,20),(2,17))),(12,((5,14),(9,(13,19))))),21);
(((((((8,(1,7)),18),(10,(15,(4,6)))),(3,16)),((11,20),(2,17))),(12,((13,(5,19)),(9,14)))),21);
((((2,(17,(11,20))),(((1,8),(7,18)),(((4,6),(10,15)),(3,16)))),(12,(19,(13,(9,(5,14)))))),21);
((((3,16),((1,7),(8,18))),((12,(9,(14,(19,(5,13))))),((6,(10,(4,15))),((11,20),(2,17))))),21);
(((((((18,(1,8)),7),(15,(10,(4,6)))),(3,16)),(12,((9,19),((5,14),13)))),(17,(2,(11,20)))),21);
((((((18,(8,(1,7))),((4,6),(10,15))),(3,16)),(12,((9,14),(13,(5,19))))),((11,20),(2,17))),21);
(((((7,(8,(1,18))),(10,(15,(4,6)))),(3,16)),((12,((5,(13,19)),(9,14))),((11,20),(2,17)))),21);
(((((((6,(15,(4,10))),(18,(1,7))),8),(3,16)),(2,(17,(11,20)))),(12,((13,19),(9,(5,14))))),21);
((((((6,(10,(4,15))),(18,(8,(1,7)))),(3,16)),((11,20),(2,17))),(12,((13,19),(5,(9,14))))),21);
(((((((8,(1,7)),18),((4,6),(10,15))),(3,16)),((11,20),(2,17))),((13,19),(12,(9,(5,14))))),21);
((((((4,6),(10,15)),((3,16),((1,7),(8,18)))),(2,(17,(11,20)))),((13,19),(12,(9,(5,14))))),21);
((((((18,(8,(1,7))),((4,6),(10,15))),(3,16)),((11,20),(2,17))),(12,((13,19),(9,(5,14))))),21);
((((((1,7),(8,18)),((3,16),((4,6),(10,15)))),(12,((9,(5,14)),(13,19)))),((11,20),(2,17))),21);
(((((8,((1,18),7)),((3,16),(4,(6,(10,15))))),((11,20),(2,17))),(12,((5,9),(14,(13,19))))),21);
((((((4,6),(10,15)),((3,16),((1,7),(8,18)))),((11,20),(2,17))),(12,((13,19),(9,(5,14))))),21);
(((((((1,7),8),18),(10,(4,15))),(6,(3,16))),(((13,19),(12,(9,(5,14)))),((11,20),(2,17)))),21);
(((((((7,8),(1,18)),(6,(10,(4,15)))),(3,16)),((11,20),(2,17))),(12,(14,((5,9),(13,19))))),21);
((((((8,1),18),7),(10,(15,(4,6)))),((12,(19,((14,(9,5)),13))),((3,16),((11,20),(2,17))))),21);
(((((11,20),(10,((15,(4,6)),((3,16),((7,18),(1,8)))))),(2,17)),(12,((13,19),(14,(5,9))))),21);
((((((4,(6,(10,15))),(7,(1,(8,18)))),((11,20),(2,17))),(3,16)),(12,((13,19),(14,(5,9))))),21);
(((((((18,(1,8)),7),(3,16)),(15,(10,(4,6)))),((11,20),(2,17))),(12,((9,(5,14)),(13,19)))),21);
(((((((1,(18,7)),8),(3,16)),((10,15),(4,6))),(17,(2,(11,20)))),(12,(9,(14,(13,(5,19)))))),21);
(((((((8,(1,7)),18),(3,16)),((4,6),(10,15))),((11,20),(2,17))),(12,((9,(5,14)),(13,19)))),21);
(((((3,16),(((1,7),(8,18)),(6,(15,(4,10))))),(12,((13,19),(9,(5,14))))),(17,(2,(11,20)))),21);
((((((1,7),((4,6),(10,15))),((3,16),(8,18))),(12,((5,19),(13,(9,14))))),((11,20),(2,17))),21);
(((((((4,6),(10,15)),((1,18),(7,8))),(3,16)),(12,((19,(5,13)),(9,14)))),((11,20),(2,17))),21);
((((((11,20),(2,17)),((3,16),((4,6),(10,15)))),((1,7),(8,18))),(12,((9,14),(19,(5,13))))),21);
(((((((18,(1,7)),8),(10,15)),((4,6),(3,16))),((11,20),(2,17))),(12,(13,((5,14),(9,19))))),21);
((((((4,6),(10,15)),((8,18),(3,16))),(1,7)),((17,(2,(11,20))),(12,((14,(9,5)),(13,19))))),21);
((((((6,(10,(4,15))),((1,18),(7,8))),(3,16)),((11,20),(2,17))),(12,((9,14),(5,(13,19))))),21);
((((((3,16),((4,6),(10,15))),(8,(18,(1,7)))),((11,20),(2,17))),(12,((5,(13,19)),(9,14)))),21);
(((((((15,((4,10),6)),(7,18)),(1,8)),(3,16)),((11,20),(2,17))),(12,((14,(5,9)),(13,19)))),21);
((((((10,15),(4,6)),((3,16),(1,(18,(8,7))))),((11,20),(2,17))),(12,((13,19),(5,(9,14))))),21);
(((((5,14),(9,(13,19))),12),(((11,20),(2,17)),(((4,6),(3,16)),((10,15),((1,7),(8,18)))))),21);
((((((8,(18,(1,7))),(3,16)),((4,6),(10,15))),((11,20),(17,2))),(12,((9,(5,14)),(13,19)))),21);
(((((((4,6),(18,(1,7))),(8,(10,15))),(3,16)),(2,(17,(11,20)))),((14,(5,9)),(12,(13,19)))),21);
(((((3,16),(((10,15),(4,6)),(8,(18,(1,7))))),((11,20),(2,17))),(12,((9,(5,14)),(13,19)))),21);
(((((((18,(1,8)),7),(10,(15,(4,6)))),(3,16)),((11,20),(2,17))),((13,19),(12,(5,(9,14))))),21);
(((((((8,(1,7)),18),(3,16)),((4,6),(10,15))),(12,((9,(5,14)),(13,19)))),((11,20),(2,17))),21);
((((((8,(1,7)),(18,((4,6),(10,15)))),(3,16)),(9,(12,((5,14),(13,19))))),((11,20),(2,17))),21);
(((((((4,6),(10,15)),(18,(8,(1,7)))),(3,16)),(2,(17,(11,20)))),(12,((5,(13,19)),(9,14)))),21);
((((((((1,8),18),7),15),(3,16)),((11,20),(2,17))),((12,(5,((13,19),(9,14)))),(10,(4,6)))),21);
((((((6,(4,(10,15))),(3,16)),(8,(18,(1,7)))),((11,20),(2,17))),(12,(9,((5,14),(13,19))))),21);
((((((((1,18),7),8),(6,(10,(4,15)))),(3,16)),(2,(17,(11,20)))),(12,(19,(13,(9,(5,14)))))),21);
(((((((18,(1,7)),8),((4,6),(10,15))),(3,16)),(12,((13,19),(5,(9,14))))),((11,20),(2,17))),21);
(((((((1,7),(8,18)),((3,16),(10,(6,(4,15))))),(11,20)),(2,17)),(12,((9,14),(5,(13,19))))),21);
(((((((4,6),(10,15)),((7,18),(1,8))),(3,16)),((11,20),(2,17))),(12,((13,19),(5,(9,14))))),21);
(((((((7,8),(1,18)),((4,6),(10,15))),(3,16)),((11,20),(2,17))),(12,(13,(19,(14,(9,5)))))),21);
((((((((4,6),(15,10)),(18,(7,8))),1),(3,16)),(12,((13,(5,19)),(9,14)))),((11,20),(2,17))),21);
((((((((7,18),8),1),((4,6),(10,15))),(3,16)),((11,20),(2,17))),(12,(13,((5,19),(9,14))))),21);
(((((7,(8,(1,18))),((3,16),((4,6),(10,15)))),((11,20),(2,17))),((13,19),(12,(5,(9,14))))),21);
((((((10,15),(4,6)),((3,16),((8,18),(1,7)))),((2,17),(11,20))),(12,((9,(5,14)),(13,19)))),21);
(((((((1,7),(8,18)),((4,6),(10,15))),(3,16)),((11,20),(2,17))),(12,((13,19),(5,(9,14))))),21);
(((((((1,7),(8,18)),(10,15)),((4,6),(3,16))),((11,20),(2,17))),(14,(12,((13,19),(5,9))))),21);
(((((3,16),((18,(1,7)),(8,((4,6),(10,15))))),((11,20),(2,17))),((13,19),(12,(14,(5,9))))),21);
(((((((8,(1,7)),18),((4,6),(10,15))),(3,16)),((11,20),(2,17))),(12,(13,(19,(9,(5,14)))))),21);
(((((((1,7),(6,(8,18))),(10,(4,15))),(3,16)),((11,20),(2,17))),(12,(9,((5,14),(13,19))))),21);
((((((3,16),((1,7),(8,18))),(10,(15,(4,6)))),(17,(2,(11,20)))),(12,((13,19),(9,(5,14))))),21);
((((((((1,7),8),18),((4,6),(10,15))),(3,16)),(2,(17,(11,20)))),(12,(13,(19,(9,(5,14)))))),21);
(((((18,(8,(1,7))),(3,16)),((4,6),(10,15))),(((13,(5,19)),(12,(9,14))),((11,20),(2,17)))),21);
(((((11,20),(2,17)),((18,(1,7)),((3,16),(8,((4,6),(10,15)))))),(12,((9,14),(5,(13,19))))),21);
((((((7,18),(1,8)),((3,16),((10,15),(4,6)))),((11,20),(2,17))),(((5,13),(9,14)),(12,19))),21);
((((((8,(1,7)),18),((10,15),(4,6))),(3,16)),((12,((13,19),(9,(5,14)))),((11,20),(2,17)))),21);
(((((((7,1),(8,18)),(10,(15,(4,6)))),(3,16)),(2,(17,(11,20)))),(12,((5,14),(9,(13,19))))),21);
((((11,20),(2,17)),((12,((5,14),(13,(9,19)))),((18,(8,(1,7))),(((4,6),(10,15)),(3,16))))),21);
(((((((8,(1,18)),7),(3,16)),((4,6),(10,15))),(2,(17,(11,20)))),(12,((13,19),(9,(5,14))))),21);
((((((16,(15,(10,(4,6)))),(8,(18,(1,7)))),3),((11,20),(2,17))),(12,(14,((5,9),(13,19))))),21);
((((3,16),((11,20),(2,17))),(((15,(4,10)),(6,(18,(8,(1,7))))),(12,((5,14),(9,(13,19)))))),21);
((((12,((13,(9,14)),(5,19))),((3,16),(((4,6),(10,15)),(8,(18,(1,7)))))),((11,20),(2,17))),21);
((((((((8,(7,1)),18),((4,6),(10,15))),(3,16)),((11,20),(2,17))),12),((5,(9,14)),(13,19))),21);
(((((3,16),((18,(8,(1,7))),(6,(10,(4,15))))),((11,20),(2,17))),(12,((9,14),(19,(5,13))))),21);
((((8,(((4,6),(10,15)),(18,(1,7)))),(3,16)),((12,(13,(19,(9,(5,14))))),((11,20),(2,17)))),21);
(((((3,16),(8,(18,(1,7)))),((4,6),(10,15))),((12,((5,(13,19)),(9,14))),((11,20),(2,17)))),21);
((((((6,(10,(4,15))),((1,7),(8,18))),(3,16)),((11,20),(2,17))),(12,((5,9),(14,(13,19))))),21);
((((((6,((10,15),4)),((1,7),(8,18))),(3,16)),((11,20),(2,17))),(12,((13,19),(5,(9,14))))),21);
(((((4,6),(10,15)),(12,((9,(5,14)),(13,19)))),(((11,20),(2,17)),((3,16),(8,(18,(1,7)))))),21);
((((((((18,(1,7)),(4,15)),8),(3,16)),(6,10)),(17,(2,(11,20)))),(12,(19,(13,(9,(5,14)))))),21);
(((((3,16),(((4,6),(10,15)),((1,7),(8,18)))),((11,20),(2,17))),(12,(13,(19,(9,(5,14)))))),21);
(((((11,20),(2,17)),(((4,6),(10,15)),((3,16),((1,7),(8,18))))),(12,((13,19),(5,(9,14))))),21);
(((((((7,(18,8)),1),((4,6),(10,15))),(3,16)),((11,20),(2,17))),(12,((13,19),(5,(9,14))))),21);
((((((((4,6),(10,15)),(8,18)),(3,16)),(1,7)),((11,20),(2,17))),(12,((19,(5,13)),(9,14)))),21);
((((((((7,18),1),8),((4,6),(10,15))),(3,16)),((11,20),(2,17))),(12,((13,19),(9,(5,14))))),21);
((((((3,16),(8,(10,(15,(4,6))))),(18,(1,7))),((11,20),(2,17))),((9,14),(12,(19,(5,13))))),21);
((((((7,(8,18)),1),((3,16),((4,6),(10,15)))),(12,((9,(5,14)),(13,19)))),((11,20),(2,17))),21);
((((((18,(8,(1,7))),((10,15),(4,6))),(3,16)),(17,(2,(11,20)))),(12,((13,19),(5,(9,14))))),21);
((((((1,(7,18)),8),((3,16),((10,15),(4,6)))),(12,((5,9),(14,(13,19))))),((11,20),(2,17))),21);
((((((((10,15),6),4),((1,7),(8,18))),(3,16)),((11,20),(2,17))),(12,((13,19),(9,(5,14))))),21);
((((((((4,6),(10,15)),(8,18)),(1,7)),(3,16)),((11,20),(2,17))),(12,((13,19),(5,(9,14))))),21);
(((((((1,18),(7,8)),(3,16)),((4,6),(10,15))),(12,(9,((13,19),(5,14))))),(17,(2,(11,20)))),21);
(((((((1,7),(8,18)),(16,((4,6),(10,15)))),3),(2,(17,(11,20)))),((13,19),(12,(9,(5,14))))),21);
(((((((4,6),(10,15)),(8,(18,(1,7)))),(3,16)),((11,20),(2,17))),(12,((9,14),(13,(5,19))))),21);
((((((8,(1,(7,18))),((10,15),(4,6))),(3,16)),((11,20),(2,17))),(12,((14,(5,9)),(13,19)))),21);
((((11,20),(2,17)),((12,((5,(9,14)),(13,19))),(((10,15),(4,6)),((3,16),((1,7),(8,18)))))),21);
(((12,((9,(5,14)),(13,19))),(((11,20),(2,17)),((3,16),(((4,6),(10,15)),(18,(8,(1,7))))))),21);
(((((((1,7),(8,18)),((4,6),(10,15))),(3,16)),((11,20),(2,17))),(12,((13,19),(5,(9,14))))),21);
((((((((7,1),18),8),((10,15),(4,6))),(3,16)),((11,20),(2,17))),(12,((5,(13,19)),(9,14)))),21);
(((((((1,7),(8,18)),(6,(10,(4,15)))),(3,16)),((11,20),(2,17))),(12,((13,19),(9,(5,14))))),21);
((((((((7,18),8),1),((4,6),(10,15))),(3,16)),(2,(17,(11,20)))),(12,((13,19),(9,(5,14))))),21);
(((((7,(8,(1,18))),((10,15),(4,6))),(3,16)),((12,((9,(5,14)),(13,19))),((11,20),(2,17)))),21);
((((((18,(8,(1,7))),(3,16)),((4,6),(10,15))),((11,20),(2,17))),(12,((13,19),(9,(5,14))))),21);
((((((4,6),(10,15)),((3,16),(8,(18,(1,7))))),((11,20),(2,17))),(12,((13,19),(9,(5,14))))),21);
((((((8,(18,(1,7))),((4,6),(10,15))),(3,16)),((11,20),(2,17))),(12,((13,19),(14,(5,9))))),21);
(((((((8,(1,7)),18),((10,15),(4,6))),(3,16)),((11,20),(2,17))),(12,(13,(19,(9,(5,14)))))),21);
((((((8,(1,18)),7),((3,16),(6,(10,(4,15))))),((11,20),(2,17))),(12,((13,19),(9,(5,14))))),21);
(((((((1,7),(8,18)),((4,6),(10,15))),(3,16)),((11,20),(2,17))),(12,((13,19),(5,(9,14))))),21);
((((((8,(18,(1,7))),((4,6),(10,15))),(3,16)),(12,(9,((13,19),(5,14))))),((11,20),(2,17))),21);
(((((((18,(7,8)),1),(6,(10,(4,15)))),(3,16)),((11,20),(2,17))),(12,((9,(5,14)),(13,19)))),21);
((((((((1,18),(7,8)),(4,6)),16),(10,15)),3),((12,((9,(5,14)),(13,19))),((11,20),(2,17)))),21);
((((((4,6),(10,15)),(8,(18,(1,7)))),((11,20),(2,17))),((3,16),(12,((13,19),(9,(5,14)))))),21);
((((((8,(1,18)),7),((3,16),(6,(10,(4,15))))),((11,20),(2,17))),(12,((13,19),(9,(5,14))))),21);
((((((1,8),((4,(6,(10,15))),(7,18))),(3,16)),((11,20),(17,2))),(12,((13,(5,19)),(9,14)))),21);
(((((((1,7),(8,18)),((4,15),(6,10))),(3,16)),(12,((5,9),(14,(13,19))))),((11,20),(2,17))),21);
((((((1,7),((8,18),(15,(10,(4,6))))),(3,16)),((11,20),(2,17))),(12,((9,14),(19,(5,13))))),21);
(((((3,16),(((4,6),(10,15)),(18,(8,(1,7))))),((11,20),(2,17))),((14,(5,9)),(12,(13,19)))),21);
((((((8,(18,(1,7))),(15,(10,(4,6)))),(3,16)),((11,20),(2,17))),(12,((9,14),(19,(5,13))))),21);
(((((((1,7),(8,18)),(4,(6,(10,15)))),(3,16)),((11,20),(2,17))),(12,((13,19),(5,(9,14))))),21);
(((((((1,8),(7,18)),(3,16)),(15,(10,(4,6)))),((11,20),(2,17))),(12,((13,19),(9,(5,14))))),21);
(((((((8,18),(1,7)),((10,15),(4,6))),(3,16)),(2,(17,(11,20)))),(12,((13,19),(5,(9,14))))),21);
(((((((10,15),(4,6)),(8,(18,(1,7)))),(3,16)),(17,(2,(11,20)))),(12,(((5,13),(9,14)),19))),21);
(((((1,(8,(7,18))),((4,6),(10,15))),(3,16)),(((11,20),(2,17)),(12,((13,19),(5,(9,14)))))),21);
((((12,((13,19),(9,(5,14)))),((3,16),(((10,15),(4,6)),((1,7),(8,18))))),((11,20),(2,17))),21);
(((((3,16),((6,(4,(10,15))),((1,7),(8,18)))),(17,(2,(11,20)))),(12,(13,(19,(5,(9,14)))))),21);
(((((((7,8),(1,18)),(15,(6,(4,10)))),(3,16)),(((5,14),(13,19)),(9,12))),((11,20),(2,17))),21);
(((((((8,(1,7)),18),(3,16)),((4,6),(10,15))),((11,20),(2,17))),((13,19),(12,(5,(9,14))))),21);
((((6,(15,(4,10))),((3,16),((1,7),(8,18)))),(((11,20),(2,17)),(12,((9,(5,14)),(13,19))))),21);
((((((((7,8),18),1),(3,16)),(6,(10,(4,15)))),((11,20),(2,17))),(12,((19,(5,13)),(9,14)))),21);
(((((3,16),(((1,7),(8,18)),(15,(10,(4,6))))),((11,20),(2,17))),(12,((13,19),(14,(5,9))))),21);
(((((7,8),(1,18)),((3,16),((10,15),(4,6)))),((12,((5,9),(14,(13,19)))),((11,20),(2,17)))),21);
(((((((8,(1,7)),18),((4,6),(10,15))),(3,16)),(17,(2,(11,20)))),(12,(13,(19,(9,(5,14)))))),21);
(((((((18,(7,8)),1),(10,(15,(4,6)))),(3,16)),((11,20),(2,17))),(12,((13,19),(9,(5,14))))),21);
((((((1,7),(8,18)),((15,(10,(4,6))),(3,16))),((11,20),(2,17))),((14,(13,19)),(12,(5,9)))),21);
((((((8,(18,(1,7))),(3,16)),((10,15),(4,6))),(12,((9,(5,14)),(13,19)))),((11,20),(2,17))),21);
(((((((18,(8,(1,7))),((4,6),(10,15))),(3,16)),(11,20)),(12,((13,19),(9,(5,14))))),(2,17)),21);
((((((4,(6,(10,15))),(3,16)),(8,(18,(1,7)))),((11,20),(2,17))),(12,((13,19),(9,(5,14))))),21);
((((((4,6),(10,15)),(1,7)),((3,16),(8,18))),((12,((13,19),(14,(5,9)))),((11,20),(2,17)))),21);
((((3,16),(((4,6),(10,15)),(18,(8,(1,7))))),((12,(9,(14,(19,(5,13))))),((11,20),(2,17)))),21);
((((((4,6),(10,15)),((3,16),(8,(18,(1,7))))),((11,20),(2,17))),(12,((9,(5,14)),(13,19)))),21);
((((((15,(1,(18,(7,8)))),(10,(4,6))),(3,16)),((11,20),(2,17))),(12,((13,19),(9,(5,14))))),21);
((((((18,(1,7)),8),((3,16),(15,(10,(4,6))))),((11,20),(2,17))),(12,((9,(5,14)),(13,19)))),21);
((((((((7,18),1),8),(3,16)),((10,15),(4,6))),((11,20),(2,17))),(12,((13,(5,19)),(9,14)))),21);
((((((18,(8,7)),1),(10,(15,(4,6)))),(3,16)),(((5,(13,19)),(12,(9,14))),((11,20),(2,17)))),21);
((((((6,(10,(4,15))),(8,(18,(1,7)))),(3,16)),((11,20),(2,17))),(((5,14),(9,13)),(12,19))),21);
(((((((8,(1,7)),18),(3,16)),(10,(15,(4,6)))),((11,20),(2,17))),(12,((5,13),(19,(9,14))))),21);
((((((7,(1,18)),8),(10,(15,(4,6)))),(3,16)),((12,((13,19),(9,(5,14)))),(17,((11,20),2)))),21);
((((((3,16),(4,(6,(10,15)))),(8,(18,(1,7)))),((11,20),(2,17))),(12,((9,(5,14)),(13,19)))),21);
(((((((4,6),(1,(8,(7,18)))),(3,16)),(10,15)),((11,20),(2,17))),(12,(13,(19,(9,(5,14)))))),21);
((((((7,8),(1,18)),((3,16),((4,6),(10,15)))),((11,20),(2,17))),(12,((13,19),(14,(5,9))))),21);
((((((((8,1),7),18),(10,(15,(4,6)))),(3,16)),((11,20),(2,17))),(12,((13,19),(9,(5,14))))),21);
((((((1,8),((7,18),((10,15),(4,6)))),(3,16)),((11,20),(2,17))),(12,((5,14),(9,(13,19))))),21);
(((((3,16),((18,(1,7)),(8,((4,6),(10,15))))),(12,((9,14),(19,(5,13))))),((11,20),(2,17))),21);
(((((((1,7),(8,18)),((4,6),(10,15))),(3,16)),((11,20),(2,17))),(12,(9,((5,14),(13,19))))),21);
((((((18,(8,(1,7))),(6,(10,(4,15)))),(3,16)),((11,20),(2,17))),(12,((13,19),(9,(5,14))))),21);
(((((((4,6),((1,7),(8,18))),(10,15)),(3,16)),(12,((19,(5,13)),(9,14)))),((11,20),(2,17))),21);
((((((((15,10),4),6),18),(8,(1,7))),(3,16)),(((13,19),(12,(14,(5,9)))),((11,20),(2,17)))),21);
(((((7,(1,(8,18))),(((10,15),(4,6)),(3,16))),(2,(17,(11,20)))),(12,(5,((13,19),(9,14))))),21);
((((8,(((10,15),(6,4)),(18,(1,7)))),(3,16)),(((11,20),(2,17)),(13,(12,(19,(9,(5,14))))))),21);
(((((9,(5,14)),(12,(13,19))),(((1,18),(7,8)),((3,16),(15,(10,(4,6)))))),((11,20),(2,17))),21);
((((((8,(1,7)),18),(3,16)),(15,(10,(4,6)))),((12,(13,(19,(9,(5,14))))),((11,20),(2,17)))),21);
((((18,(1,7)),((3,16),(8,((10,15),(4,6))))),(((11,20),(2,17)),(12,(13,(19,(9,(5,14))))))),21);
((((((18,(1,7)),8),((4,6),(10,15))),(3,16)),((12,((9,14),(19,(5,13)))),(17,(2,(11,20))))),21);
(((((((7,(1,18)),8),((10,15),(4,6))),(3,16)),(12,((9,(5,14)),(13,19)))),((11,20),(2,17))),21);
((((((3,16),((1,7),(8,18))),(6,(10,(4,15)))),((11,20),(2,17))),(12,(19,(13,(9,(5,14)))))),21);
(((((6,(4,(10,15))),((3,16),((1,7),(8,18)))),((11,20),(2,17))),(12,(5,((13,19),(9,14))))),21);
((((((((1,7),18),8),((4,6),(10,15))),(3,16)),((11,20),(2,17))),(12,((13,19),(9,(5,14))))),21);
((((((18,(8,(1,7))),((4,6),(10,15))),(3,16)),((11,20),(2,17))),(12,((5,(9,14)),(13,19)))),21);
((((((3,16),((7,8),(1,18))),((4,15),(6,10))),((11,20),(2,17))),(12,((5,(13,19)),(9,14)))),21);
((((6,((3,16),((10,(4,15)),(1,(18,(8,7)))))),((11,20),(2,17))),(12,((19,(13,5)),(9,14)))),21);
((((((((8,(1,7)),18),((10,15),(4,6))),3),16),((11,20),(2,17))),(12,((9,(5,14)),(13,19)))),21);
(((((11,20),(2,17)),(((10,15),(4,6)),((18,(8,(1,7))),(3,16)))),(12,(19,(13,(9,(5,14)))))),21);
(((((((8,18),(1,7)),(3,16)),((4,6),(10,15))),((11,20),(2,17))),(12,((5,(9,14)),(13,19)))),21);
(((((1,(8,(7,18))),(((4,6),(10,15)),(3,16))),((11,20),(2,17))),(12,((13,19),(9,(5,14))))),21);
(((((10,(3,16)),(18,((15,(4,6)),(8,(1,7))))),((2,17),(11,20))),(12,((9,(5,14)),(13,19)))),21);
((((((3,16),((8,(18,(1,7))),((4,6),(10,15)))),2),(17,(11,20))),(12,((13,19),(9,(5,14))))),21);
(((((3,(((1,7),(8,18)),((4,6),(10,15)))),16),((11,20),(2,17))),(12,((5,9),(14,(13,19))))),21);
((((12,((9,14),(13,(5,19)))),((11,20),(2,17))),((18,((4,6),(10,15))),((3,16),(8,(1,7))))),21);
((((((((4,6),(10,15)),(18,(8,(1,7)))),16),3),(2,((11,20),17))),(12,((9,14),(13,(5,19))))),21);
((((((((7,18),1),8),((10,15),(4,6))),(3,16)),((11,20),(2,17))),(12,((13,19),(9,(5,14))))),21);
(((((((7,8),(1,18)),((4,6),(10,15))),(3,16)),((11,20),(2,17))),(12,((13,19),(9,(5,14))))),21);
((((11,20),(2,17)),(((3,16),(((10,15),(4,6)),(18,(8,(1,7))))),((5,14),(12,(9,(13,19)))))),21);
(((((((7,18),(1,8)),((4,6),(10,15))),(3,16)),(12,((14,(5,9)),(13,19)))),(17,(2,(11,20)))),21);
((((((7,(8,1)),18),((3,16),((4,6),(10,15)))),((11,20),(2,17))),(12,((9,(5,14)),(13,19)))),21);
((((((((1,18),7),8),((4,6),(10,15))),(3,16)),((11,20),(2,17))),(19,(12,(13,(9,(5,14)))))),21);
(((((3,16),(((4,6),(10,15)),(8,(18,(1,7))))),((11,20),(2,17))),(12,((13,19),(9,(5,14))))),21);
(((((3,16),((8,(18,(1,7))),(4,(10,(6,15))))),(17,(2,(11,20)))),(12,((9,(5,14)),(13,19)))),21);
((((17,(2,(11,20))),((3,16),(((10,15),(4,6)),(18,(7,(1,8)))))),(12,((14,(5,9)),(13,19)))),21);
(((((11,20),(2,17)),((8,((4,6),(10,15))),((18,(1,7)),(3,16)))),(12,(19,((5,9),(13,14))))),21);
(((((((4,6),(10,15)),(18,(8,(1,7)))),(3,16)),((11,20),(2,17))),(12,((13,19),(5,(9,14))))),21);
(((((3,16),(18,((8,(1,7)),(6,(4,(10,15)))))),(11,(20,(2,17)))),(12,(13,(19,(9,(5,14)))))),21);
((((((((1,7),8),18),(3,16)),((4,15),(6,10))),(17,(2,(11,20)))),(12,(9,((5,14),(13,19))))),21);
((((((((1,18),7),8),(3,16)),((4,6),(10,15))),((11,20),(2,17))),((13,19),(12,(5,(9,14))))),21);
((((((((1,18),7),8),(6,(10,(4,15)))),(3,16)),((11,20),(2,17))),(12,((19,(5,13)),(9,14)))),21);
(((((((1,7),8),18),((3,16),(10,(15,(4,6))))),((11,20),(2,17))),(12,((9,14),(19,(5,13))))),21);
((((((18,(8,(1,7))),(6,(15,(4,10)))),(3,16)),((11,20),(2,17))),(12,(14,((13,19),(5,9))))),21);
(((((((4,6),(10,15)),(18,(8,(1,7)))),(3,16)),((11,20),(2,17))),(12,((13,19),(9,(5,14))))),21);
((((((8,(18,(1,7))),((4,6),(10,15))),(3,16)),(12,((19,(5,13)),(9,14)))),((11,20),(2,17))),21);
(((((3,16),((10,(15,(4,6))),((7,18),(1,8)))),((11,20),(2,17))),(12,((5,(9,14)),(13,19)))),21);
((((((((7,8),(1,18)),((4,6),(10,15))),16),3),((11,20),(2,17))),(12,(13,(19,(14,(5,9)))))),21);
((((((3,16),(((4,6),(10,15)),(18,(1,7)))),8),((11,20),(2,17))),(12,((5,(9,14)),(13,19)))),21);
(((((((8,(1,18)),7),(3,16)),(6,(10,(4,15)))),(12,((13,19),(9,(5,14))))),(17,(2,(11,20)))),21);
((((12,(19,(9,(13,(5,14))))),(2,(17,(11,20)))),(((4,6),(10,15)),((3,16),((1,7),(8,18))))),21);
(((((((4,6),(10,15)),(8,(1,(7,18)))),(3,16)),(2,((11,20),17))),((13,19),(12,(9,(5,14))))),21);
(((((((18,(1,7)),(8,(4,6))),16),(3,(10,15))),((11,20),(2,17))),(12,(9,(13,(19,(5,14)))))),21);
(((((3,16),((6,(10,(4,15))),((1,7),(8,18)))),((11,20),(2,17))),(12,((13,19),(5,(9,14))))),21);
(((((((7,(1,8)),18),(3,16)),((4,6),(10,15))),((11,20),(2,17))),(12,((13,19),(14,(5,9))))),21);
((((3,16),((6,(10,(4,15))),((1,7),(8,18)))),(((11,20),(2,17)),(12,((13,19),(9,(5,14)))))),21);
((((((((8,(1,7)),18),6),(10,(4,15))),(3,16)),((11,20),(2,17))),(12,((13,19),(9,(5,14))))),21);
((((((3,16),(10,(15,(4,6)))),(8,(1,(7,18)))),((11,20),(2,17))),(12,((13,19),(5,(9,14))))),21);
(((((3,16),(18,(8,(1,7)))),((10,15),(4,6))),(((11,20),(2,17)),(12,((13,19),(14,(5,9)))))),21);
((((((1,7),(8,18)),(3,16)),(6,(10,(4,15)))),(((11,20),(2,17)),(12,((13,19),(9,(5,14)))))),21);
(((((((18,(1,7)),8),((10,15),(4,6))),(3,16)),((11,20),(2,17))),(12,((13,19),(5,(9,14))))),21);
((((((1,7),(8,18)),((4,6),(10,15))),(3,16)),((12,(5,((9,14),(13,19)))),((11,20),(2,17)))),21);
(((((3,16),((15,((4,6),10)),(18,(8,(1,7))))),((11,20),(2,17))),(12,(14,(9,(13,(5,19)))))),21);
(((((((15,10),(4,6)),(3,16)),((8,18),(1,7))),((2,17),(11,20))),(12,((13,19),(9,(5,14))))),21);
(((((((((1,8),7),18),(4,6)),(3,16)),(12,((14,(5,9)),(19,13)))),((11,20),(2,17))),(10,15)),21);
(((((((4,6),(10,15)),(18,(8,(1,7)))),(3,16)),((11,20),(2,17))),(12,((5,9),(14,(13,19))))),21);
((((((8,(18,(1,7))),((4,6),(10,15))),(3,16)),(2,(17,(11,20)))),(19,(12,((5,13),(9,14))))),21);
((((((8,(18,(1,7))),((4,6),(10,15))),(3,16)),(12,((9,14),(19,(5,13))))),((11,20),(2,17))),21);
(((((((1,7),(8,18)),((4,6),(10,15))),(3,16)),((11,20),(2,17))),(12,(13,(19,(5,(9,14)))))),21);
((((((18,(8,(1,7))),((10,15),(4,6))),(3,16)),((11,20),(2,17))),(12,((5,(9,14)),(13,19)))),21);
((((((18,(1,(7,8))),((4,6),(10,15))),(3,16)),(17,(2,(11,20)))),(12,((14,(5,9)),(13,19)))),21);
(((((((18,(1,7)),8),((10,15),(6,4))),(3,16)),((11,20),(2,17))),(12,((9,(5,14)),(13,19)))),21);
(((((((8,(1,7)),18),((10,15),(4,6))),(3,16)),((2,17),(11,20))),(12,((13,19),(5,(9,14))))),21);
((((((6,(10,(4,15))),((1,8),(7,18))),(3,16)),((11,20),(2,17))),(12,((9,14),(19,(5,13))))),21);
(((((((8,18),(1,7)),((4,6),(10,15))),(3,16)),(12,(14,((19,(5,13)),9)))),((11,20),(2,17))),21);
(((((3,16),((6,(10,(4,15))),((1,18),(7,8)))),((11,20),(2,17))),(12,((13,19),(9,(5,14))))),21);
(((((((4,6),(10,15)),(1,(18,8))),((3,16),7)),((11,20),(2,17))),((9,14),(12,(19,(5,13))))),21);
(((((8,(((10,15),(4,6)),(18,(1,7)))),(3,16)),(2,(17,(11,20)))),(12,((5,14),(9,(13,19))))),21);
(((((3,16),((8,(1,7)),(18,((4,15),(6,10))))),(12,((9,(5,14)),(13,19)))),((11,20),(2,17))),21);
((((((((8,18),1),7),(6,(10,(4,15)))),(3,16)),(12,((9,14),(5,(13,19))))),((11,20),(2,17))),21);
(((((11,20),(2,17)),((3,16),(((10,15),(4,6)),((1,7),(8,18))))),(12,((9,(5,14)),(13,19)))),21);
(((((((8,(1,18)),7),((4,6),(10,15))),(3,16)),(12,((9,(5,14)),(13,19)))),((11,20),(2,17))),21);
((((10,(6,(4,15))),((3,16),((1,7),(8,18)))),(((11,20),(2,17)),(12,((9,14),(13,(5,19)))))),21);
(((((((18,(1,7)),8),(6,(10,(4,15)))),(3,16)),((11,20),(2,17))),(12,((13,(5,19)),(9,14)))),21);
((((((((7,18),1),8),(6,(15,(4,10)))),(3,16)),((11,20),(2,17))),(12,((14,(5,9)),(13,19)))),21);
(((((((7,8),(1,18)),(6,(10,(4,15)))),(3,16)),((11,20),(2,17))),(12,((13,19),(14,(5,9))))),21);
((((((((1,7),18),8),((4,6),(10,15))),(3,16)),((11,20),(2,17))),(12,(9,((5,14),(13,19))))),21);
((((((1,7),(8,18)),((3,16),((4,6),(10,15)))),(17,(2,(11,20)))),(12,((13,19),(9,(5,14))))),21);
(((((18,(8,(1,7))),((3,16),((10,15),(4,6)))),((11,20),(2,17))),(12,((9,(5,14)),(13,19)))),21);
(((((3,16),(((4,6),(10,15)),((1,7),(8,18)))),(2,(17,(11,20)))),(12,(13,(19,(5,(14,9)))))),21);
((((6,(10,(4,15))),((3,16),((1,7),(8,18)))),((12,((5,(9,14)),(13,19))),((11,20),(2,17)))),21);
((((17,(2,(11,20))),((3,16),(((4,6),(10,15)),((1,7),(8,18))))),(12,((13,19),(14,(5,9))))),21);
((((((3,16),(8,(18,(1,7)))),((4,6),(10,15))),((11,20),(2,17))),(12,((13,19),(9,(5,14))))),21);
((((((((8,18),1),7),((10,15),(4,6))),(3,16)),((11,20),(2,17))),(12,((5,(9,14)),(13,19)))),21);
(((((6,(10,(4,15))),(8,(18,(1,7)))),(3,16)),(((11,20),(2,17)),(12,((13,19),(9,(5,14)))))),21);
(((((((3,16),(10,(15,(4,6)))),(8,(7,18))),1),((11,20),(2,17))),(12,((13,19),(5,(9,14))))),21);
(((12,((5,14),(9,(13,19)))),((2,(17,(11,20))),((3,16),((6,(10,(4,15))),(8,(18,(1,7))))))),21);
(((((((8,18),((10,15),(4,6))),(1,7)),(3,16)),((11,20),(2,17))),((9,(5,14)),(12,(13,19)))),21);
((((((((8,18),7),1),((4,6),(10,15))),(3,16)),((11,20),(2,17))),(12,((19,(5,13)),(9,14)))),21);
(((((3,16),((8,18),((1,7),(6,(4,(10,15)))))),(12,(9,((13,19),(5,14))))),((11,20),(2,17))),21);
(((((((7,8),(1,18)),(3,16)),(6,(10,(4,15)))),((11,20),(2,17))),(12,((5,9),(14,(13,19))))),21);
(((12,(19,(13,(9,(5,14))))),(((3,16),((10,(15,(4,6))),((1,7),(8,18)))),((11,20),(2,17)))),21);
(((((((1,7),(8,18)),((4,6),(10,15))),(3,16)),((11,20),(2,17))),(12,((13,19),(5,(9,14))))),21);
((((((((1,7),18),8),((10,15),(4,6))),(3,16)),((11,20),(2,17))),(12,((13,19),(9,(5,14))))),21);
(((((18,(4,15)),((3,16),((8,(1,7)),(6,10)))),((11,20),(2,17))),(12,((19,(13,5)),(14,9)))),21);
((((((((18,8),1),7),(3,16)),((4,6),(10,15))),((11,20),(2,17))),(12,(19,(5,(13,(9,14)))))),21);
((((((1,(8,18)),(7,(3,16))),(6,(10,(4,15)))),(12,(14,((13,19),(5,9))))),((11,20),(2,17))),21);
((((2,(17,(11,20))),((18,(8,(1,7))),((3,16),(15,(10,(4,6)))))),((9,(5,14)),((13,19),12))),21);
(((((((7,(1,18)),8),((4,6),(10,15))),(3,16)),((11,20),(2,17))),(12,((9,14),(19,(5,13))))),21);
((((((7,(18,(1,8))),((4,6),(10,15))),(3,16)),((11,20),(2,17))),(12,((13,19),(9,(5,14))))),21);
((((((8,((1,7),18)),((4,6),(10,15))),(3,16)),((11,20),(2,17))),(12,((5,14),(9,(13,19))))),21);
(((((((1,8),(7,18)),((4,6),(10,15))),(3,16)),(12,((9,(5,14)),(13,19)))),((11,20),(2,17))),21);
(((((((4,6),(10,15)),(18,(8,(1,7)))),(3,16)),(2,(17,(11,20)))),(12,((14,(5,9)),(13,19)))),21);
(((((((7,(1,18)),8),((4,6),(10,15))),(3,16)),((11,20),(2,17))),(12,(19,(13,(9,(5,14)))))),21);
(((((((7,8),(1,18)),((4,6),(10,15))),(3,16)),((11,20),(2,17))),((13,19),(12,(9,(5,14))))),21);
((((((1,7),(18,8)),((3,16),((4,6),(10,15)))),((11,20),(2,17))),(12,((9,14),(19,(5,13))))),21);
((((((3,16),((18,(1,7)),(8,(10,15)))),(4,6)),(12,(14,((13,19),(5,9))))),((11,20),(2,17))),21);
((((((((4,6),(10,15)),(8,(1,7))),18),(3,16)),((11,20),(2,17))),(12,((13,19),(9,(5,14))))),21);
(((((10,(6,(4,15))),(8,((3,16),(18,(1,7))))),((11,20),(2,17))),(12,((13,19),(9,(5,14))))),21);
(((((3,16),((8,18),((1,7),(6,(10,(4,15)))))),(12,((19,(5,13)),(9,14)))),((11,20),(2,17))),21);
(((((((1,18),(7,8)),((4,6),(15,10))),(3,16)),((11,20),(2,17))),(13,(12,((9,14),(5,19))))),21);
((((((1,18),(8,7)),(((10,15),(4,6)),(3,16))),(12,((13,19),(9,(5,14))))),((11,20),(2,17))),21);
(((((((8,18),(1,7)),(6,(4,(10,15)))),(3,16)),((11,20),(2,17))),((13,19),(12,(9,(5,14))))),21);
(((((((10,15),(4,6)),(8,(18,(1,7)))),(3,16)),((11,20),(2,17))),(12,(19,(13,(9,(5,14)))))),21);
((((((((1,7),8),18),(6,(15,(4,10)))),(3,16)),((11,20),(2,17))),(12,((13,19),(9,(5,14))))),21);
(((((3,16),((15,(10,(4,6))),((7,18),(1,8)))),((11,20),(2,17))),(9,(12,(19,(13,(5,14)))))),21);
(((((((8,18),(1,7)),((4,6),(10,15))),(3,16)),((11,20),(2,17))),(12,((13,19),(9,(5,14))))),21);
(((((((10,15),(18,(8,(1,7)))),(4,6)),(3,16)),((11,20),(2,17))),(12,((13,19),(14,(5,9))))),21);
((((12,((13,19),(9,(5,14)))),((3,16),((6,(10,(4,15))),(7,(18,(1,8)))))),((11,20),(2,17))),21);
(((((((7,(8,18)),1),(6,(10,(4,15)))),(3,16)),((11,20),(2,17))),(12,((9,(5,14)),(13,19)))),21);
(((((6,((15,(4,10)),(18,(8,(1,7))))),(3,16)),((11,20),(2,17))),(12,((13,19),(14,(5,9))))),21);
((((((6,(4,(10,15))),(8,(18,(1,7)))),(3,16)),(17,(2,(11,20)))),(12,((5,(9,14)),(13,19)))),21);
((((((1,(7,18)),8),((4,(6,(10,15))),(3,16))),((11,20),(2,17))),(12,(19,(13,(9,(5,14)))))),21);
(((((4,6),(10,15)),((3,16),(18,(8,(1,7))))),((12,((9,(5,14)),(13,19))),((11,20),(2,17)))),21);
((((((8,(18,(1,7))),(3,16)),((10,15),(4,6))),((11,20),(2,17))),(12,((9,14),(5,(13,19))))),21);
(((((((1,7),(8,18)),(3,16)),(10,(15,(4,6)))),(2,(17,(11,20)))),(12,((13,19),(9,(5,14))))),21);
((((((15,(10,(4,6))),((1,7),(8,18))),(3,16)),((11,20),(2,17))),(12,((13,19),(5,(9,14))))),21);
(((((((6,(4,(10,15))),(1,(7,18))),8),(3,16)),((11,20),(2,17))),((9,(5,14)),(12,(13,19)))),21);
(((((3,16),(((4,6),(10,15)),(18,(8,(1,7))))),((11,20),(2,17))),((13,19),(12,(9,(5,14))))),21);
(((12,(5,((13,19),(9,14)))),(((11,20),(2,17)),((6,(4,(10,15))),((3,16),(8,(7,(1,18))))))),21);
((((3,16),(((4,6),(10,15)),(18,(8,(1,7))))),(((5,(13,19)),(12,(9,14))),(17,(2,(11,20))))),21);
(((((((1,7),(8,18)),(3,16)),((4,6),(10,15))),((11,20),(2,17))),(12,((13,19),(9,(5,14))))),21);
(((((3,16),(((10,15),(4,6)),(18,(8,(1,7))))),(17,(2,(11,20)))),(12,(19,(13,(9,(5,14)))))),21);
((((((((1,7),18),8),(3,16)),(6,(10,(4,15)))),((11,20),(2,17))),(12,((5,14),(9,(13,19))))),21);
(((((3,16),(((4,6),(10,15)),(7,(8,(1,18))))),(2,(17,(11,20)))),(12,((13,19),(9,(5,14))))),21);
(((((3,16),((8,(18,(1,7))),(6,(4,(10,15))))),(12,((13,19),(9,(5,14))))),((11,20),(2,17))),21);
(((((11,20),(17,2)),(((8,18),((4,6),(10,15))),((3,16),(1,7)))),(((5,13),(14,19)),(9,12))),21);
((((((18,(8,(1,7))),((4,6),(10,15))),(3,16)),((11,20),(2,17))),(12,((13,19),(9,(5,14))))),21);
((((((1,7),(8,18)),((3,16),((4,6),(10,15)))),((11,20),(2,17))),(12,((13,19),(5,(9,14))))),21);
(((((((18,(1,7)),8),((4,6),(10,15))),(3,16)),(12,((9,(5,14)),(13,19)))),(17,(2,(11,20)))),21);
(((((((18,(1,7)),8),((4,6),(10,15))),(3,16)),(17,(2,(11,20)))),(12,((13,19),(9,(5,14))))),21);
((((((((7,1),8),18),((4,6),(10,15))),(3,16)),((11,20),(2,17))),(12,((13,19),(9,(5,14))))),21);
((((11,20),(2,17)),(((14,(19,(5,9))),(12,13)),((3,16),((10,(15,(4,6))),((1,7),(8,18)))))),21);
(((((2,17),(11,20)),((3,16),((15,(10,(4,6))),(8,(18,(1,7)))))),(12,((13,14),(9,(5,19))))),21);
(((12,(13,(19,(9,(5,14))))),(((11,20),(2,17)),((18,(8,(1,7))),(((10,15),(4,6)),(3,16))))),21);
((((((6,(4,(10,15))),((8,18),(1,7))),3),16),(((11,20),(2,17)),(12,((9,14),(13,(5,19)))))),21);
((((((18,((4,6),(10,15))),(8,(1,7))),(3,16)),(17,(2,(11,20)))),(12,((9,(5,14)),(13,19)))),21);
((((((((7,(1,8)),18),3),16),((4,6),(10,15))),((11,20),(2,17))),(12,((13,19),(9,(5,14))))),21);
((((((18,(8,(1,7))),((4,6),(10,15))),(3,16)),((2,17),(11,20))),(12,((13,19),(9,(5,14))))),21);
(((((3,16),((1,7),(((10,15),(4,6)),(8,18)))),((11,20),(2,17))),(12,((13,19),(14,(5,9))))),21);
(((((2,(11,20)),17),((3,16),(((4,6),(10,15)),((1,7),(8,18))))),(12,(9,((5,14),(13,19))))),21);
(((((8,(18,(1,7))),((4,6),(10,15))),(3,16)),((12,((9,(5,14)),(13,19))),((11,20),(2,17)))),21);
(((((((18,(1,7)),8),((4,6),(10,15))),(3,16)),((11,20),(2,17))),(12,((5,(13,19)),(9,14)))),21);
(((((11,20),(2,17)),(((4,6),(10,15)),((3,16),(8,(18,(1,7)))))),(13,(12,(19,(9,(5,14)))))),21);
(((((((7,8),(1,18)),(6,(10,(4,15)))),(3,16)),(2,(17,(11,20)))),(12,(9,((13,19),(5,14))))),21);
((((((8,18),(6,(4,(10,15)))),((1,7),(3,16))),((11,20),(2,17))),(12,((9,14),(13,(5,19))))),21);
(((((8,(18,(1,7))),(15,(10,(4,6)))),(3,16)),((12,((13,19),(9,(5,14)))),((11,20),(2,17)))),21);
((((9,(5,14)),(12,(13,19))),(((11,20),(2,17)),((3,16),((6,(10,(4,15))),(18,(8,(1,7))))))),21);
((((11,20),((2,17),(((7,8),((4,6),(10,15))),((3,16),(1,18))))),(12,(13,((5,14),(9,19))))),21);
((((((10,(15,(4,6))),(18,(8,(1,7)))),(3,16)),((11,20),(2,17))),((19,(13,(5,14))),(9,12))),21);
((((((4,6),(10,15)),((3,16),((1,7),(18,8)))),((11,20),(2,17))),(12,(13,(19,(9,(5,14)))))),21);
((((((18,(8,(1,7))),((4,6),(10,15))),(3,16)),(2,(17,(11,20)))),(12,((13,(5,19)),(9,14)))),21);
(((((((7,18),(1,8)),(3,16)),(6,(10,(4,15)))),((11,20),(2,17))),(12,(19,(13,(9,(5,14)))))),21);
(((((((1,18),(7,8)),((4,6),(10,15))),(3,16)),(2,(17,(11,20)))),(12,(9,((5,14),(13,19))))),21);
(((((((10,15),(4,6)),((1,7),(8,18))),(3,16)),((11,20),(2,17))),(12,((19,(5,13)),(9,14)))),21);
((((12,((13,19),(5,(9,14)))),(((1,7),(8,18)),((3,16),(6,(4,(10,15)))))),((11,20),(2,17))),21);
((((((8,((1,7),18)),(6,(10,(4,15)))),(3,16)),(17,(2,(11,20)))),(12,((9,(5,14)),(13,19)))),21);
(((((((18,(1,7)),8),((10,15),(4,6))),(3,16)),((11,20),(2,17))),(12,((19,(13,5)),(9,14)))),21);
(((((((8,(1,7)),18),((10,15),(4,6))),(3,16)),((14,(5,9)),(12,(13,19)))),(17,(2,(11,20)))),21);
(((((11,20),((6,(10,(4,15))),((3,16),(8,(7,(1,18)))))),(12,((13,19),(9,(5,14))))),(2,17)),21);
((((((8,18),7),1),(((4,6),(10,15)),(3,16))),(((11,20),(2,17)),(12,(9,((5,14),(13,19)))))),21);
(((((((7,18),8),1),((10,15),(4,6))),(3,16)),(((11,20),(2,17)),(12,((13,19),(9,(5,14)))))),21);
((((((3,16),(((4,6),(10,15)),(8,18))),(1,7)),(2,(17,(11,20)))),((9,(5,14)),(12,(13,19)))),21);
(((((((8,(1,7)),18),((4,6),(10,15))),(3,16)),((11,20),(2,17))),(12,((13,19),(14,(5,9))))),21);
(((((16,(3,(8,(18,(1,7))))),((4,6),(10,15))),((11,20),(2,17))),(12,((13,(5,19)),(9,14)))),21);
(((((3,16),((8,18),((1,7),((4,6),(10,15))))),(17,(2,(11,20)))),(12,(13,(19,(9,(5,14)))))),21);
(((12,(9,((5,14),(13,19)))),(((3,16),(((10,15),(4,6)),((1,7),(8,18)))),((11,20),(2,17)))),21);
(((((((4,15),(6,10)),(18,(8,(1,7)))),(3,16)),((11,20),(2,17))),((9,(5,14)),(12,(13,19)))),21);
((((((((8,18),(1,7)),(10,(4,6))),(3,16)),15),(2,(17,(11,20)))),(12,(19,((5,13),(9,14))))),21);
(((((((4,6),(10,15)),(18,(8,(1,7)))),(3,16)),((11,20),(2,17))),(12,(19,(13,(14,(5,9)))))),21);
((((((((4,6),(7,18)),(1,8)),(10,15)),(3,16)),(2,(17,(11,20)))),(12,(13,(19,(9,(5,14)))))),21);
(((((((8,(7,1)),18),((4,6),(10,15))),(3,16)),((11,20),(2,17))),(12,((5,(9,14)),(13,19)))),21);
(((((8,(18,(1,7))),(((4,6),(10,15)),(3,16))),(12,((13,19),(5,(9,14))))),((11,20),(2,17))),21);
((((((((1,7),(8,18)),(10,(4,(6,15)))),16),3),(17,(2,(11,20)))),(12,((13,19),(9,(5,14))))),21);
((((((8,(7,(1,18))),((4,6),(10,15))),(3,16)),((11,20),(2,17))),((12,13),(19,(9,(5,14))))),21);
(((((((18,(1,8)),7),(6,(4,(10,15)))),(3,16)),((11,20),(2,17))),(12,((13,19),(14,(5,9))))),21);
(((2,((((1,18),(7,8)),(((4,6),(10,15)),(3,16))),(17,(11,20)))),(12,((13,19),(5,(9,14))))),21);
(((((((7,8),(1,18)),(15,(10,(4,6)))),(3,16)),((11,20),(2,17))),(12,((13,19),(9,(5,14))))),21);
(((((3,16),(((4,10),(6,15)),((1,7),(8,18)))),((11,20),(2,17))),(12,(9,((13,19),(5,14))))),21);
