(16,(((9,15),(3,(14,(8,11)))),((10,((4,12),(2,5))),(1,(6,(7,13))))));
(16,((1,(6,(7,13))),((10,((4,12),(2,5))),((9,15),((8,11),(3,14))))));
(16,((1,(7,(6,13))),((10,(12,(2,(4,5)))),((9,15),(3,(11,(8,14)))))));
(16,((3,(14,(8,11))),((1,(6,(7,13))),((9,15),(10,((4,12),(2,5)))))));
(16,((1,(6,(7,13))),((10,(2,(5,(4,12)))),((9,15),(3,(8,(11,14)))))));
(16,((1,(6,(7,13))),((9,15),((3,(11,(8,14))),(10,((4,12),(2,5)))))));
(16,(((9,15),(3,(8,(11,14)))),((10,((4,12),(2,5))),(1,(6,(7,13))))));
(16,(((2,5),((9,15),(3,(11,(8,14))))),((1,(6,(7,13))),(10,(4,12)))));
(16,((1,(6,(7,13))),(((9,15),(3,(11,(8,14)))),(10,((4,12),(2,5))))));
(16,(10,((6,(1,(7,13))),(((3,14),((9,15),(8,11))),((4,12),(2,5))))));
(16,(1,((6,(7,13)),((2,(4,12)),((5,10),((9,15),(3,(11,(8,14)))))))));
(16,((3,(11,(8,14))),((1,(6,(7,13))),((9,15),(10,((4,12),(2,5)))))));
(16,((6,(1,(7,13))),((10,((4,12),(2,5))),((9,15),((8,11),(3,14))))));
(16,((10,((2,5),(4,12))),((1,(6,(7,13))),((9,15),(3,(14,(8,11)))))));
(16,((10,(5,(2,(4,12)))),((9,15),((3,(11,(8,14))),(1,(6,(7,13)))))));
(16,((6,(1,(7,13))),((10,((4,12),(2,5))),((9,15),(3,(11,(8,14)))))));
(16,((1,(6,(7,13))),((10,((4,12),(2,5))),((9,15),(3,(8,(11,14)))))));
(16,((1,(6,(7,13))),(((11,(8,14)),(3,(9,15))),(10,((4,12),(2,5))))));
(16,((9,15),(((3,(11,(8,14))),(5,(2,(4,12)))),(10,((7,13),(1,6))))));
(16,((1,(6,(7,13))),((10,((4,12),(2,5))),((9,15),(3,(11,(8,14)))))));
(16,(((3,(8,(11,14))),((2,5),(10,(4,12)))),((9,15),(1,(6,(7,13))))));
(16,(((4,12),(10,(2,5))),(((7,13),(1,6)),((9,15),((8,14),(3,11))))));
(16,(((7,13),(1,6)),((10,(5,(2,(4,12)))),((9,15),(3,(11,(8,14)))))));
(16,((6,(7,13)),(1,(((9,15),(3,(11,(8,14)))),(10,((4,12),(2,5)))))));
((((1,(6,(7,13))),(10,(5,(2,(4,12))))),((9,15),(3,(11,(8,14))))),16);
(16,((10,(2,(5,(4,12)))),((1,(6,(7,13))),((9,15),(3,(14,(8,11)))))));
(16,((1,(6,(7,13))),(((11,(8,14)),(3,(9,15))),(10,((4,12),(2,5))))));
(16,((10,((4,12),(2,5))),(((9,15),(3,(11,(8,14)))),(1,(6,(7,13))))));
(16,((1,(6,(7,13))),((10,((4,12),(2,5))),((3,(11,(8,14))),(9,15)))));
(16,(((3,(11,(8,14))),(10,((4,12),(2,5)))),((9,15),(1,(6,(7,13))))));
(16,((1,(13,(6,7))),(((2,5),(10,(4,12))),((9,15),(11,(3,(8,14)))))));
(16,((10,(2,(5,(4,12)))),(((7,13),(1,6)),((9,15),(3,(8,(11,14)))))));
(16,(((7,13),(1,6)),((9,15),((3,(11,(8,14))),(10,((4,12),(2,5)))))));
(16,(((5,(2,(4,12))),(10,(9,15))),((3,(14,(8,11))),(1,(6,(7,13))))));
(16,(((9,15),(1,(6,(7,13)))),((3,(11,(8,14))),(10,(12,(4,(2,5)))))));
(16,(((11,(8,14)),(3,(9,15))),((1,(7,(6,13))),(10,((4,12),(2,5))))));
(16,((1,(6,(7,13))),(((9,15),(3,(11,(8,14)))),(10,((4,12),(2,5))))));
(((((8,14),(3,11)),(10,(5,(2,(4,12))))),((9,15),(1,(6,(7,13))))),16);
(16,((9,15),((1,(7,(6,13))),(((8,14),(3,11)),(10,(5,(2,(4,12))))))));
(16,((1,(6,(7,13))),(((4,12),(2,5)),((9,15),(10,(3,(14,(8,11))))))));
(16,(((1,(6,(7,13))),(10,((4,12),(2,5)))),((9,15),(3,(11,(8,14))))));
(16,((10,((4,12),(2,5))),((1,(6,(7,13))),((9,15),(3,(8,(11,14)))))));
(16,((((8,11),(3,14)),(10,((4,12),(2,5)))),((9,15),(1,(6,(7,13))))));
(16,(((9,15),(10,(5,(2,(4,12))))),((3,(8,(11,14))),(1,(6,(7,13))))));
(16,((1,(6,(7,13))),(((4,12),(10,(2,5))),((9,15),(3,(11,(8,14)))))));
(16,((1,(6,(7,13))),(((9,15),(3,(11,(8,14)))),(10,((4,12),(2,5))))));
(16,((1,(6,(7,13))),(((9,15),(3,(8,(11,14)))),(10,(5,(2,(4,12)))))));
(16,(((9,15),(10,((4,12),(2,5)))),((3,(11,(8,14))),(1,(6,(7,13))))));
(16,(((9,15),(3,(8,(11,14)))),(((7,13),(1,6)),(10,((4,12),(2,5))))));
(16,(((2,5),(10,(4,12))),((13,(1,(6,7))),((9,15),(3,(11,(8,14)))))));
(16,(((9,15),(3,(11,(8,14)))),((1,(6,(7,13))),(5,(10,(2,(4,12)))))));
(16,((1,(7,(6,13))),((10,((4,12),(2,5))),((9,15),(3,(11,(8,14)))))));
(16,(((7,13),(1,6)),((3,(8,(11,14))),((9,15),(10,((4,12),(2,5)))))));
(16,((1,(6,(7,13))),(((8,(11,14)),(3,(9,15))),(10,((4,12),(2,5))))));
(16,((1,(6,(7,13))),((10,(5,(2,(4,12)))),((9,15),(3,(11,(8,14)))))));
(16,((10,((4,12),(2,5))),((6,(1,(7,13))),((9,15),(3,(11,(8,14)))))));
(16,((1,(6,(7,13))),((9,15),((14,(3,(8,11))),((2,5),(10,(4,12)))))));
(16,((1,(6,(7,13))),(((2,5),(10,(4,12))),((9,15),(3,(14,(8,11)))))));
(16,((1,(6,(7,13))),((10,(5,(2,(4,12)))),((9,15),(3,(8,(11,14)))))));
(16,(((1,(6,(7,13))),(10,((4,12),(2,5)))),((9,15),(3,(8,(11,14))))));
(16,((1,(6,(7,13))),((3,(8,(11,14))),((9,15),((2,5),(10,(4,12)))))));
(16,((6,(7,13)),((9,15),(1,((3,(11,(8,14))),(10,(2,(5,(4,12)))))))));
(16,((1,(6,(7,13))),((10,((4,12),(2,5))),((9,15),(3,(8,(11,14)))))));
(16,((3,(11,(8,14))),((1,(6,(7,13))),((9,15),(10,(5,(2,(4,12))))))));
(16,((10,(5,(2,(4,12)))),((3,((9,15),(8,(11,14)))),(1,(6,(7,13))))));
(16,((1,(6,(7,13))),((3,((9,15),(8,(11,14)))),(10,((4,12),(2,5))))));
(16,((1,(6,(7,13))),((10,((4,12),(2,5))),((9,15),(3,(8,(11,14)))))));
(16,(((5,(2,(4,12))),((9,15),(3,(11,(8,14))))),(10,(1,(6,(7,13))))));
(16,(((9,15),(3,(14,(8,11)))),((1,(6,(7,13))),(10,((4,12),(2,5))))));
(16,(((6,7),(1,13)),(((9,15),(3,(11,(8,14)))),(10,((4,12),(2,5))))));
(16,(((9,15),(10,(5,(2,(4,12))))),((3,(8,(11,14))),(1,(6,(7,13))))));
(16,(((11,(8,14)),(3,(9,15))),((1,(6,(7,13))),(10,(2,(5,(4,12)))))));
(16,((10,((9,15),(3,(11,(8,14))))),((2,(5,(4,12))),(1,(7,(6,13))))));
(16,((1,(13,(6,7))),((10,((4,12),(2,5))),((9,15),(3,(11,(8,14)))))));
(16,((3,(11,(8,14))),(((7,13),(1,6)),((9,15),(10,((4,12),(2,5)))))));
(16,((10,(2,(5,(4,12)))),(((9,15),(3,(14,(8,11)))),(1,(7,(6,13))))));
(16,((10,((4,12),(2,5))),((1,(6,(7,13))),((9,15),(11,(3,(8,14)))))));
(16,(((7,13),(1,6)),((9,15),((3,(11,(8,14))),(10,((4,12),(2,5)))))));
(16,((1,(6,(7,13))),((10,(2,(5,(4,12)))),((9,15),(3,(11,(8,14)))))));
(16,(((7,13),(1,6)),((10,((4,12),(2,5))),((9,15),(3,(11,(8,14)))))));
(16,((1,(6,(7,13))),((10,(5,(2,(4,12)))),((9,15),(3,(11,(8,14)))))));
(16,((6,(1,(7,13))),((10,(2,(5,(4,12)))),((9,15),(3,(11,(8,14)))))));
(16,((3,(11,(8,14))),((10,((4,12),(2,5))),((9,15),(1,(6,(7,13)))))));
(16,(((9,15),(3,(8,(11,14)))),((1,(6,(7,13))),(10,(5,(2,(4,12)))))));
(16,((1,(6,(7,13))),(((2,5),(10,(4,12))),((9,15),(3,(14,(8,11)))))));
(16,(((9,15),(10,(2,(5,(4,12))))),((3,(11,(8,14))),(6,(1,(7,13))))));
(16,((1,(6,(7,13))),((3,(8,(11,14))),((9,15),(10,(2,(5,(4,12))))))));
(16,((1,(6,(7,13))),((12,(4,(2,5))),(10,((11,(8,14)),(3,(9,15)))))));
(16,(((3,(11,(8,14))),(10,(2,(5,(4,12))))),((9,15),(1,(6,(7,13))))));
(16,((10,(5,(2,(4,12)))),((1,(6,(7,13))),((9,15),(3,(14,(8,11)))))));
(16,((6,(1,(7,13))),(((11,(8,14)),(3,(9,15))),(10,((4,12),(2,5))))));
(16,((6,(1,(7,13))),((10,(2,(5,(4,12)))),((9,15),(3,(8,(11,14)))))));
(16,((6,(7,13)),(1,((3,((9,15),(14,(8,11)))),(10,(4,(2,(5,12))))))));
(16,((1,(6,(7,13))),((3,(11,(8,14))),((9,15),(10,((4,12),(2,5)))))));
(16,(((7,13),(1,6)),((10,(2,(5,(4,12)))),((9,15),(3,(11,(8,14)))))));
(16,((1,(6,(7,13))),((10,(2,5)),((4,12),((9,15),(3,(8,(11,14))))))));
(16,((1,(7,(6,13))),((10,((4,12),(2,5))),((9,15),(8,(3,(11,14)))))));
(16,(((3,(14,(8,11))),((9,15),(4,12))),((1,(6,(7,13))),(10,(2,5)))));
(16,((1,(6,(7,13))),((10,(2,(5,(4,12)))),((9,15),(8,(3,(11,14)))))));
(16,((10,(2,(5,(4,12)))),((1,(6,(7,13))),((9,15),(3,(11,(8,14)))))));
(16,(((10,(2,(5,(4,12)))),((9,15),(3,(11,(8,14))))),(6,(1,(7,13)))));
(16,((1,(6,(7,13))),((10,(2,(5,(4,12)))),((9,15),(3,(11,(8,14)))))));
(16,((10,((4,12),(2,5))),((3,(14,((9,15),(8,11)))),(1,(6,(7,13))))));
(16,(((9,15),(10,(5,(2,(4,12))))),((3,(8,(11,14))),(1,(6,(7,13))))));
(16,((((4,12),(2,5)),((9,15),((11,14),(3,8)))),(10,(1,(6,(7,13))))));
(16,((1,(6,(7,13))),((10,(5,(2,(4,12)))),((9,15),(3,(11,(8,14)))))));
(16,(((7,13),(1,6)),(((9,15),(3,(11,(8,14)))),(10,((4,12),(2,5))))));
(16,(((7,13),(1,6)),(((9,15),(3,(14,(8,11)))),(10,(2,(5,(4,12)))))));
(16,(((7,13),(1,6)),((10,(5,(2,(4,12)))),((9,15),(3,(11,(8,14)))))));
(16,((1,(6,(7,13))),((10,((4,12),(2,5))),((9,15),(3,(11,(8,14)))))));
(16,((1,(6,(7,13))),((10,((4,12),(2,5))),((9,15),(3,(11,(8,14)))))));
(16,((2,(10,(5,(4,12)))),((13,(6,7)),(1,((9,15),(3,(11,(8,14))))))));
(16,((1,(6,(7,13))),((9,15),((3,(8,(11,14))),(10,(2,(5,(4,12))))))));
(16,((1,(6,(7,13))),(((14,(8,11)),(3,(9,15))),(10,((4,12),(2,5))))));
(16,(((9,15),(3,(8,(11,14)))),((1,(6,(7,13))),(10,(5,(2,(4,12)))))));
(16,(((4,12),(2,5)),((1,(6,(7,13))),(10,((9,15),(3,(11,(8,14))))))));
(16,(((2,5),(10,(4,12))),((3,((11,(8,14)),(9,15))),(1,(6,(7,13))))));
(16,((10,((4,12),(2,5))),((6,(1,(7,13))),((9,15),(3,(11,(8,14)))))));
(16,((1,(6,(7,13))),((9,15),((3,(8,(11,14))),(5,(10,(2,(4,12))))))));
(16,((1,(6,(7,13))),((10,((4,12),(2,5))),((9,15),(3,(8,(11,14)))))));
(16,((3,(14,(8,11))),((9,15),((1,(6,(7,13))),(10,((4,12),(2,5)))))));
(16,((10,((4,12),(2,5))),((1,(6,(7,13))),((9,15),(3,(11,(8,14)))))));
(16,((1,(6,(7,13))),((3,(11,(8,14))),((9,15),(10,(2,(5,(4,12))))))));
(16,((1,(6,(7,13))),(((4,12),(10,(2,5))),((9,15),(11,(3,(8,14)))))));
(16,((3,(11,(8,14))),((10,((4,12),(2,5))),((9,15),(6,(1,(7,13)))))));
(16,((10,(5,(2,(4,12)))),((1,(6,(7,13))),((9,15),(14,(3,(8,11)))))));
(16,((1,(6,(7,13))),((3,(11,(8,14))),((9,15),(10,((4,12),(2,5)))))));
(16,(((9,15),(3,(11,(8,14)))),((10,(5,(2,(4,12)))),((7,13),(1,6)))));
(16,((6,(1,(7,13))),((10,((4,12),(2,5))),((9,15),(11,(3,(8,14)))))));
(16,((6,(1,(7,13))),(((9,15),(3,(11,(8,14)))),(10,(5,(2,(4,12)))))));
(16,((1,(6,(7,13))),((10,((4,12),(2,5))),((9,15),(3,(11,(8,14)))))));
(16,((3,(11,(8,14))),((9,15),((1,(7,(6,13))),(10,((4,12),(2,5)))))));
(16,((3,(11,(8,14))),((1,(6,(7,13))),((9,15),(10,((4,12),(2,5)))))));
(16,((1,(6,(7,13))),(((9,15),(3,(14,(8,11)))),(10,((4,12),(2,5))))));
(16,((5,(2,(4,12))),(10,((3,((9,15),(14,(8,11)))),(1,(13,(6,7)))))));
(16,((1,(6,(7,13))),(10,((9,15),((3,(11,(8,14))),((4,12),(2,5)))))));
(16,((10,(5,(2,(4,12)))),(((8,(11,14)),(3,(9,15))),(1,(6,(7,13))))));
(16,((1,(6,(7,13))),((10,(5,(2,(4,12)))),((9,15),(3,(14,(8,11)))))));
(16,((1,(6,(7,13))),((9,15),((3,(8,(11,14))),(10,((4,12),(2,5)))))));
(16,((10,((4,12),(2,5))),((3,((9,15),(8,(11,14)))),(1,(6,(7,13))))));
(16,((10,((9,15),(3,(11,(8,14))))),(((4,12),(2,5)),((7,13),(1,6)))));
(16,((10,(2,(5,(4,12)))),(((11,(9,15)),(3,(8,14))),((7,13),(1,6)))));
(16,(((9,15),(10,((4,12),(2,5)))),((3,(14,(8,11))),((7,13),(1,6)))));
(16,((10,((4,12),(2,5))),((3,((9,15),(11,(8,14)))),(6,(1,(7,13))))));
(16,((1,(6,(7,13))),((10,((4,12),(2,5))),((9,15),(3,(14,(8,11)))))));
(16,(((5,(4,12)),(2,10)),((1,(6,(7,13))),((9,15),(3,(14,(8,11)))))));
(16,((10,((4,12),(2,5))),(((7,13),(1,6)),((9,15),(3,(14,(8,11)))))));
(16,((3,(8,(11,14))),((9,15),(((7,13),(1,6)),(10,((4,12),(2,5)))))));
(16,(((9,15),(3,(8,(11,14)))),((1,(6,(7,13))),(10,(5,(2,(4,12)))))));
(16,((1,(6,(7,13))),(((9,15),(3,(14,(8,11)))),(10,(2,(5,(4,12)))))));
(16,((10,((4,12),(2,5))),((1,(13,(6,7))),((9,15),(3,(11,(8,14)))))));
(16,((6,(1,(7,13))),((3,(11,(8,14))),((9,15),(10,((4,12),(2,5)))))));
(16,((5,(10,(2,(4,12)))),((1,(6,(7,13))),((9,15),(3,(11,(8,14)))))));
(16,((3,(11,(8,14))),((1,(6,(7,13))),((5,10),((9,15),(2,(4,12)))))));
(16,((1,(6,(7,13))),(((2,5),(10,(4,12))),((9,15),(3,(11,(8,14)))))));
(16,((1,(7,(6,13))),((10,((4,12),(2,5))),((9,15),(3,(11,(8,14)))))));
(16,((11,(3,(8,14))),((1,(6,(7,13))),((9,15),(10,(5,(2,(4,12))))))));
(16,(((9,15),(3,(14,(8,11)))),((7,(1,(6,13))),(10,((4,12),(2,5))))));
(16,((1,(6,(7,13))),((10,(2,(5,(4,12)))),((9,15),(3,(11,(8,14)))))));
(16,(((9,15),(3,(11,(8,14)))),((1,(6,(7,13))),(10,((4,12),(2,5))))));
(16,(((7,13),(1,6)),((10,((4,5),(2,12))),((9,15),(3,(11,(8,14)))))));
(16,((1,(6,(7,13))),((3,((9,15),(8,(11,14)))),(10,(5,(2,(4,12)))))));
(16,((10,(5,(2,(4,12)))),((1,(6,(7,13))),((9,15),((11,14),(3,8))))));
(16,((1,(6,(7,13))),((3,((9,15),(8,(11,14)))),(10,(2,(5,(4,12)))))));
(16,((1,(6,(7,13))),(((9,15),(3,(11,(8,14)))),(10,(5,(2,(4,12)))))));
(16,((1,(6,(7,13))),(10,(((4,12),(2,5)),((9,15),(3,(11,(8,14))))))));
(16,((3,(11,(8,14))),((9,15),((1,(6,(7,13))),(10,(2,(5,(4,12))))))));
(16,((10,(5,(2,(4,12)))),((6,(1,(7,13))),((9,15),((11,14),(3,8))))));
(16,(((7,13),(1,6)),(((9,15),(3,(11,(8,14)))),(10,((4,12),(2,5))))));
(16,((10,(2,(5,(4,12)))),(((11,(8,14)),(3,(9,15))),((7,13),(1,6)))));
(16,((14,(3,(8,11))),((1,(6,(7,13))),((9,15),(10,(5,(2,(4,12))))))));
(16,(((9,15),(3,(11,(8,14)))),((1,(6,(7,13))),((2,5),(10,(4,12))))));
(16,(10,((1,(6,(7,13))),((9,15),(((4,12),(2,5)),(3,(8,(11,14))))))));
(16,((1,(6,(7,13))),((3,((9,15),(11,(8,14)))),(10,((4,12),(2,5))))));
(16,(((7,13),(1,6)),((3,((9,15),(14,(8,11)))),(10,((4,12),(2,5))))));
(16,(((9,15),(3,(11,(8,14)))),((1,(6,(7,13))),(10,((4,12),(2,5))))));
(16,((1,(6,(7,13))),((10,((2,5),(4,12))),((9,15),(3,(11,(8,14)))))));
(16,(((10,((4,12),(2,5))),((9,15),(3,(14,(8,11))))),(1,(6,(7,13)))));
(16,((1,10),((6,(7,13)),(((9,15),(3,(14,(8,11)))),(2,(5,(4,12)))))));
(16,((1,(6,(7,13))),((10,(5,(2,(4,12)))),((9,15),(3,(14,(8,11)))))));
(16,((1,(6,(7,13))),((10,(2,(5,(4,12)))),((9,15),(3,(8,(11,14)))))));
(16,((10,((4,12),(2,5))),((1,(6,(7,13))),((9,15),(3,(8,(11,14)))))));
(16,(((9,15),(10,((4,12),(2,5)))),((3,(11,(8,14))),(1,(6,(7,13))))));
(16,(((3,(8,(11,14))),(10,((4,12),(2,5)))),((9,15),(6,(1,(7,13))))));
(16,((10,((4,12),(2,5))),((1,(6,(7,13))),((9,15),(3,(11,(8,14)))))));
(16,((10,((4,12),(2,5))),(((7,13),(1,6)),((9,15),(3,(11,(8,14)))))));
(16,((6,(1,(7,13))),((10,((4,12),(2,5))),((9,15),((8,14),(3,11))))));
(16,((1,(6,(7,13))),((9,15),((3,(11,(8,14))),(10,((4,12),(2,5)))))));
(16,((1,(6,(7,13))),((9,15),((3,(8,(11,14))),(10,(5,(2,(4,12))))))));
(16,((1,(6,(7,13))),((9,15),((3,(11,(8,14))),((4,(2,5)),(10,12))))));
(16,((9,15),(((4,12),(2,5)),((1,(6,(7,13))),(10,(3,(11,(8,14))))))));
(16,((3,(11,(8,14))),((10,((4,12),(2,5))),((9,15),(6,(1,(7,13)))))));
(16,((6,(7,13)),(1,((3,((9,15),(11,(8,14)))),(10,((4,12),(2,5)))))));
(16,(((9,15),(3,(8,(11,14)))),((1,(6,(7,13))),((2,5),(10,(4,12))))));
(16,((1,(6,(7,13))),(((11,(8,14)),(3,(9,15))),(10,((4,12),(2,5))))));
(16,(((3,(11,(8,14))),(10,((4,12),(2,5)))),((9,15),(1,(6,(7,13))))));
(16,((10,(2,(5,(4,12)))),((1,(6,(7,13))),((9,15),(3,(14,(8,11)))))));
(16,((1,(6,(7,13))),((10,(2,(5,(4,12)))),((9,15),(3,(8,(11,14)))))));
(16,((1,(6,(7,13))),((10,(5,(2,(4,12)))),((9,15),(3,(14,(8,11)))))));
(16,((1,(6,(7,13))),(((2,5),(10,(4,12))),((9,15),(3,(11,(8,14)))))));
(16,((1,(6,(7,13))),((9,15),((3,(11,(8,14))),(10,(2,(5,(4,12))))))));
(16,(((11,(9,15)),(3,(8,14))),((1,(6,(7,13))),(10,(2,(5,(4,12)))))));
(16,(((9,15),(3,(11,(8,14)))),((1,(6,(7,13))),(10,((4,12),(2,5))))));
(16,(((9,15),(3,(11,(8,14)))),((10,(2,(5,(4,12)))),(1,(7,(6,13))))));
(16,((3,(11,(8,14))),((1,(6,(7,13))),((9,15),(10,(2,(5,(4,12))))))));
(16,(((7,13),(1,6)),(((3,(11,14)),(8,(9,15))),(10,(5,(2,(4,12)))))));
(16,((1,(6,(7,13))),(((9,15),(3,(14,(8,11)))),(10,((4,12),(2,5))))));
(16,(((9,15),(10,((4,12),(2,5)))),((3,(11,(8,14))),(1,(6,(7,13))))));
(16,((10,((4,12),(2,5))),((9,15),((3,(8,(11,14))),(1,(6,(7,13)))))));
(16,((3,(8,(11,14))),((1,(13,(6,7))),((9,15),(10,((4,12),(2,5)))))));
(16,((1,(6,(7,13))),((10,((4,12),(2,5))),((9,15),(3,(11,(8,14)))))));
(16,(((9,15),((8,11),(3,14))),((1,(6,(7,13))),(10,((4,12),(2,5))))));
(16,(((9,15),(3,(11,(8,14)))),((1,(6,(7,13))),(10,((4,12),(2,5))))));
(16,((10,((4,12),(2,5))),((1,(6,(7,13))),((9,15),(3,(14,(8,11)))))));
(16,((1,(6,(7,13))),((10,((4,12),(2,5))),((9,15),(3,(8,(11,14)))))));
(16,((1,(6,(7,13))),((10,(5,(2,(4,12)))),((9,15),(3,(11,(8,14)))))));
(16,((1,(6,(7,13))),((10,(5,(2,(4,12)))),((9,15),(3,(8,(11,14)))))));
(16,((10,(5,(2,(4,12)))),(((9,15),(3,(11,(8,14)))),(6,(1,(7,13))))));
(16,((1,(6,(7,13))),((10,((4,12),(2,5))),(9,(3,(15,(11,(8,14))))))));
(16,((6,(7,13)),(1,((10,((4,12),(2,5))),((9,15),(3,(11,(8,14))))))));
(16,((1,(6,(7,13))),((12,(5,(2,4))),(10,((9,15),(3,(11,(8,14))))))));
(16,((1,(6,(7,13))),(10,(((4,12),(2,5)),((9,15),(3,(14,(8,11))))))));
(16,((1,(6,(7,13))),((10,((4,12),(2,5))),((9,15),(3,(11,(8,14)))))));
(16,((1,(6,(7,13))),((3,((9,15),(11,(8,14)))),(10,((4,12),(2,5))))));
(16,(((9,15),(3,(8,(11,14)))),(10,((1,(6,(7,13))),(5,(2,(4,12)))))));
(16,(((9,15),(3,(8,(11,14)))),((1,(6,(7,13))),(10,((4,12),(2,5))))));
(16,((10,((4,12),(2,5))),((3,((9,15),(11,(8,14)))),(1,(6,(7,13))))));
(16,((1,(6,(7,13))),((9,15),((3,(11,(8,14))),(10,((4,12),(2,5)))))));
(16,((1,(6,(7,13))),(((9,15),(3,(11,(8,14)))),((2,5),(10,(4,12))))));
(16,((1,(6,(7,13))),((10,((4,12),(2,5))),((9,15),(3,(14,(8,11)))))));
(16,((10,((4,12),(2,5))),((1,(6,(7,13))),((9,15),(3,(14,(8,11)))))));
(16,((1,(6,(7,13))),((9,15),((3,(11,(8,14))),(10,(5,(2,(4,12))))))));
(16,((1,(6,(7,13))),(((3,(9,15)),(11,(8,14))),(10,(5,(2,(4,12)))))));
(16,(((8,(11,14)),(3,(9,15))),((1,(6,(7,13))),(10,((4,12),(2,5))))));
(16,((6,(1,(7,13))),((10,((4,12),(2,5))),((9,15),(3,(14,(8,11)))))));
(16,((10,((4,12),(2,5))),(((7,13),(1,6)),((9,15),(3,(11,(8,14)))))));
(16,((13,(1,(6,7))),((10,(5,(2,(4,12)))),((9,15),(3,(11,(8,14)))))));
(16,((1,(6,(7,13))),((10,((4,12),(2,5))),((9,15),(11,(3,(8,14)))))));
(16,(((3,(11,(8,14))),(10,(2,(5,(4,12))))),((9,15),(1,(6,(7,13))))));
(16,(((11,(8,14)),(3,(9,15))),((1,(13,(6,7))),(10,((2,5),(4,12))))));
(16,((10,((4,12),(2,5))),((1,(6,(7,13))),((9,15),(3,(14,(8,11)))))));
(16,((1,(6,(7,13))),((9,15),((3,(11,(8,14))),(10,(5,(2,(4,12))))))));
(16,(((9,15),(3,(14,(8,11)))),((1,(6,(7,13))),(10,((4,12),(2,5))))));
(16,((1,(7,(6,13))),((9,15),((3,(11,(8,14))),(10,((4,12),(2,5)))))));
(16,((10,((4,12),(2,5))),((1,(6,(7,13))),((9,15),(3,(14,(8,11)))))));
(16,(((3,(11,(8,14))),(10,((4,12),(2,5)))),((9,15),(1,(6,(7,13))))));
(16,((10,((4,12),(2,5))),((1,(6,(7,13))),((9,15),(3,(11,(8,14)))))));
(16,((1,(6,(7,13))),((10,(2,(5,(4,12)))),((9,15),(3,(8,(11,14)))))));
(16,((10,(5,(2,(4,12)))),((1,(6,(7,13))),((9,15),(3,(11,(8,14)))))));
(16,(((7,13),(1,6)),(((9,15),(3,(11,(8,14)))),(10,((2,12),(4,5))))));
(16,((1,(6,(7,13))),((3,((9,15),(11,(8,14)))),(10,((4,12),(2,5))))));
(16,((1,(13,(6,7))),(((9,15),((8,14),(3,11))),(10,((4,12),(2,5))))));
(16,((1,(6,(7,13))),((10,((4,12),(2,5))),((9,15),(3,(11,(8,14)))))));
(16,(((9,15),(14,(3,(8,11)))),(10,(((4,12),(2,5)),((7,13),(1,6))))));
(16,((1,(6,(7,13))),((8,(3,((9,15),(11,14)))),(10,((4,12),(2,5))))));
(16,(((10,(2,5)),((9,15),((8,11),(3,14)))),((4,12),(1,(6,(7,13))))));
(16,((7,(1,(6,13))),(((9,15),(3,(11,(8,14)))),(10,((2,5),(4,12))))));
(16,((10,((4,12),(2,5))),((3,((11,(8,14)),(9,15))),(1,(6,(7,13))))));
(16,(((9,15),((8,11),(3,14))),((1,(6,(7,13))),(10,((4,12),(2,5))))));
(16,(((6,7),(1,13)),((10,(2,(5,(4,12)))),((9,15),(3,(8,(11,14)))))));
(16,(((3,(14,(8,11))),(10,((4,12),(2,5)))),((9,15),(1,(6,(7,13))))));
(16,(((9,15),(3,(14,(8,11)))),((1,(6,(7,13))),(10,((4,12),(2,5))))));
(16,((1,(6,(7,13))),((10,((4,12),(2,5))),(3,((11,(8,14)),(9,15))))));
(16,((1,(6,(7,13))),((10,((4,12),(2,5))),((9,15),(11,(3,(8,14)))))));
(16,((1,(6,(7,13))),((10,(5,(2,(4,12)))),((9,15),(11,(3,(8,14)))))));
(16,((((2,(4,12)),(5,10)),((9,15),(3,(14,(8,11))))),(6,(1,(7,13)))));
(16,(((9,15),(3,(11,(8,14)))),((10,(2,(5,(4,12)))),(1,(6,(7,13))))));
(16,((10,((4,12),(2,5))),(((11,(8,14)),(3,(9,15))),(1,(6,(7,13))))));
(16,(((8,11),((9,15),(3,14))),((1,(6,(7,13))),(10,((4,12),(2,5))))));
(16,((1,(6,(7,13))),((10,((4,12),(2,5))),((9,15),(3,(11,(8,14)))))));
(16,((((8,14),(9,15)),(3,11)),((6,(1,(7,13))),(10,((4,12),(2,5))))));
(16,((1,(6,(7,13))),((10,((4,12),(2,5))),((9,15),(3,(11,(8,14)))))));
(16,(((9,15),(3,(11,(8,14)))),((1,(6,(7,13))),(10,((4,12),(2,5))))));
(16,((1,(6,(7,13))),((10,((4,12),(2,5))),((9,15),(3,(11,(8,14)))))));
(16,((9,15),((1,(6,(7,13))),((3,(11,(8,14))),(10,((4,12),(2,5)))))));
(16,((1,(6,(7,13))),((10,(5,(2,(4,12)))),((9,15),(3,(11,(8,14)))))));
(16,(((9,15),(3,(8,(11,14)))),((1,(6,(7,13))),(10,((4,12),(2,5))))));
(16,(((3,(11,(8,14))),(10,(4,(2,(5,12))))),((9,15),(1,(6,(7,13))))));
(16,((1,(6,(7,13))),(((9,15),(3,(14,(8,11)))),(10,((4,12),(2,5))))));
(16,(((9,15),(3,(11,(8,14)))),((6,(1,(7,13))),(10,((4,12),(2,5))))));
(16,((1,(6,(7,13))),(((5,(4,12)),(2,10)),((9,15),(3,(11,(8,14)))))));
(16,((10,(5,(2,(4,12)))),((3,((9,15),(11,(8,14)))),((7,13),(1,6)))));
(16,(((9,15),(14,(3,(8,11)))),((10,(5,(2,(4,12)))),(1,(6,(7,13))))));
(16,((3,(8,(11,14))),((1,(6,(7,13))),((9,15),(10,(12,(2,(4,5))))))));
(16,((1,(6,(7,13))),((9,15),((3,(14,(8,11))),(10,((4,12),(2,5)))))));
(16,((13,(1,(6,7))),((9,15),((3,(11,(8,14))),(10,((2,5),(4,12)))))));
(16,(((4,12),(10,(2,5))),((1,(6,(7,13))),((9,15),(3,(14,(8,11)))))));
(16,((10,((4,12),(2,5))),(((9,15),(3,(11,(8,14)))),(1,(6,(7,13))))));
(16,((2,5),(((9,15),(3,(8,(11,14)))),((10,(4,12)),(1,(6,(7,13)))))));
(16,(((9,15),(3,(11,(8,14)))),((1,(7,(6,13))),(10,(2,(5,(4,12)))))));
(16,(((9,15),(3,(14,(8,11)))),(((7,13),(1,6)),(10,((4,12),(2,5))))));
(16,((10,((4,12),(2,5))),((1,(13,(6,7))),((9,15),(3,(11,(8,14)))))));
(16,((1,(7,(6,13))),((10,(5,(2,(4,12)))),((9,15),(3,(14,(8,11)))))));
(16,((1,(6,(7,13))),(((9,15),(14,(3,(8,11)))),(10,((4,12),(2,5))))));
(16,((10,((4,12),(2,5))),(((11,(8,14)),(3,(9,15))),(1,(6,(7,13))))));
(16,((1,(6,(7,13))),(((9,15),(3,(11,(8,14)))),(10,((4,12),(2,5))))));
(16,(((7,13),(1,6)),(((9,15),(3,(14,(8,11)))),(10,(5,(2,(4,12)))))));
(16,((1,(6,(7,13))),((10,((4,12),(2,5))),((9,15),(8,(3,(11,14)))))));
(16,((1,(6,(7,13))),((10,(5,(2,(4,12)))),((9,15),(3,(8,(11,14)))))));
(16,(((9,15),(10,(3,(8,(11,14))))),(((4,12),(2,5)),(1,(6,(7,13))))));
(16,(((9,15),(5,(10,(2,(4,12))))),((3,(14,(8,11))),(1,(6,(7,13))))));
(16,(((9,15),(3,(11,(8,14)))),(((7,13),(1,6)),((2,(4,12)),(5,10)))));
(16,((10,((4,12),(2,5))),((1,(6,(7,13))),((9,15),(3,(8,(11,14)))))));
(16,((1,(6,(7,13))),(((9,15),(3,(11,(8,14)))),(10,(5,(2,(4,12)))))));
(16,(((9,15),(10,((4,12),(2,5)))),((3,(11,(8,14))),(1,(6,(7,13))))));
(16,(((9,15),(3,(14,(8,11)))),((6,(1,(7,13))),(10,(2,(5,(4,12)))))));
(16,(((9,15),(3,(11,(8,14)))),((1,(6,(7,13))),(10,((4,12),(2,5))))));
(16,(((9,15),(3,(11,(8,14)))),((1,(6,(7,13))),(10,((4,12),(2,5))))));
(16,((10,((4,12),(2,5))),((1,(6,(7,13))),((9,15),(3,(8,(11,14)))))));
(16,((13,(6,7)),(1,((10,(12,(4,(2,5)))),((9,15),(3,(11,(8,14))))))));
(16,(((3,(14,(8,11))),((4,12),(10,(2,5)))),((9,15),(1,(13,(6,7))))));
(16,((3,((9,15),(11,(8,14)))),((1,(6,(7,13))),(10,((4,12),(2,5))))));
(16,((10,((4,12),(2,5))),(((9,15),(3,(11,(8,14)))),(1,(6,(7,13))))));
(16,((1,(6,(7,13))),(((9,15),((8,11),(3,14))),(10,((4,12),(2,5))))));
(16,((10,((4,12),(2,5))),((1,(6,(7,13))),((9,15),(3,(11,(8,14)))))));
(16,((1,(6,(7,13))),((10,((4,12),(2,5))),((9,15),((8,14),(3,11))))));
(16,(((9,15),(3,(11,(8,14)))),((6,(1,(7,13))),(10,(2,(5,(4,12)))))));
(16,((1,(6,(7,13))),((10,((4,12),(2,5))),((9,15),(8,(3,(11,14)))))));
(16,((1,(6,(7,13))),(((9,15),(3,(11,(8,14)))),(10,((4,12),(2,5))))));
(16,((1,(6,(7,13))),(((9,15),(3,(11,(8,14)))),(10,((4,12),(2,5))))));
(16,(((9,15),(3,(8,(11,14)))),((6,(1,(7,13))),(10,((4,12),(2,5))))));
(16,((10,(2,(5,(4,12)))),((1,(6,(7,13))),((9,15),(3,(11,(8,14)))))));
(16,((1,(6,(7,13))),((10,((2,5),(4,12))),((9,15),(3,(11,(8,14)))))));
(16,((1,(6,(7,13))),((10,((4,12),(2,5))),((9,15),(3,(14,(8,11)))))));
(16,((1,(7,(6,13))),((3,((9,15),(11,(8,14)))),(10,((4,12),(2,5))))));
(16,((3,((9,15),(8,(11,14)))),((1,(6,(7,13))),(10,((4,12),(2,5))))));
(16,(((2,5),(10,(4,12))),((1,(6,(7,13))),((9,15),(3,(8,(11,14)))))));
(16,((1,(6,(7,13))),((10,((4,12),(2,5))),((9,15),(3,(11,(8,14)))))));
(16,((1,(6,(7,13))),((10,(2,(5,(4,12)))),((9,15),(3,(14,(8,11)))))));
(16,(((9,15),((8,11),(3,14))),((1,(13,(6,7))),(10,(5,(2,(4,12)))))));
(16,((1,(6,(7,13))),(((4,12),(10,(2,5))),((9,15),(3,(8,(11,14)))))));
(16,((1,(6,(7,13))),(((9,15),(3,(11,(8,14)))),(10,((4,12),(2,5))))));
(16,((9,15),((1,(6,(7,13))),((3,(8,(11,14))),(10,((4,12),(2,5)))))));
(16,((10,((4,12),(2,5))),((1,(6,(7,13))),((9,15),(3,(8,(11,14)))))));
(16,((10,(2,(5,(4,12)))),((1,(6,(7,13))),((9,15),(3,(11,(8,14)))))));
(16,((1,(6,(7,13))),((3,((9,15),(11,(8,14)))),(10,((4,12),(2,5))))));
(16,((2,(10,(5,(4,12)))),((1,(6,(7,13))),((9,15),(3,(11,(8,14)))))));
(16,((1,(6,(7,13))),((5,(10,(2,(4,12)))),((9,15),(3,(11,(8,14)))))));
(16,((1,(6,(7,13))),((10,((4,12),(2,5))),((9,15),(14,(3,(8,11)))))));
(16,((1,(6,(7,13))),((10,((4,12),(2,5))),((9,15),(3,(11,(8,14)))))));
(16,((1,(6,(7,13))),(((9,15),(3,(14,(8,11)))),(10,(5,(2,(4,12)))))));
(16,((1,(6,(7,13))),((10,((4,12),(2,5))),((9,15),(3,(11,(8,14)))))));
(16,((1,(6,(7,13))),(((4,12),(10,(2,5))),((9,15),(3,(11,(8,14)))))));
(16,((10,((9,15),((11,14),(3,8)))),(((4,12),(2,5)),(1,(6,(7,13))))));
(16,((1,(6,(7,13))),((3,((9,15),(14,(8,11)))),(10,((4,12),(2,5))))));
(16,(((9,15),(3,(14,(8,11)))),((10,((4,12),(2,5))),(1,(6,(7,13))))));
(16,((1,(6,(7,13))),((9,15),((3,(8,(11,14))),(10,(2,(5,(4,12))))))));
(16,(((7,13),(1,6)),((10,(5,(2,(4,12)))),((9,15),(3,(11,(8,14)))))));
(16,(((9,15),(10,((4,12),(2,5)))),((3,(11,(8,14))),(6,(1,(7,13))))));
(16,((1,(6,(7,13))),((3,((9,15),(11,(8,14)))),(10,(2,(5,(4,12)))))));
(((10,(5,(2,(4,12)))),((1,(7,(6,13))),((9,15),((8,11),(3,14))))),16);
(16,(((9,15),(10,(5,(2,(4,12))))),((3,(8,(11,14))),(1,(6,(7,13))))));
(16,((1,(6,(7,13))),(((9,15),(3,(11,(8,14)))),(10,(5,(2,(4,12)))))));
(16,((1,(6,(7,13))),((10,((4,12),(2,5))),((9,15),(3,(14,(8,11)))))));
(16,((4,12),(((9,15),(3,(14,(8,11)))),((10,(2,5)),(1,(6,(7,13)))))));
(16,((9,15),((1,(6,(7,13))),((3,(11,(8,14))),(10,((4,12),(2,5)))))));
(16,((1,(7,13)),(6,(((9,15),(3,(11,(8,14)))),(10,((4,12),(2,5)))))));
(16,((1,(6,(7,13))),((9,15),((3,(8,(11,14))),(10,((4,12),(2,5)))))));
(16,((9,15),((1,(6,(7,13))),((3,(11,(8,14))),(10,((4,12),(2,5)))))));
(16,(((9,15),(3,(11,(8,14)))),((1,(6,(7,13))),((2,5),(10,(4,12))))));
(16,(((9,15),(3,(11,(8,14)))),((1,(6,(7,13))),(10,(2,(5,(4,12)))))));
(16,(((10,(2,(4,12))),((9,15),(3,(11,(8,14))))),(5,(1,(6,(7,13))))));
(16,((5,(2,(4,12))),(1,((6,(7,13)),(10,((9,15),(3,(11,(8,14)))))))));
(16,(((10,((4,12),(2,5))),(15,((8,(11,14)),(3,9)))),(1,(6,(7,13)))));
(16,((1,(6,(7,13))),((10,((4,12),(2,5))),((9,15),(3,(11,(8,14)))))));
(16,(((9,15),((4,12),(2,5))),((1,(6,(7,13))),(10,(3,(11,(8,14)))))));
(16,(((9,15),(3,(8,(11,14)))),((10,((4,12),(2,5))),(1,(6,(7,13))))));
(16,(((9,15),(3,(11,(8,14)))),((10,((4,12),(2,5))),(13,(1,(6,7))))));
(16,(((9,15),(3,(11,(8,14)))),((1,(6,(7,13))),(10,((4,12),(2,5))))));
(16,((10,((4,12),(2,5))),((1,(6,(7,13))),((9,15),(3,(14,(8,11)))))));
(16,((1,(6,(7,13))),((10,((4,12),(2,5))),((9,15),(3,(8,(11,14)))))));
(16,(((9,15),(3,(14,(8,11)))),(((2,5),(4,12)),(10,(6,(1,(7,13)))))));
(16,((9,15),((1,(6,(7,13))),((3,(11,(8,14))),(10,(5,(2,(4,12))))))));
(16,((1,(6,(7,13))),((3,(11,(8,14))),((9,15),(10,((4,12),(2,5)))))));
(16,((6,(7,13)),(1,(((4,12),(10,(2,5))),((9,15),(3,(11,(8,14))))))));
(16,((10,(2,(5,(4,12)))),((1,(6,(7,13))),((9,15),(3,(11,(8,14)))))));
(16,((10,((4,12),(2,5))),((1,(6,(7,13))),((9,15),(3,(11,(8,14)))))));
(16,((1,(6,(7,13))),((10,(2,(5,(4,12)))),((9,15),(3,(8,(11,14)))))));
(16,((1,(6,(7,13))),(((9,15),(3,(11,(8,14)))),(10,(2,(5,(4,12)))))));
(16,(((2,5),(10,(4,12))),(((7,13),(1,6)),((9,15),(3,(14,(8,11)))))));
(16,((1,(6,(7,13))),((5,(2,(4,12))),(10,((9,15),(3,(14,(8,11))))))));
(16,((1,(6,(7,13))),((3,((9,15),(14,(8,11)))),((4,12),(10,(2,5))))));
(16,(((9,15),(3,(11,(8,14)))),(1,((6,(7,13)),(10,(2,(5,(4,12))))))));
(16,((1,(6,(7,13))),(10,((2,(5,(4,12))),((9,15),(3,(14,(8,11))))))));
(16,(((9,15),(3,(8,(11,14)))),(((7,13),(1,6)),(10,((4,12),(2,5))))));
(16,((7,13),((1,6),(((9,15),(3,(8,(11,14)))),(2,(10,(5,(4,12))))))));
(((((4,12),(2,5)),((9,15),(3,(14,(8,11))))),(10,(1,(13,(6,7))))),16);
(16,(((11,(8,14)),(3,(9,15))),((1,(6,(7,13))),(10,((4,12),(2,5))))));
(16,((1,(6,(7,13))),((10,((4,12),(2,5))),((9,15),(8,(3,(11,14)))))));
(16,((1,(6,(7,13))),((10,(2,(5,(4,12)))),((9,15),(3,(11,(8,14)))))));
(16,((9,15),((3,(8,(11,14))),((1,(7,(6,13))),(10,((4,12),(2,5)))))));
(16,((1,(6,(7,13))),((2,(4,12)),((9,15),((3,(11,(8,14))),(5,10))))));
(16,(((9,15),(3,(11,(8,14)))),((1,(6,(7,13))),(10,((4,12),(2,5))))));
(16,(((7,13),(1,6)),(10,(((4,12),(2,5)),((9,15),(3,(8,(11,14))))))));
(16,(((3,(11,(8,14))),(10,((4,12),(2,5)))),((9,15),(1,(6,(7,13))))));
(16,((3,(14,(8,11))),((9,15),((10,(2,(5,(4,12)))),(1,(6,(7,13)))))));
(16,(((9,15),(10,((4,12),(2,5)))),((3,(11,(8,14))),(1,(6,(7,13))))));
(16,((1,(6,(7,13))),((10,((2,5),(4,12))),((9,15),(3,(8,(11,14)))))));
(16,((1,(6,(7,13))),(((9,15),(3,(11,(8,14)))),(10,((4,12),(2,5))))));
(16,(((3,(11,(8,14))),(10,((4,12),(2,5)))),((9,15),(1,(6,(7,13))))));
(16,((3,(8,(11,14))),((1,(6,(7,13))),((9,15),(10,((4,12),(2,5)))))));
(16,(((7,13),(1,6)),((10,((4,12),(2,5))),((9,15),(3,(11,(8,14)))))));
(16,((((9,15),(3,(14,(8,11)))),(10,((4,12),(2,5)))),((7,13),(1,6))));
(16,((1,(6,(7,13))),((3,((9,15),(11,(8,14)))),(10,((2,5),(4,12))))));
(16,((1,(6,(7,13))),(((9,15),((8,14),(3,11))),(10,((4,12),(2,5))))));
(16,((10,(5,(2,(4,12)))),((1,(6,(7,13))),((9,15),(3,(11,(8,14)))))));
(16,((1,(7,(6,13))),((10,((4,12),(2,5))),((9,15),(3,(11,(8,14)))))));
(16,((1,(6,(7,13))),((3,(8,((9,15),(11,14)))),(10,(12,(4,(2,5)))))));
(16,((1,(6,(7,13))),((10,(2,(5,(4,12)))),((9,15),(3,(8,(11,14)))))));
(16,((10,((4,12),(2,5))),(((11,(8,14)),(3,(9,15))),(1,(6,(7,13))))));
(16,((3,(11,(8,14))),((1,(6,(7,13))),((9,15),(10,(2,(5,(4,12))))))));
(16,((1,(6,(7,13))),((10,(2,(5,(4,12)))),((9,15),(3,(11,(8,14)))))));
(16,((3,(11,(8,14))),((1,(6,(7,13))),((9,15),(10,(2,(5,(4,12))))))));
(16,(((9,15),(10,((4,12),(2,5)))),((8,(3,(11,14))),(1,(6,(7,13))))));
(16,((2,5),((1,(6,(7,13))),((3,((9,15),(11,(8,14)))),(10,(4,12))))));
(16,((5,(10,(2,(4,12)))),((3,((9,15),(8,(11,14)))),(1,(6,(7,13))))));
(16,((1,(6,(7,13))),((10,(2,(5,(4,12)))),((9,15),(3,(11,(8,14)))))));
(16,((1,(6,(7,13))),((10,((4,12),(2,5))),((3,(11,(8,14))),(9,15)))));
(16,((1,(6,(7,13))),((9,15),((3,(11,(8,14))),(10,(2,(5,(4,12))))))));
(16,((5,(2,(4,12))),((10,(9,15)),((3,(14,(8,11))),(1,(7,(6,13)))))));
(16,((10,((4,12),(2,5))),((1,(7,(6,13))),((9,15),(3,(11,(8,14)))))));
(16,(((7,13),(1,6)),((10,((4,12),(2,5))),((9,15),(3,(11,(8,14)))))));
(16,((1,(6,(7,13))),((3,((9,15),(8,(11,14)))),((4,12),(10,(2,5))))));
(16,((1,(6,(7,13))),((10,(5,(2,(4,12)))),((9,15),(3,(11,(8,14)))))));
(16,((1,(6,(7,13))),((10,((4,12),(2,5))),((9,15),(3,(11,(8,14)))))));
(16,(((5,(2,(4,12))),((9,15),(3,(8,(11,14))))),(10,((7,13),(1,6)))));
(16,((10,((4,12),(2,5))),((3,((9,15),(14,(8,11)))),((7,13),(1,6)))));
(16,(((9,15),(3,(11,(8,14)))),((10,((4,12),(2,5))),(1,(6,(7,13))))));
(16,((3,(11,(8,14))),((10,(2,(5,(4,12)))),((9,15),(1,(6,(7,13)))))));
(16,(((9,15),(3,(11,(8,14)))),((1,(6,(7,13))),(10,(12,(4,(2,5)))))));
(16,((4,(12,(2,5))),((1,(6,(7,13))),(10,((9,15),(3,(8,(11,14))))))));
(16,((13,((9,15),(8,(3,(11,14))))),((1,(6,7)),(10,(2,(5,(4,12)))))));
(16,((10,((4,12),(2,5))),((1,(13,(6,7))),((9,15),(11,(3,(8,14)))))));
(16,((1,(6,(7,13))),(((9,15),(3,(8,(11,14)))),(10,((2,5),(4,12))))));
(16,(((9,15),(3,(11,(8,14)))),(((4,12),(10,(2,5))),((7,13),(1,6)))));
(16,((10,(2,(5,(4,12)))),((1,(6,(7,13))),((9,15),(3,(11,(8,14)))))));
(16,((1,(6,(7,13))),((10,(5,(2,(4,12)))),((9,15),(3,(11,(8,14)))))));
(16,((1,(6,(7,13))),(((9,15),(3,(8,(11,14)))),(10,((4,12),(2,5))))));
(16,(((9,15),(3,(8,(11,14)))),((6,(1,(7,13))),(10,((4,12),(2,5))))));
(16,((1,(6,(7,13))),((10,((2,12),(4,5))),((9,15),(3,(11,(8,14)))))));
(16,((1,(6,(7,13))),((10,(2,(5,(4,12)))),((9,15),(3,(11,(8,14)))))));
(16,(((9,15),(3,(11,(8,14)))),((1,(6,(7,13))),(10,((4,12),(2,5))))));
(16,((10,((4,12),(2,5))),((3,((9,15),(11,(8,14)))),(1,(6,(7,13))))));
(16,((10,((4,12),(2,5))),((3,((9,15),(11,(8,14)))),(6,(1,(7,13))))));
(16,((10,((4,12),(2,5))),((1,(6,(7,13))),((9,15),(3,(8,(11,14)))))));
(16,(((9,15),(10,((4,12),(2,5)))),((14,(3,(8,11))),(1,(6,(7,13))))));
(16,((1,(6,(7,13))),((9,15),((3,(11,(8,14))),(10,((4,12),(2,5)))))));
(16,((1,(6,(7,13))),((10,((4,12),(2,5))),((9,15),(3,(11,(8,14)))))));
(16,((1,(6,(7,13))),(((9,15),(3,(11,(8,14)))),(10,((4,12),(2,5))))));
(16,((((4,12),(2,5)),((9,15),(3,(14,(8,11))))),(10,(1,(6,(7,13))))));
(16,((10,((4,12),(2,5))),((1,(6,(7,13))),((9,15),(3,(11,(8,14)))))));
(16,((6,(1,(7,13))),((9,15),((3,(14,(8,11))),(10,(5,(2,(4,12))))))));
(16,((1,(6,(7,13))),((9,15),((3,(14,(8,11))),(10,((4,12),(2,5)))))));
(16,(((10,((4,12),(2,5))),((9,15),(3,(8,(11,14))))),(1,(6,(7,13)))));
(16,(((9,15),(3,(11,(8,14)))),((1,(6,(7,13))),(10,(5,(2,(4,12)))))));
(16,(((9,15),(10,((4,12),(2,5)))),((3,(14,(8,11))),(1,(6,(7,13))))));
(16,((1,(6,(7,13))),((10,(5,(2,(4,12)))),(15,(9,(3,(11,(8,14))))))));
(16,((10,(5,(2,(4,12)))),(((11,(8,14)),(3,(9,15))),(1,(6,(7,13))))));
(16,((1,(6,(7,13))),((10,((4,12),(2,5))),((9,15),(3,(8,(11,14)))))));
(16,((1,(6,(7,13))),((3,((9,15),(11,(8,14)))),(10,((4,12),(2,5))))));
(16,((3,(14,(8,11))),(((7,13),(1,6)),((9,15),(10,((4,12),(2,5)))))));
(16,((1,(6,(7,13))),((3,((9,15),(11,(8,14)))),(10,(5,(2,(4,12)))))));
(16,(((9,15),((8,14),(3,11))),((1,(13,(6,7))),(10,((4,12),(2,5))))));
(16,(((9,15),(3,(11,(8,14)))),((1,(6,(7,13))),((5,(4,12)),(2,10)))));
(16,((1,(6,(7,13))),((10,(2,(5,(4,12)))),((9,15),(3,(11,(8,14)))))));
(16,(((6,13),(1,7)),((10,((4,12),(2,5))),((9,15),(3,(11,(8,14)))))));
(16,((3,(11,(8,14))),((1,(6,(7,13))),((9,15),(10,((4,12),(2,5)))))));
(16,(((3,(11,(8,14))),(10,((5,12),(2,4)))),((9,15),(1,(6,(7,13))))));
(16,((1,(6,(7,13))),((9,15),((3,(14,(8,11))),(10,(5,(2,(4,12))))))));
(16,((10,((4,12),(2,5))),((1,(6,(7,13))),((9,15),(3,(8,(11,14)))))));
(16,((9,15),((1,(6,(7,13))),((3,(11,(8,14))),(10,(2,(5,(4,12))))))));
(16,((1,(6,(7,13))),((10,((4,12),(2,5))),((9,15),(3,(8,(11,14)))))));
(16,((1,(6,(7,13))),(((2,12),(10,(4,5))),((9,15),(3,(11,(8,14)))))));
(16,(((9,15),(3,(8,(11,14)))),((1,(6,(7,13))),(10,((4,12),(2,5))))));
(16,((1,(6,(7,13))),((3,((9,15),(14,(8,11)))),((2,5),(10,(4,12))))));
(16,(((9,15),(3,(14,(8,11)))),((1,(6,(7,13))),(10,(5,(2,(4,12)))))));
(16,((1,(6,(7,13))),(10,((2,(5,(4,12))),((9,15),(3,(14,(8,11))))))));
(16,((10,((4,12),(2,5))),((9,15),((3,(11,(8,14))),(1,(6,(7,13)))))));
(16,((1,(6,(7,13))),((9,15),(10,((3,11),((8,14),(2,(5,(4,12)))))))));
(16,(((7,13),(1,6)),((10,((4,12),(2,5))),((9,15),(3,(14,(8,11)))))));
(16,(((9,15),(10,(5,(2,(4,12))))),((3,(11,(8,14))),(1,(6,(7,13))))));
(16,((10,((4,12),(2,5))),((1,(6,(7,13))),((9,15),(3,(11,(8,14)))))));
(16,((1,(6,(7,13))),((9,15),((3,(14,(8,11))),(10,((4,12),(2,5)))))));
(16,(((9,15),(3,(8,(11,14)))),((1,(6,(7,13))),((2,(4,12)),(5,10)))));
(16,(((9,15),(3,(11,(8,14)))),((1,(6,(7,13))),(10,((4,12),(2,5))))));
(16,((1,(6,(7,13))),((5,(2,(4,12))),(10,((9,15),(8,(3,(11,14))))))));
(16,(((5,(2,(4,12))),(10,(3,(11,(8,14))))),((9,15),(1,(6,(7,13))))));
(16,((3,(11,(8,14))),((1,(6,(7,13))),((9,15),(10,((4,12),(2,5)))))));
(16,((6,(1,(7,13))),((10,(2,(5,(4,12)))),((9,15),(3,(11,(8,14)))))));
(16,((10,(5,(2,(4,12)))),((1,(6,(7,13))),((9,15),(3,(11,(8,14)))))));
(16,(((9,15),(3,(14,(8,11)))),(((4,12),(2,5)),(10,(1,(6,(7,13)))))));
(16,((9,15),((1,(6,(7,13))),((3,(11,(8,14))),(10,((4,12),(2,5)))))));
(16,((10,(2,(5,(4,12)))),((1,(7,(6,13))),((9,15),(3,(8,(11,14)))))));
(16,(((6,7),(1,13)),((10,(5,(2,(4,12)))),((9,15),(3,(8,(11,14)))))));
(16,((1,(6,(7,13))),((10,((4,12),(2,5))),((9,15),(3,(8,(11,14)))))));
(16,((1,(6,(7,13))),((3,(11,(8,14))),((9,15),(10,(5,(2,(4,12))))))));
(16,((3,((9,15),(11,(8,14)))),((5,10),((2,(4,12)),(1,(6,(7,13)))))));
(16,(((9,15),(10,((4,12),(2,5)))),((3,(11,(8,14))),(1,(6,(7,13))))));
(16,((9,15),((10,((4,12),(2,5))),((1,(6,(7,13))),(3,(11,(8,14)))))));
(16,(((3,(8,(11,14))),(10,((4,12),(2,5)))),((9,15),(1,(6,(7,13))))));
(16,((10,((4,12),(2,5))),(((7,13),(1,6)),((9,15),((8,14),(3,11))))));
(16,((1,(6,(7,13))),(((9,15),(3,(11,(8,14)))),(10,((4,12),(2,5))))));
(16,((10,((4,12),(2,5))),((1,(6,(7,13))),((9,15),((8,14),(3,11))))));
(16,((5,(10,(2,(4,12)))),((1,(9,15)),((3,(11,(8,14))),(6,(7,13))))));
(16,(((1,13),(10,(3,(11,(8,14))))),((9,15),(((4,12),(2,5)),(6,7)))));
(16,((1,(6,(7,13))),(((9,15),(3,(11,(8,14)))),(10,((4,12),(2,5))))));
(16,(((9,15),(10,((4,12),(2,5)))),((3,(11,(8,14))),(1,(7,(6,13))))));
(16,((6,(1,(7,13))),((3,((9,15),(11,(8,14)))),(10,((4,12),(2,5))))));
(16,((1,(6,(7,13))),((10,((4,12),(2,5))),((9,15),(3,(11,(8,14)))))));
(16,(((9,15),(3,(11,(8,14)))),((6,(1,(7,13))),(10,((4,12),(2,5))))));
(16,((10,((4,12),(2,5))),((1,(6,(7,13))),((9,15),(3,(11,(8,14)))))));
(16,((9,(15,(3,(14,(8,11))))),((1,(6,(7,13))),(10,(12,(4,(2,5)))))));
(16,(((9,15),(3,(8,(11,14)))),((1,(6,(7,13))),(10,((4,12),(2,5))))));
(16,(((9,15),(3,(8,(11,14)))),(((7,13),(1,6)),(10,(2,(5,(4,12)))))));
(16,(((9,15),(3,(11,(8,14)))),((1,(6,(7,13))),(10,((4,12),(2,5))))));
(16,((1,(6,(7,13))),((10,(5,(12,(2,4)))),((9,15),(3,(14,(8,11)))))));
(16,((1,(6,(7,13))),((10,((4,12),(2,5))),((9,15),(3,(14,(8,11)))))));
(16,(((9,15),(1,(6,(7,13)))),((3,(8,(11,14))),(10,((4,12),(2,5))))));
(16,((1,(6,(7,13))),((10,((4,12),(2,5))),((9,15),(3,(8,(11,14)))))));
(16,((1,(6,(7,13))),((9,15),((11,(3,(8,14))),(10,((4,12),(2,5)))))));
(16,(((3,((9,15),(8,(11,14)))),(10,((4,12),(2,5)))),((7,13),(1,6))));
(16,((10,((4,12),(2,5))),((3,(11,(8,14))),((9,15),(1,(6,(7,13)))))));
(((1,(6,(7,13))),((9,15),((3,(14,(8,11))),(10,(5,(2,(4,12))))))),16);
(16,(10,((3,(11,(8,14))),((6,(1,(7,13))),((9,15),((4,12),(2,5)))))));
(16,((1,(6,(7,13))),(((9,15),(3,(11,(8,14)))),(10,(5,(2,(4,12)))))));
(16,((1,(6,(7,13))),((10,(2,(5,(4,12)))),((9,15),(3,(8,(11,14)))))));
(16,(((9,15),(3,(8,(11,14)))),((1,(6,(7,13))),(10,((4,12),(2,5))))));
(16,((1,(6,(7,13))),((3,((9,15),(11,(8,14)))),(10,(2,(5,(4,12)))))));
(16,((10,((4,12),(2,5))),(((7,13),(1,6)),((9,15),(3,(8,(11,14)))))));
(16,((1,(6,(7,13))),((3,((9,15),(11,(8,14)))),(10,(5,(2,(4,12)))))));
(16,((1,(6,(7,13))),((3,(11,(8,14))),((9,15),(10,(2,(5,(4,12))))))));
(16,((10,(4,(12,(2,5)))),((1,(6,(7,13))),((9,15),(3,(14,(8,11)))))));
(16,((10,((4,12),(2,5))),((1,(6,(7,13))),((9,15),(3,(11,(8,14)))))));
(16,(15,((10,((4,12),(2,5))),(((8,(11,14)),(3,9)),(6,(1,(7,13)))))));
(16,((5,(10,(2,(4,12)))),((1,(6,(7,13))),((9,15),(3,(11,(8,14)))))));
(16,((6,(1,(7,13))),((10,((4,12),(2,5))),((9,15),(3,(11,(8,14)))))));
(16,((9,15),((1,(6,(7,13))),((3,(11,(8,14))),(10,(5,(2,(4,12))))))));
(16,((6,(7,13)),(1,((10,(5,(2,(4,12)))),((9,15),(3,(11,(8,14))))))));
(16,(((9,15),(3,(11,(8,14)))),((10,((4,12),(2,5))),(1,(6,(7,13))))));
(16,((1,(6,(7,13))),((10,((4,12),(2,5))),((9,15),(3,(14,(8,11)))))));
(16,((10,(2,(5,(4,12)))),((6,(1,(7,13))),((9,15),(3,(8,(11,14)))))));
(16,(((9,15),(3,(8,(11,14)))),(((4,12),(10,(2,5))),(1,(6,(7,13))))));
(16,(1,((10,((4,12),(2,5))),((6,(7,13)),((9,15),(3,(11,(8,14))))))));
(16,((1,(6,(7,13))),(((8,(11,14)),(3,(9,15))),(10,((4,12),(2,5))))));
(16,(((9,15),(3,(11,(8,14)))),((10,((4,12),(2,5))),(1,(6,(7,13))))));
(16,((10,(2,(5,(4,12)))),((1,(6,(7,13))),((9,15),(3,(14,(8,11)))))));
(16,((10,(5,(2,(4,12)))),((1,(6,(7,13))),((9,15),(3,(8,(11,14)))))));
(16,((7,(1,(6,13))),((10,((4,12),(2,5))),((9,15),(3,(11,(8,14)))))));
(16,((3,(14,(8,11))),((1,(6,(7,13))),((9,15),(10,((4,12),(2,5)))))));
(16,((1,(6,(7,13))),((10,(2,(5,(4,12)))),((9,15),(3,(8,(11,14)))))));
(16,((1,(6,(7,13))),((10,(5,(4,(2,12)))),((9,15),(3,(11,(8,14)))))));
(16,(((9,15),(3,(11,(8,14)))),((1,(6,(7,13))),(10,(5,(2,(4,12)))))));
(16,((1,(6,(7,13))),((9,15),((3,(11,(8,14))),(10,((4,12),(2,5)))))));
(16,((1,(6,(7,13))),((3,((9,15),(11,(8,14)))),((5,(4,12)),(2,10)))));
(16,((9,15),(((7,13),(1,6)),((3,(11,(8,14))),(10,((4,12),(2,5)))))));
(16,((1,(13,(6,7))),((9,15),((3,(11,(8,14))),(10,(2,(5,(4,12))))))));
(16,(((7,13),(1,6)),((9,15),((3,(11,(8,14))),(2,(10,(5,(4,12))))))));
(16,((1,(6,(7,13))),((10,(2,(5,(4,12)))),((9,15),(3,(8,(11,14)))))));
(16,(((9,15),(10,(5,(2,(4,12))))),((3,(11,(8,14))),(1,(6,(7,13))))));
(16,((10,(2,(5,(4,12)))),((1,(6,(7,13))),((9,15),(3,(11,(8,14)))))));
(16,((1,(6,(7,13))),((10,((4,12),(2,5))),((9,15),(3,(8,(11,14)))))));
(16,((10,((4,12),(2,5))),((1,(6,(7,13))),((9,15),(3,(8,(11,14)))))));
(16,((1,(6,(7,13))),((9,15),((3,(11,(8,14))),(10,((4,12),(2,5)))))));
(16,((6,(7,13)),((5,(2,(4,12))),(((9,15),(3,(11,(8,14)))),(1,10)))));
(16,(((2,5),(10,(4,12))),(((9,15),(3,(14,(8,11)))),(1,(6,(7,13))))));
(16,(((10,(2,(5,(4,12)))),((9,15),(3,(11,(8,14))))),(1,(6,(7,13)))));
(16,((10,((4,12),(2,5))),(((3,(9,15)),(14,(8,11))),(1,(6,(7,13))))));
(16,(((2,(5,(4,12))),(1,(6,(7,13)))),(10,((9,15),(3,(11,(8,14)))))));
(16,(((9,15),(3,(11,(8,14)))),(((7,13),(1,6)),(10,((4,12),(2,5))))));
(16,(((11,(8,14)),(3,(9,15))),(((7,13),(1,6)),(10,(5,(2,(4,12)))))));
(16,((1,(6,(7,13))),(((9,15),(3,(11,(8,14)))),(10,((4,12),(2,5))))));
(16,((10,((4,12),(2,5))),((1,(6,(7,13))),((9,15),(3,(14,(8,11)))))));
(16,((10,(5,(2,(4,12)))),((1,(6,(7,13))),((9,15),(3,(11,(8,14)))))));
(16,((1,(6,(7,13))),((3,((11,14),(8,(9,15)))),(10,(2,(5,(4,12)))))));
(16,(((9,15),((2,5),(10,(4,12)))),((3,(11,(8,14))),(1,(6,(7,13))))));
(16,((1,(6,(7,13))),((10,(2,(5,(4,12)))),((9,15),(3,(11,(8,14)))))));
(16,((1,(6,(7,13))),((10,((4,12),(2,5))),((9,15),(3,(11,(8,14)))))));
(16,((10,(5,(2,(4,12)))),((1,(6,(7,13))),((9,15),(3,(8,(11,14)))))));
(16,(((7,13),(1,6)),((5,(10,(2,(4,12)))),((9,15),(3,(11,(8,14)))))));
(16,(((11,(8,14)),(3,(9,15))),((1,(6,(7,13))),(10,(4,(2,(5,12)))))));
(16,((10,(12,(5,(2,4)))),((1,(6,(7,13))),((9,15),(3,(11,(8,14)))))));
(16,((10,((4,12),(2,5))),(((9,15),(3,(14,(8,11)))),(1,(6,(7,13))))));
(16,(((11,(8,14)),(3,9)),((1,(6,(7,13))),(15,((2,5),(10,(4,12)))))));
(16,(((9,15),(10,(5,(2,(4,12))))),((3,(11,(8,14))),(1,(6,(7,13))))));
(16,(((9,15),(3,(11,(8,14)))),((10,((4,12),(2,5))),(1,(6,(7,13))))));
(16,((6,(1,(7,13))),(((4,12),(2,5)),(10,(3,((9,15),(11,(8,14))))))));
(16,((1,(6,(7,13))),((10,(2,(5,(4,12)))),((9,15),(3,(11,(8,14)))))));
(16,(((9,15),(3,(14,(8,11)))),((10,(5,(2,(4,12)))),(1,(7,(6,13))))));
(16,(((10,(5,(2,(4,12)))),((9,15),(3,(14,(8,11))))),(1,(6,(7,13)))));
(16,((1,(6,(7,13))),((10,(4,(2,(5,12)))),((9,15),(3,(11,(8,14)))))));
(16,((3,(8,(11,14))),(((6,7),(1,13)),((9,15),(10,(2,(5,(4,12))))))));
(16,(((9,15),(3,(11,(8,14)))),((1,(6,(7,13))),(10,((4,12),(2,5))))));
(16,((13,(1,(6,7))),((3,((9,15),(14,(8,11)))),(10,(5,(2,(4,12)))))));
(16,((1,(6,(7,13))),((10,((4,12),(2,5))),((9,15),(3,(14,(8,11)))))));
(16,((1,(6,(7,13))),((10,((4,12),(2,5))),((9,15),(3,(14,(8,11)))))));
(16,(((3,(11,(8,14))),(10,((4,12),(2,5)))),((9,15),(1,(6,(7,13))))));
(16,((10,((4,12),(2,5))),((3,((9,15),(11,(8,14)))),(1,(6,(7,13))))));
(16,((10,((4,12),(2,5))),(((3,(11,(8,14))),(1,(7,13))),(6,(9,15)))));
(16,((1,(7,(6,13))),(((4,12),(2,5)),(10,((3,(8,(11,14))),(9,15))))));
(16,((1,(6,(7,13))),(((9,15),(3,(11,(8,14)))),(10,(5,(2,(4,12)))))));
(16,((1,(3,(11,(8,14)))),((6,(7,13)),((9,15),((4,12),(10,(2,5)))))));
(16,((1,(6,(7,13))),(((9,15),(3,(14,(8,11)))),(10,((4,12),(2,5))))));
(16,((10,((4,12),(2,5))),((1,(6,(7,13))),((9,15),(3,(14,(8,11)))))));
(16,(((9,15),(3,(8,(11,14)))),((6,(1,(7,13))),(10,((4,12),(2,5))))));
(16,((1,(6,(7,13))),((3,((9,15),(8,(11,14)))),(10,((4,12),(2,5))))));
(16,((1,(6,(7,13))),(((9,15),(3,(11,(8,14)))),(10,(2,(5,(4,12)))))));
(16,((10,((4,12),(2,5))),((13,(1,(6,7))),((9,15),(3,(14,(8,11)))))));
(16,(10,((1,(6,(7,13))),((5,(2,(4,12))),((9,15),(3,(11,(8,14))))))));
(16,((1,(6,(7,13))),((10,(2,(5,(4,12)))),((9,15),(3,(11,(8,14)))))));
(16,((1,(6,(7,13))),((10,((4,12),(2,5))),((9,15),(3,(14,(8,11)))))));
(16,((1,(6,(7,13))),(10,(((4,12),(2,5)),((9,15),(3,(8,(11,14))))))));
(16,((1,(6,(7,13))),((9,15),((3,(11,(8,14))),(10,((4,12),(2,5)))))));
(16,((1,(6,(7,13))),((3,(14,(8,11))),((9,15),(10,((4,12),(2,5)))))));
(16,(((7,13),(1,6)),((10,((4,12),(2,5))),(15,((11,(8,14)),(3,9))))));
(16,((1,(6,(7,13))),((10,((4,12),(2,5))),((9,15),(3,(14,(8,11)))))));
(16,((1,(6,(7,13))),((3,(14,(8,11))),((9,15),(10,(2,(5,(4,12))))))));
(16,(((9,15),(3,(11,(8,14)))),((6,(1,(7,13))),(10,(5,(2,(4,12)))))));
(16,(((9,15),(3,(11,(8,14)))),((1,(6,(7,13))),(10,(2,(5,(4,12)))))));
(16,((1,(7,(6,13))),(((9,15),(3,(11,(8,14)))),(10,(2,(5,(4,12)))))));
(16,((1,(6,(7,13))),((10,((2,5),(4,12))),((9,15),(3,(11,(8,14)))))));
(16,((1,(6,(7,13))),(((8,(11,14)),(3,(9,15))),(10,((4,12),(2,5))))));
(16,((1,(6,(7,13))),((9,15),((3,(11,(8,14))),(10,((4,12),(2,5)))))));
(16,((10,((4,12),(2,5))),(((9,15),(3,(8,(11,14)))),(1,(6,(7,13))))));
(16,(((7,13),(1,6)),((10,((4,12),(2,5))),((9,15),(3,(11,(8,14)))))));
(16,((1,(6,(7,13))),(10,((3,(11,(8,14))),((9,15),(5,(2,(4,12))))))));
(((1,(6,(7,13))),((5,(2,(4,12))),(10,((9,15),(3,(8,(11,14))))))),16);
(16,((1,(6,(7,13))),((3,(11,(8,14))),((9,15),(10,(2,(5,(4,12))))))));
(16,((10,(3,(8,(11,14)))),((1,(6,(7,13))),((9,15),((4,12),(2,5))))));
(16,((10,((4,12),(2,5))),((6,(1,(7,13))),((9,15),(3,(8,(11,14)))))));
(16,((10,(2,(5,(4,12)))),(((14,(8,11)),(3,(9,15))),(1,(6,(7,13))))));
(16,(((9,15),(3,(11,(8,14)))),((1,(6,(7,13))),(10,((4,12),(2,5))))));
(16,((10,((4,12),(2,5))),((3,((11,(8,14)),(9,15))),(1,(6,(7,13))))));
(16,((6,(1,(7,13))),((10,(5,(2,(4,12)))),((9,15),(3,(11,(8,14)))))));
(16,((1,(6,(7,13))),((10,(5,(2,(4,12)))),((9,15),(3,(14,(8,11)))))));
(16,((((4,12),(2,5)),((9,15),(3,(11,(8,14))))),(10,(1,(6,(7,13))))));
(16,((1,(6,(7,13))),((10,(2,(5,(4,12)))),((9,15),(3,(11,(8,14)))))));
(16,((1,(6,(7,13))),((10,((4,12),(2,5))),((9,15),(3,(14,(8,11)))))));
(16,(((3,(11,(8,14))),((2,(4,12)),(5,10))),((9,15),(1,(6,(7,13))))));
(16,((1,(6,(7,13))),((10,(2,(5,(4,12)))),((9,15),((8,14),(3,11))))));
(16,((10,((4,12),(2,5))),((1,(6,(7,13))),((9,15),(3,(8,(11,14)))))));
(16,(((9,15),(3,(11,(8,14)))),((1,(7,(6,13))),(10,((4,12),(2,5))))));
(16,((1,(6,(7,13))),((2,(5,(4,12))),(10,(3,((9,15),(11,(8,14))))))));
(16,(((3,(11,(8,14))),(10,(5,(2,(4,12))))),((9,15),(1,(6,(7,13))))));
(16,((10,(5,(2,(4,12)))),(((11,(8,14)),(3,(9,15))),(1,(6,(7,13))))));
(16,((1,(7,(6,13))),((10,((4,12),(2,5))),((9,15),(3,(8,(11,14)))))));
(16,((1,(6,(7,13))),((10,(2,(5,(4,12)))),((9,15),(3,(11,(8,14)))))));
(16,((10,((4,12),(2,5))),((3,((11,(8,14)),(9,15))),((7,13),(1,6)))));
(16,((6,(7,13)),(1,((10,(5,(2,(4,12)))),((9,15),(3,(11,(8,14))))))));
(16,((10,((4,12),(2,5))),((1,(6,(7,13))),((9,15),(3,(11,(8,14)))))));
(16,((1,(6,(7,13))),(((8,(9,15)),(3,(11,14))),(2,(10,(5,(4,12)))))));
(16,((6,(1,(7,13))),((10,((4,12),(2,5))),((9,15),(3,(11,(8,14)))))));
(16,((6,(1,(7,13))),((10,((4,12),(2,5))),((9,15),((8,14),(3,11))))));
(16,(((9,15),(3,(14,(8,11)))),((1,(6,(7,13))),(10,((2,5),(4,12))))));
(16,((3,((9,15),(14,(8,11)))),((1,(6,(7,13))),(10,((4,12),(2,5))))));
(16,((1,(6,(7,13))),((10,(5,(2,(4,12)))),((9,15),(3,(11,(8,14)))))));
(16,((10,(2,(5,(4,12)))),((13,(1,(6,7))),((9,15),(3,(11,(8,14)))))));
(16,((10,((4,12),(2,5))),((1,(6,(7,13))),((9,15),(3,(8,(11,14)))))));
(16,(((3,(11,(8,14))),((9,15),(10,(2,(5,(4,12)))))),(6,(1,(7,13)))));
(16,((1,(6,(7,13))),((9,15),(10,(((8,11),(3,14)),(2,(5,(4,12))))))));
(16,(((9,15),(8,(3,(11,14)))),((1,(6,(7,13))),(10,(2,(5,(4,12)))))));
(16,((10,(2,(5,(4,12)))),(((9,15),(3,(11,(8,14)))),(1,(6,(7,13))))));
(16,(((9,15),(10,((4,12),(2,5)))),((3,(11,(8,14))),(1,(6,(7,13))))));
(16,((10,(1,(6,(7,13)))),(((4,12),(2,5)),((9,15),(3,(14,(8,11)))))));
(16,((10,(2,(5,(4,12)))),((1,(6,(7,13))),((9,15),(3,(11,(8,14)))))));
(16,((10,((4,12),(2,5))),((3,((9,15),(14,(8,11)))),(1,(6,(7,13))))));
(16,(((7,13),(1,6)),(((2,5),(10,(4,12))),((9,15),(3,(8,(11,14)))))));
(16,((((9,15),(8,11)),(3,14)),((1,(6,(7,13))),(10,((4,12),(2,5))))));
(16,((1,(6,(7,13))),((10,(2,(5,(4,12)))),((9,15),(3,(11,(8,14)))))));
(16,((10,(2,(4,(5,12)))),((1,(6,(7,13))),((9,15),(3,(8,(11,14)))))));
(16,((10,(5,(2,(4,12)))),((1,(6,(7,13))),((9,15),(3,(14,(8,11)))))));
(16,((6,(1,(7,13))),((10,((4,12),(2,5))),((9,15),(3,(11,(8,14)))))));
(16,((1,(6,(7,13))),((9,15),((11,(3,(8,14))),(10,((4,12),(2,5)))))));
(16,((9,15),((10,(2,(5,(4,12)))),((3,(11,(8,14))),(1,(6,(7,13)))))));
(16,(((7,13),(1,6)),((10,((4,12),(2,5))),((9,15),(3,(11,(8,14)))))));
(16,((9,15),((3,(11,(8,14))),((10,(2,(5,(4,12)))),(1,(6,(7,13)))))));
(16,((1,(6,(7,13))),((9,15),((3,(11,(8,14))),(10,(2,(5,(4,12))))))));
(16,(((9,15),(3,(14,(8,11)))),((7,(1,(6,13))),(10,(2,(5,(4,12)))))));
(16,((((9,15),(3,(11,(8,14)))),((4,12),(2,5))),(10,(1,(6,(7,13))))));
(16,((10,((4,12),(2,5))),((3,((9,15),(11,(8,14)))),(1,(6,(7,13))))));
(16,((1,(6,(7,13))),((10,(2,(5,(4,12)))),(11,((9,15),(3,(8,14)))))));
(16,((1,6),((3,((9,15),(8,(11,14)))),((7,13),(10,((4,12),(2,5)))))));
(16,(((9,15),(3,(11,(8,14)))),((1,(6,(7,13))),(10,(5,(2,(4,12)))))));
(16,(((7,13),(1,6)),((10,(5,(2,(4,12)))),((9,15),(3,(8,(11,14)))))));
(16,(((4,12),(2,5)),((1,(6,(7,13))),(10,((9,15),(3,(8,(11,14))))))));
(16,((1,(13,(6,7))),((10,(5,(2,(4,12)))),((9,15),(3,(11,(8,14)))))));
(16,(((9,15),(10,((4,12),(2,5)))),((3,(11,(8,14))),(1,(6,(7,13))))));
(16,((3,(14,(8,11))),((1,(6,(7,13))),((9,15),(10,((4,12),(2,5)))))));
(16,((1,(6,(7,13))),((10,((4,12),(2,5))),((9,15),(3,(8,(11,14)))))));
(16,((10,((4,12),(2,5))),((1,(6,(7,13))),((9,15),(3,(14,(8,11)))))));
(16,((10,(2,(5,(4,12)))),((6,(1,(7,13))),((9,15),(3,(14,(8,11)))))));
(16,(((1,(13,(6,7))),((3,(11,(8,14))),((4,12),(2,5)))),(10,(9,15))));
(16,((1,(6,(7,13))),((10,(2,(5,(4,12)))),((9,15),(3,(14,(8,11)))))));
(16,(((9,15),(3,(8,(11,14)))),((1,(6,(7,13))),(10,((4,12),(2,5))))));
(16,((6,(1,(7,13))),((10,(5,(4,12))),(2,(9,(3,(15,(11,(8,14)))))))));
(16,(((7,13),(1,6)),((10,((4,12),(2,5))),((9,15),(3,(11,(8,14)))))));
(16,((6,(1,(7,13))),((10,(2,(5,(4,12)))),((9,15),(3,(14,(8,11)))))));
(16,((1,(6,(7,13))),((9,15),((3,(8,(11,14))),(10,((4,12),(2,5)))))));
(16,((1,(6,(7,13))),((10,((4,12),(2,5))),(3,((9,15),(14,(8,11)))))));
(16,((10,(2,(5,(4,12)))),((1,(6,(7,13))),((9,15),(3,(11,(8,14)))))));
(16,((1,(6,(7,13))),((10,(2,(5,(4,12)))),((9,15),(11,(3,(8,14)))))));
(16,((1,(6,(7,13))),((10,(3,(11,(8,14)))),((9,15),((4,12),(2,5))))));
(16,(((10,(2,(5,(4,12)))),((3,(8,(11,14))),(9,15))),(1,(6,(7,13)))));
(16,((1,(6,(7,13))),((10,((4,12),(2,5))),((9,15),(3,(14,(8,11)))))));
(16,((((4,12),(10,(2,5))),(1,(9,15))),((3,(11,(8,14))),(6,(7,13)))));
(16,((10,(5,(2,(4,12)))),((1,(6,(7,13))),((9,15),(3,(8,(11,14)))))));
(16,((1,(7,(6,13))),(((9,15),(3,(14,(8,11)))),(10,((4,12),(2,5))))));
(16,((10,((4,12),(2,5))),((1,(6,(7,13))),((9,15),(3,(11,(8,14)))))));
(16,((1,(6,(7,13))),((10,(12,(4,(2,5)))),((9,15),(3,(8,(11,14)))))));
(16,((10,((4,12),(2,5))),((1,(6,(7,13))),((9,15),(3,(11,(8,14)))))));
(16,(((4,12),(10,(2,5))),((9,15),((3,(8,(11,14))),(1,(6,(7,13)))))));
(16,((6,(7,13)),(1,((9,15),((3,(11,(8,14))),(10,(5,(2,(4,12)))))))));
(16,((1,(6,(7,13))),((10,(2,(5,(4,12)))),((9,15),(3,(8,(11,14)))))));
(16,((10,((4,12),(2,5))),((9,15),((3,(11,(8,14))),(1,(6,(7,13)))))));
(16,(((9,15),(5,(4,12))),((1,(13,(6,7))),((3,(11,(8,14))),(2,10)))));
(16,((1,(6,(7,13))),(((9,15),(3,(14,(8,11)))),(10,((4,12),(2,5))))));
(16,((1,(6,(7,13))),(((9,15),(3,(11,(8,14)))),((5,(4,12)),(2,10)))));
(16,((9,15),((1,(6,(7,13))),((3,(11,(8,14))),(10,(5,(2,(4,12))))))));
(16,((1,(6,(7,13))),((10,(5,(2,(4,12)))),((9,15),(3,(14,(8,11)))))));
(16,((10,(1,(6,(7,13)))),((5,(2,(4,12))),((9,15),(3,(8,(11,14)))))));
(16,(((10,(5,(2,(4,12)))),((9,15),(3,(11,(8,14))))),(6,(1,(7,13)))));
(16,(((9,15),(3,(14,(8,11)))),((1,(6,(7,13))),(10,((4,12),(2,5))))));
(16,(((2,(4,12)),(5,10)),((1,(6,(7,13))),((9,15),(3,(14,(8,11)))))));
(16,((1,(6,(7,13))),((10,(5,(4,(2,12)))),((9,15),(3,(11,(8,14)))))));
(16,((1,(7,(6,13))),((10,(2,(5,(4,12)))),((9,15),(3,(11,(8,14)))))));
(16,((1,(6,(7,13))),(((9,15),(3,(11,(8,14)))),(10,(2,(5,(4,12)))))));
(16,((10,(1,(6,(7,13)))),((9,15),((3,(11,(8,14))),((4,12),(2,5))))));
(16,((1,(6,(7,13))),((10,((4,12),(2,5))),((9,15),(3,(14,(8,11)))))));
(16,((3,(14,(8,11))),((9,15),((6,(1,(7,13))),(10,(5,(2,(4,12))))))));
(16,((1,(7,(6,13))),((10,((4,12),(2,5))),((9,15),(3,(11,(8,14)))))));
(16,((1,(7,(6,13))),(((9,15),(3,(11,(8,14)))),(10,((4,12),(2,5))))));
(16,((10,((4,12),(2,5))),((1,(6,(7,13))),((9,15),(3,(11,(8,14)))))));
(16,(((11,(8,14)),(3,(9,15))),((1,(6,(7,13))),(10,(5,(2,(4,12)))))));
(16,(1,((7,(6,13)),(((14,(8,11)),(3,(9,15))),(10,(5,(2,(4,12))))))));
(16,(((9,15),(14,(3,(8,11)))),((13,(1,(6,7))),(10,(2,(5,(4,12)))))));
(16,(((9,15),(3,(8,(11,14)))),((10,(2,(5,(4,12)))),(1,(6,(7,13))))));
(16,((1,(6,(7,13))),((10,((4,12),(2,5))),((9,15),(8,(3,(11,14)))))));
(16,((((4,12),(2,5)),(10,(9,15))),((3,(14,(8,11))),((7,13),(1,6)))));
(16,((9,15),((1,(13,(6,7))),((11,(3,(8,14))),(10,(2,(5,(4,12))))))));
(16,(((8,(11,14)),(3,(9,15))),((1,(6,(7,13))),(10,(5,(2,(4,12)))))));
(16,(((7,13),(1,6)),(((11,(8,14)),(3,(9,15))),(2,(10,(12,(4,5)))))));
(16,((10,(2,(5,(4,12)))),((1,(6,(7,13))),((9,15),(3,(8,(11,14)))))));
(16,(((9,15),(3,(11,(8,14)))),(((7,13),(1,6)),(10,(2,(5,(4,12)))))));
(16,((1,(6,(7,13))),((10,((4,12),(2,5))),((9,15),(3,(11,(8,14)))))));
(16,((1,(6,(7,13))),(((4,5),(2,12)),(10,((9,15),(3,(11,(8,14))))))));
(16,((1,(6,(7,13))),((10,((4,12),(2,5))),((9,15),(3,(8,(11,14)))))));
(16,((1,(6,(7,13))),(((14,(8,11)),(3,(9,15))),(10,(2,(5,(4,12)))))));
(16,(((11,(8,14)),(3,(9,15))),((10,((4,12),(2,5))),(1,(6,(7,13))))));
(16,(((4,12),(10,(2,5))),((6,(1,(7,13))),((9,15),(3,(11,(8,14)))))));
(16,(((3,(8,(11,14))),((9,15),(10,(2,5)))),((4,12),(1,(7,(6,13))))));
(16,(((7,13),(1,6)),((3,(11,(8,14))),((9,15),(10,((4,12),(2,5)))))));
(16,(((3,(14,(8,11))),(10,(5,(2,(4,12))))),((9,15),(1,(6,(7,13))))));
(16,((1,(6,(7,13))),(((4,12),(2,5)),((9,15),(10,(3,(11,(8,14))))))));
(16,((1,(6,(7,13))),((3,(11,(8,14))),((9,15),(10,(5,(2,(4,12))))))));
(16,((1,(13,(6,7))),(((11,(8,14)),(3,(9,15))),(10,((4,12),(2,5))))));
(16,((1,(6,(7,13))),((9,15),((3,(11,(8,14))),(10,((4,12),(2,5)))))));
(16,((10,((4,12),(2,5))),((1,(6,(7,13))),((11,(8,14)),(3,(9,15))))));
(16,((1,(6,(7,13))),(((9,15),(3,(11,(8,14)))),(10,((4,12),(2,5))))));
(16,((1,(6,(7,13))),((3,(11,(8,14))),((9,15),(10,((4,12),(2,5)))))));
(16,((3,(11,(8,14))),((10,(2,(5,(4,12)))),((9,15),(1,(6,(7,13)))))));
(16,((10,((4,12),(2,5))),((3,((9,15),(8,(11,14)))),(1,(6,(7,13))))));
(16,(((7,13),(1,6)),((10,((4,12),(2,5))),((9,15),(3,(11,(8,14)))))));
(16,((6,(1,(7,13))),((9,15),((14,(3,(8,11))),(10,(2,(5,(4,12))))))));
(16,((1,(6,(7,13))),((3,(11,(8,14))),((9,15),(10,(5,(2,(4,12))))))));
(16,((1,(7,(6,13))),(((14,(8,11)),(3,(9,15))),(10,((4,12),(2,5))))));
(16,((1,(6,(7,13))),((10,((4,12),(2,5))),((9,15),(11,(3,(8,14)))))));
(16,((1,(6,(7,13))),(((9,15),(3,(8,(11,14)))),(5,(10,(2,(4,12)))))));
(16,((1,(6,(7,13))),((10,(5,(2,(4,12)))),((9,15),(3,(8,(11,14)))))));
(16,((1,(6,(7,13))),(((9,15),(3,(11,(8,14)))),(10,((4,12),(2,5))))));
(16,((13,(1,(6,7))),(((9,15),(2,(5,(4,12)))),(10,(3,(11,(8,14)))))));
(16,((6,(1,(7,13))),((10,((4,12),(2,5))),((9,15),(3,(14,(8,11)))))));
(16,((9,15),((3,(8,(11,14))),((1,(6,(7,13))),(10,(5,(2,(4,12))))))));
(16,((1,(6,(7,13))),((10,(5,(2,(4,12)))),((9,15),(3,(8,(11,14)))))));
(16,((1,(6,(7,13))),(((9,15),((8,11),(3,14))),(10,((4,12),(2,5))))));
(16,((10,((4,12),(2,5))),(((9,15),(3,(11,(8,14)))),(1,(6,(7,13))))));
(16,((1,(6,(7,13))),((10,((4,12),(2,5))),((9,15),(3,(11,(8,14)))))));
(16,(((4,12),(2,5)),((1,(6,(7,13))),(10,((9,15),(3,(8,(11,14))))))));
(16,((10,(1,(6,(7,13)))),((9,15),((3,(8,(11,14))),(2,(5,(4,12)))))));
(16,((1,(6,(7,13))),((3,(11,(8,14))),((9,15),(10,(2,(5,(4,12))))))));
(16,((1,(6,(7,13))),((10,((4,12),(2,5))),((9,15),(3,(11,(8,14)))))));
(16,((1,(7,(6,13))),((10,((4,12),(2,5))),((9,15),(3,(8,(11,14)))))));
(16,((6,(1,(7,13))),(((9,15),(3,(11,(8,14)))),(10,((4,12),(2,5))))));
(16,((1,(6,(7,13))),((10,(2,(5,(4,12)))),((9,15),(3,(8,(11,14)))))));
(16,((10,(2,(5,(4,12)))),(((11,(8,14)),(3,(9,15))),(1,(6,(7,13))))));
(16,((6,(1,(7,13))),((10,(5,(2,(4,12)))),((9,15),(3,(11,(8,14)))))));
(16,(((14,(8,11)),(3,(9,15))),((10,((2,5),(4,12))),(1,(6,(7,13))))));
(16,((3,(8,(11,14))),((1,(6,(7,13))),((9,15),(10,((4,12),(2,5)))))));
(16,((1,(6,(7,13))),((10,((4,12),(2,5))),((9,15),(3,(11,(8,14)))))));
(16,((10,((4,12),(2,5))),(((7,13),(1,6)),((9,15),((8,14),(3,11))))));
(16,((3,((11,(8,14)),(9,15))),((1,(6,(7,13))),(10,((4,12),(2,5))))));
(16,((1,(6,(7,13))),(((9,15),(14,(3,(8,11)))),(10,((4,12),(2,5))))));
(16,((1,(6,(7,13))),((3,((9,15),(14,(8,11)))),(10,((4,12),(2,5))))));
(16,((1,(6,(7,13))),((5,(2,(4,12))),(10,((9,15),(3,(11,(8,14))))))));
(16,((((4,12),(2,5)),(1,(6,(7,13)))),(10,((9,15),(3,(8,(11,14)))))));
(16,((1,(6,(7,13))),((10,((4,12),(2,5))),((3,(11,(8,14))),(9,15)))));
(16,((9,15),((3,(14,(8,11))),((1,(6,(7,13))),(10,((4,12),(2,5)))))));
(16,(((5,(2,(4,12))),((9,15),(3,(11,(8,14))))),(10,(1,(6,(7,13))))));
(16,((10,((4,12),(2,5))),((1,(6,(7,13))),((9,15),(3,(11,(8,14)))))));
(16,((10,((4,12),(2,5))),((1,(6,(7,13))),((9,15),(3,(8,(11,14)))))));
(16,(((9,15),(3,(14,(8,11)))),(10,(((4,12),(2,5)),((6,13),(1,7))))));
(16,(((9,15),(3,(11,(8,14)))),((1,(6,(7,13))),((2,(4,12)),(5,10)))));
(16,((1,(6,(7,13))),((10,((4,12),(2,5))),((9,15),(3,(11,(8,14)))))));
(16,((10,(2,(5,(4,12)))),((3,((9,15),(14,(8,11)))),(1,(6,(7,13))))));
(16,((1,(6,(7,13))),((10,((4,12),(2,5))),((9,15),(3,(11,(8,14)))))));
(16,((10,((4,12),(2,5))),((1,(6,(7,13))),((9,15),(3,(11,(8,14)))))));
(16,((10,(2,(5,(4,12)))),((1,(6,(7,13))),((9,15),(3,(11,(8,14)))))));
(16,((1,((9,15),(3,(11,(8,14))))),((7,(6,13)),(10,(5,(2,(4,12)))))));
(16,((10,(2,(5,(4,12)))),((1,(6,(7,13))),((9,15),(3,(11,(8,14)))))));
(16,(((2,5),(10,(4,12))),(((11,(8,14)),(3,(9,15))),(1,(7,(6,13))))));
(16,((10,((4,12),(2,5))),((1,(6,(7,13))),((9,15),(3,(8,(11,14)))))));
(16,((10,((9,15),(3,(8,(11,14))))),(((7,13),(1,6)),((4,12),(2,5)))));
(16,((2,(1,(6,(7,13)))),((3,(11,(8,14))),((9,15),(10,(5,(4,12)))))));
(((3,(8,(11,14))),((9,15),((1,(6,(7,13))),(10,(2,(5,(4,12))))))),16);
(16,((1,(6,(7,13))),((10,((4,12),(2,5))),((9,15),(3,(11,(8,14)))))));
(16,((1,(6,(7,13))),((10,((4,12),(2,5))),((9,15),(8,(3,(11,14)))))));
(16,((10,((4,12),(2,5))),((1,(6,(7,13))),((9,15),(3,(14,(8,11)))))));
(16,((1,(6,(7,13))),((9,15),((3,(8,(11,14))),(10,((4,12),(2,5)))))));
(16,(((7,13),(1,6)),((10,((4,12),(2,5))),((9,15),(11,(3,(8,14)))))));
(16,((1,(6,(7,13))),(((9,15),(3,(11,(8,14)))),((4,12),(10,(2,5))))));
(16,(((9,15),(3,(11,(8,14)))),(((7,13),(1,6)),(10,(5,(2,(4,12)))))));
(16,(((9,15),(3,(11,(8,14)))),((1,(6,(7,13))),(10,(2,(5,(4,12)))))));
(16,((1,(13,(6,7))),(10,(((11,(8,14)),(3,(9,15))),((4,12),(2,5))))));
(16,(((10,(5,(2,(4,12)))),((9,15),(3,(11,(8,14))))),(1,(6,(7,13)))));
(16,((3,(11,(8,14))),(((7,13),(1,6)),((9,15),((2,5),(10,(4,12)))))));
(16,(((9,15),(3,(11,(8,14)))),((6,(1,(7,13))),(10,((4,12),(2,5))))));
(16,((10,(2,(5,(4,12)))),((6,(1,(7,13))),((9,15),(3,(11,(8,14)))))));
(16,(((7,13),(1,6)),((10,((4,12),(2,5))),((9,15),(3,(11,(8,14)))))));
(16,(((10,((2,12),(4,5))),((9,15),(3,(11,(8,14))))),(6,(1,(7,13)))));
(16,((1,(6,(7,13))),((10,(5,(2,(4,12)))),((9,15),(3,(8,(11,14)))))));
(16,((1,(6,(7,13))),((3,((9,15),(11,(8,14)))),(10,(5,(2,(4,12)))))));
(16,((1,(6,(7,13))),((10,((4,12),(2,5))),((9,15),(3,(11,(8,14)))))));
(16,((10,(5,(2,(4,12)))),((1,(6,(7,13))),((9,15),(3,(8,(11,14)))))));
(16,((10,(5,(2,(4,12)))),((1,(6,(7,13))),((9,15),(3,(11,(8,14)))))));
(16,((10,(5,(2,(4,12)))),((9,15),((1,(6,(7,13))),(3,(11,(8,14)))))));
(16,((1,(7,(6,13))),((10,(2,(5,(4,12)))),((9,15),(3,(11,(8,14)))))));
(16,((10,((4,12),(2,5))),((1,(6,(7,13))),((9,15),(3,(14,(8,11)))))));
(16,((10,(5,(2,(4,12)))),((9,15),((3,(11,(8,14))),(1,(6,(7,13)))))));
(16,((1,(6,(7,13))),(((9,15),(3,(11,(8,14)))),(10,(2,(12,(4,5)))))));
(16,(((7,13),(1,6)),((10,(5,(2,(4,12)))),((9,15),(3,(8,(11,14)))))));
(16,(((9,15),(3,(11,(8,14)))),((1,(6,(7,13))),(10,((4,12),(2,5))))));
(16,((6,(1,(7,13))),((9,15),((3,(11,(8,14))),(5,(10,(2,(4,12))))))));
(16,(((9,15),(3,(11,(8,14)))),(((7,13),(1,6)),(10,((4,12),(2,5))))));
(16,((5,(2,(4,12))),((1,(6,(7,13))),(10,(3,((9,15),(11,(8,14))))))));
(16,((10,(2,(5,(4,12)))),(((7,13),(1,6)),((9,15),(3,(11,(8,14)))))));
(16,((3,(11,(8,14))),((1,(6,(7,13))),((9,15),(10,(2,(5,(4,12))))))));
(16,(((7,13),(1,6)),(((11,(8,14)),(3,(9,15))),(10,(5,(2,(4,12)))))));
(16,(((7,13),(1,6)),((10,((4,12),(2,5))),((9,15),(3,(11,(8,14)))))));
(16,((10,(5,(2,(4,12)))),((1,(6,(7,13))),((9,15),(3,(11,(8,14)))))));
(16,(((7,13),(1,6)),((10,(2,(5,(4,12)))),((9,15),(3,(14,(8,11)))))));
(16,((1,(6,(7,13))),(((9,15),(3,(11,(8,14)))),(10,((4,12),(2,5))))));
(16,(((9,15),(3,(11,(8,14)))),((1,(6,(7,13))),(10,((2,5),(4,12))))));
(16,(((11,(8,14)),(3,(9,15))),((1,(7,(6,13))),(10,(5,(2,(4,12)))))));
(16,(((7,13),(1,6)),((3,((9,15),(11,(8,14)))),(10,((4,12),(2,5))))));
(16,((1,(6,(7,13))),((5,(10,(2,(4,12)))),((9,15),(3,(11,(8,14)))))));
(16,(((9,15),(3,(11,(8,14)))),(6,((1,(7,13)),(10,((4,12),(2,5)))))));
(16,((1,(6,(7,13))),((10,(2,(5,(4,12)))),((9,15),(3,(11,(8,14)))))));
(16,((1,(6,(7,13))),((10,((4,12),(2,5))),((9,15),(3,(14,(8,11)))))));
(16,((9,15),((1,(6,(7,13))),((3,(11,(8,14))),(10,(2,(5,(4,12))))))));
(16,((10,((4,12),(2,5))),((3,((9,15),(11,(8,14)))),(6,(1,(7,13))))));
(16,(((9,15),((4,12),(10,(2,5)))),((3,(11,(8,14))),(6,(1,(7,13))))));
(16,(((9,15),(5,(2,10))),((1,(6,(7,13))),((4,12),(3,(8,(11,14)))))));
(16,((1,(13,(6,7))),(((9,15),(3,(8,(11,14)))),(2,(10,(5,(4,12)))))));
(16,((1,(6,(7,13))),((14,((8,11),(3,(9,15)))),(10,(5,(2,(4,12)))))));
(16,((6,(1,(7,13))),(((11,(8,14)),(3,(9,15))),(10,(2,(5,(4,12)))))));
(16,(((9,15),(10,((4,12),(2,5)))),((3,(11,(8,14))),(1,(6,(7,13))))));
(16,((10,((4,12),(2,5))),((1,(6,(7,13))),((9,15),(3,(11,(8,14)))))));
(16,((1,(6,(7,13))),(((9,15),(3,(8,(11,14)))),((4,12),(10,(2,5))))));
(16,((10,((4,12),(2,5))),((1,(6,(7,13))),((9,15),(3,(14,(8,11)))))));
(16,((10,(2,(5,(4,12)))),((1,(6,(7,13))),((9,15),(3,(11,(8,14)))))));
(((10,(1,(6,(7,13)))),((9,15),((3,(14,(8,11))),(2,(5,(4,12)))))),16);
(16,((1,(6,(7,13))),(((9,15),(3,(14,(8,11)))),(10,((4,12),(2,5))))));
(16,((1,(6,(7,13))),((10,(12,(4,(2,5)))),((9,15),(3,(14,(8,11)))))));
(16,(((9,15),(3,(11,(8,14)))),((1,(6,(7,13))),(10,(2,(5,(4,12)))))));
(16,(((3,(11,(8,14))),(10,(9,15))),(((4,12),(2,5)),(1,(6,(7,13))))));
(16,((1,(6,(7,13))),((10,((4,12),(2,5))),((9,15),(3,(11,(8,14)))))));
(16,((1,(6,(7,13))),(((9,15),(3,(11,(8,14)))),(10,(5,(2,(4,12)))))));
(16,((1,(6,(7,13))),((3,(11,(8,14))),((9,15),(10,(5,(2,(4,12))))))));
(16,((3,(8,(11,14))),((1,(6,(7,13))),((9,15),(10,((4,12),(2,5)))))));
(16,((1,(6,(7,13))),((10,(5,(2,(4,12)))),((9,15),(3,(11,(8,14)))))));
(16,((10,((4,12),(2,5))),((1,(6,(7,13))),((9,15),(3,(11,(8,14)))))));
(16,((10,((9,15),(3,(11,(8,14))))),(((4,12),(2,5)),(1,(6,(7,13))))));
(16,(10,(((9,15),(3,(8,(11,14)))),((2,(5,(4,12))),(1,(6,(7,13)))))));
(16,((1,(6,(7,13))),((10,((4,12),(2,5))),((9,15),(3,(8,(11,14)))))));
(16,((1,(6,(7,13))),((10,((2,4),(5,12))),((9,15),(3,(11,(8,14)))))));
(16,((1,(6,(7,13))),((10,(2,(5,(4,12)))),((9,15),(3,(11,(8,14)))))));
(16,((6,(1,(7,13))),(((9,15),(3,(8,(11,14)))),(10,((4,12),(2,5))))));
(16,((1,(6,(7,13))),((10,((4,12),(2,5))),((9,15),(11,(3,(8,14)))))));
(16,((10,((4,12),(2,5))),((1,(6,(7,13))),((9,15),(3,(11,(8,14)))))));
(16,((((4,12),(2,5)),((9,15),(3,(11,(8,14))))),(10,(1,(6,(7,13))))));
(16,((1,(6,(7,13))),((11,((9,15),(3,(8,14)))),(10,((4,12),(2,5))))));
(16,((1,(6,(7,13))),((10,(2,(5,(4,12)))),((9,15),(3,(8,(11,14)))))));
(16,((1,(6,(7,13))),((10,((4,12),(2,5))),((9,15),(3,(8,(11,14)))))));
(16,((((4,12),(2,5)),((9,15),(3,(14,(8,11))))),(10,(6,(1,(7,13))))));
(16,((1,(6,(7,13))),((10,((4,12),(2,5))),((9,15),(3,(14,(8,11)))))));
(16,((1,(6,(7,13))),(((9,15),(3,(11,(8,14)))),(5,(10,(2,(4,12)))))));
(16,((10,(5,(2,(4,12)))),((3,(11,(8,14))),((9,15),(1,(6,(7,13)))))));
(16,((1,(6,(7,13))),(((2,5),(10,(4,12))),((9,15),(3,(11,(8,14)))))));
(16,((3,(11,(8,14))),(((7,13),(1,6)),((9,15),(10,((4,12),(2,5)))))));
(16,((1,(6,(7,13))),(((11,(8,14)),(3,(9,15))),(10,((4,12),(2,5))))));
(16,(((2,(4,12)),(5,10)),((1,(6,(7,13))),((9,15),(3,(11,(8,14)))))));
((((9,15),(3,(14,(8,11)))),((10,(5,(2,(4,12)))),(1,(13,(6,7))))),16);
(16,((1,(7,(6,13))),((10,(5,(2,(4,12)))),((9,15),(3,(11,(8,14)))))));
(16,((1,(7,(6,13))),((10,(2,(5,(4,12)))),((9,15),(3,(11,(8,14)))))));
(16,((10,(5,(2,(4,12)))),((3,(11,(8,14))),((9,15),(1,(6,(7,13)))))));
(16,((1,(6,(7,13))),((10,((4,12),(2,5))),((9,15),(3,(8,(11,14)))))));
(16,(((9,15),(3,(11,(8,14)))),((10,((4,12),(2,5))),(1,(6,(7,13))))));
(16,(((9,15),(3,(11,(8,14)))),((10,((4,12),(2,5))),(1,(6,(7,13))))));
(16,(((9,15),(3,(8,(11,14)))),(((7,13),(1,6)),(10,(5,(2,(4,12)))))));
(16,(((11,(8,14)),(3,(9,15))),((1,(13,(6,7))),(10,(2,(5,(4,12)))))));
(16,((10,(7,(1,(6,13)))),((2,(5,(4,12))),((9,15),(3,(11,(8,14)))))));
(16,((3,(11,(8,14))),((10,((4,12),(2,5))),((9,15),(1,(6,(7,13)))))));
(16,(((1,(6,(7,13))),(2,10)),((5,(4,12)),((9,15),(3,(11,(8,14)))))));
(16,(((6,13),(1,7)),(((4,12),(2,5)),((3,(11,(8,14))),(10,(9,15))))));
(16,(10,((1,(6,(7,13))),((2,(5,(4,12))),((9,15),(3,(11,(8,14))))))));
(16,((1,(6,(7,13))),((9,15),((3,(11,(8,14))),(10,((4,12),(2,5)))))));
(16,(((4,12),(2,5)),((1,(6,(7,13))),(10,((9,15),(3,(11,(8,14))))))));
(16,(((9,15),(3,(11,(8,14)))),((1,(6,(7,13))),(10,((4,12),(2,5))))));
(16,(((9,15),(10,((4,12),(2,5)))),((3,(8,(11,14))),(1,(6,(7,13))))));
(16,((10,((4,12),(2,5))),((9,15),((3,(11,(8,14))),(1,(6,(7,13)))))));
(16,((1,(7,(6,13))),((3,((9,15),(14,(8,11)))),(10,(5,(2,(4,12)))))));
(16,((1,(6,(7,13))),((10,((4,12),(2,5))),((9,15),(3,(11,(8,14)))))));
(16,(((9,15),(3,(11,(8,14)))),((6,(1,(7,13))),(10,((4,12),(2,5))))));
(16,((1,(6,(7,13))),((10,((4,12),(2,5))),((9,15),(3,(11,(8,14)))))));
(16,(((4,12),(2,5)),((1,(6,(7,13))),(10,((9,15),(3,(11,(8,14))))))));
(16,((9,15),((10,(5,(2,(4,12)))),((3,(11,(8,14))),(1,(6,(7,13)))))));
(16,((10,((4,12),(2,5))),((3,((9,15),(11,(8,14)))),(1,(7,(6,13))))));
(16,(((9,15),(3,(11,(8,14)))),((1,(6,(7,13))),(10,(2,(5,(4,12)))))));
(16,((1,(6,(7,13))),((10,(2,(5,(4,12)))),((9,15),(3,(8,(11,14)))))));
(16,(((9,15),(3,(11,(8,14)))),(((7,13),(1,6)),(10,((4,12),(2,5))))));
(16,((1,(6,(7,13))),((10,((4,12),(2,5))),((9,15),(3,(11,(8,14)))))));
(16,((1,(6,(7,13))),((10,(2,(5,(4,12)))),((9,15),(3,(11,(8,14)))))));
(16,((1,(6,(7,13))),((10,(5,(2,(4,12)))),((9,15),(3,(11,(8,14)))))));
(16,((1,(6,(7,13))),((9,15),((3,(11,(8,14))),(10,((4,12),(2,5)))))));
(16,((3,(11,(8,14))),(((7,13),(1,6)),((9,15),(10,((4,12),(2,5)))))));
(16,((1,(6,(7,13))),(10,((2,(5,(4,12))),((9,15),(3,(11,(8,14))))))));
(16,((1,(6,(7,13))),(((9,15),(3,(11,(8,14)))),(10,((4,12),(2,5))))));
(16,(((7,13),(1,6)),((9,15),((3,(11,(8,14))),(10,(2,(5,(4,12))))))));
(16,((1,(6,(7,13))),((10,(4,(12,(2,5)))),((9,15),(3,(11,(8,14)))))));
(16,((10,((4,12),(2,5))),(((11,(8,14)),(3,(9,15))),(1,(6,(7,13))))));
(16,((1,(6,(7,13))),((10,(2,(5,(4,12)))),((9,15),(3,(11,(8,14)))))));
(16,((1,(6,(7,13))),((10,(5,(2,(4,12)))),((9,15),(3,(14,(8,11)))))));
(16,((1,(6,(7,13))),((3,(11,(8,14))),((9,15),(10,((4,12),(2,5)))))));
(16,(((9,15),(3,(11,(8,14)))),((1,(13,(6,7))),(10,(2,(5,(4,12)))))));
(((1,(6,(7,13))),((10,((4,12),(2,5))),((9,15),(3,(11,(8,14)))))),16);
((((1,(6,(7,13))),((3,(11,(8,14))),((2,(4,12)),(5,10)))),(9,15)),16);
(16,((6,(1,(7,13))),((10,(5,(2,(4,12)))),((9,15),(3,(11,(8,14)))))));
(16,((1,(6,(7,13))),((10,((4,12),(2,5))),((9,15),(3,(14,(8,11)))))));
(16,(10,((((9,15),(8,11)),(3,14)),((1,(6,(7,13))),((4,12),(2,5))))));
(16,(((9,15),(10,(2,(5,(4,12))))),((3,(11,(8,14))),(1,(6,(7,13))))));
(16,((1,(7,(6,13))),(((11,(8,14)),(3,(9,15))),(10,(2,(5,(4,12)))))));
(16,((10,((4,12),(2,5))),((1,(6,(7,13))),(15,(3,(9,(11,(8,14))))))));
(16,((1,(6,(7,13))),((9,15),((3,(8,(11,14))),(10,((4,12),(2,5)))))));
(16,((1,(6,(7,13))),((3,((9,15),(11,(8,14)))),(10,(5,(2,(4,12)))))));
(16,((1,(6,(7,13))),((9,15),((3,(11,(8,14))),((2,(4,12)),(5,10))))));
(16,((6,(1,(7,13))),((9,15),((3,(11,(8,14))),((5,(4,12)),(2,10))))));
(16,(((7,13),(1,6)),((3,(8,(11,14))),((9,15),(10,((4,12),(2,5)))))));
(16,((1,(6,(7,13))),((3,(8,(11,14))),((9,15),(10,((4,12),(2,5)))))));
(16,(((7,13),(1,6)),((10,(5,(2,(4,12)))),((9,15),((11,14),(3,8))))));
(16,(((7,13),(1,6)),((3,((8,14),(11,(9,15)))),(10,((4,12),(2,5))))));
(16,((1,(6,(7,13))),(((9,15),(3,(8,(11,14)))),(10,((4,12),(2,5))))));
(16,((1,(6,(7,13))),((9,15),((3,(14,(8,11))),(10,((4,12),(2,5)))))));
(16,((1,(6,(7,13))),(((9,15),(3,(11,(8,14)))),(10,(2,(5,(4,12)))))));
(16,((6,(1,(7,13))),((10,(5,(2,(4,12)))),((9,15),(3,(11,(8,14)))))));
(16,((1,(6,(7,13))),((10,((4,12),(2,5))),((9,15),((8,14),(3,11))))));
(16,((1,(6,(7,13))),((10,((4,12),(2,5))),((9,15),(3,(14,(8,11)))))));
(16,((1,(6,(7,13))),((3,(11,(8,14))),((9,15),(10,((4,12),(2,5)))))));
(16,((1,(6,(7,13))),(((9,15),(3,(11,(8,14)))),(10,((4,12),(2,5))))));
(16,((1,(6,(7,13))),((9,15),((14,(3,(8,11))),(5,(10,(2,(4,12))))))));
(16,((10,(5,(2,(4,12)))),((1,(6,(7,13))),((9,15),(3,(11,(8,14)))))));
(16,((1,(7,(6,13))),((8,(3,((9,15),(11,14)))),(10,((4,12),(2,5))))));
(16,((1,(6,(7,13))),(((8,(11,14)),(3,(9,15))),(10,(2,(5,(4,12)))))));
(16,((1,(6,(7,13))),((10,((4,12),(2,5))),((9,15),(3,(14,(8,11)))))));
(16,((1,(6,(7,13))),((3,(11,(8,14))),((9,15),(10,((4,12),(2,5)))))));
(16,(((7,13),(1,6)),((3,(11,(8,14))),((9,15),(10,(2,(5,(4,12))))))));
(16,(((9,15),(3,(8,(11,14)))),((1,(6,(7,13))),(10,((4,12),(2,5))))));
(16,(((9,15),(3,(14,(8,11)))),((1,(6,(7,13))),(10,((4,12),(2,5))))));
(16,((1,(6,(7,13))),((3,((8,(11,14)),(9,15))),(10,(5,(2,(4,12)))))));
(16,(((9,15),(3,(8,(11,14)))),((1,(6,(7,13))),(10,(5,(2,(4,12)))))));
(16,(((10,((4,12),(2,5))),((9,15),(3,(11,(8,14))))),(1,(6,(7,13)))));
(16,((1,(6,(7,13))),((9,15),((3,(8,(11,14))),(10,(5,(2,(4,12))))))));
(16,((1,(7,(6,13))),((2,(10,(5,(4,12)))),((9,15),(3,(8,(11,14)))))));
(16,(((9,15),(3,(11,(8,14)))),(((4,12),(10,(2,5))),(1,(6,(7,13))))));
(16,((10,((9,15),(3,(14,(8,11))))),((2,(5,(4,12))),((6,7),(1,13)))));
(16,((9,15),(10,((1,(6,(7,13))),((2,(5,(4,12))),((11,14),(3,8)))))));
(16,((10,((4,12),(2,5))),((1,(6,(7,13))),((9,15),(3,(14,(8,11)))))));
(16,((3,(11,(8,14))),((6,(1,(7,13))),((9,15),(10,(5,(2,(4,12))))))));
(16,((1,(6,(7,13))),((10,(2,(5,(4,12)))),((9,15),(3,(11,(8,14)))))));
(16,((1,(6,(7,13))),(((11,(8,14)),(3,(9,15))),(10,(5,(2,(4,12)))))));
(16,((1,(6,(7,13))),((10,((4,12),(2,5))),((9,15),(3,(14,(8,11)))))));
(16,((1,(6,(7,13))),((10,(2,(5,(4,12)))),((9,15),(3,(11,(8,14)))))));
(16,((1,(6,(7,13))),((9,15),((3,(14,(8,11))),(10,(5,(2,(4,12))))))));
(16,(((9,15),(14,(3,(8,11)))),((1,(6,(7,13))),(10,((4,12),(2,5))))));
(16,(((7,13),(1,6)),(((4,12),(10,(2,5))),((9,15),(3,(8,(11,14)))))));
(16,((3,(11,(8,14))),((1,(6,(7,13))),((9,15),(10,((4,12),(2,5)))))));
(16,((10,((4,12),(2,5))),(((11,(8,14)),(3,(9,15))),((7,13),(1,6)))));
(16,((1,(6,(7,13))),(((9,15),(3,(11,(8,14)))),(10,((4,12),(2,5))))));
(16,((10,((4,12),(2,5))),((3,((9,15),(11,(8,14)))),(1,(6,(7,13))))));
(16,(((9,15),(3,(14,(8,11)))),((13,(1,(6,7))),(10,((4,12),(2,5))))));
(16,((10,((4,12),(2,5))),((1,(6,(7,13))),((9,15),(3,(11,(8,14)))))));
(16,(((9,15),(3,(11,(8,14)))),((10,((4,12),(2,5))),(1,(6,(7,13))))));
(16,((1,(6,(7,13))),((3,(11,(8,14))),((9,15),(10,(2,(5,(4,12))))))));
