(((9,12),((5,6),(4,(7,2)))),(((14,15)#H1),((((8,11),(3,10)),#H1),(13,1))));
(((((((7,14),15)#H1),(((1,13),(2,5)),(6,(9,8)))),4),((12,(3,11)),#H1)),10);
(((5,((1,4),#H1)),((11)#H1,(2,(((8,(15,(12,((7,10),14)))),13),(6,9))))),3);
(((((1,11),#H1),8),(12,(((10,5),(13,9)),(2,7)))),((15,3),(4,((14,6)#H1))));
((((9,13),(((2,6)#H1),((14,(5,11)),((10,4),8)))),(15,7)),((1,(12,#H1)),3));
(((15,5)#H1),(((13,10),(12,((7,4),9))),((8,(((2,14),6),11)),((1,3),#H1))));
((((6,(7,11))#H1),(13,(4,12))),(((((1,8),14),3),#H1),(((9,15),2),(5,10))));
((((7,13),6),1),(((((11,(8,14)),#H1),3),((9,15)#H1)),(10,((5,2),(12,4)))));
((((10,5),((14,8),#H1)),(6,12)),(((9)#H1,(3,(7,4))),((15,2),((1,11),13))));
(12,((((1,((15,2),((3,4),8))),(5,6)),((14,13),#H1)),((7)#H1,(10,(9,11)))));
(((15,(((2,1),(4,11)),#H1)),(12,((((5,14),3),(13,7))#H1))),(((10,6),9),8));
(5,((15,((2,13),((7,8),12))),(4,(((9)#H1,(3,1)),((((11,14),10),6),#H1)))));
((((9,(10,13)),((12,(15,#H1)),6)),(5,((11,1),7))),(((3,8)#H1),(2,(4,14))));
(((6,(1,11)),(((10,(5,(3,13))),(14,#H1)),((2,(12,4)),(8,9)))),((15,7)#H1));
(((((14,1),((15,9),4)),(((6)#H1,5),((((8,3),#H1),(10,(2,7))),12))),13),11);
((((13,(5,1)),((15,6),((2,4),7))),8),(11,((9,((10,#H1),12)),((14,3)#H1))));
((((14,((9,(10,1)),#H1)),5),((11,3),(2,4))),((7,(((8,6),15),(12)#H1)),13));
(((((8,3),15),6),10),((((7,(12,14)),((11,9)#H1)),(13,((1,2),#H1))),(5,4)));
((6,((14,((12,8),11)),((((5,9),13),(15)#H1),4))),((3,2),(((7,10),1),#H1)));
((((1,5),(((12)#H1,(((11,15),#H1),((14,9),2))),13)),3),((6,10),((4,7),8)));
