(((((((6,(5,10)),(11,(13,15))),1),((7,8),(14,17))),((18,(9,20)),19)),(16,((4,12),(2,3)))),21);
(((((((((11,13),15),(10,(1,5))),6),(17,(7,8))),14),(9,20)),((16,(18,((4,12),(2,3)))),19)),21);
((((((6,(13,((1,5),(10,15)))),11),(14,(17,(7,8)))),19),(((4,12),(2,3)),(16,(20,(9,18))))),21);
((((((((((15,(1,5)),13),10),(6,11)),17),(7,8)),14),(16,(((2,3),(4,12)),(20,(9,18))))),19),21);
((((((15,(10,11)),(13,(6,(1,5)))),(14,(17,(7,8)))),((18,(9,20)),(16,((4,12),(2,3))))),19),21);
((((((5,(13,((6,11),(1,15)))),10),(17,(14,(7,8)))),(16,(((2,3),(4,12)),(18,(9,20))))),19),21);
((((16,(18,(2,3))),((4,12),(9,20))),(19,(14,(((1,10),(6,11)),((5,(13,15)),(17,(7,8))))))),21);
(((((9,((4,12),(2,3))),16),((18,20),((6,((11,(1,5)),(10,(15,13)))),((7,8),(14,17))))),19),21);
(((((9,20),(((6,(11,15)),(13,(1,(5,10)))),(14,(17,(7,8))))),19),(16,(18,((2,3),(4,12))))),21);
((((((((6,11),(10,(1,13))),(5,15)),(17,(7,8))),14),((20,(9,18)),(16,((2,3),(4,12))))),19),21);
((((((((1,(10,15)),(11,13)),5),6),(14,(7,8))),17),((16,(((4,12),(2,3)),(9,(18,20)))),19)),21);
(((((((((1,5),11),(6,15)),(10,13)),17),(14,(7,8))),(16,(18,((4,(12,(2,3))),(9,20))))),19),21);
(((((((13,(6,11)),1),(15,(5,10))),(14,(17,(7,8)))),19),(((2,3),(4,12)),(16,(9,(18,20))))),21);
(((((((((11,(13,15)),6),(1,5)),10),(7,8)),(14,17)),19),((20,((2,3),(4,12))),(16,(9,18)))),21);
((((((((1,6),(5,(10,11))),13),15),(14,(17,(7,8)))),((9,(18,20)),(16,((4,12),(2,3))))),19),21);
((((((6,(1,13)),(15,(5,(10,11)))),((7,8),(14,17))),((18,(9,20)),(16,((2,3),(4,12))))),19),21);
(((((((13,15),(6,10)),(11,(1,5))),(17,(7,8))),14),((((2,3),(4,12)),(16,(20,(9,18)))),19)),21);
(((((((((10,((6,5),1)),15),13),11),(14,17)),(7,8)),(16,(((2,3),(4,12)),(18,(9,20))))),19),21);
(((((((6,(1,5)),(10,11)),(13,15)),(8,(7,17))),14),((16,(((4,12),(2,3)),(18,(9,20)))),19)),21);
(((((((((1,10),13),5),(6,(11,15))),(14,(17,(7,8)))),(9,20)),(18,(16,((2,3),(4,12))))),19),21);
(((((((((((15,(5,10)),6),1),11),13),14),(7,8)),17),19),((20,(9,18)),(16,(2,(3,(4,12)))))),21);
((((((((13,10),11),15),(5,(1,6))),(14,(17,(7,8)))),((18,(9,20)),(16,((2,3),(4,12))))),19),21);
(((((((((1,11),(13,15)),(5,10)),6),(14,(17,(7,8)))),19),16),(((2,3),(4,12)),(20,(9,18)))),21);
((((((((((13,15),(11,1)),(5,10)),6),14),(17,(7,8))),((9,18),((3,(2,(4,12))),20))),16),19),21);
(((((((((1,10),(13,15)),11),(5,6)),(14,17)),(7,8)),(16,((12,(4,(2,3))),(9,(18,20))))),19),21);
(((((((9,18),(4,(12,(2,3)))),20),16),(((6,(13,15)),(11,(10,(1,5)))),(17,(14,(7,8))))),19),21);
((((((((6,11),(1,5)),(13,(10,15))),(14,(7,8))),17),(16,((12,(4,(2,3))),(20,(9,18))))),19),21);
((((((6,15),(10,13)),(1,(5,11))),(14,(17,(7,8)))),((16,((12,(4,(2,3))),(20,(9,18)))),19)),21);
(((((((10,13),((15,(5,(6,11))),1)),(17,(7,8))),14),(((2,3),((4,12),16)),(18,(9,20)))),19),21);
(((((15,6),(13,(11,(10,(1,5))))),(17,(14,(7,8)))),(19,(((2,3),(4,12)),(16,(20,(9,18)))))),21);
(((((((1,(13,15)),(11,(5,10))),6),(14,(17,(7,8)))),(((2,3),(20,(9,18))),(16,(4,12)))),19),21);
((((((((1,5),(10,11)),(13,15)),6),(17,(14,(7,8)))),(16,((9,(18,20)),(12,(4,(2,3)))))),19),21);
(((((((20,18),9),((2,3),(4,12))),16),((14,(17,(7,8))),((13,15),((6,10),(11,(1,5)))))),19),21);
((((((((1,10),11),15),(13,(5,6))),(14,(17,(7,8)))),(16,(((2,3),(4,12)),(20,(9,18))))),19),21);
(((((((((6,10),1),5),(11,(13,15))),(14,(17,(7,8)))),(16,18)),(20,(9,(12,(4,(2,3)))))),19),21);
((((((((10,11),(13,(5,6))),15),1),((7,8),(14,17))),(20,((12,(4,(2,3))),(16,(9,18))))),19),21);
((((((((1,6),(13,15)),11),(5,10)),(14,(17,(7,8)))),(16,((9,(18,20)),((2,3),(4,12))))),19),21);
(((((((((13,15),(11,(6,(1,5)))),10),14),(17,(7,8))),16),((2,(3,(4,12))),(9,(18,20)))),19),21);
(((((((6,15),(1,(5,(10,11)))),13),(14,(17,(7,8)))),((2,3),(4,12))),(19,(16,(9,(18,20))))),21);
(((((((5,10),(1,13)),(15,(6,11))),(14,(17,(7,8)))),((2,(3,(4,12))),(16,(9,(18,20))))),19),21);
(((((((((13,(6,11)),15),(5,10)),1),(14,(17,(7,8)))),(16,((4,12),(2,3)))),(18,(20,9))),19),21);
((((((((6,10),15),(13,(5,11))),1),(17,(7,8))),14),(19,(16,(((2,3),(4,12)),(9,(18,20)))))),21);
(((((((((((6,15),1),13),10),5),11),14),(17,(7,8))),(((2,3),(4,12)),(16,(9,(18,20))))),19),21);
(((((((6,11),5),((13,15),(1,10))),(14,(17,(7,8)))),((9,(18,20)),(16,((2,3),(12,4))))),19),21);
((((((((((1,5),15),(13,(6,10))),11),14),(7,8)),17),(19,16)),(((2,3),(4,12)),(18,(9,20)))),21);
(((((((((1,11),10),6),(5,(13,15))),(17,(7,8))),14),19),((20,(9,18)),(16,(12,(4,(2,3)))))),21);
(((((((5,13),(10,(15,(1,11)))),6),(14,(17,(7,8)))),19),(16,((9,18),(20,((4,12),(2,3)))))),21);
((((((10,(5,(13,15))),(6,(1,11))),(14,(17,(7,8)))),((9,(18,20)),(16,((2,3),(4,12))))),19),21);
((((((((10,11),(15,1)),(5,13)),6),14),(17,(7,8))),(19,((2,(3,(4,12))),(16,(20,(18,9)))))),21);
((((((((1,11),(5,6)),(10,(13,15))),14),(17,(7,8))),(16,(((4,12),(2,3)),(20,(9,18))))),19),21);
(((((17,(14,(7,8))),(((13,15),(1,10)),(5,(6,11)))),19),((9,(18,20)),(16,((12,(3,4)),2)))),21);
((((((((5,(1,6)),(10,11)),(13,15)),14),(17,(7,8))),(16,(((2,3),(4,12)),(20,(9,18))))),19),21);
((((((20,(9,18)),16),((4,12),(2,3))),((((13,15),(1,6)),(5,(10,11))),((7,8),(14,17)))),19),21);
((((((((11,(1,5)),15),6),(10,13)),14),(17,(7,8))),(19,((18,(9,20)),(16,(12,(4,(2,3))))))),21);
(((((((6,(13,15)),(1,11)),(5,10)),(14,(17,(7,8)))),(16,(((4,12),(2,3)),(18,(9,20))))),19),21);
(((((((15,((5,6),(1,13))),(10,11)),17),(14,(7,8))),(((2,3),(4,12)),(16,(20,(18,9))))),19),21);
((((((14,17),(7,8)),((15,(10,11)),((1,5),(6,13)))),(16,((18,(9,20)),((4,12),(2,3))))),19),21);
((((((9,20),18),(16,(12,(4,(2,3))))),(((6,(13,15)),(5,((1,10),11))),((7,8),(14,17)))),19),21);
((((((6,13),(1,11)),(15,(5,10))),(14,(17,(7,8)))),((16,((18,20),(9,((4,12),(2,3))))),19)),21);
((((((((13,(15,11)),6),(10,(1,5))),(14,(7,8))),17),((9,(18,20)),(16,((2,3),(4,12))))),19),21);
(((((((2,3),(4,12)),(18,(9,20))),16),((((6,10),(11,13)),(1,(5,15))),(14,(17,(7,8))))),19),21);
((((((5,(6,15)),(1,(13,(10,11)))),((7,8),(17,14))),((12,(4,(2,3))),(16,(9,(18,20))))),19),21);
((((((14,(8,17)),7),((6,11),((15,(13,10)),(1,5)))),(16,((2,(4,(3,12))),(18,(9,20))))),19),21);
((((((((1,10),11),(5,13)),15),6),(14,(17,(7,8)))),(19,(16,((20,(9,18)),((2,3),(4,12)))))),21);
((((((18,(20,9)),((4,12),(2,3))),(14,((17,(7,8)),((10,(1,11)),(5,(6,(13,15))))))),16),19),21);
((((((((1,(6,13)),5),(15,(10,11))),17),(14,(7,8))),19),((9,(18,20)),(16,(3,(2,(4,12)))))),21);
(((((((13,(15,(1,5))),6),(10,11)),(17,(14,(7,8)))),19),((12,(4,(2,3))),(16,(18,(20,9))))),21);
((((16,(((2,3),(4,12)),(18,(9,20)))),(((6,13),((1,(5,10)),(11,15))),(8,(14,(7,17))))),19),21);
((((((((15,(5,10)),6),(1,11)),13),(14,(17,(7,8)))),((18,(9,20)),(16,((2,3),(4,12))))),19),21);
((((((((5,15),6),10),(11,(1,13))),(14,(17,(7,8)))),(((2,3),(4,12)),(16,(9,(18,20))))),19),21);
(((((((((5,10),15),(1,11)),(6,13)),(14,(7,8))),17),(16,(((2,3),(4,12)),(18,(9,20))))),19),21);
((((((((((11,15),(1,5)),10),13),6),14),(17,(7,8))),(16,(((2,3),(4,12)),(9,(18,20))))),19),21);
(((((((((13,(10,(5,15))),(11,(1,6))),17),(7,8)),14),(((4,12),(2,3)),(9,(18,20)))),16),19),21);
((((((((1,15),(10,11)),(6,(5,13))),14),(17,(7,8))),(16,((2,(3,(4,12))),(18,(9,20))))),19),21);
(((((((1,(5,10)),(13,15)),(6,11)),((16,(9,(18,20))),((2,3),(4,12)))),(14,(17,(7,8)))),19),21);
((((((((11,(6,(5,15))),13),(1,10)),(14,17)),(7,8)),(16,((4,(2,(3,12))),(9,(18,20))))),19),21);
(((((((((5,10),1),11),6),13),(17,(7,8))),(14,15)),(((18,(9,20)),(16,((3,4),(2,12)))),19)),21);
(((((((((6,(1,11)),(5,10)),(13,15)),(7,8)),(14,17)),((4,12),(2,3))),19),(16,(20,(18,9)))),21);
(((((15,((14,17),((5,(10,11)),(6,(13,1))))),(7,8)),(16,(9,(((2,3),(4,12)),(18,20))))),19),21);
(((((((5,(15,(1,(10,11)))),(6,13)),(7,8)),(14,17)),((16,((2,3),(4,12))),(20,(9,18)))),19),21);
(((((((6,10),((1,5),(11,(13,15)))),17),(14,(7,8))),(16,((20,(9,18)),(3,(2,(4,12)))))),19),21);
(((((((15,(6,10)),13),(5,(1,11))),(14,(17,(7,8)))),19),(16,(((2,3),(4,12)),(18,(9,20))))),21);
((((((13,15),(1,(5,11))),(6,10)),(14,(17,(7,8)))),(19,(16,(((2,3),(4,12)),(20,(9,18)))))),21);
((((((17,(7,8)),((13,15),(5,11))),(14,(1,(6,10)))),(16,(((4,12),(2,3)),(20,(9,18))))),19),21);
((((9,((18,20),((4,12),(2,3)))),((((6,13),(15,(11,(10,(1,5))))),(14,(17,(7,8)))),16)),19),21);
(((((((6,(1,5)),11),(10,15)),13),(14,(17,(7,8)))),(((9,(18,20)),(16,((4,12),(2,3)))),19)),21);
(((((((10,(6,(11,1))),(5,13)),15),(14,(17,(7,8)))),(16,(((2,3),(4,12)),(9,(18,20))))),19),21);
((((((5,(6,(1,(10,11)))),(13,15)),(17,(7,8))),14),((20,(((2,3),(4,12)),(16,(9,18)))),19)),21);
((((((((10,(13,15)),((5,6),(1,11))),(17,(7,8))),14),(18,20)),(16,(9,((4,12),(2,3))))),19),21);
((((17,(((11,(13,15)),(6,(1,(5,10)))),(14,(7,8)))),((18,(9,20)),(16,((2,3),(4,12))))),19),21);
((((((13,(1,6)),(15,(5,(10,11)))),(17,(14,(7,8)))),19),(16,(((2,3),(4,12)),(18,(9,20))))),21);
(((((((5,10),((11,13),(1,15))),6),((7,8),(14,17))),((((2,3),(4,12)),(9,(20,18))),16)),19),21);
((((16,(((4,12),(2,3)),(9,(20,18)))),19),(17,(((13,(5,(10,11))),(6,(15,1))),(14,(7,8))))),21);
(((((((6,(13,15)),(10,(1,5))),11),(14,(17,(7,8)))),(((16,2),(4,(3,12))),(9,(18,20)))),19),21);
((((((13,(15,(1,10))),(5,(6,11))),(14,(17,(7,8)))),19),((3,(2,(4,12))),(16,(18,(9,20))))),21);
((((((11,(10,(13,15))),(6,(5,1))),(17,(7,8))),14),(19,((2,(3,(4,12))),(16,(9,(18,20)))))),21);
((((16,(((4,12),(2,3)),(9,(18,20)))),(((5,10),((13,15),(11,(1,6)))),(14,(17,(7,8))))),19),21);
(((((((((1,(15,(6,11))),5),10),13),(14,(17,(7,8)))),(16,(9,(18,20)))),(12,(4,(2,3)))),19),21);
((((((15,(1,5)),(13,((6,11),10))),(17,(14,(7,8)))),((4,(12,(2,3))),(16,(18,(9,20))))),19),21);
((((((((5,(10,1)),15),11),(6,13)),(17,(14,(7,8)))),((12,((2,3),4)),(16,(9,(18,20))))),19),21);
((((((13,((5,10),(1,6))),11),15),(14,(17,(7,8)))),(19,(16,((12,(4,(2,3))),(9,(18,20)))))),21);
((((((((13,15),(6,(1,(5,10)))),11),14),(17,(7,8))),19),((20,(9,18)),(16,((4,12),(2,3))))),21);
(((((((((10,11),6),13),(1,5)),15),(14,(17,(7,8)))),(16,(((2,3),(4,12)),(18,(9,20))))),19),21);
((((((20,(9,18)),((2,3),(4,12))),16),((6,((5,(13,15)),(1,(10,11)))),(17,(14,(7,8))))),19),21);
(((((((13,15),(10,6)),(11,(1,5))),(14,(17,(7,8)))),((20,(9,18)),(16,(2,(3,(4,12)))))),19),21);
(((((((13,15),(11,(5,10))),(1,6)),14),(17,(7,8))),((16,(((2,3),(4,12)),(20,(9,18)))),19)),21);
((((((13,(5,(1,10))),(15,(6,11))),(14,(17,(7,8)))),(((2,3),(4,12)),(16,(9,(18,20))))),19),21);
(((((((4,12),(2,3)),(9,(18,20))),16),((1,(5,10)),(14,((13,(11,(6,15))),(17,(7,8)))))),19),21);
((((((((13,15),10),(1,(6,11))),5),(14,(17,(7,8)))),19),(16,((18,(9,20)),((4,12),(2,3))))),21);
((((((13,(5,15)),((1,11),(6,10))),(14,(17,(7,8)))),((20,(9,18)),(16,((2,3),(4,12))))),19),21);
(((((((5,(13,15)),10),1),(6,11)),(14,(17,(7,8)))),(19,(16,((2,(3,(4,12))),(20,(9,18)))))),21);
(((((((((((6,5),1),11),13),10),15),(7,8)),(14,17)),(16,((2,(3,(4,12))),(20,(9,18))))),19),21);
((((((((6,(13,15)),10),(1,5)),11),(14,(17,(7,8)))),((9,(18,20)),(16,((2,3),(4,12))))),19),21);
(((((((((1,13),(6,11)),(5,10)),15),(17,(7,8))),14),(16,((9,18),(20,((2,3),(4,12)))))),19),21);
((((((13,(6,11)),(1,10)),(5,15)),(17,(14,(7,8)))),(19,(16,(((2,3),(4,12)),(9,(18,20)))))),21);
((((((((((5,11),10),1),6),(17,(7,8))),(13,15)),14),19),(((2,3),(4,12)),(16,(18,(20,9))))),21);
(((((((5,13),((11,15),(6,10))),1),(14,(17,(7,8)))),19),((2,(3,(4,12))),(16,(18,(9,20))))),21);
(((((((((10,15),(5,6)),13),(1,11)),(14,(7,8))),17),(16,(((2,3),(4,12)),(18,(9,20))))),19),21);
((((((((5,11),(13,15)),10),(1,6)),(14,(7,8))),17),(((18,(20,9)),(16,(3,(2,(4,12))))),19)),21);
((((((((6,10),(13,15)),(1,5)),11),(14,(7,8))),17),(19,(((2,3),(4,12)),(16,(9,(18,20)))))),21);
((((((((6,(13,15)),11),5),(1,10)),(14,(17,(7,8)))),((18,(9,20)),(16,((4,12),(2,3))))),19),21);
(((((((1,10),(15,(5,13))),(6,11)),(14,(17,(7,8)))),((9,(18,20)),(16,((2,3),(4,12))))),19),21);
(((((((((1,10),11),5),(6,(13,15))),17),(14,(7,8))),(16,(((2,3),(4,12)),(9,(18,20))))),19),21);
(((((((1,(13,15)),(5,6)),(10,11)),17),(14,(7,8))),(((18,(9,20)),(16,(3,(2,(4,12))))),19)),21);
(((((((15,(6,10)),((1,5),(11,13))),(17,(7,8))),14),((18,(9,20)),(16,((2,3),(4,12))))),19),21);
((((((((1,5),(10,11)),(13,15)),((17,(7,8)),14)),6),19),(16,((12,(4,(2,3))),(9,(18,20))))),21);
(((((((6,11),(15,(1,10))),(5,13)),(14,(17,(7,8)))),19),(16,((12,(4,(2,3))),(20,(9,18))))),21);
(((((((((10,11),15),5),(13,(1,6))),(14,17)),(7,8)),(16,(18,((9,20),((4,12),(2,3)))))),19),21);
(((((((1,5),(13,11)),(10,15)),6),(14,(17,(7,8)))),((16,((18,20),(9,((4,12),(2,3))))),19)),21);
(((((((1,(10,13)),6),(15,(5,11))),(14,(17,(7,8)))),(((2,3),(4,12)),(16,(18,(9,20))))),19),21);
((((((7,8),(14,17)),((13,15),((10,11),(6,(1,5))))),(16,(((4,12),(2,3)),(20,(9,18))))),19),21);
(((((1,(15,(5,11))),((6,10),13)),(14,(8,(7,17)))),(19,(16,(((4,12),(2,3)),(18,(9,20)))))),21);
((((((15,(5,10)),(11,(1,(6,13)))),14),(17,(7,8))),((((2,3),(4,12)),(16,(9,(18,20)))),19)),21);
(((((((1,10),(5,15)),(13,(6,11))),(14,(17,(7,8)))),(16,(((2,3),(4,12)),(18,(9,20))))),19),21);
((((14,(17,(7,8))),(((10,13),((1,5),(6,(11,15)))),(16,(((4,12),(2,3)),(20,(9,18)))))),19),21);
((((((((6,10),(1,11)),(5,(13,15))),(14,(17,(7,8)))),(16,((4,12),(2,3)))),(20,(9,18))),19),21);
(((((17,(7,8)),14),((15,(6,1)),(13,(5,(10,11))))),((16,(((2,3),(4,12)),(20,(9,18)))),19)),21);
(((((((1,(10,15)),5),(13,(6,11))),(14,(17,(7,8)))),19),((20,(9,18)),(16,((2,3),(4,12))))),21);
((((((((1,5),11),6),(10,(13,15))),(14,(17,(7,8)))),(16,(((2,3),(4,12)),(9,(18,20))))),19),21);
((((((((6,((13,15),(1,10))),(5,11)),(7,8)),17),14),(16,((2,(4,(3,12))),(9,(18,20))))),19),21);
(((((((9,20),18),((2,3),(4,12))),16),((7,8),(((1,5),((10,(11,15)),(6,13))),(14,17)))),19),21);
((((((((1,(6,11)),(13,10)),(5,15)),(14,(17,(7,8)))),(18,(9,20))),(16,(3,(2,(4,12))))),19),21);
((((((((1,((6,11),(10,(13,15)))),5),14),(17,(7,8))),16),((20,(9,18)),(4,(12,(3,2))))),19),21);
(((((((1,(6,15)),5),13),(10,11)),((16,(9,(((4,12),(2,3)),(18,20)))),(14,((7,8),17)))),19),21);
((((((11,(13,15)),((5,10),(1,6))),(14,(17,(7,8)))),19),(((4,12),(2,3)),(16,(9,(18,20))))),21);
((((((((10,11),13),(1,15)),(5,6)),(14,(17,(7,8)))),19),(16,(((4,12),(2,3)),(18,(9,20))))),21);
(((((((1,5),((13,15),(6,11))),10),(14,(17,(7,8)))),(16,(((4,12),(2,3)),(9,(18,20))))),19),21);
(((((((6,(13,15)),(10,(1,(5,11)))),(17,(7,8))),14),(16,(((4,12),(2,3)),(9,(18,20))))),19),21);
((((((17,(7,8)),14),((15,(1,5)),(11,(10,(6,13))))),(16,(((4,12),(2,3)),(20,(9,18))))),19),21);
((((((((10,1),(6,5)),(13,15)),11),(14,(17,(7,8)))),(16,((3,(2,(4,12))),(9,(18,20))))),19),21);
((((((13,(11,15)),(6,(10,(1,5)))),(14,(17,(7,8)))),((18,20),(9,(16,((4,12),(2,3)))))),19),21);
((((((((15,13),5),(1,6)),(10,11)),((7,8),(14,17))),(16,(((4,12),(2,3)),(9,(18,20))))),19),21);
(((((((6,13),((5,10),(11,(15,1)))),14),(17,(7,8))),(16,((9,(20,18)),((2,3),(4,12))))),19),21);
((((((((5,11),15),(1,13)),(6,10)),(14,(17,(7,8)))),((18,(9,20)),(16,(4,(12,(2,3)))))),19),21);
(((((((15,(5,(1,6))),(13,(10,11))),(8,(7,17))),14),(16,((18,(9,20)),(2,(3,(4,12)))))),19),21);
((((((((13,(1,5)),(6,11)),15),10),(17,(14,(7,8)))),((4,(12,(2,3))),(16,(18,(9,20))))),19),21);
((((((8,(7,17)),(14,(15,(13,(6,10))))),(1,(5,11))),(16,(((4,12),(2,3)),(9,(18,20))))),19),21);
((((((((13,(1,(5,10))),(6,15)),11),(7,8)),(14,17)),(18,(16,((9,20),((4,12),(2,3)))))),19),21);
(((((((5,6),1),((13,15),(10,11))),((7,8),(14,17))),(9,(16,((18,20),(12,(4,(2,3))))))),19),21);
((((((11,(15,(1,10))),(6,(5,13))),(14,(17,(7,8)))),19),((3,(2,(4,12))),(16,(20,(9,18))))),21);
(((((((15,(13,(6,(1,5)))),(10,11)),(17,14)),(7,8)),(16,(((4,12),(2,3)),(20,(9,18))))),19),21);
((((((((15,(6,(11,13))),10),(1,5)),(7,8)),(14,17)),(16,((18,20),(9,((4,12),(2,3)))))),19),21);
(((((6,11),((1,5),((13,15),10))),(14,(17,(7,8)))),(19,(16,((12,(4,(2,3))),(18,(9,20)))))),21);
(((((14,(17,(7,8))),(16,((12,(4,(2,3))),(9,(18,20))))),(5,((1,11),(6,(13,(10,15)))))),19),21);
((((((((6,15),(13,(10,11))),5),1),(14,(17,(7,8)))),(16,(((2,3),(4,12)),(20,(9,18))))),19),21);
(((((((11,15),13),(1,(6,(5,10)))),(14,(17,(7,8)))),((9,(18,20)),(16,((2,3),(4,12))))),19),21);
(((((((11,((13,15),(5,6))),(1,10)),17),(14,(7,8))),((3,(2,(4,12))),(16,(20,(9,18))))),19),21);
((((((((((6,(1,5)),11),13),(10,15)),(7,8)),14),17),(16,(((2,3),(12,4)),(18,(9,20))))),19),21);
(((((((1,5),10),(13,15)),(6,11)),(14,(17,(7,8)))),((16,(((2,3),(4,12)),(18,(9,20)))),19)),21);
((((((10,(5,(13,15))),(11,(1,6))),(14,(17,(7,8)))),(16,(((2,3),(4,12)),(20,(9,18))))),19),21);
((((((((10,1),(13,15)),(6,(11,5))),(17,(7,8))),14),((9,20),(16,(18,(3,(2,(4,12))))))),19),21);
(((((((((10,(1,11)),5),6),(13,15)),(7,8)),17),14),(19,((16,(18,(9,20))),(3,(2,(4,12)))))),21);
(((((((((13,15),(1,5)),(10,11)),6),(8,(7,17))),14),19),(16,(((2,3),(4,12)),(9,(20,18))))),21);
(((((((10,15),(13,6)),5),(1,11)),(14,(17,(7,8)))),(19,((20,(9,18)),(16,(12,(4,(2,3))))))),21);
(((((((((6,1),10),(13,15)),(5,11)),(17,(7,8))),14),(16,(((4,12),(2,3)),(18,(9,20))))),19),21);
((((((5,13),(6,10)),15),(1,11)),(19,((8,(14,(7,17))),((20,(9,18)),(16,((2,3),(4,12))))))),21);
(((((7,8),(17,(10,((11,(1,5)),(6,(13,15)))))),14),((16,(((2,3),(4,12)),(18,(9,20)))),19)),21);
(((((((((10,11),6),5),(1,(13,15))),(17,(7,8))),14),19),(16,((20,(9,18)),(12,(4,(2,3)))))),21);
(((((((1,5),((13,15),(6,(10,11)))),14),(17,(7,8))),(16,(18,(9,20)))),(19,((2,3),(4,12)))),21);
(((((((((10,11),6),1),(5,15)),13),(14,(17,(7,8)))),(16,((9,(18,20)),((4,12),(2,3))))),19),21);
((((((((15,(5,10)),(11,13)),(1,6)),(7,8)),(14,17)),(16,(((4,12),(2,3)),(18,(9,20))))),19),21);
((((((17,(7,8)),14),((1,(5,11)),(6,(13,(15,10))))),(16,(((2,3),(4,12)),(18,(9,20))))),19),21);
((((((((10,13),5),(6,11)),(1,15)),(14,(17,(7,8)))),((9,(12,(4,(2,3)))),(16,(18,20)))),19),21);
((((((((6,(1,5)),(13,15)),11),10),(17,(14,(7,8)))),(16,((20,(9,18)),((4,12),(2,3))))),19),21);
((((((((15,(1,11)),5),(10,13)),6),17),(14,(7,8))),(19,(16,(((4,12),(2,3)),(20,(9,18)))))),21);
((((((((11,13),(1,5)),(6,10)),15),(17,(14,(7,8)))),19),((18,(9,20)),(16,((4,12),(2,3))))),21);
(((((((((5,(6,11)),10),1),(13,15)),14),(17,(7,8))),((18,(9,20)),(16,((2,3),(4,12))))),19),21);
(((((10,(6,(13,15))),(11,(1,5))),(14,(17,(7,8)))),(((9,(18,20)),(16,((4,12),(2,3)))),19)),21);
((((((6,11),((1,5),(10,(13,15)))),(17,(14,(7,8)))),((20,(9,18)),(16,((2,3),(4,12))))),19),21);
((((((((10,(6,13)),15),(1,(5,11))),(14,17)),(7,8)),((4,(12,(2,3))),(16,(18,(9,20))))),19),21);
((((((((5,(1,11)),(13,15)),(6,10)),(14,(17,(7,8)))),19),((2,3),(16,(9,(18,20))))),(4,12)),21);
((((((((11,(13,15)),(1,6)),10),5),(14,(17,(7,8)))),(16,(((4,12),(2,3)),(9,(18,20))))),19),21);
(((((((10,(11,13)),(6,(1,5))),15),(17,(14,(7,8)))),19),(16,(((2,3),(4,12)),(20,(9,18))))),21);
(((((((13,(5,10)),(6,(1,11))),15),(14,(17,(7,8)))),(16,(((4,12),(2,3)),(18,(9,20))))),19),21);
(((((((1,11),5),(10,(13,15))),6),(14,(17,(7,8)))),(19,(((2,3),(4,12)),(16,(9,(18,20)))))),21);
((((((((11,15),13),(1,5)),(6,10)),(14,(17,(7,8)))),19),((9,(18,20)),(16,(12,(4,(2,3)))))),21);
((((((((13,(5,11)),10),(1,(6,15))),(17,(14,(7,8)))),(18,(9,20))),(16,((2,3),(4,12)))),19),21);
((((((((5,11),(1,(10,13))),(6,15)),(7,8)),(14,17)),(((2,3),(4,12)),(16,(9,(18,20))))),19),21);
((((((((((5,(13,15)),11),1),10),6),(14,17)),(7,8)),((9,(18,20)),(16,((2,3),(4,12))))),19),21);
(((((((6,(10,11)),(1,(13,15))),5),(14,(17,(7,8)))),(16,((3,(2,(4,12))),(9,(18,20))))),19),21);
((((((((((6,11),(13,15)),5),10),1),(14,17)),(7,8)),((20,(9,18)),(16,((4,12),(2,3))))),19),21);
(((((17,(15,(5,(10,11)))),((13,(1,6)),(14,(7,8)))),(((4,12),(20,(9,18))),(16,(2,3)))),19),21);
((((((1,(10,11)),15),(13,(5,6))),(14,(17,(7,8)))),((16,(((2,3),(4,12)),(20,(9,18)))),19)),21);
(((((((((1,5),((10,11),13)),15),6),(8,(7,17))),(16,((2,3),(4,12)))),(14,(18,(9,20)))),19),21);
(((((((((5,(11,(13,15))),10),6),1),((7,8),(17,14))),(16,(9,(18,20)))),((2,3),(4,12))),19),21);
((((7,8),((14,((6,(1,5)),(17,(10,(15,(13,11)))))),(16,(((2,3),(4,12)),(20,(9,18)))))),19),21);
((((((14,17),(7,8)),((6,(1,11)),((13,15),(5,10)))),(16,(((4,12),(2,3)),(20,(9,18))))),19),21);
((((((((5,15),(1,(6,(10,11)))),13),(14,17)),(7,8)),(16,(((2,3),(4,12)),(20,(18,9))))),19),21);
(((((((((1,5),10),6),(11,15)),13),(14,(17,(7,8)))),((20,(9,18)),(16,((4,12),(2,3))))),19),21);
(((((((((5,(6,15)),(11,13)),1),10),17),(14,(7,8))),19),(16,((12,(4,(2,3))),(18,(9,20))))),21);
((((((11,13),((10,15),(1,(5,6)))),((7,8),(14,17))),19),((4,(3,(2,12))),(16,(20,(9,18))))),21);
((((((((5,(10,(13,15))),1),(6,11)),(17,(7,8))),14),(16,(((2,3),(4,12)),(9,(18,20))))),19),21);
(((((((((13,11),15),(6,(1,5))),10),(17,(14,(7,8)))),((3,(2,(4,12))),(18,(9,20)))),16),19),21);
((((((((5,6),1),(10,13)),(11,15)),((7,8),(14,17))),19),(16,(((4,12),(2,3)),(9,(18,20))))),21);
(((((((10,(1,5)),6),(13,(11,15))),(17,(7,8))),14),(19,(((2,3),(4,12)),(16,(9,(20,18)))))),21);
(((((((6,(13,15)),(1,(5,10))),11),(14,(17,(7,8)))),(((2,3),(4,12)),(16,(9,(18,20))))),19),21);
((((((((1,(15,(5,10))),(6,13)),11),(17,(7,8))),14),(16,(((4,12),(2,3)),(9,(18,20))))),19),21);
(((((((((6,(1,10)),13),(15,(5,11))),17),(14,(7,8))),((2,3),(4,12))),(16,(9,(18,20)))),19),21);
((((((((14,7),8),17),((6,(5,11)),((1,10),(13,15)))),16),(((2,3),(4,12)),(20,(9,18)))),19),21);
((((((((((10,5),1),(13,15)),(6,11)),(17,(7,8))),14),(16,((4,12),(2,3)))),(20,(9,18))),19),21);
((((((((13,(6,10)),(1,5)),(11,15)),(17,(7,8))),14),(16,((9,20),(18,((4,12),(2,3)))))),19),21);
(((((16,((2,3),(4,12))),(18,(9,20))),(((6,13),(15,((5,10),(1,11)))),(17,(14,(7,8))))),19),21);
((((((11,(6,(1,5))),(15,(10,13))),(17,(14,(7,8)))),19),(16,(((4,12),(2,3)),(18,(9,20))))),21);
((((((((11,(6,(5,10))),1),(13,15)),(17,(14,(7,8)))),(((4,12),(2,3)),(20,(9,18)))),16),19),21);
((((((((10,(11,(6,(1,5)))),(13,15)),14),(7,8)),17),(((4,12),(2,3)),(16,(20,(9,18))))),19),21);
((((((11,(10,1)),15),(6,(5,13))),(14,(17,(7,8)))),((16,(((2,3),(4,12)),(20,(9,18)))),19)),21);
((((((((1,11),6),(10,(13,15))),5),(14,(17,(7,8)))),(16,(((2,3),(4,12)),(9,(18,20))))),19),21);
(((((7,8),(((1,11),((6,(5,10)),(13,15))),(14,17))),(16,(((4,12),(2,3)),(20,(9,18))))),19),21);
((((((((13,15),(10,11)),(1,5)),6),(16,(((2,3),(4,12)),(9,(18,20))))),(14,(17,(7,8)))),19),21);
((((((4,12),(9,(18,20))),(16,(2,3))),(17,(14,(((10,13),(1,((5,11),(6,15)))),(7,8))))),19),21);
(((((((((13,15),(5,6)),10),(1,11)),(14,(17,(7,8)))),(16,(18,(9,20)))),19),((2,3),(4,12))),21);
((((((((10,11),(5,(1,6))),(13,15)),14),(17,(7,8))),19),(16,(9,(((2,3),(4,12)),(18,20))))),21);
((((((((1,(10,(5,11))),6),(13,15)),(14,(17,(7,8)))),(((2,3),(4,12)),(20,(18,9)))),19),16),21);
(((((5,((1,11),((13,15),(6,10)))),(7,8)),(14,17)),(19,(16,(((2,3),(4,12)),(9,(18,20)))))),21);
(((((((((((5,11),6),1),15),(10,13)),8),(7,(17,14))),16),(((4,12),(2,3)),(20,(9,18)))),19),21);
((((((13,(15,(1,(5,11)))),(6,10)),(14,(17,(7,8)))),((18,20),(16,(9,((4,12),(2,3)))))),19),21);
(((((((10,(6,11)),(5,15)),(1,13)),(14,(17,(7,8)))),((4,(12,(2,3))),(16,(9,(18,20))))),19),21);
(((((14,(7,8)),(17,((10,(13,15)),((6,(1,5)),11)))),((16,(4,(12,(2,3)))),19)),(18,(9,20))),21);
((((((((10,(11,(1,5))),15),13),6),(17,(14,(7,8)))),((3,(2,(4,12))),(16,(18,(9,20))))),19),21);
(((((14,17),((7,8),(5,((13,15),(6,((10,11),1)))))),(16,(((4,12),(2,3)),(9,(18,20))))),19),21);
((((((((((6,(1,5)),13),11),10),14),(17,(7,8))),15),(16,(((4,12),(2,3)),(20,(9,18))))),19),21);
(((((((6,(15,(5,10))),(13,(1,11))),(17,(7,8))),14),(((2,3),(4,12)),(16,(20,(9,18))))),19),21);
((((((15,(13,(1,5))),(6,(10,11))),((7,8),(14,17))),((((2,3),(4,12)),(18,(20,9))),16)),19),21);
(((((((((5,10),(11,1)),13),15),6),(14,(17,(7,8)))),(16,((9,18),(20,(3,(2,(4,12))))))),19),21);
(((((16,(20,((2,3),(4,12)))),(9,18)),((6,((5,10),(1,(11,(13,15))))),(14,(17,(7,8))))),19),21);
((((16,((3,12),(2,4))),(9,(18,20))),((((13,15),((11,(1,5)),(6,10))),(14,(17,(7,8)))),19)),21);
((((((((6,15),(5,(10,11))),(1,13)),(14,(17,(7,8)))),(16,(4,(12,(2,3))))),(20,(9,18))),19),21);
(((((((13,15),(11,6)),(1,(5,10))),(14,(17,(7,8)))),((20,(9,18)),(16,((4,12),(2,3))))),19),21);
(((((((((10,(13,15)),6),5),(1,11)),(17,(7,8))),14),19),(16,((9,18),(20,((2,3),(4,12)))))),21);
(((((((((((13,15),10),11),6),1),5),14),(17,(7,8))),(((2,3),(4,12)),(16,(18,(9,20))))),19),21);
((((((((((10,1),13),15),(6,11)),5),((7,8),(14,17))),((3,(2,(4,12))),(20,(9,18)))),16),19),21);
((((((((15,(10,(1,5))),6),(11,13)),(14,(17,(7,8)))),(18,(9,20))),(16,((4,12),(2,3)))),19),21);
(((((((13,15),(5,10)),(1,6)),11),(17,(14,(7,8)))),(19,((9,(18,20)),(16,((2,3),(4,12)))))),21);
(((((((((11,(1,5)),(10,(6,(13,15)))),17),(7,8)),14),19),(16,(9,(18,20)))),(12,(4,(2,3)))),21);
(((((((11,(5,10)),1),(15,(6,13))),(17,(14,(7,8)))),((18,(9,20)),(16,(2,(3,(4,12)))))),19),21);
(((((((1,5),(10,(13,15))),(6,11)),(14,(17,(7,8)))),(16,(((2,3),(4,12)),(18,(9,20))))),19),21);
((((((((5,10),(6,11)),(13,15)),1),(17,(14,(7,8)))),(16,(((4,12),(2,3)),(9,(18,20))))),19),21);
((((((((13,(1,6)),15),(5,10)),11),14),(17,(7,8))),(19,(((4,12),(2,3)),(16,(9,(18,20)))))),21);
((((((((((6,(13,15)),11),10),5),1),(17,(7,8))),14),((((2,3),(4,12)),(9,18)),(16,20))),19),21);
(((((16,(9,(20,18))),(3,(2,(4,12)))),((17,(7,8)),(14,((1,(6,10)),(11,(5,(13,15))))))),19),21);
(((((((5,6),(11,(1,(13,15)))),10),(14,(17,(7,8)))),((20,(9,18)),(16,((4,12),(2,3))))),19),21);
((((((((1,5),(13,15)),(6,10)),11),(14,(17,(7,8)))),(16,(((2,12),(3,4)),(18,(9,20))))),19),21);
(((((((1,10),(5,(6,11))),(13,15)),(14,(17,(7,8)))),((2,(3,(4,12))),(16,(9,(18,20))))),19),21);
((((((((((10,1),11),6),5),(13,15)),17),(14,(7,8))),19),((3,(12,(2,4))),(16,(9,(18,20))))),21);
(((((((((5,11),6),(1,(13,15))),10),(17,(7,8))),14),(16,((18,20),(9,((2,3),(4,12)))))),19),21);
(((14,((17,(7,8)),(15,(13,((11,(6,(1,5))),10))))),(((20,(9,18)),(16,((2,3),(4,12)))),19)),21);
(((((14,(7,8)),(17,((13,(5,15)),((6,10),(1,11))))),(16,((18,(9,20)),((2,3),(4,12))))),19),21);
(((((((((5,(6,(13,10))),11),(1,15)),14),(17,(7,8))),(9,(18,20))),19),(16,(3,(2,(4,12))))),21);
(((((((1,11),15),(5,10)),(6,13)),(14,(17,(7,8)))),(((4,(12,(2,3))),(16,(9,(18,20)))),19)),21);
((((((((13,1),(6,(15,(5,10)))),11),17),(14,(7,8))),((20,(9,18)),(16,((2,3),(4,12))))),19),21);
(((((((6,(1,5)),15),(13,(10,11))),(14,(17,(7,8)))),19),(((4,12),(2,3)),(16,(9,(18,20))))),21);
(((((((5,(1,10)),(13,15)),(6,11)),(17,(14,(7,8)))),((9,(18,20)),(((4,12),(2,3)),16))),19),21);
((((((((13,(10,(5,15))),(1,(6,11))),(14,17)),(7,8)),19),((2,(3,(4,12))),(9,(20,18)))),16),21);
(((((((10,(1,5)),13),(15,(6,11))),((7,8),(14,17))),19),(16,((12,(4,(2,3))),(18,(9,20))))),21);
((((((((13,15),(6,10)),(5,(1,11))),14),(17,(7,8))),(((2,3),(4,12)),(16,(9,(18,20))))),19),21);
((((((((5,(1,6)),((13,15),(10,11))),17),(7,8)),14),((9,(18,20)),(16,((4,12),(2,3))))),19),21);
(((((((6,10),(15,(1,11))),(5,13)),((7,8),(14,17))),19),(16,(((2,3),(4,12)),(18,(9,20))))),21);
((((((10,(6,11)),(13,(15,(1,5)))),(14,(17,(7,8)))),((18,(9,20)),(16,((4,12),(2,3))))),19),21);
((((((((1,(5,(10,11))),13),(6,15)),(17,(7,8))),14),((9,(18,20)),((3,(2,(4,12))),16))),19),21);
(((((((((5,1),(10,11)),13),(6,15)),(17,(14,(7,8)))),16),(((2,3),(4,12)),(20,(18,9)))),19),21);
(((((((6,(11,(1,5))),(13,15)),10),(14,(17,(7,8)))),(16,((12,(4,(2,3))),((18,20),9)))),19),21);
((((((((13,(6,11)),5),(1,10)),15),(14,(17,(7,8)))),19),(16,(((2,3),(4,12)),(18,(9,20))))),21);
((((((2,3),(20,(9,18))),(16,(4,12))),19),(14,(((10,(6,11)),(15,(5,(1,13)))),(17,(7,8))))),21);
((((((17,(7,8)),14),((15,(1,5)),((10,11),(6,13)))),((2,(3,(4,12))),(16,(20,(9,18))))),19),21);
(((((((15,(13,(5,10))),(6,11)),1),(14,(17,(7,8)))),((18,(9,20)),(16,((2,3),(4,12))))),19),21);
(((((((((5,10),(13,(1,6))),11),15),(7,8)),(14,17)),(16,(((4,12),(2,3)),(9,(18,20))))),19),21);
((((((((((11,(5,10)),(6,13)),15),1),(7,8)),17),14),19),((18,(9,20)),(16,(12,(4,(2,3)))))),21);
((((((((11,10),1),(5,6)),(13,15)),(14,(17,(7,8)))),(((4,12),(2,3)),(16,(20,(9,18))))),19),21);
(((((((((6,10),(13,15)),11),(1,5)),(7,8)),(14,17)),((9,(18,20)),(16,((2,3),(4,12))))),19),21);
(((((((((1,(5,10)),6),(13,(11,15))),14),17),(7,8)),((20,(9,18)),(16,((2,3),(4,12))))),19),21);
(((((((((11,(1,5)),(13,15)),(6,10)),14),17),(7,8)),19),(16,((4,(12,(2,3))),(18,(9,20))))),21);
((((((((6,13),(5,10)),15),(1,11)),(14,(17,(7,8)))),(((4,12),(2,3)),(16,(9,(18,20))))),19),21);
(((((((((1,13),(5,15)),10),(6,11)),14),(17,(7,8))),19),((20,(9,18)),(16,((2,3),(4,12))))),21);
((((((18,20),((2,3),(4,12))),9),(16,19)),((((5,10),(6,(13,15))),(1,11)),(14,(17,(7,8))))),21);
(((((((((10,11),(6,1)),5),15),13),(14,(17,(7,8)))),19),((9,(18,20)),(16,(12,(4,(2,3)))))),21);
((((((((11,(10,6)),1),5),(13,15)),(14,(17,(7,8)))),(16,(((4,12),(2,3)),(18,(9,20))))),19),21);
((((((((5,11),(15,(1,6))),(10,13)),(14,(17,(7,8)))),(20,(18,9))),(16,((4,12),(2,3)))),19),21);
(((((((10,11),(5,6)),(1,(13,15))),(17,(7,8))),14),((16,(((4,12),(2,3)),(20,(9,18)))),19)),21);
(((16,(((2,3),(4,12)),(20,(9,18)))),(((17,(7,8)),((15,(13,11)),(14,((5,10),(1,6))))),19)),21);
((((((((10,11),(6,13)),(15,(1,5))),(14,(7,8))),17),((16,((4,12),(2,3))),(20,(9,18)))),19),21);
((((((((1,6),5),(10,11)),(13,15)),(14,(17,(7,8)))),19),((4,12),((2,3),((9,(18,20)),16)))),21);
((((((((5,6),(13,(1,(10,11)))),15),(7,8)),(14,17)),(16,(((2,3),(4,12)),(20,(9,18))))),19),21);
((((((((1,5),(13,(11,15))),(6,10)),(14,(17,(7,8)))),16),(((2,3),(4,12)),(20,(9,18)))),19),21);
((((((((15,(1,11)),(5,10)),6),13),(14,(17,(7,8)))),(16,((4,(12,(2,3))),(18,(9,20))))),19),21);
((((((11,(5,10)),(1,6)),(13,15)),(14,(17,(7,8)))),(19,(16,((18,20),(((4,12),(2,3)),9))))),21);
(((((((6,1),(13,(15,(5,10)))),11),(14,(17,(7,8)))),(((2,3),(4,12)),(16,(18,(9,20))))),19),21);
(((((((4,12),(2,3)),(18,(9,20))),16),(14,(((15,(5,10)),((6,11),(13,1))),(17,(7,8))))),19),21);
(((((((10,13),(15,(1,(6,11)))),5),((7,8),(14,17))),(((2,3),(4,12)),(16,(18,(9,20))))),19),21);
((((((((1,15),13),11),(10,(5,6))),((7,8),(14,17))),(16,((4,(12,(2,3))),(20,(9,18))))),19),21);
(((((((5,11),(6,10)),(1,(13,15))),(14,(17,(7,8)))),19),(((4,12),(2,3)),(16,(9,(18,20))))),21);
((((((((15,(1,6)),(11,(5,10))),13),14),(17,(7,8))),(((2,3),(4,12)),(16,(20,(9,18))))),19),21);
(((((16,(20,(9,18))),((2,3),(4,12))),(((11,15),((6,(1,5)),(10,13))),(14,(17,(7,8))))),19),21);
(((((6,(15,13)),(1,(11,(5,10)))),(14,(17,(7,8)))),(19,(16,((4,(12,(2,3))),(9,(18,20)))))),21);
((((((((((1,10),11),(13,15)),(5,6)),(7,8)),17),14),((18,(9,20)),(16,((2,3),(4,12))))),19),21);
(((((((((10,5),6),1),(11,(13,15))),14),(17,(7,8))),(((4,12),(2,3)),(16,(20,(9,18))))),19),21);
((((((((6,11),(1,5)),10),(13,15)),(14,(17,(7,8)))),19),(16,(((2,3),(4,12)),(20,(18,9))))),21);
((((((((((13,15),(1,5)),(10,11)),6),14),(17,(7,8))),16),(((2,3),(4,12)),(20,(9,18)))),19),21);
(((((((1,(13,(11,15))),6),(5,10)),(14,(17,(7,8)))),(16,((18,20),(9,((4,12),(2,3)))))),19),21);
((((((11,(13,(6,10))),(15,(1,5))),((7,8),(14,17))),(16,(((4,12),(2,3)),(9,(20,18))))),19),21);
(((((((((1,13),6),(10,11)),(5,15)),17),(14,(7,8))),(16,((20,(18,9)),((2,3),(4,12))))),19),21);
(((((18,(9,20)),(16,((4,12),(2,3)))),(((1,(10,11)),(15,(13,(6,5)))),(17,(14,(7,8))))),19),21);
(((((((1,((13,15),(5,11))),6),10),(14,(17,(7,8)))),(((4,12),(2,3)),(16,(20,(9,18))))),19),21);
((((((((13,15),(1,5)),10),(6,11)),(14,(17,(7,8)))),((9,(18,20)),(((4,12),(2,3)),16))),19),21);
(((((((10,11),(6,(13,15))),(1,5)),(17,(14,(7,8)))),(16,((18,(9,20)),(3,(2,(4,12)))))),19),21);
((((((1,(13,15)),((10,11),(5,6))),(14,(17,(7,8)))),(16,((2,(3,(4,12))),(9,(18,20))))),19),21);
(((((((((10,11),(1,5)),6),15),13),(14,(17,(7,8)))),(((2,3),(4,12)),(16,(9,(18,20))))),19),21);
(((((((15,(6,13)),(10,11)),(1,5)),14),(17,(7,8))),(19,(((4,12),(2,3)),(16,(18,(20,9)))))),21);
(((((((10,13),(6,(5,11))),(1,15)),(17,(7,8))),14),(19,((20,(9,18)),(16,((2,3),(4,12)))))),21);
(((((((13,(1,6)),(5,15)),(10,11)),(14,(17,(7,8)))),((3,(4,(2,12))),(16,(9,(18,20))))),19),21);
((((((((((10,(11,(13,15))),1),5),6),(7,8)),(14,17)),16),19),(((2,3),(4,12)),(9,(18,20)))),21);
((((((((1,5),10),(13,15)),(6,11)),(14,(17,(7,8)))),(((2,3),(4,12)),(16,(20,(9,18))))),19),21);
((((((((11,(10,13)),(1,(5,6))),15),(7,8)),(14,17)),(16,(((4,12),(2,3)),(9,(18,20))))),19),21);
((((((((10,11),15),(6,(1,5))),13),(14,(17,(7,8)))),((3,(2,(4,12))),(16,(9,(18,20))))),19),21);
(((((((13,15),1),(6,11)),(5,10)),(17,(14,(7,8)))),(19,((9,(18,20)),(16,(4,(12,(2,3))))))),21);
(((((((1,11),5),((13,15),(10,6))),((7,8),(14,17))),(((4,12),(2,3)),(16,(18,(9,20))))),19),21);
(((((18,(2,(3,(4,12)))),(9,20)),16),((((10,15),(13,(6,(5,(1,11))))),(14,(17,(7,8)))),19)),21);
((((17,(7,8)),(((1,5),(11,(10,(13,15)))),(6,14))),(19,(16,(((2,3),(4,12)),(9,(18,20)))))),21);
((((((((6,(1,(5,10))),11),(13,15)),(17,(7,8))),14),((18,(9,20)),(16,((4,12),(2,3))))),19),21);
((((((5,11),(1,((13,15),(6,10)))),(14,(17,(7,8)))),(16,((18,(9,20)),((2,3),(4,12))))),19),21);
((((((1,5),(13,15)),((10,11),6)),(17,(14,(7,8)))),((16,((4,(12,(2,3))),(20,(9,18)))),19)),21);
((((((14,(17,(7,8))),((6,(13,15)),(5,(11,(1,10))))),(16,(18,(9,20)))),((2,3),(4,12))),19),21);
(((((((5,15),13),((6,10),(1,11))),(17,(14,(7,8)))),((18,(9,20)),((12,(2,(3,4))),16))),19),21);
(((((((15,(11,(6,10))),(1,5)),13),(14,(7,(8,17)))),((18,(9,20)),(16,((2,3),(4,12))))),19),21);
(((((((5,(1,(6,(10,11)))),(13,15)),(14,17)),(7,8)),19),(16,(((4,12),(2,3)),(9,(18,20))))),21);
(((((((((15,(6,10)),11),1),(5,13)),((7,8),(17,14))),(((2,3),(4,12)),(9,(18,20)))),16),19),21);
((((((6,(10,15)),(1,11)),(5,13)),(14,(17,(7,8)))),(((18,(9,20)),(((2,3),(4,12)),16)),19)),21);
((((((((5,(1,10)),(11,(13,15))),6),(14,17)),(7,8)),19),(16,((18,20),(((2,3),(4,12)),9)))),21);
(((((((10,11),15),(13,(6,(1,5)))),(14,(17,(7,8)))),(16,(((2,3),(4,12)),(20,(9,18))))),19),21);
(((((((((6,(11,1)),10),(13,15)),5),(14,17)),(7,8)),(16,((9,(20,18)),((2,3),(4,12))))),19),21);
((((((((((5,10),13),(15,(6,11))),1),(7,(8,17))),14),(16,((12,(4,(2,3))),(9,20)))),18),19),21);
(((((((13,15),(1,(6,11))),(5,10)),(17,(14,(7,8)))),(16,(((2,3),(4,12)),(9,(18,20))))),19),21);
(((((5,(13,15)),(1,(11,(6,10)))),(16,(20,(((4,12),(2,3)),(9,18))))),(19,(14,(17,(7,8))))),21);
((((((((10,(15,13)),(1,6)),(5,11)),(7,8)),(14,17)),((9,(18,20)),(16,((2,3),(4,12))))),19),21);
(((((((((6,(1,11)),5),10),15),13),(14,(17,(7,8)))),(((2,3),(4,12)),(16,(20,(9,18))))),19),21);
(((((((1,5),(15,(6,13))),(10,11)),(17,(14,(7,8)))),((18,(9,20)),(16,(12,(2,(4,3)))))),19),21);
(((((((((6,13),(5,11)),(10,15)),1),14),(17,(7,8))),19),(((4,12),(2,3)),(16,(20,(9,18))))),21);
((((((((13,15),(1,11)),(5,6)),10),(14,(17,(7,8)))),((9,16),((12,(4,(2,3))),(18,20)))),19),21);
(((((((3,(2,4)),(18,(9,20))),16),12),(((13,(1,15)),((5,10),(6,11))),(14,(8,(17,7))))),19),21);
((((((1,10),(6,((13,15),(5,11)))),(14,(17,(7,8)))),(16,(((2,3),(4,12)),(9,(18,20))))),19),21);
((((((12,(4,(2,3))),(18,(9,20))),((14,(11,(13,15))),(((7,8),(6,(10,(1,5)))),17))),16),19),21);
((((((2,3),(4,12)),(16,(20,(9,18)))),((17,((10,11),((1,5),(6,(13,15))))),(14,(7,8)))),19),21);
((((((6,(10,11)),((1,5),(13,15))),(7,8)),(14,17)),(((9,(18,20)),((4,(12,(2,3))),16)),19)),21);
(((((5,(11,13)),(1,6)),(10,15)),(((17,(14,(7,8))),(((2,3),(4,12)),(16,(20,(9,18))))),19)),21);
(((((((1,6),10),(13,15)),(5,11)),(14,(17,(7,8)))),(19,(16,(((2,3),(4,12)),(9,(18,20)))))),21);
((((16,(((4,12),(2,3)),(18,(9,20)))),(((13,15),((1,6),(11,(5,10)))),(14,(17,(7,8))))),19),21);
(((((((11,((1,10),(13,15))),(5,6)),(14,(7,8))),17),(16,(((4,12),(2,3)),(20,(9,18))))),19),21);
(((((((((1,11),(13,5)),(10,15)),6),14),(17,(7,8))),19),((12,(4,(2,3))),(16,(9,(18,20))))),21);
((((((1,10),6),(5,11)),(13,15)),((14,(17,(7,8))),(((12,(4,(2,3))),(16,(20,(9,18)))),19))),21);
((((((((6,(11,15)),(5,10)),(1,13)),14),(17,(7,8))),(16,(((2,3),(4,12)),(9,(20,18))))),19),21);
((((((((13,(10,11)),1),(6,15)),5),(14,(17,(7,8)))),(16,((20,(18,9)),((2,3),(4,12))))),19),21);
(((((((5,11),(6,15)),(1,(10,13))),17),(14,(7,8))),(19,(((2,3),(4,12)),((18,(9,20)),16)))),21);
(((((((11,13),(10,(1,5))),(6,15)),(14,(17,(7,8)))),((((4,12),(2,3)),(18,20)),(9,16))),19),21);
(((((((6,(1,15)),5),(11,(10,13))),(14,(17,(7,8)))),((9,(18,20)),(16,(12,(4,(2,3)))))),19),21);
(((((((((13,(6,11)),(1,5)),15),10),14),(17,(7,8))),(((2,3),(4,12)),(16,(20,(9,18))))),19),21);
((((((((13,6),1),(5,(10,11))),15),((7,8),(14,17))),((18,(9,20)),(16,((4,12),(2,3))))),19),21);
(((((((1,5),(13,(10,11))),(6,15)),(17,(14,(7,8)))),(16,(((4,12),(2,3)),(20,(9,18))))),19),21);
((((((((6,(1,5)),10),(13,15)),11),(14,(17,(7,8)))),((4,12),(16,((2,3),(9,(18,20)))))),19),21);
(((((((7,8),((5,(1,11)),((13,15),(10,6)))),17),14),(16,((9,(18,20)),(2,(3,(4,12)))))),19),21);
(((((((6,11),(1,(5,10))),(13,15)),(14,(17,(7,8)))),19),((18,(9,20)),(16,((2,3),(4,12))))),21);
((((((((6,(15,(11,(5,10)))),1),13),14),(17,(7,8))),(16,(((2,3),(4,12)),(9,(18,20))))),19),21);
(((((((((11,(5,10)),1),(6,13)),15),14),(17,(7,8))),19),((20,(9,18)),(16,((4,12),(2,3))))),21);
((((((((10,13),(1,11)),(6,(5,15))),(14,(7,8))),17),19),((3,(2,(4,12))),(16,(9,(18,20))))),21);
((((((((6,13),(10,(1,11))),(5,15)),17),(7,8)),14),((16,(9,(((4,12),(2,3)),(18,20)))),19)),21);
(((((((((10,11),5),15),13),(1,6)),(14,(17,(7,8)))),((20,(9,18)),(16,((2,3),(4,12))))),19),21);
(((((((5,(6,10)),15),(11,(1,13))),(14,(17,(7,8)))),(16,((2,(3,(4,12))),(9,(18,20))))),19),21);
((((((9,(18,20)),((3,(2,(4,12))),16)),(14,(7,8))),19),(17,((10,(5,6)),(1,(11,(13,15)))))),21);
(((((16,(18,(9,20))),((4,12),(2,3))),((14,17),((7,8),((1,(5,(10,11))),(6,(13,15)))))),19),21);
((((((((5,6),13),15),(1,(10,11))),(14,(17,(7,8)))),(16,(((4,12),(2,3)),(9,(18,20))))),19),21);
(((((((6,(5,1)),(10,(11,(13,15)))),(14,17)),(7,8)),19),((9,(18,20)),(16,((2,3),(4,12))))),21);
(((((17,(7,8)),(14,(((1,5),(6,10)),(13,(11,15))))),((9,(18,20)),(16,((2,3),(4,12))))),19),21);
((((((((6,15),(10,11)),(5,13)),1),17),(16,((4,12),(2,3)))),(19,((9,(18,20)),(14,(7,8))))),21);
((((((13,(1,5)),((6,10),(11,15))),(14,(17,(7,8)))),19),(16,(((2,3),(12,4)),(9,(18,20))))),21);
(((((((11,(13,(10,15))),(5,6)),1),(14,(17,(7,8)))),(16,((18,20),(9,((2,3),(4,12)))))),19),21);
(((((((((10,(13,15)),11),(6,(1,5))),14),(17,(7,8))),16),(((2,3),(4,12)),(18,(9,20)))),19),21);
((((((((15,(1,5)),6),13),(10,11)),(17,(14,(7,8)))),((9,(18,20)),(16,((4,12),(2,3))))),19),21);
(((((20,(9,18)),(16,((2,3),(4,12)))),(((10,11),(13,((15,1),(5,6)))),((7,8),(14,17)))),19),21);
(((((((((10,(15,(1,11))),5),(6,13)),(7,8)),(14,17)),(20,(9,18))),(16,((2,3),(4,12)))),19),21);
((((((((6,(15,(11,(10,(1,5))))),13),17),14),(7,8)),((20,(9,18)),(16,((4,12),(2,3))))),19),21);
(((((((12,(4,(2,3))),(9,20)),18),16),(14,(((10,11),(15,(6,(13,(1,5))))),(17,(7,8))))),19),21);
((((((((((15,(10,11)),6),(1,5)),13),14),(7,8)),17),((9,(18,20)),(16,((4,12),(2,3))))),19),21);
((((((((6,(1,5)),(13,15)),(10,11)),(14,(7,8))),17),((12,(4,(2,3))),(16,(18,(9,20))))),19),21);
((((((15,((1,5),(13,((6,10),11)))),(14,(7,8))),17),(16,((3,(2,(4,12))),(9,(18,20))))),19),21);
(((((14,17),((7,8),((13,(6,10)),(15,(11,(1,5)))))),(16,(((4,12),(2,3)),(9,(18,20))))),19),21);
((((((((((10,15),13),(5,11)),6),1),(14,17)),(7,8)),((9,(18,20)),(16,((2,3),(4,12))))),19),21);
((((((((((6,10),5),(11,(13,15))),1),17),(7,8)),14),(16,((2,3),((4,12),(20,(9,18)))))),19),21);
((((((((15,((10,11),(1,6))),13),5),(14,(7,8))),17),19),((9,(18,20)),(16,(3,(2,(4,12)))))),21);
((((((10,13),(15,(5,(1,11)))),6),((7,8),(14,17))),(19,((18,(9,20)),((2,(3,(4,12))),16)))),21);
(((((((((1,10),(5,(13,15))),6),11),14),(17,(7,8))),(16,(((4,12),(2,3)),(9,(18,20))))),19),21);
(((((16,(20,(9,18))),(((5,((10,11),(1,6))),(17,(7,8))),(14,(13,15)))),(12,(4,(2,3)))),19),21);
(((((((((5,(1,(11,6))),10),(13,15)),14),(17,(7,8))),(16,(20,(9,18)))),(4,(12,(2,3)))),19),21);
(((((((((13,15),(6,(1,5))),(10,11)),(7,8)),17),14),19),((20,(9,18)),(16,((2,3),(4,12))))),21);
((((((((5,13),15),6),(10,(1,11))),14),((17,(7,8)),(16,((3,(2,(4,12))),(9,(20,18)))))),19),21);
(((((((((13,15),11),6),(10,(1,5))),(7,8)),(14,17)),(16,(((4,12),(2,3)),(18,(9,20))))),19),21);
(((((((((13,15),(11,5)),(1,6)),10),17),(14,(7,8))),((9,(18,20)),(16,((2,3),(4,12))))),19),21);
(((((((1,(15,(5,(6,(10,11))))),13),(17,(7,8))),14),(16,(((2,3),(4,12)),(9,(20,18))))),19),21);
((((((10,(15,(13,(1,5)))),(6,11)),(14,(17,(7,8)))),(16,((18,20),(9,(3,((2,12),4)))))),19),21);
((((((((5,(10,1)),(6,15)),(11,13)),17),(14,(7,8))),((20,(((4,12),(2,3)),(9,18))),16)),19),21);
(((((((((1,10),(13,15)),11),(5,6)),(14,(7,8))),17),19),(16,(((2,3),(4,12)),(9,(18,20))))),21);
((((((((1,15),13),6),(5,(10,11))),((7,8),(14,17))),((16,((4,12),(2,3))),(20,(9,18)))),19),21);
(((((((((1,11),10),(5,13)),(6,15)),(14,17)),(7,8)),(16,((12,(4,(2,3))),(20,(9,18))))),19),21);
((((((((11,(1,5)),6),(13,15)),10),(14,(17,(7,8)))),16),(((3,(4,(2,12))),(18,(9,20))),19)),21);
(((((((((13,15),(1,6)),(10,11)),5),(14,17)),(7,8)),((12,((2,3),4)),(16,(18,(9,20))))),19),21);
(((((((((5,10),(15,(11,13))),6),1),14),(17,(7,8))),(16,((4,(12,(2,3))),(18,(9,20))))),19),21);
((((((13,(10,11)),1),(15,(5,6))),(14,(17,(7,8)))),((((2,3),(4,12)),(16,(9,(18,20)))),19)),21);
(((((((((1,5),10),6),13),(11,15)),(7,8)),(14,17)),(19,((20,(9,18)),(16,((2,3),(4,12)))))),21);
((((((((1,(5,10)),6),11),(13,15)),((7,8),(14,17))),(16,((12,(4,(2,3))),(20,(9,18))))),19),21);
((((((((((6,(5,10)),11),1),13),15),(14,17)),(7,8)),((16,((4,12),(2,3))),(9,(18,20)))),19),21);
((((((((11,(13,15)),(1,(5,10))),6),(7,8)),(14,17)),(16,((2,(3,(4,12))),(20,(9,18))))),19),21);
((((((((11,(6,(10,(1,5)))),15),13),(7,8)),(14,17)),19),((20,(9,18)),(16,((2,3),(4,12))))),21);
(((((((11,(13,15)),(6,(1,10))),5),((7,8),(14,17))),(16,((9,(18,20)),(2,(3,(4,12)))))),19),21);
(((((((15,(1,11)),(6,13)),(5,10)),(14,(7,8))),17),((16,((18,(9,20)),((2,3),(4,12)))),19)),21);
(((((((((1,5),(10,13)),15),11),6),(14,(17,(7,8)))),((20,(9,18)),(16,((2,3),(4,12))))),19),21);
(((((16,((3,(2,(4,12))),(18,20))),9),(((6,(5,10)),(1,(11,(13,15)))),(14,(17,(7,8))))),19),21);
(((((((((5,11),(13,15)),10),(1,6)),(7,8)),(14,17)),19),(((4,12),(2,3)),((20,(9,18)),16))),21);
((((((((5,(1,6)),11),15),10),13),(14,(17,(7,8)))),(19,(16,(((2,3),(4,12)),(18,(9,20)))))),21);
((((((((15,(6,10)),11),(13,(1,5))),(17,(7,8))),14),(16,((18,(9,20)),((2,3),(4,12))))),19),21);
(((((14,17),((7,8),((10,13),((11,15),(6,(1,5)))))),((18,(9,20)),(16,((2,3),(4,12))))),19),21);
(((((((6,(1,(13,15))),5),(10,11)),(14,(17,(7,8)))),((18,(9,20)),(16,((3,4),(2,12))))),19),21);
(((((((((1,(6,(13,15))),(5,11)),10),17),(14,(7,8))),(16,(20,(9,18)))),19),((2,3),(4,12))),21);
(((((((1,5),(6,10)),(11,(13,15))),(14,(17,(7,8)))),19),((20,(9,18)),(16,(4,(12,(2,3)))))),21);
(((((((13,15),(11,(1,(5,10)))),6),(17,(14,(7,8)))),19),(16,(((2,3),(4,12)),(18,(9,20))))),21);
((((((17,(7,8)),14),((6,(13,15)),(10,(11,(1,5))))),((9,(18,20)),(16,((2,3),(4,12))))),19),21);
(((((16,(20,(9,18))),((2,3),(4,12))),((7,8),(((1,13),((5,6),(15,(10,11)))),(14,17)))),19),21);
((((((((1,(11,13)),15),(6,(5,10))),(17,(7,8))),14),((18,20),(16,(9,((2,3),(4,12)))))),19),21);
(((((((15,(6,(1,11))),(13,(5,10))),17),(14,(7,8))),(16,(12,((4,(2,3)),(9,(18,20)))))),19),21);
((((((((6,(15,(1,(10,11)))),5),13),(14,(7,8))),17),(16,(((2,3),(4,12)),(9,(18,20))))),19),21);
(((((((((11,(5,10)),13),1),(6,15)),(17,(7,8))),14),(16,(((4,12),(2,3)),(9,(18,20))))),19),21);
((((((((11,(15,13)),1),(5,(6,10))),(17,(7,8))),14),(16,(9,(18,20)))),(19,((2,3),(4,12)))),21);
(((((((11,(1,(5,10))),6),(13,15)),(14,((7,8),17))),19),(16,(((2,3),(4,12)),(20,(9,18))))),21);
((((((((6,15),(1,5)),(10,(11,13))),(17,(7,8))),14),19),(((2,(3,(4,12))),(9,20)),(16,18))),21);
(((((((4,12),(2,3)),(9,18)),(16,20)),((17,(7,8)),(14,((1,(5,10)),(6,(11,(13,15))))))),19),21);
(((((15,((11,13),(6,(10,(1,5))))),14),(17,(7,8))),((((2,3),(4,12)),(9,(18,20))),(19,16))),21);
((((((((10,11),(5,6)),1),(13,15)),(14,(17,(7,8)))),19),((((2,3),(4,12)),(18,20)),(9,16))),21);
((((((((13,15),(5,11)),10),(1,6)),(14,(17,(7,8)))),((9,(18,20)),(16,((2,3),(4,12))))),19),21);
((((((((11,(5,6)),10),(13,15)),1),(14,(17,(7,8)))),(16,(((2,3),(4,12)),(9,(18,20))))),19),21);
(((((((6,(10,11)),((13,15),(1,5))),(14,(7,8))),17),(16,((9,20),(18,((4,12),(2,3)))))),19),21);
((((((((10,11),6),(1,5)),(13,15)),14),(17,(7,8))),(((9,(18,20)),(16,((2,3),(4,12)))),19)),21);
(((((((4,12),(2,3)),(20,(9,18))),16),(((13,(5,10)),(6,(15,(1,11)))),((7,8),(14,17)))),19),21);
(((((((((1,5),11),15),(6,(10,13))),(17,(7,8))),14),((9,(18,20)),(16,((2,3),(4,12))))),19),21);
(((((((13,(15,(1,(5,10)))),(6,11)),(14,17)),(7,8)),((18,(9,20)),(16,(2,(3,(4,12)))))),19),21);
(((((11,(13,(6,15))),((10,(1,5)),(14,(17,(7,8))))),((9,(18,20)),(16,((2,3),(4,12))))),19),21);
(((((((6,(11,(1,5))),(13,15)),10),(17,(14,(7,8)))),((9,18),(16,(20,(2,(4,(3,12))))))),19),21);
((((((((((13,15),(11,6)),1),(5,10)),(14,17)),(7,8)),(16,((4,12),(2,3)))),(9,(18,20))),19),21);
((((((((((15,(6,(10,11))),1),5),13),17),(7,8)),14),(((4,12),(2,3)),(18,(16,(9,20))))),19),21);
((((((((11,(5,10)),(13,15)),(1,6)),14),(17,(7,8))),(16,(18,(((4,12),(2,3)),(9,20))))),19),21);
(((((((1,5),((15,(10,13)),(6,11))),14),(17,(7,8))),(16,(((2,3),(4,12)),(18,(9,20))))),19),21);
((((((((2,3),(4,12)),(18,20)),16),9),(14,((15,((6,11),(1,(13,(5,10))))),(17,(7,8))))),19),21);
(((19,((((10,11),(5,6)),(14,17)),((7,8),(1,(13,15))))),((18,(20,9)),(16,(3,(2,(4,12)))))),21);
((((((15,(13,(1,10))),(5,(6,11))),(14,(17,(7,8)))),((20,(9,18)),(16,((4,12),(2,3))))),19),21);
(((((((((1,5),11),(6,13)),(10,15)),(14,(7,8))),17),(((2,3),(4,12)),(16,(9,(18,20))))),19),21);
((((9,(18,20)),((14,((((13,15),(5,10)),(11,(1,6))),(17,(7,8)))),(16,((4,12),(2,3))))),19),21);
(((((((((5,10),(13,15)),11),(1,6)),(14,(17,(7,8)))),((4,(12,(2,3))),(9,(18,20)))),19),16),21);
((((((6,(11,15)),((1,5),(10,13))),(14,(17,(7,8)))),((4,12),((9,(20,18)),(16,(2,3))))),19),21);
((((((((6,(13,15)),(5,(1,11))),10),14),(17,(7,8))),((20,(9,18)),(16,((2,3),(4,12))))),19),21);
(((((((10,(6,(11,(1,5)))),(13,15)),((14,17),(7,8))),((18,20),(16,((2,3),(4,12))))),9),19),21);
((((9,(2,(3,(12,4)))),((18,20),16)),((14,(17,(7,8))),(((13,15),(5,((1,(6,10)),11))),19))),21);
((((((2,3),(4,12)),(14,(((11,(5,6)),((1,10),(13,15))),(17,(7,8))))),19),(16,(20,(9,18)))),21);
(((((((11,(1,5)),(6,15)),(10,13)),14),(17,(7,8))),(19,((18,(9,20)),(((4,12),(2,3)),16)))),21);
((((((((10,(1,5)),((6,(13,15)),11)),(7,8)),14),17),(16,(((4,12),(2,3)),(18,(9,20))))),19),21);
((((((9,(18,20)),((4,12),(2,3))),16),((17,(7,8)),(14,((5,6),((13,15),(1,(10,11))))))),19),21);
(((((((10,((1,5),(15,13))),(6,11)),(14,(7,8))),17),(16,(((4,12),(2,3)),(18,(9,20))))),19),21);
((((((((((10,11),(13,15)),1),(5,6)),17),(7,8)),14),(16,(((2,3),(4,12)),(9,(18,20))))),19),21);
((((((((((11,13),10),15),6),(1,5)),(14,(7,8))),17),((9,(18,20)),(16,((4,12),(2,3))))),19),21);
((((((15,(1,(6,10))),(13,(5,11))),(14,(17,(7,8)))),((9,(18,20)),(16,((4,12),(2,3))))),19),21);
((((((10,(13,15)),1),(11,(5,6))),(14,(17,(7,8)))),(19,(16,((18,20),(9,((4,12),(2,3))))))),21);
(((((((((1,5),10),11),(6,(13,15))),17),(14,(7,8))),(16,19)),(18,((9,20),((2,3),(4,12))))),21);
((((((5,6),(13,(1,(10,15)))),11),((8,17),(7,14))),(19,((9,(18,20)),(16,((2,3),(4,12)))))),21);
((((((((((13,(1,10)),15),(5,11)),6),14),(17,(7,8))),16),19),((4,(12,(2,3))),(9,(18,20)))),21);
((((((15,(13,((1,(5,10)),(6,11)))),(17,(7,8))),14),(((4,12),(2,3)),(16,(9,(18,20))))),19),21);
((((((((4,12),(2,3)),(18,9)),16),20),((15,((10,(1,6)),(5,(11,13)))),(17,(14,(7,8))))),19),21);
((((((((5,(6,(1,11))),13),15),10),(14,(17,(7,8)))),((20,(9,18)),(16,((2,3),(4,12))))),19),21);
(((((((13,(6,10)),(5,(1,11))),15),(17,(14,(7,8)))),((20,(9,18)),(16,((2,3),(4,12))))),19),21);
((((((((5,(1,11)),10),(6,(13,15))),(17,(7,8))),14),((9,20),(18,(16,(2,(3,(4,12))))))),19),21);
(((((((((5,11),(6,15)),(10,13)),1),(14,17)),(7,8)),19),((20,(9,18)),(16,(3,(2,(4,12)))))),21);
((((((((11,(6,10)),(1,5)),15),13),(14,(17,(7,8)))),(16,((18,20),(9,((4,12),(2,3)))))),19),21);
((((((6,((1,11),(13,15))),(5,10)),(14,(17,(7,8)))),(16,((4,(12,(2,3))),(9,(18,20))))),19),21);
((((((1,(15,13)),((14,17),((7,8),(5,(10,(6,11)))))),(9,(18,20))),(16,((2,3),(12,4)))),19),21);
(((((((5,13),(1,15)),11),(6,10)),(14,(17,(7,8)))),(19,(16,((20,(9,18)),((2,3),(4,12)))))),21);
((((((((5,13),(6,(1,11))),(10,15)),(17,(14,(7,8)))),19),((2,3),(16,(20,(9,18))))),(4,12)),21);
(((((((13,15),(5,6)),(1,10)),11),((7,8),(14,17))),(19,(16,((20,(18,9)),((2,3),(4,12)))))),21);
(((((4,12),(2,3)),(9,(18,20))),(((17,(((5,(6,10)),(11,(1,(13,15)))),(14,(7,8)))),19),16)),21);
((((((((1,11),(10,15)),(5,(6,13))),14),(17,(7,8))),(16,(((2,3),(4,12)),(9,(18,20))))),19),21);
((((((((((5,10),(1,6)),13),15),11),(14,(7,8))),17),((9,(18,20)),(16,((4,12),(2,3))))),19),21);
((((((((11,15),(5,(6,10))),13),1),(14,(17,(7,8)))),(16,((20,(9,18)),((4,12),(2,3))))),19),21);
((((((15,((11,(1,13)),(5,10))),6),(17,(14,(7,8)))),((18,(9,20)),(16,((2,12),(3,4))))),19),21);
((((((((15,(1,11)),10),(5,13)),6),(17,(7,8))),14),((16,((18,(9,20)),((2,3),(4,12)))),19)),21);
((((((((((5,11),(6,10)),1),15),13),14),(17,(7,8))),(((2,3),(4,12)),19)),(16,(9,(18,20)))),21);
((((((((10,(1,6)),15),(5,11)),13),(14,(7,(8,17)))),(16,((4,(12,(2,3))),(20,(9,18))))),19),21);
(((((((((1,10),6),(11,15)),13),5),((7,8),(17,14))),(16,(18,((9,20),((4,12),(2,3)))))),19),21);
((((((10,((1,5),(6,11))),(13,15)),(17,(14,(7,8)))),((9,(18,20)),(16,((2,3),(4,12))))),19),21);
((((((((1,15),(5,13)),(11,(6,10))),(7,8)),(14,17)),(16,((4,(12,(2,3))),(9,(18,20))))),19),21);
(((((((10,(6,11)),(1,5)),(13,15)),(14,(17,(7,8)))),(16,(((4,12),(2,3)),(9,(18,20))))),19),21);
((((((15,((11,13),(5,6))),(1,10)),(14,(17,(7,8)))),(9,(18,20))),((16,((2,3),(4,12))),19)),21);
((((((6,(1,5)),((10,11),(13,15))),(14,(17,(7,8)))),((16,((2,3),(4,12))),(20,(9,18)))),19),21);
(((((((((1,5),(6,13)),15),(10,11)),17),(14,(7,8))),(16,((3,(2,(4,12))),(9,(18,20))))),19),21);
((((((((11,(13,15)),(6,10)),(1,5)),17),(14,(7,8))),(16,(((2,3),(4,12)),(20,(9,18))))),19),21);
((((((((15,((1,5),13)),10),(6,11)),(14,17)),(7,8)),19),(16,((4,(12,(2,3))),(9,(20,18))))),21);
(((((((((13,(1,11)),(5,10)),15),6),14),(17,(7,8))),19),((18,(20,9)),(16,((2,3),(4,12))))),21);
((((((15,(5,(6,13))),(11,(1,10))),(14,(17,(7,8)))),19),(16,(18,(9,(20,((2,3),(4,12))))))),21);
((((((6,((13,15),(10,11))),(1,5)),((7,17),(8,14))),19),(16,((2,(3,(4,12))),(20,(9,18))))),21);
(((((((((5,11),15),10),(13,(1,6))),(17,(7,8))),14),(16,(((4,12),(2,3)),(9,(18,20))))),19),21);
(((((((((5,13),(15,(1,11))),(6,10)),(7,8)),(14,17)),((4,12),(2,3))),19),(16,(9,(18,20)))),21);
((((((((11,(1,(5,10))),(6,(13,15))),(7,8)),17),14),(16,((18,(20,9)),((4,12),(2,3))))),19),21);
((((((((15,(5,10)),6),(13,(1,11))),14),(17,(7,8))),(16,(((2,3),(4,12)),(9,(18,20))))),19),21);
(((((((((6,(1,5)),(11,15)),10),13),17),(14,(7,8))),(16,((3,(2,(4,12))),(18,(9,20))))),19),21);
((((((((1,5),(6,10)),(11,(13,15))),(14,(7,8))),17),19),(16,(((2,4),(3,12)),(9,(18,20))))),21);
((((((5,15),((1,6),(11,13))),(10,(14,(17,(7,8))))),(16,(((4,12),(2,3)),(20,(9,18))))),19),21);
((((((14,17),((10,(13,15)),(11,(1,(5,6))))),(7,8)),(16,((9,(18,20)),((2,3),(4,12))))),19),21);
(((((((1,(5,10)),6),(13,15)),11),(14,(17,(7,8)))),((16,(((2,3),(4,12)),(18,(9,20)))),19)),21);
((((((18,20),(9,((4,12),(2,3)))),16),19),((14,(7,8)),((6,(1,5)),(17,(11,(10,(13,15))))))),21);
(((((((6,11),(1,(5,10))),(13,15)),(14,(17,(7,8)))),(16,((2,(12,(3,4))),(9,(18,20))))),19),21);
((((((16,(18,(9,20))),(3,(12,(2,4)))),(14,(7,8))),(17,((11,(13,15)),(6,(10,(5,1)))))),19),21);
((((((((6,(1,5)),15),((10,13),11)),(14,(17,(7,8)))),(9,(18,20))),(16,((2,3),(4,12)))),19),21);
((((((13,(5,10)),(11,(1,(6,15)))),(14,(17,(7,8)))),(((4,12),(2,3)),(16,(20,(9,18))))),19),21);
(((((((((6,(5,11)),10),(13,15)),1),14),(17,(7,8))),(16,(((4,12),(2,3)),(20,(9,18))))),19),21);
(((((((6,(11,(15,(1,5)))),10),13),(17,(7,8))),14),(19,((9,(18,20)),(16,((4,12),(2,3)))))),21);
((((((((1,(10,11)),6),5),(13,15)),((7,8),(14,17))),(16,(((2,3),(4,12)),(9,(18,20))))),19),21);
((((((((13,(1,5)),10),(15,(6,11))),14),(17,(7,8))),(((2,3),(4,12)),(16,(18,(9,20))))),19),21);
(((((17,((10,11),(13,((1,5),(6,15))))),(14,(7,8))),(18,(16,(((2,3),(4,12)),(9,20))))),19),21);
((((((6,15),((5,(10,11)),(1,13))),(14,(17,(7,8)))),((16,(4,12)),((2,3),(9,(18,20))))),19),21);
((((((((6,10),(1,5)),11),(13,15)),14),(17,(7,8))),((16,(((4,12),(2,3)),(18,(9,20)))),19)),21);
((((((((11,10),(6,(1,5))),(13,15)),(14,17)),(7,8)),(20,((3,(4,12)),(16,(2,(9,18)))))),19),21);
(((((((15,(5,11)),(6,(13,(1,10)))),(14,(17,(7,8)))),((2,3),(4,12))),(16,(20,(9,18)))),19),21);
((((((((15,(5,10)),13),(11,(1,6))),14),(17,(7,8))),(16,(((4,12),(2,3)),(20,(9,18))))),19),21);
(((((((((6,11),5),10),(15,(1,13))),14),(17,(7,8))),((18,(9,20)),(16,(4,(12,(2,3)))))),19),21);
(((((((5,(1,(10,11))),(6,(13,15))),14),(17,(7,8))),((20,(9,18)),(16,((2,3),(4,12))))),19),21);
((((((((13,15),(10,11)),6),(1,5)),(14,(17,(7,8)))),(((2,3),(4,12)),(16,(18,(9,20))))),19),21);
((((((15,(5,11)),(10,13)),(1,6)),(14,(17,(7,8)))),((((4,12),(2,3)),(16,(18,(9,20)))),19)),21);
((((((10,((5,11),(6,(1,(13,15))))),(17,(14,(7,8)))),((2,(4,12)),(9,16))),(3,(18,20))),19),21);
((((((((6,(1,10)),(5,(13,15))),11),(14,(7,8))),17),((9,(18,20)),(16,(3,(2,(4,12)))))),19),21);
(((((14,(7,8)),(17,((1,(5,(11,13))),(15,(6,10))))),(16,((20,(9,18)),((2,3),(4,12))))),19),21);
(((((((5,15),(11,(1,6))),(10,13)),(14,(17,(7,8)))),(16,(((4,12),(2,3)),(9,(20,18))))),19),21);
(((((((14,(7,8)),17),(15,(10,11))),(6,(13,(5,1)))),((20,(9,18)),(16,((2,3),(4,12))))),19),21);
((((((((5,(6,(13,15))),(1,(10,11))),14),(17,(7,8))),(16,(20,(9,18)))),19),((2,3),(4,12))),21);
(((((((((13,15),10),11),(6,(1,5))),(14,(17,(7,8)))),(16,((2,3),(4,12)))),(20,(9,18))),19),21);
(((((13,(1,(5,(10,11)))),((6,15),(17,((7,8),14)))),(16,(((4,12),(2,3)),(18,(9,20))))),19),21);
((((((((6,13),(10,(1,5))),(11,15)),14),(17,(7,8))),19),(16,(((2,3),(4,12)),(18,(9,20))))),21);
(((((((((1,(5,10)),6),11),13),((7,8),(14,17))),15),(16,(((2,3),(4,12)),(9,(20,18))))),19),21);
(((((((((13,15),(11,6)),10),(1,5)),(7,14)),(8,17)),19),((9,(18,20)),(16,((4,12),(2,3))))),21);
((((((((1,13),(11,(6,15))),(5,10)),14),(17,(7,8))),19),((9,16),(((4,12),(2,3)),(18,20)))),21);
(((((((6,(1,(10,11))),5),(13,15)),(14,(17,(8,7)))),((9,(18,20)),(16,((2,3),(4,12))))),19),21);
(((((9,(18,20)),(16,((2,3),(4,12)))),(((6,(10,13)),(11,(15,(1,5)))),(14,(17,(7,8))))),19),21);
((((((15,((10,11),(13,(5,(1,6))))),17),(14,(7,8))),(((2,3),(4,12)),(16,(9,(18,20))))),19),21);
((((((4,12),((2,3),(18,20))),9),(((14,(7,8)),(17,(((13,15),(1,10)),(11,(5,6))))),19)),16),21);
(((((((((1,10),(13,15)),(5,11)),6),(14,17)),(7,8)),((9,(18,20)),(16,(12,((2,3),4))))),19),21);
(((((((9,20),18),((2,3),(4,12))),16),(10,(11,((1,6),(5,(13,15)))))),(19,(17,(14,(7,8))))),21);
(((((18,(9,20)),(16,(12,(4,(2,3))))),((17,(7,8)),(14,((15,(10,11)),((1,6),(5,13)))))),19),21);
(((((((((((13,6),1),(10,11)),5),15),14),(17,(7,8))),19),(16,(18,(9,20)))),((4,12),(2,3))),21);
(((((((13,(5,11)),((6,10),(1,15))),(14,(17,(7,8)))),(16,(18,(4,(12,(2,3)))))),(9,20)),19),21);
((((((((11,(1,5)),(10,(13,15))),6),(14,(17,(7,8)))),(((2,3),(4,12)),(9,(18,20)))),19),16),21);
(((((((((13,15),((10,11),1)),5),6),(7,8)),(14,17)),(16,(18,(((2,4),(3,12)),(9,20))))),19),21);
(((((((10,11),1),(13,(6,(5,15)))),(14,(17,(7,8)))),((20,(9,18)),(16,((4,12),(2,3))))),19),21);
(((((((11,(13,15)),(1,(5,10))),6),(17,(7,8))),14),(((9,(18,20)),(16,((2,3),(4,12)))),19)),21);
(((((((((10,(6,(11,13))),1),(5,15)),(7,8)),(14,17)),16),(((4,12),(2,3)),(20,(9,18)))),19),21);
((((((6,(13,15)),(5,11)),(1,10)),(14,(17,(7,8)))),(((9,(18,20)),(16,((4,12),(2,3)))),19)),21);
(((((((1,10),5),(6,11)),(13,15)),(14,(17,(7,8)))),(19,(16,((9,(18,20)),((4,12),(2,3)))))),21);
(((((((((11,15),(13,(5,(1,6)))),10),(7,8)),(14,17)),(16,(18,(9,20)))),((2,3),(4,12))),19),21);
((((((((1,(13,6)),(11,(5,15))),10),14),(17,(7,8))),((9,(18,20)),(16,((2,3),(4,12))))),19),21);
(((((((((11,(5,10)),(13,15)),(1,6)),14),17),(7,8)),((9,(18,20)),(16,((4,12),(2,3))))),19),21);
((((((((1,(10,11)),5),(15,(6,13))),((7,8),(14,17))),(((2,3),(4,12)),(9,(18,20)))),16),19),21);
((((((((13,15),(6,11)),(10,(1,5))),14),(17,(7,8))),(9,((18,20),(16,(4,(12,(2,3))))))),19),21);
((((((((((6,10),(5,11)),13),15),1),14),((3,(4,(2,12))),(16,(9,(18,20))))),(17,(7,8))),19),21);
(((((((((10,11),5),1),6),(13,15)),(14,(17,(7,8)))),(16,(((4,12),(2,3)),(18,(9,20))))),19),21);
(((((((((6,(11,13)),15),10),(1,5)),(14,(7,17))),8),(((4,12),(2,3)),(16,(20,(9,18))))),19),21);
((((((((6,(5,10)),1),(13,15)),(14,(17,(7,8)))),11),(16,(((4,12),(2,3)),(20,(9,18))))),19),21);
(((((((2,3),(4,12)),(9,18)),(16,20)),((11,(1,(6,((5,10),(13,15))))),(17,(14,(7,8))))),19),21);
((((((14,(7,8)),(17,((13,(5,6)),((1,10),(11,15))))),(((2,3),(4,12)),(18,(9,20)))),16),19),21);
((((((((5,10),11),(6,13)),(1,15)),(14,(17,(7,8)))),((9,(18,20)),(16,((2,3),(4,12))))),19),21);
((((((10,(1,(13,11))),(6,(5,15))),(14,(17,(7,8)))),(16,((2,(12,(3,4))),(9,(18,20))))),19),21);
((((((2,3),(4,12)),(16,(9,(18,20)))),(17,((14,(7,8)),((1,(13,15)),(6,(11,(5,10))))))),19),21);
((((((((1,11),(5,10)),(6,15)),13),(14,(7,(17,8)))),(16,(((4,12),(2,3)),(20,(9,18))))),19),21);
((((((((6,11),(1,10)),(5,(13,15))),14),(17,(7,8))),(16,((4,(12,(2,3))),(20,(9,18))))),19),21);
((((((((10,6),5),(13,(1,11))),15),(17,(14,(7,8)))),19),(16,((9,(18,20)),((4,12),(2,3))))),21);
(((((((1,(6,11)),(5,10)),(13,15)),(17,(7,8))),14),((16,((3,(2,(4,12))),(20,(18,9)))),19)),21);
(((((16,(9,(18,20))),((2,3),(4,12))),((6,(5,(13,(15,(11,(10,1)))))),((7,8),(14,17)))),19),21);
(((((((((1,5),15),11),(10,(6,13))),(14,17)),(7,8)),19),(16,((18,(9,20)),((2,3),(4,12))))),21);
(((((((((13,15),10),(5,6)),11),((7,8),(14,17))),1),(16,(((2,3),(4,12)),(9,(18,20))))),19),21);
(((((((((11,13),(1,(5,10))),(6,15)),14),(7,8)),17),((9,18),(16,(20,((4,12),(2,3)))))),19),21);
(((((((4,12),(2,3)),(9,(18,20))),16),(17,((14,(7,8)),((13,15),((1,5),(6,(10,11))))))),19),21);
((((((((10,(6,(1,5))),(13,15)),11),17),(14,(7,8))),(16,(((2,3),(4,12)),(20,(9,18))))),19),21);
(((((11,(6,((5,(13,15)),(1,10)))),(14,(7,8))),17),(19,(20,(((2,3),(4,12)),(16,(9,18)))))),21);
((((((((6,(11,(1,5))),13),(10,15)),14),(17,(7,8))),19),(((4,12),(2,3)),(16,(18,(9,20))))),21);
(((((13,(10,11)),((5,15),(1,6))),(14,(17,(7,8)))),(19,(16,(((4,12),(2,3)),(9,(18,20)))))),21);
((((((1,(5,(13,15))),(11,(6,10))),(7,8)),(14,17)),((16,(9,((12,(4,(2,3))),(18,20)))),19)),21);
(((((((6,11),((1,(5,10)),(13,15))),(14,(7,8))),17),19),(((2,3),(4,12)),(16,(9,(18,20))))),21);
((((((((11,(5,6)),(1,10)),(13,15)),(14,(17,(7,8)))),16),((3,(2,(4,12))),(9,(18,20)))),19),21);
(((((11,13),((1,15),(5,(6,10)))),(14,(7,(17,8)))),(19,(18,(16,((12,(4,(2,3))),(9,20)))))),21);
((((((((6,15),13),(1,(5,10))),11),(17,(7,8))),14),(19,(16,(((2,3),(4,12)),(18,(9,20)))))),21);
((((((((6,(1,(13,15))),(5,10)),11),(17,(7,8))),14),(((2,3),(4,12)),(16,(18,(9,20))))),19),21);
((((((11,(13,15)),((5,10),(1,6))),(17,(7,8))),14),(19,((9,(18,20)),(16,((2,3),(4,12)))))),21);
(((((((((10,(6,11)),5),(1,15)),13),(14,(7,8))),17),((18,(9,20)),(16,((2,3),(4,12))))),19),21);
((((((((((5,10),6),1),(11,(13,15))),14),(8,17)),7),(16,(((2,3),(4,12)),(20,(9,18))))),19),21);
(((((((((5,(1,15)),11),(10,13)),6),(17,(7,8))),14),(16,(((4,12),(2,3)),(9,(18,20))))),19),21);
(((((((6,11),10),((1,5),(13,15))),(17,(14,(7,8)))),((18,(20,9)),(16,((2,3),(4,12))))),19),21);
((((((13,15),((10,11),(1,(5,6)))),((7,8),(17,14))),(16,(((2,3),(4,12)),(9,(20,18))))),19),21);
(((((((5,((10,11),(13,15))),1),6),(14,(17,(7,8)))),(16,(12,(4,(2,3))))),((20,(9,18)),19)),21);
((((((((11,(10,6)),13),(1,(5,15))),14),(17,(7,8))),(16,(((4,12),(2,3)),(9,(20,18))))),19),21);
((((((((11,(1,10)),((5,6),(13,15))),(8,(7,17))),14),(20,(9,18))),(16,((4,12),(2,3)))),19),21);
((((((((5,10),(1,(13,15))),(6,11)),(14,(7,8))),17),(16,(((2,3),(4,12)),(9,(18,20))))),19),21);
(((((((((5,15),13),(1,(10,11))),6),(14,17)),(7,8)),19),(16,(((4,12),(2,3)),(9,(18,20))))),21);
((((((((11,(13,15)),(5,6)),(1,10)),14),(7,8)),17),(19,((2,(3,(4,12))),(16,(9,(18,20)))))),21);
((((((((13,(1,11)),(15,(5,10))),6),(14,(7,8))),17),(16,(((4,12),(2,3)),(18,(9,20))))),19),21);
((((((((6,(5,10)),15),(13,(1,11))),14),(17,(7,8))),(16,(((2,3),(4,12)),((9,20),18)))),19),21);
((((((((11,(6,10)),5),1),(13,15)),((7,8),(14,17))),(16,(((4,12),(2,3)),(18,(9,20))))),19),21);
(((((((((13,15),(1,6)),(5,(10,11))),(17,(7,8))),14),(16,((2,3),(4,12)))),(20,(9,18))),19),21);
(((((((11,(1,5)),6),10),(13,15)),(17,(14,(7,8)))),(19,((9,(18,20)),(16,((4,12),(2,3)))))),21);
(((((((((5,10),(6,11)),1),(13,15)),(17,(7,8))),14),(16,(((2,3),(4,12)),(9,(18,20))))),19),21);
(((((((((5,13),15),1),(6,11)),10),(14,(7,(8,17)))),((9,20),(16,(18,(4,(12,(2,3))))))),19),21);
(((((((6,(1,5)),15),(13,(10,11))),(14,(17,(7,8)))),(16,(((2,3),(4,12)),(20,(9,18))))),19),21);
((((((((20,18),9),(2,(3,12))),4),16),(((15,(1,13)),((5,10),(6,11))),(14,(17,(7,8))))),19),21);
((((((6,11),((13,15),(1,10))),5),(14,(17,(7,8)))),((16,((9,20),(18,((4,12),(2,3))))),19)),21);
((((((17,(7,8)),14),((1,6),((10,11),(5,(13,15))))),(16,((18,20),(9,((2,3),(4,12)))))),19),21);
(((((((((6,(1,5)),10),11),(13,15)),17),(14,(7,8))),(16,(((2,3),(4,12)),(9,(18,20))))),19),21);
(((((((5,(10,11)),(6,15)),(1,13)),(14,(17,(7,8)))),(((2,3),(4,12)),(16,(9,(20,18))))),19),21);
(((((((((5,6),(13,15)),1),(10,11)),(17,(7,8))),14),19),(16,(((2,3),(4,12)),(18,(9,20))))),21);
((((((((((5,(6,13)),11),(10,(1,15))),(7,8)),(14,17)),(20,(9,18))),16),(2,(3,(4,12)))),19),21);
((((((14,(17,(7,8))),((13,15),(11,((1,5),(6,10))))),(16,(18,((4,12),(2,3))))),(9,20)),19),21);
((((((1,6),(11,(10,(5,(13,15))))),(14,(17,(7,8)))),(16,(((4,12),(2,3)),(9,(18,20))))),19),21);
((((((((6,(5,10)),1),(11,(13,15))),(17,(7,8))),14),(((4,12),(2,3)),(16,(18,(9,20))))),19),21);
((((((10,(13,(5,11))),(15,(1,6))),14),(8,(7,17))),(((18,(9,20)),(((4,12),(2,3)),16)),19)),21);
(((((((((1,6),13),(15,(10,11))),5),(17,(7,8))),14),19),(16,((9,(18,20)),(4,(2,(3,12)))))),21);
((((((7,8),(14,((15,(5,10)),(6,(13,(1,11)))))),17),((18,(9,20)),(16,((4,12),(2,3))))),19),21);
(((((((15,((1,5),(10,11))),6),13),(17,(14,(7,8)))),(((2,3),(4,12)),(16,(18,(9,20))))),19),21);
(((((1,(13,(15,(6,((10,11),5))))),(14,(7,8))),17),((16,((4,(12,(2,3))),(18,(9,20)))),19)),21);
(((((((6,(5,10)),15),(11,(1,13))),14),(17,(7,8))),(((20,((4,12),(2,3))),(16,(9,18))),19)),21);
(((((((((1,5),10),(13,15)),(6,11)),14),(17,(7,8))),((18,(9,20)),(16,(2,(3,(4,12)))))),19),21);
((((((((10,1),11),(6,15)),13),5),(14,(17,(7,8)))),(19,(((4,12),(18,(9,20))),(16,(2,3))))),21);
(((((((13,(5,10)),1),(6,(11,15))),(17,(14,(7,8)))),19),(16,(((2,3),(4,12)),(18,(9,20))))),21);
(((((((((11,15),(6,(1,10))),5),13),14),(17,(7,8))),(16,(((4,12),(2,3)),(20,(9,18))))),19),21);
(((((((((11,13),1),10),(5,15)),6),(17,(7,8))),14),(19,(((2,12),(3,4)),(16,(20,(9,18)))))),21);
((((((((6,(13,(5,15))),1),(10,11)),(17,(7,8))),14),(16,(((2,3),(4,12)),(18,(9,20))))),19),21);
((((((13,15),(1,6)),(5,(10,11))),(14,(17,(7,8)))),(((20,(9,18)),(16,((2,3),(4,12)))),19)),21);
((((((6,(10,11)),(13,(1,(5,15)))),(14,(17,(7,8)))),19),((16,((4,12),(2,3))),(9,(18,20)))),21);
((((((((13,15),6),11),(10,(1,5))),(14,(17,(7,8)))),((9,(18,20)),(16,((2,3),(4,12))))),19),21);
((((((((((5,10),(11,15)),1),(6,13)),(14,(7,8))),17),((4,12),(2,3))),(16,(9,(18,20)))),19),21);
((((((((1,6),(11,13)),15),(5,10)),(17,(7,8))),14),(19,(16,(((2,3),(4,12)),(20,(9,18)))))),21);
((((((7,8),((6,((13,15),((1,5),(10,11)))),(14,17))),(16,(9,(18,20)))),(4,(12,(2,3)))),19),21);
((((((((11,(10,5)),15),13),(1,6)),(14,(17,(7,8)))),19),(((4,12),(2,3)),(16,(18,(9,20))))),21);
((((((((13,15),(1,11)),(5,(6,10))),(17,(7,8))),14),(16,(((4,12),(2,3)),(9,(18,20))))),19),21);
((((((13,((10,15),(1,5))),(17,(7,8))),(14,(6,11))),((((2,3),(4,12)),(9,(18,20))),16)),19),21);
((((((((((5,10),11),(1,6)),13),15),(17,(7,8))),14),19),(16,(((2,3),(4,12)),(9,(20,18))))),21);
((((((((15,(5,10)),13),(1,6)),(17,(7,8))),(11,14)),((9,(18,20)),(16,((2,3),(4,12))))),19),21);
((((((((1,5),10),15),(13,(6,11))),(8,((14,17),7))),((9,(18,20)),(16,((2,3),(4,12))))),19),21);
(((((((((13,15),(1,5)),6),(10,11)),17),(14,(7,8))),(16,((4,(12,(2,3))),(9,(18,20))))),19),21);
((((((11,(10,(1,5))),(6,(13,15))),(14,(17,(7,8)))),19),((18,16),((2,3),((4,12),(9,20))))),21);
((((((((11,(1,(5,10))),13),15),6),(14,(17,(7,8)))),(16,(((4,12),(2,3)),(18,(9,20))))),19),21);
((((((((13,(1,5)),(15,(10,11))),6),(17,(7,8))),14),19),(16,(((2,3),(4,12)),(18,(20,9))))),21);
(((((((11,(10,(13,15))),(6,(1,5))),14),(17,(7,8))),19),(16,(((4,12),(2,3)),(18,(9,20))))),21);
(((((((((5,(10,11)),(6,(1,13))),15),(17,(7,8))),14),(16,((2,3),(4,12)))),(9,(18,20))),19),21);
(((((9,(18,20)),(16,((2,3),(4,12)))),(((5,6),((13,15),(1,(10,11)))),(14,(17,(7,8))))),19),21);
(((((((5,(10,11)),1),(6,(13,15))),17),(14,(7,8))),(19,(16,(((4,12),(2,3)),(9,(18,20)))))),21);
(((((((((11,10),(13,15)),5),6),1),14),(17,(7,8))),(19,(16,(((2,3),(4,12)),(20,(9,18)))))),21);
((((((((13,15),1),6),(11,(10,5))),(14,(17,(7,8)))),((20,((2,3),(4,12))),(16,(9,18)))),19),21);
((((((4,12),(2,3)),(16,(18,(9,20)))),((14,17),((7,8),((11,(10,(1,5))),(15,(6,13)))))),19),21);
((((((((6,(1,11)),13),15),(5,10)),(17,(14,(7,8)))),(((2,3),(4,12)),(16,(9,(18,20))))),19),21);
((((((14,17),((10,(13,15)),((5,11),(1,6)))),(7,8)),((4,(12,(2,3))),(16,(18,(9,20))))),19),21);
(((((((((5,13),1),(15,(10,11))),6),(8,17)),(7,14)),(16,((3,(2,(4,12))),(20,(9,18))))),19),21);
(((((((5,(6,(10,11))),(1,(13,15))),(17,(14,(7,8)))),(18,(9,20))),(16,((2,3),(4,12)))),19),21);
(((((((13,(5,11)),15),(6,(1,10))),14),(17,(7,8))),((((4,12),(2,3)),(16,(20,(9,18)))),19)),21);
((((((1,6),((5,15),13)),(10,11)),((7,8),(14,17))),((16,((3,(2,(4,12))),(9,(18,20)))),19)),21);
((((((((15,(5,(6,11))),(13,(1,10))),17),(14,(7,8))),16),((3,(2,(4,12))),(20,(9,18)))),19),21);
(((((((((13,15),(5,1)),11),10),6),(7,8)),((14,17),(16,((2,3),((4,12),(20,(9,18))))))),19),21);
(((((18,(4,(12,(2,3)))),(16,(9,20))),(((13,15),(10,((1,11),(5,6)))),(14,(17,(7,8))))),19),21);
(((((((10,(6,11)),(1,5)),(13,15)),(14,(17,(7,8)))),19),((12,(4,(3,2))),(16,(9,(18,20))))),21);
((((((((6,(10,11)),(1,5)),15),13),(14,(17,(7,8)))),((18,(9,20)),(16,((2,3),(4,12))))),19),21);
(((((((((13,15),(10,(5,6))),11),1),(7,8)),(14,17)),(((4,12),(2,3)),(16,(9,(18,20))))),19),21);
(((((((15,(5,11)),(1,10)),(6,13)),(7,8)),(14,17)),(19,((18,(9,20)),(16,((4,12),(2,3)))))),21);
((((((((1,13),(5,10)),(6,11)),15),(14,(17,(7,8)))),19),((9,(18,20)),(16,((4,12),(2,3))))),21);
((((((((((1,10),5),6),13),(11,15)),14),(17,(7,8))),((2,(3,(4,12))),(16,(18,(9,20))))),19),21);
(((((((3,(4,12)),2),16),(20,(9,18))),(((6,10),((1,11),(5,(13,15)))),(14,(17,(7,8))))),19),21);
((((((17,(1,((13,15),(6,(11,(5,10)))))),(7,8)),14),(16,((9,(18,20)),((2,3),(4,12))))),19),21);
((((((1,5),((13,15),(11,(6,10)))),(14,(17,(7,8)))),(16,((4,(12,(2,3))),(18,(9,20))))),19),21);
(((((((6,(13,15)),(1,10)),(5,11)),(17,(14,(7,8)))),(16,(3,(2,(4,12))))),(19,(9,(18,20)))),21);
((((((((10,15),(6,((1,5),(11,13)))),(17,(7,8))),14),((12,(4,(2,3))),(20,(9,18)))),16),19),21);
(((((1,(10,(6,((13,15),(5,11))))),(14,(17,(7,8)))),19),(16,((3,(2,(4,12))),(18,(9,20))))),21);
(((((((((((6,(10,11)),5),13),(1,15)),(17,(7,8))),14),19),16),(18,(20,9))),(12,(4,(2,3)))),21);
((((((((5,6),(10,15)),(13,(1,11))),(17,14)),(7,8)),16),(19,(((2,3),(4,12)),(9,(18,20))))),21);
((((((((1,(5,10)),(13,15)),11),6),((7,8),(17,14))),(((4,12),(2,3)),(16,(18,(9,20))))),19),21);
((((((((1,5),(13,(6,(10,11)))),15),17),(14,(7,8))),(16,(((2,3),(4,12)),(9,(18,20))))),19),21);
((((((((6,(13,15)),(1,10)),5),14),(11,(17,(7,8)))),(16,(((2,3),(4,12)),(18,(9,20))))),19),21);
((((13,(1,(11,(5,6)))),((10,15),(14,(17,(7,8))))),(19,((2,(3,(4,12))),(16,(20,(9,18)))))),21);
((((((5,(11,(10,13))),(15,(1,6))),(17,(14,(7,8)))),(16,((2,(4,(3,12))),(9,(18,20))))),19),21);
((((((((13,15),11),10),(6,(1,5))),(17,(14,(7,8)))),(16,((12,(4,(2,3))),(20,(9,18))))),19),21);
((((((((6,10),5),(1,15)),(11,13)),((7,8),(14,17))),((9,(18,20)),(16,(3,(2,(4,12)))))),19),21);
(((((((((5,15),(6,10)),(1,11)),13),14),(17,(7,8))),19),((9,20),(18,(16,((4,12),(2,3)))))),21);
((((((((13,(1,(6,11))),15),(5,10)),14),(17,(7,8))),((20,(9,18)),(16,((2,3),(4,12))))),19),21);
(((((((10,(11,6)),5),15),(1,13)),(17,(14,(7,8)))),((((2,3),(4,12)),((9,18),(16,20))),19)),21);
(((((((5,(10,11)),15),(13,(1,6))),(14,(17,(7,8)))),((9,(18,20)),(16,((2,3),(4,12))))),19),21);
((((((15,(1,(11,(5,10)))),(6,13)),(14,(17,(7,8)))),(((2,3),(4,12)),(16,(18,(9,20))))),19),21);
((((((((6,(1,5)),15),(13,(10,11))),(14,(7,8))),17),((3,(2,(4,12))),(16,(9,(18,20))))),19),21);
((((((((15,((10,11),(1,(5,13)))),6),(7,8)),(14,17)),(((2,3),(4,12)),(18,(9,20)))),16),19),21);
((((((((1,6),((10,11),(5,15))),13),(17,14)),(7,8)),(16,((4,(12,(2,3))),(9,(18,20))))),19),21);
(((((((1,11),(13,15)),(5,(6,10))),(17,(7,8))),(14,(((2,3),(4,12)),(16,(18,(9,20)))))),19),21);
(((((((5,11),(13,15)),(1,(6,10))),(14,(17,(7,8)))),(16,((4,12),((2,3),(9,(18,20)))))),19),21);
(((((((5,11),(6,13)),(1,10)),15),(14,(17,(7,8)))),(19,((12,(3,(2,4))),(16,(20,(9,18)))))),21);
((((((((((5,(10,11)),6),15),13),1),(17,(7,8))),14),(16,(((2,3),(4,12)),(9,(18,20))))),19),21);
(((((((((((5,10),(13,15)),1),6),11),(7,8)),17),14),((12,(4,(2,3))),(16,(9,(18,20))))),19),21);
((((((((((1,5),(10,13)),6),(11,15)),(7,8)),14),17),(16,((12,(4,(2,3))),(18,(9,20))))),19),21);
(((((((((5,(6,11)),13),1),(10,15)),17),(14,(7,8))),(16,(((4,12),(2,3)),(9,(18,20))))),19),21);
(((((((((1,(10,11)),(13,15)),(5,6)),(17,(7,8))),14),19),(16,((4,12),(2,3)))),(20,(9,18))),21);
((((((((((5,10),1),13),11),(6,15)),14),(17,(7,8))),(((2,3),(4,12)),(16,(18,(9,20))))),19),21);
(((((((1,(5,10)),(15,(6,11))),(13,14)),7),(8,17)),(19,(16,(((4,12),(2,3)),(9,(18,20)))))),21);
((((((((5,6),13),(10,(1,11))),15),(17,(14,(7,8)))),(16,((18,20),(((4,12),(2,3)),9)))),19),21);
((((((2,4),(3,12)),(16,(18,(9,20)))),(((15,(6,10)),(13,(11,(1,5)))),(14,(17,(7,8))))),19),21);
(((((((1,(6,(5,10))),15),(11,13)),(17,(7,8))),14),((16,(((4,12),(2,3)),(18,(9,20)))),19)),21);
(((((((15,(1,(6,13))),(5,(10,11))),(14,(7,8))),17),((2,(3,(4,12))),(16,(18,(9,20))))),19),21);
(((((((((13,(5,(10,(6,11)))),1),15),(7,8)),17),14),19),(16,((20,(9,18)),((4,12),(2,3))))),21);
(((((16,(2,(3,(4,12)))),(18,(9,20))),19),(((10,(1,5)),(15,(6,(11,13)))),(14,(17,(7,8))))),21);
((((((5,((10,11),(6,(13,15)))),1),(17,(7,8))),14),(19,(16,(((4,12),(2,3)),(18,(9,20)))))),21);
((((((((11,(6,(5,10))),(1,15)),13),14),(17,(7,8))),19),(20,(16,((9,18),((4,12),(2,3)))))),21);
(((((((((((13,15),1),10),6),(5,11)),(17,(7,8))),14),16),((18,20),(9,((2,3),(4,12))))),19),21);
((((((15,(10,5)),1),(13,(6,11))),(14,(17,(7,8)))),(((2,3),(16,((4,12),(18,(9,20))))),19)),21);
(((((((((1,11),(10,(13,15))),(5,6)),14),(7,8)),17),(16,(((2,3),(4,12)),(20,(9,18))))),19),21);
(((((((6,(11,(13,15))),(10,(1,5))),((7,8),(14,17))),(20,(18,9))),(16,((4,12),(2,3)))),19),21);
((((((((15,(6,10)),11),13),(1,5)),(14,(17,(7,8)))),(16,((3,(2,(4,12))),(9,(18,20))))),19),21);
(((((6,(10,11)),(((5,15),(13,1)),((7,8),(14,17)))),(((4,12),(2,3)),(16,(18,(9,20))))),19),21);
((((((((6,10),(11,(13,15))),5),1),(14,(17,(7,8)))),(16,((20,(9,18)),((4,12),(2,3))))),19),21);
(((((((11,((5,10),13)),(15,(1,6))),14),(17,(7,8))),(((2,3),(4,12)),(16,(18,(9,20))))),19),21);
(((((20,(9,18)),(16,((4,12),(2,3)))),((17,((1,5),(6,11))),(14,((7,8),(10,(13,15)))))),19),21);
(((((((10,15),(5,13)),(1,(6,11))),(14,(17,(7,8)))),(16,((4,((2,3),12)),(18,(9,20))))),19),21);
((((((((1,(10,11)),(13,15)),6),5),((7,8),(14,17))),((20,(18,9)),(16,(4,(12,(2,3)))))),19),21);
((((((((((5,10),13),(1,6)),11),15),14),(17,(7,8))),(16,((9,18),(20,((2,3),(4,12)))))),19),21);
((((((((5,((1,6),(10,(13,15)))),11),(14,(7,8))),17),(16,(20,(9,18)))),((4,12),(2,3))),19),21);
(((((((6,(1,5)),(15,(10,11))),13),((7,8),(14,17))),(16,(12,((4,(2,3)),(18,(9,20)))))),19),21);
(((((14,(17,(7,8))),((9,(18,20)),(16,((4,12),(2,3))))),((11,(5,6)),(15,(13,(1,10))))),19),21);
(((((((((11,(5,10)),15),13),1),6),(17,(14,(7,8)))),19),(16,(((4,12),(2,3)),(20,(9,18))))),21);
((((((6,10),(13,(11,(1,5)))),(15,(14,(17,(7,8))))),((12,(4,(2,3))),(18,(9,20)))),(16,19)),21);
(((((((5,(1,11)),(13,(15,(6,10)))),14),(7,(8,17))),((16,(2,(4,12))),(3,(20,(9,18))))),19),21);
((((((((5,(10,11)),(13,15)),(1,6)),14),(17,(7,8))),(16,(((2,3),(4,12)),(20,(9,18))))),19),21);
(((((11,(10,(5,13))),(1,(6,15))),(17,(14,(7,8)))),((16,(((2,3),(4,12)),(9,(18,20)))),19)),21);
(((((6,(10,11)),((13,15),(1,5))),(14,(17,(7,8)))),((16,((20,(9,18)),((4,12),(2,3)))),19)),21);
(((((((6,(1,(5,10))),(13,15)),11),(14,(17,(7,8)))),((9,(18,20)),(16,((2,3),(4,12))))),19),21);
((((((((6,(10,11)),5),1),(13,15)),14),(17,(7,8))),(19,(16,(((2,3),(4,12)),(20,(9,18)))))),21);
((((((((10,(1,6)),(13,15)),(5,11)),7),(14,(17,8))),(((2,3),(4,12)),(16,(18,(9,20))))),19),21);
((((((15,(1,5)),13),(6,(10,11))),(14,(17,(7,8)))),((((2,12),(3,4)),(16,(20,(9,18)))),19)),21);
((((((15,((6,11),(1,10))),(5,13)),(14,(17,(7,8)))),19),(16,(((4,12),(2,3)),(9,(18,20))))),21);
(((((((((10,11),(6,15)),13),(1,5)),17),(14,(7,8))),19),((9,(18,20)),(16,((4,12),(2,3))))),21);
((((((((13,(1,11)),(5,15)),(6,10)),14),(17,(7,8))),19),((9,(18,20)),(16,((2,3),(4,12))))),21);
((((((((6,15),((13,(1,5)),10)),11),17),(14,(7,8))),(16,(((4,12),(2,3)),(18,(9,20))))),19),21);
((((((((6,10),1),(15,(5,11))),13),17),(14,(7,8))),((9,(20,18)),((16,((2,3),(4,12))),19))),21);
(((((((10,11),(13,15)),(6,(1,5))),((7,8),(14,17))),(16,(((2,3),(4,12)),(20,(9,18))))),19),21);
((((((11,(13,15)),((1,5),(6,10))),(14,(17,(7,8)))),((4,(3,(2,12))),(16,(9,(20,18))))),19),21);
((((((13,15),((6,10),(11,(5,1)))),(14,(17,(7,8)))),19),(16,(((2,3),(4,12)),(9,(20,18))))),21);
(((((((10,(6,13)),(5,15)),(1,11)),(14,(17,(7,8)))),(16,((18,(9,20)),((4,12),(2,3))))),19),21);
(((((((7,8),(17,14)),(11,(10,(15,(6,13))))),(1,5)),(((4,12),(2,3)),(16,(9,(18,20))))),19),21);
((((((4,(2,3)),(18,(9,20))),(12,16)),(((6,(10,11)),(1,(5,(13,15)))),(17,(14,(7,8))))),19),21);
(((((((5,(10,11)),1),(13,(6,15))),(14,(17,(7,8)))),(16,((12,(4,(2,3))),(18,(9,20))))),19),21);
(((((((((13,(6,(1,15))),(5,11)),10),(14,(7,8))),17),16),(((2,3),(4,12)),(9,(18,20)))),19),21);
((((((13,(6,(1,(10,11)))),(5,15)),14),(17,(7,8))),(19,((20,(9,18)),(16,(12,(4,(2,3))))))),21);
(((((((((11,13),(5,(10,(1,6)))),15),17),14),(7,8)),(16,((18,(9,20)),((4,12),(2,3))))),19),21);
((((((18,(9,20)),((4,12),(2,3))),16),(14,(((15,(11,(6,13))),(10,(1,5))),(17,(7,8))))),19),21);
(((((((1,(13,(6,15))),(5,(11,10))),(7,8)),(14,17)),(((4,12),(2,3)),(16,(9,(18,20))))),19),21);
((((((5,6),(15,(1,(13,(10,11))))),(17,(14,(7,8)))),19),(16,(((4,12),(2,3)),(9,(18,20))))),21);
((((((((15,5),6),13),(1,(10,11))),(14,(17,(7,8)))),((12,(4,(2,3))),(16,(9,(18,20))))),19),21);
(((((((6,(1,5)),(10,15)),(11,13)),14),(17,(7,8))),(19,(((2,3),(4,12)),(16,(9,(18,20)))))),21);
((((((((1,(13,15)),(6,11)),(5,10)),(14,(17,(7,8)))),(9,(18,20))),(16,((2,3),(4,12)))),19),21);
((((16,(9,((18,20),((2,3),(4,12))))),(((7,8),(1,(5,((15,(10,11)),(6,13))))),(14,17))),19),21);
((((((((11,(5,10)),1),6),15),13),(14,(17,(7,8)))),(19,(16,(((4,12),(2,3)),(18,(9,20)))))),21);
(((((((6,10),11),(1,5)),(13,15)),(14,(17,(7,8)))),((((4,12),(2,3)),(16,(20,(9,18)))),19)),21);
(((((((((13,(10,15)),5),11),(1,6)),14),((16,20),(((2,3),(4,12)),(9,18)))),(17,(7,8))),19),21);
((((((((13,15),(6,11)),10),(1,5)),(14,(17,(7,8)))),(16,(9,(((2,3),(4,12)),(18,20))))),19),21);
((((((((1,10),5),6),11),(13,15)),(14,(17,(7,8)))),((16,(((2,3),(4,12)),(9,(18,20)))),19)),21);
(((((((((6,10),11),(5,13)),1),15),(14,(17,(7,8)))),(16,(((4,12),(2,3)),(9,(18,20))))),19),21);
(((((((((6,10),(5,11)),((1,13),15)),14),(17,(7,8))),((4,12),(2,3))),(16,(9,(18,20)))),19),21);
((((((((15,(1,5)),11),13),14),((6,10),(17,(7,8)))),(((2,3),(4,12)),(16,(18,(9,20))))),19),21);
((((((14,(7,8)),((10,15),((11,(5,6)),(1,13)))),17),19),(16,(((4,12),(2,3)),(9,(18,20))))),21);
(((((((((13,15),(6,(1,5))),11),10),14),(17,(7,8))),(16,(((2,3),(4,12)),(18,(9,20))))),19),21);
(((((((((10,11),5),(13,15)),(1,6)),14),(17,(7,8))),((18,(9,20)),(16,((2,3),(4,12))))),19),21);
(((((18,((4,12),(2,3))),(16,(9,20))),(19,(6,(13,(10,11))))),((7,8),(17,(14,(5,(1,15)))))),21);
((((((((6,11),(10,(1,5))),15),13),(14,(17,(7,8)))),(16,(((2,3),(4,12)),(20,(9,18))))),19),21);
(((((((11,(10,(1,5))),6),(13,15)),(14,(17,(7,8)))),(16,((4,(12,(2,3))),(20,(9,18))))),19),21);
((((((((10,(13,15)),(5,(1,6))),11),14),(17,(7,8))),((18,(9,20)),(16,((2,3),(4,12))))),19),21);
((((((((1,(13,15)),(11,(5,(6,10)))),(8,(7,17))),14),(((2,3),(12,4)),(20,(9,18)))),16),19),21);
(((((((6,13),(1,(5,10))),(11,15)),(14,(17,(7,8)))),(16,((2,(3,(4,12))),(9,(18,20))))),19),21);
((((((((13,(5,(1,10))),15),6),11),(14,(17,(7,8)))),19),(16,(((4,12),(2,3)),(18,(9,20))))),21);
((((((((((15,10),5),(6,11)),1),13),(14,(17,(7,8)))),(((4,12),(2,3)),(18,(9,20)))),16),19),21);
(((((((2,3),(4,12)),(20,(9,18))),16),((17,(7,8)),(((6,11),(15,13)),(14,(1,(5,10)))))),19),21);
((((((((((6,10),5),(13,15)),11),1),(17,(7,8))),14),(((2,3),(4,12)),(16,(18,(9,20))))),19),21);
(((((((11,(5,6)),(13,15)),(1,10)),(14,(17,(7,8)))),(16,(((4,12),(2,3)),(20,(9,18))))),19),21);
(((((((((15,(1,5)),(10,11)),(6,13)),14),(7,8)),17),19),((3,(2,(4,12))),(16,(9,(18,20))))),21);
(((((((((10,(5,6)),1),13),11),15),(14,(17,(7,8)))),((18,(9,20)),(16,(4,(12,(2,3)))))),19),21);
((((((((6,10),(5,(1,11))),(13,15)),(14,(7,8))),17),19),(((2,3),(4,12)),((9,18),(16,20)))),21);
((((((((13,(10,(6,15))),(11,(1,5))),14),(17,(7,8))),(((2,3),(4,12)),(9,(18,20)))),16),19),21);
((((((((6,(1,5)),10),11),(13,15)),(17,(14,(7,8)))),((4,(2,3)),(((16,(18,20)),12),9))),19),21);
(((((((10,13),(1,6)),(15,(5,11))),(14,(17,(7,8)))),(((2,3),(4,12)),(16,(9,(18,20))))),19),21);
((((((((6,10),5),1),(13,(11,15))),(17,(7,8))),14),(19,(16,(((2,3),(4,12)),(20,(9,18)))))),21);
(((((((5,10),(6,11)),(1,(13,15))),(14,(17,(7,8)))),19),(16,((3,(2,(4,12))),(18,(20,9))))),21);
(((((((((5,6),(10,11)),(1,(13,15))),(17,(7,8))),14),16),(((2,3),(4,12)),(9,(18,20)))),19),21);
(((((((6,(13,(5,10))),(1,(11,15))),(17,(7,8))),14),19),(16,((9,(18,20)),((2,3),(4,12))))),21);
(((((((1,(5,(13,15))),(10,11)),6),(14,(17,(7,8)))),(16,(((2,3),(4,12)),(18,(9,20))))),19),21);
(((((((((6,10),(13,15)),(1,5)),11),17),(14,(7,8))),((9,(18,20)),(16,((2,3),(4,12))))),19),21);
((((((((5,10),(13,1)),(15,(6,11))),14),(17,(7,8))),(16,(((2,3),(4,12)),(20,(9,18))))),19),21);
((((((((((11,(5,10)),1),(13,(6,15))),14),(8,17)),7),(16,((4,12),(2,3)))),(18,(9,20))),19),21);
(((((((1,((10,11),(5,6))),(13,15)),(7,8)),(14,17)),(16,(((2,3),(4,12)),(18,(9,20))))),19),21);
(((((((1,5),(11,10)),(6,(13,15))),(17,(14,(7,8)))),(16,((4,(12,(2,3))),(9,(18,20))))),19),21);
((((((((1,6),(13,15)),5),(10,11)),(14,(7,(8,17)))),((20,((2,3),(4,12))),(16,(9,18)))),19),21);
(((((((6,10),(13,15)),(11,(1,5))),(14,(17,(7,8)))),19),((9,(18,20)),(16,((4,12),(2,3))))),21);
(((((((15,(6,(10,11))),1),13),5),(14,(17,(7,8)))),((16,(((2,3),(4,12)),(9,(18,20)))),19)),21);
(((((((((1,5),((10,11),6)),(13,15)),17),(7,8)),14),(16,((18,(9,20)),((4,12),(2,3))))),19),21);
(((((((10,15),(1,6)),(5,(11,13))),((7,8),(14,17))),(16,(((4,12),(2,3)),(20,(9,18))))),19),21);
((((((((((6,10),5),15),11),(1,13)),((7,8),(14,17))),(16,(18,(9,20)))),((2,3),(4,12))),19),21);
((((((17,(7,8)),(14,((13,(11,(1,10))),(6,(5,15))))),(((2,3),(4,12)),(9,(18,20)))),16),19),21);
(((((((((13,15),(5,10)),(1,11)),6),(14,(7,8))),17),(16,(((2,3),(4,12)),(20,(9,18))))),19),21);
(((((((13,(11,(10,15))),(6,(1,5))),14),(17,(7,8))),((9,(18,20)),(16,((4,12),(2,3))))),19),21);
((((((((5,(13,15)),(1,6)),(10,11)),14),(17,(7,8))),((18,(20,9)),(16,(12,(4,(2,3)))))),19),21);
((((((9,(18,20)),(4,(12,(2,3)))),16),19),((15,(13,(1,(5,6)))),(17,((10,11),(14,(7,8)))))),21);
((((((10,(11,(13,15))),6),(1,5)),(14,(17,(7,8)))),(19,(16,(((2,3),(4,12)),(9,(18,20)))))),21);
((((((((5,10),(6,(13,15))),(1,11)),((7,8),(14,17))),(20,(9,18))),(16,((2,3),(4,12)))),19),21);
(((((((5,(1,10)),15),(13,(6,11))),((7,8),(17,14))),(16,(((2,3),(4,12)),(9,(18,20))))),19),21);
((((((10,(1,5)),((13,15),(6,11))),(14,(17,(7,8)))),(16,(((2,3),(4,12)),(9,(18,20))))),19),21);
(((((14,(17,(7,8))),(1,(13,((11,(5,6)),(10,15))))),((20,(9,18)),(16,(4,(12,(2,3)))))),19),21);
(((((((((1,(10,5)),13),(15,(6,11))),(14,(7,8))),17),19),(9,(20,18))),(16,((4,12),(2,3)))),21);
(((((((((((1,6),10),15),11),5),13),17),(14,(7,8))),19),((3,(2,(4,12))),(16,(9,(18,20))))),21);
((((((1,((5,15),(6,13))),(10,11)),(14,(17,(7,8)))),((18,(9,20)),(16,(2,(3,(4,12)))))),19),21);
((((((((10,11),(13,15)),(5,6)),1),(14,(17,(7,8)))),19),(((2,3),(4,12)),(16,(9,(18,20))))),21);
(((((((10,(6,11)),((5,15),13)),1),(17,(7,8))),14),(19,((18,(9,20)),(((4,12),(2,3)),16)))),21);
((((((5,(13,1)),((10,11),(6,15))),(14,(17,(7,8)))),((20,(9,18)),(((2,3),(4,12)),16))),19),21);
(((((((15,(1,5)),(11,13)),(6,10)),(14,(17,(7,8)))),((18,20),(2,(3,(4,12))))),(19,(9,16))),21);
(((((((((6,10),((11,13),(5,15))),1),14),(17,(7,8))),(4,(12,(2,3)))),(16,(20,(9,18)))),19),21);
((((((((11,(5,10)),(13,15)),(1,6)),14),(17,(7,8))),19),((20,(9,18)),(16,(2,(3,(4,12)))))),21);
(((((16,((2,3),(4,12))),(9,(18,20))),(((5,10),((1,6),(11,(13,15)))),(14,(17,(7,8))))),19),21);
(((((((13,(1,15)),(10,(5,11))),6),(14,(17,(7,8)))),19),((20,(9,18)),(16,((2,3),(4,12))))),21);
((((((((1,10),(13,15)),(6,(5,11))),(14,(17,(7,8)))),19),(16,(9,(18,20)))),((2,3),(4,12))),21);
((((((((13,(5,15)),1),(6,(10,11))),14),(17,(7,8))),(16,((4,(12,(2,3))),(20,(9,18))))),19),21);
((((((1,13),((10,15),(5,(6,11)))),(14,(17,(7,8)))),((4,(12,(2,3))),(16,(9,(18,20))))),19),21);
(((((10,(6,11)),((1,5),(13,15))),(14,(17,(7,8)))),(((16,((3,12),(2,4))),(20,(9,18))),19)),21);
(((((((6,10),(11,15)),(13,(1,5))),(14,(17,(7,8)))),(16,(((2,3),(4,12)),(20,(9,18))))),19),21);
((((((((((1,5),6),13),(10,15)),11),14),(17,(7,8))),(16,(((2,3),(4,12)),(9,(18,20))))),19),21);
((((((((((1,15),(11,13)),6),10),5),(14,(17,(7,8)))),16),((4,(12,(2,3))),(18,(9,20)))),19),21);
(((((((((5,10),6),1),11),(13,15)),(14,(17,(7,8)))),(16,(((4,12),(2,3)),(20,(9,18))))),19),21);
((((((15,(1,5)),(10,13)),(6,11)),(17,(14,(7,8)))),(((9,(18,20)),(16,((2,3),(4,12)))),19)),21);
((((((1,10),(13,(11,15))),(5,6)),(14,(17,(7,8)))),(((18,(9,20)),(16,((2,3),(4,12)))),19)),21);
((((((17,(8,7)),14),((5,(15,6)),((1,10),(11,13)))),((18,(9,20)),(16,((4,12),(2,3))))),19),21);
((((((((10,(1,5)),(13,15)),(6,11)),(17,(7,8))),14),((9,(18,20)),(16,(12,(4,(2,3)))))),19),21);
((((((((13,(1,10)),5),(11,15)),6),(14,(17,(7,8)))),(16,((3,(2,(4,12))),(20,(9,18))))),19),21);
(((((((18,20),16),9),((3,12),(2,4))),19),(17,(((11,15),(5,(1,(10,(13,6))))),(14,(7,8))))),21);
((((((14,(17,8)),7),(6,((10,11),((1,5),(13,15))))),((2,(3,(4,12))),(16,(9,(18,20))))),19),21);
(((((((((5,15),(6,13)),11),1),10),(17,(7,8))),14),((16,(((4,12),(2,3)),(20,(9,18)))),19)),21);
((((((((1,15),11),(13,(6,(5,10)))),(17,(7,8))),14),19),(16,(((4,12),(2,3)),(18,(9,20))))),21);
(((((((((((1,5),11),10),13),15),6),14),(17,(7,8))),(16,(((2,3),(4,12)),(9,(18,20))))),19),21);
((((((((15,(5,11)),(6,(10,13))),1),(17,(7,8))),14),(16,(((2,3),(4,12)),(18,(20,9))))),19),21);
((((((((((13,15),11),6),(5,10)),1),(7,8)),(14,17)),(16,((4,((2,12),3)),(20,(9,18))))),19),21);
((((((6,(13,11)),(5,(10,(1,15)))),(14,(17,(7,8)))),((18,(9,20)),(16,(3,(2,(4,12)))))),19),21);
(((((((((1,5),6),13),(10,11)),(14,(17,(7,8)))),15),19),(16,(((4,12),(2,3)),(9,(18,20))))),21);
(((((9,(18,20)),(16,((2,3),(4,12)))),(((13,(11,(5,10))),(1,(6,15))),(14,(17,(7,8))))),19),21);
(((((5,((10,(1,11)),(6,(13,15)))),((7,8),(14,17))),(((4,12),(20,(9,18))),(16,(2,3)))),19),21);
((((((((1,6),(11,(13,15))),(5,10)),(17,(7,8))),14),(((4,12),(2,3)),(16,(18,(9,20))))),19),21);
(((((((5,10),((1,11),(6,(13,15)))),(17,(7,8))),14),19),(((2,3),(4,12)),((9,(18,20)),16))),21);
(((((((((1,(6,5)),10),(13,15)),11),((7,8),(14,17))),(9,(18,20))),(16,((2,3),(4,12)))),19),21);
(((((((((13,(15,(5,(6,11)))),10),1),14),(8,17)),7),(16,(((2,3),(4,12)),(20,(9,18))))),19),21);
((((((((((10,5),6),1),11),(13,15)),(17,(7,8))),14),(((2,3),(4,12)),(16,(9,(18,20))))),19),21);
(((((16,(9,(18,20))),((2,3),(4,12))),((14,(17,(7,8))),((13,(1,11)),(15,(5,(6,10)))))),19),21);
(((((((6,(5,1)),(10,11)),(13,15)),(17,(14,(7,8)))),19),(16,(((2,3),(4,12)),(18,(20,9))))),21);
(((((((6,(13,(5,11))),(10,15)),((8,17),(1,(7,14)))),16),(((2,3),(4,12)),(20,(9,18)))),19),21);
(((((((15,(6,(1,11))),(13,(5,10))),(17,(7,8))),14),(16,((2,(3,(4,12))),(9,(18,20))))),19),21);
((((((13,(1,(10,11))),(15,(5,6))),14),(17,(7,8))),(19,(16,((20,(9,18)),(4,(12,(2,3))))))),21);
(((((((((10,11),6),1),(13,15)),5),(14,(17,(7,8)))),(16,(((2,3),(4,12)),(18,(9,20))))),19),21);
(((((17,(14,(7,8))),((10,11),((13,15),(5,(1,6))))),((9,(18,20)),(16,((2,3),(4,12))))),19),21);
(((((((10,(5,11)),13),(1,(6,15))),(17,(14,(7,8)))),((9,(18,20)),(16,((4,12),(2,3))))),19),21);
((((((15,(6,(10,11))),(13,(1,5))),17),(14,(7,8))),((16,(((2,3),(4,12)),(18,(9,20)))),19)),21);
(((((((1,(5,10)),(6,11)),(13,15)),((8,17),(7,14))),(((2,3),(4,12)),(16,(9,(20,18))))),19),21);
(((((((((10,(6,15)),(1,13)),(5,11)),(14,17)),(7,8)),((2,3),(4,12))),(16,(20,(9,18)))),19),21);
((((((11,(1,(5,10))),6),(13,15)),14),(((8,(17,7)),(16,(((4,12),(2,3)),(18,(9,20))))),19)),21);
(((((((6,(1,5)),11),(10,(13,15))),((7,8),(14,17))),(16,(((4,12),(2,3)),(9,(18,20))))),19),21);
(((((((((15,6),1),(13,(5,11))),10),17),(7,8)),14),((16,(((2,3),(4,12)),(9,(18,20)))),19)),21);
((((((((10,(6,(1,11))),13),(5,15)),(17,(7,8))),14),(((2,3),(4,12)),(16,(18,(9,20))))),19),21);
((((((((1,11),6),((13,15),(5,10))),(14,17)),(7,8)),(16,(((2,3),(4,12)),(18,(9,20))))),19),21);
((((((20,(9,18)),16),((4,12),(2,3))),((17,(7,8)),(14,((6,(13,(10,11))),(1,(5,15)))))),19),21);
((((((((10,6),1),(13,15)),(5,11)),((7,8),14)),17),(19,((3,(2,(4,12))),(16,(9,(20,18)))))),21);
(((((((5,(10,1)),11),(6,(13,15))),((7,8),(14,17))),((18,(9,20)),(16,((2,3),(4,12))))),19),21);
(((((((6,(1,5)),10),(11,(13,15))),(17,(7,8))),14),(19,(((4,12),(2,3)),(16,(20,(9,18)))))),21);
((((((((13,11),10),(1,6)),(5,15)),(17,(14,(7,8)))),19),(((4,12),(2,3)),(16,(20,(18,9))))),21);
(((((((((1,(11,5)),10),(13,15)),6),(14,(17,(7,8)))),16),(((2,3),(4,12)),(20,(9,18)))),19),21);
(((((((11,13),((1,5),(15,(6,10)))),(14,(17,(7,8)))),(16,(4,(2,3)))),(12,(18,(9,20)))),19),21);
(((((((4,12),(18,(9,20))),(2,3)),16),(14,((7,8),(17,((10,(1,(5,11))),(6,(13,15))))))),19),21);
(((((((((6,(11,(1,10))),5),(13,15)),(7,8)),14),17),(18,((3,((4,12),2)),(16,(9,20))))),19),21);
((((((((10,(5,6)),1),(13,15)),11),((7,8),(14,17))),(16,((18,(9,20)),((2,3),(4,12))))),19),21);
((((((((11,(6,(1,5))),(13,15)),10),14),(17,(7,8))),(16,(((2,3),(4,12)),(9,(18,20))))),19),21);
((((((6,11),(13,(15,(5,(1,10))))),((14,(7,8)),17)),(16,((9,18),(20,(4,(12,(2,3))))))),19),21);
((((((((((5,10),(15,11)),6),1),13),(7,8)),(14,17)),19),(16,(((4,12),(2,3)),(18,(9,20))))),21);
(((((((((1,11),10),(5,(13,15))),6),(17,(7,8))),14),19),(9,(16,((18,20),(2,(3,(4,12))))))),21);
(((((((((10,11),(6,13)),(15,(1,5))),17),(7,8)),14),(16,(((2,3),(4,12)),(9,(18,20))))),19),21);
((((((14,(7,8)),17),((5,(1,11)),((13,15),(6,10)))),(16,(((4,12),(2,3)),(9,(18,20))))),19),21);
(((((((((6,10),(1,11)),(13,15)),5),17),(14,(7,8))),(16,(((4,12),(2,3)),(9,(18,20))))),19),21);
(((((14,(((10,15),((13,(1,5)),(6,11))),(17,(7,8)))),(12,(4,(2,3)))),19),(9,(16,(18,20)))),21);
((((((13,15),1),((10,11),(5,6))),(14,(17,(7,8)))),(19,((9,(18,20)),(16,((4,12),(2,3)))))),21);
(((((((15,(10,11)),(13,(6,(1,5)))),(17,(7,8))),14),(((2,3),(4,12)),(16,(18,(9,20))))),19),21);
((((((((6,5),15),(1,(10,11))),13),(14,(17,(7,8)))),(16,(((2,3),(4,12)),(9,(18,20))))),19),21);
((((((((((1,11),15),10),13),(5,6)),(14,(17,(7,8)))),((9,20),(16,((4,12),(2,3))))),19),18),21);
((((((1,(15,(6,10))),(13,(5,11))),(14,(7,8))),17),((16,(((2,3),(4,12)),(9,(18,20)))),19)),21);
((((((14,(17,(7,8))),(1,(5,10))),(11,(6,(13,15)))),(16,(((4,12),(2,3)),(18,(9,20))))),19),21);
(((((((11,(1,6)),13),(5,(10,15))),(17,(14,(7,8)))),19),(((2,3),(4,12)),(16,(18,(20,9))))),21);
(((((((6,(11,(5,(1,10)))),(13,15)),17),(14,(7,8))),((4,12),((18,(9,20)),(16,(2,3))))),19),21);
((((16,(((4,12),(2,3)),(20,(9,18)))),((14,(17,(7,8))),((6,13),(1,((5,10),(11,15)))))),19),21);
(((((((15,(6,11)),((1,5),(10,13))),(17,(7,8))),14),(((4,12),(2,3)),(16,(18,(9,20))))),19),21);
((((((((15,(13,5)),((6,11),(1,10))),(14,(7,8))),17),16),19),(((2,3),(4,12)),(18,(9,20)))),21);
(((((((1,6),(5,13)),(15,(10,11))),(17,(14,(7,8)))),19),(16,((3,(2,(4,12))),(18,(9,20))))),21);
((((((((5,10),(6,11)),(1,(13,15))),(14,(7,(8,17)))),(((4,12),(2,3)),(9,(18,20)))),16),19),21);
((((((((6,11),(1,(13,15))),(5,10)),14),(17,(7,8))),(16,(((2,3),(4,12)),(18,(9,20))))),19),21);
((((((1,11),(6,15)),(13,(5,10))),(17,(14,(7,8)))),((16,(((2,3),(4,12)),(18,(9,20)))),19)),21);
(((((16,(18,(9,20))),(14,((15,(1,(6,(13,(11,(5,10)))))),(17,(7,8))))),((3,4),(2,12))),19),21);
(((((((((5,(10,11)),(13,15)),1),6),17),(14,(7,8))),(((2,3),(4,12)),((9,18),(20,16)))),19),21);
(((((((10,(13,15)),(11,(1,6))),(17,(14,(7,8)))),5),19),((20,(9,18)),(16,((2,3),(4,12))))),21);
(((((((6,11),(1,(13,(5,10)))),(15,(7,8))),(14,17)),19),(16,((4,(12,(2,3))),(18,(9,20))))),21);
(((((((1,5),(6,(13,15))),10),11),(14,(17,(7,8)))),(19,((((4,12),(2,3)),(9,(18,20))),16))),21);
(((((((((1,(6,10)),15),(11,13)),5),(14,(17,(7,8)))),(16,(18,(9,20)))),19),((4,12),(2,3))),21);
((((((((13,(10,11)),5),(1,6)),15),((7,8),(17,14))),(9,(16,(((4,12),(3,2)),(18,20))))),19),21);
(((((((((15,(10,11)),5),13),(1,6)),(17,(7,8))),14),19),(16,(((4,12),(2,3)),(9,(18,20))))),21);
(((((((6,(10,11)),(5,(13,15))),1),(14,(17,(7,8)))),(16,(((4,12),(2,3)),(20,(9,18))))),19),21);
((((((((13,((5,10),(6,11))),1),15),(17,(7,8))),14),(16,(((4,12),(2,3)),(20,(9,18))))),19),21);
((((((((15,(13,11)),(1,6)),10),5),(17,(14,(7,8)))),((20,(9,18)),(16,((4,12),(2,3))))),19),21);
(((((((6,(1,(5,10))),13),15),11),(14,(17,(7,8)))),(19,(((4,12),(2,3)),(16,(9,(18,20)))))),21);
((((((((1,5),6),(10,15)),13),11),(14,(17,(7,8)))),(19,(16,(((4,12),(2,3)),(20,(9,18)))))),21);
((((((((10,11),6),(15,(1,5))),13),(14,(17,(7,8)))),19),(16,(((4,12),(2,3)),(18,(9,20))))),21);
((((((((((11,(1,10)),15),5),13),6),(14,(17,(7,8)))),(16,(9,(18,20)))),((2,3),(4,12))),19),21);
(((((((((1,5),6),13),(10,(11,15))),17),(14,(7,8))),(16,(((2,3),(4,12)),(20,(9,18))))),19),21);
((((((14,(10,(5,11))),((1,6),(13,15))),(17,(7,8))),(((4,12),(2,3)),(16,(18,(9,20))))),19),21);
(((((14,(8,(7,17))),((15,(1,(10,13))),(6,(5,11)))),(16,((3,(2,(4,12))),(9,(18,20))))),19),21);
((((((((10,11),(1,5)),(13,15)),6),(14,(17,(7,8)))),19),(16,(((4,12),(2,3)),(9,(18,20))))),21);
(((((7,8),(14,17)),((5,11),((1,6),(10,(13,15))))),(19,((16,(18,20)),(9,((2,3),(4,12)))))),21);
(((((((((15,(5,10)),(6,11)),13),1),17),(14,(7,8))),19),(16,(((4,12),(2,3)),(9,(18,20))))),21);
(((((((1,5),(10,11)),(13,(6,15))),(14,(17,(7,8)))),(16,((2,(3,(4,12))),(9,(18,20))))),19),21);
((((((6,(5,10)),((11,13),(1,15))),14),(17,(7,8))),(19,(16,(((4,12),(2,3)),(20,(9,18)))))),21);
(((((((((11,15),(5,10)),(6,13)),1),(17,(7,8))),14),(((2,3),(4,12)),(16,(9,(18,20))))),19),21);
((((((((15,(1,(6,13))),(5,(10,11))),(17,(7,8))),14),(((4,12),(2,3)),(18,20))),(9,16)),19),21);
(((((((((10,11),(13,15)),(1,6)),5),(14,(7,17))),8),((9,(18,20)),(16,((4,12),(2,3))))),19),21);
(((((((13,15),((11,(5,10)),(1,6))),(17,(7,8))),14),((9,(20,18)),(16,((2,3),(4,12))))),19),21);
((((((((6,((13,15),(5,10))),(1,11)),14),(17,(7,8))),(((4,12),(2,3)),(18,(9,20)))),16),19),21);
(((((((11,13),(6,((1,5),(10,15)))),(14,17)),(7,8)),(16,(((2,3),(4,12)),(9,(18,20))))),19),21);
((((((((((6,(10,11)),5),13),1),15),14),(17,(7,8))),(((2,3),(4,12)),(18,(9,20)))),(16,19)),21);
(((((((1,5),(11,(13,15))),(6,10)),(14,(17,(7,8)))),19),((20,(3,(2,(4,12)))),(16,(9,18)))),21);
(((((((((11,(15,10)),13),(1,5)),6),14),(17,(7,8))),(16,((4,(12,(2,3))),(20,(9,18))))),19),21);
((((((((13,5),1),15),(6,(10,11))),(14,(17,(7,8)))),19),((16,(18,20)),(9,((2,3),(4,12))))),21);
(((((((((5,6),(13,15)),1),(10,11)),(17,(7,8))),14),(16,(((2,3),(4,12)),(18,(9,20))))),19),21);
((((((((6,(5,10)),13),(1,11)),15),14),(17,(7,8))),(19,(((2,3),(4,12)),(16,(18,(9,20)))))),21);
((((((((13,15),(10,11)),(6,(1,5))),(14,(17,(7,8)))),(9,16)),(((4,12),(2,3)),(18,20))),19),21);
(((((((13,(15,(1,11))),(10,(5,6))),(17,(7,8))),14),((12,(9,(18,20))),(16,(4,(2,3))))),19),21);
((((((((10,(13,15)),(1,5)),11),(6,(7,(8,17)))),14),((9,(18,20)),(16,((2,3),(4,12))))),19),21);
(((((9,(18,20)),(16,(4,(12,(2,3))))),(((6,(13,15)),((5,10),(1,11))),(14,(17,(7,8))))),19),21);
(((((((6,(5,11)),(1,(10,15))),13),(14,(17,(7,8)))),(16,(((2,3),(4,12)),(18,(9,20))))),19),21);
(((((((18,20),9),(4,(12,(2,3)))),16),(((6,(11,(1,5))),(10,(13,15))),(14,((7,8),17)))),19),21);
((((((((13,(6,15)),(1,5)),(10,11)),(7,8)),(14,17)),((20,(9,18)),((2,3),(16,(4,12))))),19),21);
(((((((13,15),1),(5,(6,(10,11)))),(14,(17,(7,8)))),(16,(((4,12),(2,3)),(18,(9,20))))),19),21);
(((((((11,(10,(1,5))),(13,15)),6),(14,(17,(7,8)))),(16,(((4,12),(2,3)),(18,(9,20))))),19),21);
(((((((6,11),(5,10)),15),(1,13)),(14,(17,(7,8)))),((16,((2,3),((18,(9,20)),(4,12)))),19)),21);
((((((11,((5,10),(1,13))),(6,15)),(17,(14,(7,8)))),19),(16,((18,(9,20)),((4,12),(2,3))))),21);
((((((((6,(11,13)),10),(5,(1,15))),(17,(14,(7,8)))),(16,(9,(18,20)))),((4,12),(2,3))),19),21);
((((((((((13,15),(10,11)),6),1),5),14),(17,(7,8))),(((4,12),(2,3)),(16,(20,(9,18))))),19),21);
((((((13,((5,6),(1,(15,(10,11))))),(14,17)),(7,8)),(16,(((2,3),(4,12)),(20,(18,9))))),19),21);
(((((6,((1,11),((5,10),(13,15)))),14),(17,(7,8))),(19,(16,((18,(9,20)),((2,3),(4,12)))))),21);
((((((((1,(6,15)),(5,(10,11))),13),14),(17,(7,8))),((18,(9,20)),(16,((2,3),(4,12))))),19),21);
(((((((((15,(1,5)),(10,11)),13),6),(14,(7,8))),17),(19,16)),(9,(((2,3),(4,12)),(18,20)))),21);
((((((17,(7,8)),((15,(1,6)),((5,10),(11,13)))),14),(16,(((4,12),(2,3)),(18,(9,20))))),19),21);
((((((((6,13),1),15),(5,(10,11))),(14,(17,(7,8)))),((18,(9,20)),(16,((2,3),(4,12))))),19),21);
((((((((((13,15),(5,6)),1),(10,11)),17),14),(7,8)),(16,((18,20),(9,((4,12),(2,3)))))),19),21);
((((((((13,15),(6,10)),11),(1,5)),(17,(7,8))),14),((16,(((2,3),(4,12)),(9,(18,20)))),19)),21);
((((((17,(7,8)),14),((5,6),(10,((13,15),(1,11))))),((3,(2,(4,12))),(16,(9,(18,20))))),19),21);
((((((((5,6),10),13),(1,(11,15))),14),(17,(7,8))),(19,(16,(((2,3),(4,12)),(18,(9,20)))))),21);
(((((((((((5,(6,10)),13),1),11),15),(17,(7,8))),14),16),(((4,12),(2,3)),(20,(9,18)))),19),21);
((((19,(((11,(1,13)),(15,(5,(6,10)))),(14,(17,(7,8))))),16),(((2,3),(4,12)),(20,(9,18)))),21);
((((((((15,(13,10)),(5,6)),11),1),(14,(17,(7,8)))),(16,(((2,3),(4,12)),(9,(18,20))))),19),21);
(((((((((6,13),(1,(5,(10,11)))),15),(7,8)),(14,17)),(9,(18,20))),19),(16,(3,(2,(4,12))))),21);
((((((((13,15),(6,5)),(11,(1,10))),14),(17,(7,8))),(((4,12),(3,2)),(16,(9,(18,20))))),19),21);
(((((17,(7,8)),(((5,(11,13)),(15,(10,(1,6)))),14)),(16,((18,20),(9,(3,(2,(4,12))))))),19),21);
(((((((5,10),(6,11)),(1,(13,15))),(14,(17,(7,8)))),(16,(12,(4,(2,3))))),(19,(9,(18,20)))),21);
(((((((((11,15),(10,(1,6))),5),13),(14,(8,(7,17)))),(((2,3),(4,12)),(9,(18,20)))),16),19),21);
(((((((((1,10),((5,6),(11,(13,15)))),(7,8)),17),14),16),((3,(2,(4,12))),(9,(18,20)))),19),21);
(((((((((15,(13,(5,10))),6),1),11),(7,14)),(((2,3),(4,12)),(16,(20,(9,18))))),(8,17)),19),21);
((((((((((1,5),15),13),(10,11)),6),14),(8,(7,17))),((9,(18,20)),(16,(2,(3,(4,12)))))),19),21);
((((((((11,(1,(5,10))),15),(6,13)),(7,8)),(14,17)),((18,(9,20)),(16,(3,(2,(4,12)))))),19),21);
((((((((13,(10,11)),15),(5,6)),1),(14,(17,(7,8)))),(16,((3,(2,(4,12))),(9,(18,20))))),19),21);
(((((((10,(13,(1,5))),(15,(6,11))),14),(17,(7,8))),((9,((2,3),(4,12))),(16,(18,20)))),19),21);
(((((((13,15),(5,11)),(1,(6,10))),((7,8),(14,17))),((9,(18,20)),(16,((2,3),(4,12))))),19),21);
((((((((10,(13,15)),(1,11)),(5,6)),(14,(17,(7,8)))),(((2,3),(4,12)),(18,(9,20)))),16),19),21);
((((((5,((10,11),(6,(13,15)))),1),((7,17),(8,14))),((9,(20,18)),(16,((2,3),(4,12))))),19),21);
(((((((10,(1,(6,(13,15)))),(5,11)),(17,(7,8))),14),(16,(((4,12),(2,3)),(20,(9,18))))),19),21);
(((((16,((2,3),(4,12))),(9,(18,20))),((((11,13),(1,5)),(10,(6,15))),((7,8),(14,17)))),19),21);
(((((((6,13),(15,(1,11))),(5,10)),(14,(17,(7,8)))),19),(16,(20,(((2,3),(4,12)),(9,18))))),21);
((((((((6,(1,13)),10),(5,15)),11),(14,(17,(7,8)))),((4,(12,(2,3))),(16,(9,(18,20))))),19),21);
((((((((6,11),(10,15)),(5,(1,13))),14),(8,(17,7))),(16,((2,(12,(4,3))),(18,(9,20))))),19),21);
