(((((((((7,(6,(1,2))),(4,20)),11),((12,(5,(10,17))),(13,15))),(3,14)),18),16),(19,(8,9))),21);
((((((((11,(4,(6,(1,2)))),((13,15),((5,10),(12,17)))),(7,20)),(3,14)),18),(9,16)),(8,19)),21);
((((((((((10,17),(5,12)),(13,15)),((1,2),((4,20),(6,7)))),(3,14)),11),18),(8,19)),(9,16)),21);
(((((((((2,6),(11,((4,20),(1,7)))),(15,(12,(5,(10,17))))),13),(3,14)),18),(8,19)),(9,16)),21);
((((((((6,7),((1,2),(4,20))),(13,15)),((3,14),(11,(12,(10,(5,17)))))),18),(19,(8,9))),16),21);
(((((((4,(11,(7,(6,(1,2))))),20),((3,14),((13,15),(10,(12,(5,17)))))),18),(9,16)),(8,19)),21);
((((((11,(4,20)),(3,14)),(((1,2),(6,7)),((13,15),(12,(5,(10,17)))))),18),((9,16),(8,19))),21);
(((((((7,(2,1)),((5,(10,(12,17))),(6,(4,20)))),((13,15),(11,(3,14)))),18),16),(19,(8,9))),21);
((((((((((1,2),(4,20)),(6,7)),11),((10,(5,(12,17))),(13,15))),(3,14)),18),(19,(8,9))),16),21);
(((((((3,14),(7,(6,(1,2)))),(11,(4,20))),((5,10),((12,17),(13,15)))),18),((9,16),(8,19))),21);
(((((((3,14),((13,15),(12,(5,(10,17))))),(11,(7,(1,2)))),(6,(4,20))),18),((9,16),(8,19))),21);
((((((11,((13,15),(7,((4,20),(6,(1,2)))))),(12,(5,(10,17)))),((3,14),18)),(8,19)),(9,16)),21);
((((((((7,(1,2)),6),(4,20)),(13,(3,14))),(11,(15,(5,(12,(10,17)))))),18),((9,16),(8,19))),21);
((((((((((6,(4,20)),((1,2),7)),11),(13,15)),(3,14)),(5,(12,(10,17)))),18),(8,19)),(9,16)),21);
((((((((5,10),(3,14)),(11,(17,(12,(13,15))))),((6,7),((1,2),(4,20)))),(8,19)),18),(9,16)),21);
(((((((11,(4,20)),(7,(6,(1,2)))),((3,14),((13,15),(12,(10,(5,17)))))),18),(8,19)),(9,16)),21);
(((((((((20,(7,4)),(6,(1,2))),11),(12,(10,(5,17)))),(3,14)),(13,15)),18),(16,(19,(8,9)))),21);
((((((((((1,2),(7,6)),(4,20)),11),(3,14)),((5,(12,(10,17))),(13,15))),18),(19,(8,9))),16),21);
(((((((((7,(6,(1,2))),(4,20)),(3,14)),(13,(15,(12,(5,(10,17)))))),11),18),(19,(8,9))),16),21);
((((((((13,15),((5,10),(12,17))),(11,((4,20),(6,(1,2))))),(7,(3,14))),18),(8,19)),(9,16)),21);
((((((((4,20),(11,(6,7))),(1,2)),(3,14)),((13,15),((5,17),(10,12)))),18),((8,19),(9,16))),21);
(((((((((((1,2),6),(7,(4,20))),(13,15)),(3,14)),11),((10,5),(17,12))),18),(8,19)),(9,16)),21);
(((((((13,((12,(5,10)),(15,17))),6),((11,((1,2),(7,(4,20)))),(3,14))),18),16),(19,(8,9))),21);
((((((((12,13),(((4,20),(6,(7,(1,2)))),(15,(5,(10,17))))),(3,14)),11),18),(8,19)),(9,16)),21);
((((((7,(1,2)),(11,(6,(4,20)))),((3,14),((13,15),(10,(12,(5,17)))))),18),((9,16),(8,19))),21);
(((((((((1,2),(4,20)),(6,7)),11),((10,12),((5,17),(13,15)))),(3,14)),18),(16,(19,(8,9)))),21);
(((((((((4,20),(7,(6,(1,2)))),11),(13,15)),((12,(10,(5,17))),(3,14))),18),(8,19)),(9,16)),21);
(((((((7,(2,6)),((4,20),1)),((11,(3,14)),((10,17),(13,(15,(5,12)))))),18),(8,19)),(9,16)),21);
(((((((((6,(7,(4,20))),(1,2)),11),(3,14)),((5,(10,17)),(12,(13,15)))),18),(8,19)),(9,16)),21);
((((((((((6,7),(1,2)),(4,20)),11),14),(3,((12,(5,(10,17))),(13,15)))),18),(8,19)),(9,16)),21);
(((((((((4,20),(6,(7,(1,2)))),11),15),((3,14),(13,(5,(12,(10,17)))))),18),(8,19)),(9,16)),21);
((((((((((6,20),4),(7,(1,2))),11),((13,15),(12,(17,(5,10))))),(3,14)),18),(8,19)),(9,16)),21);
((((((1,2),((6,7),(4,20))),(((13,15),(12,(5,(10,17)))),(11,(3,14)))),18),((19,(8,9)),16)),21);
((((((((1,2),(4,20)),(11,(6,7))),18),(8,19)),((3,14),(13,(15,((10,17),(5,12)))))),(9,16)),21);
(((((((7,((4,20),(2,(1,6)))),11),((3,14),((12,(10,(5,17))),(13,15)))),18),(9,16)),(8,19)),21);
(((((((11,(4,20)),((7,(6,(1,2))),((13,15),(12,(17,(10,5)))))),(3,14)),18),(9,16)),(8,19)),21);
(((((((((1,2),(6,7)),(4,20)),(11,((5,(17,(10,12))),(13,15)))),(3,14)),18),(9,16)),(8,19)),21);
((((((((4,20),((1,2),(6,7))),11),((3,14),(15,(13,(12,(5,(10,17))))))),18),(9,16)),(8,19)),21);
(((((((11,(3,14)),((17,(12,(5,10))),(13,15))),((4,20),(6,(7,(1,2))))),18),(8,19)),(9,16)),21);
(((((((6,(4,20)),(7,(1,2))),11),((3,14),(5,((13,15),(17,(10,12)))))),18),((9,16),(8,19))),21);
((((((((1,(4,20)),(2,(6,7))),((5,(12,(10,17))),(13,15))),(11,(3,14))),18),(19,(8,9))),16),21);
((((((11,((13,15),((3,14),(1,((4,20),(6,(2,7))))))),(12,(5,(10,17)))),18),(8,19)),(9,16)),21);
(((((((((1,2),(4,(20,(6,7)))),11),(3,14)),((5,12),((10,17),(13,15)))),18),(9,16)),(8,19)),21);
((((((((12,(5,(10,17))),(13,15)),((3,14),(7,(2,6)))),(11,(1,(4,20)))),18),(8,19)),(9,16)),21);
((((((((10,(17,(5,12))),(1,(6,7))),((13,15),(11,(2,(4,20))))),(3,14)),18),(8,19)),(9,16)),21);
(((((((11,((7,(1,2)),(4,20))),((13,15),((5,17),(10,12)))),(6,(3,14))),18),(8,19)),(9,16)),21);
(((((((((5,17),(10,12)),(13,15)),((4,20),((7,(1,2)),(11,6)))),(3,14)),18),(9,16)),(8,19)),21);
((((((13,15),(3,(14,(10,(12,(5,17)))))),(6,(11,((4,20),(7,(1,2)))))),18),((9,16),(8,19))),21);
((((((((12,(13,15)),(11,((7,(1,2)),(6,(4,20))))),(3,14)),(17,(5,10))),18),(8,19)),(9,16)),21);
(((((((17,(12,(5,10))),(13,15)),((6,7),(11,((1,2),(4,20))))),(3,14)),18),((8,19),(9,16))),21);
((((((11,((4,20),(7,(6,(1,2))))),((3,14),((10,17),(5,12)))),(13,15)),18),((9,16),(8,19))),21);
((((((((1,2),((5,10),(13,15))),((12,17),(11,(4,((20,7),6))))),(3,14)),18),(9,16)),(8,19)),21);
((((((((((7,(1,2)),(4,20)),6),11),(3,14)),((12,(5,(10,17))),(13,15))),18),(8,19)),(9,16)),21);
((((((((((1,2),(6,20)),(4,7)),11),((13,15),(5,(17,(10,12))))),(3,14)),18),(8,19)),(9,16)),21);
(((((((((6,(7,(1,2))),(4,20)),11),13),((3,14),(15,(12,(5,(10,17)))))),18),(8,19)),(9,16)),21);
(((((((((((4,20),(2,(6,7))),11),(13,15)),(3,14)),(12,(10,(5,17)))),1),18),(8,19)),(9,16)),21);
((((((3,((13,15),(12,(5,(10,17))))),(14,11)),(((1,2),(4,20)),(6,7))),18),((9,16),(8,19))),21);
(((((((((6,(1,2)),(7,(4,20))),(15,(12,(5,(10,17))))),13),(11,(3,14))),18),(8,19)),(9,16)),21);
(((((((4,20),((1,2),(6,7))),((11,(13,((12,(10,(5,17))),15))),(3,14))),18),(19,(8,9))),16),21);
((((((((4,20),((1,2),(6,7))),11),(((5,10),(12,17)),(13,15))),(3,14)),18),((9,16),(8,19))),21);
(((((((13,15),(((5,17),(10,12)),(7,11))),((3,14),((6,(1,2)),(4,20)))),18),(9,16)),(8,19)),21);
((((((11,((13,15),((3,14),((10,17),(5,12))))),18),((4,20),(1,(2,(6,7))))),(8,19)),(9,16)),21);
(((((((((6,(1,2)),(7,20)),11),4),((10,(12,(5,17))),(13,15))),(3,14)),18),((9,16),(8,19))),21);
((((((11,(((3,14),((4,20),(6,(7,(1,2))))),(12,(17,(5,10))))),(13,15)),18),(8,19)),(9,16)),21);
((((((((1,(4,20)),7),(2,6)),11),((3,14),(13,(15,((10,17),(5,12)))))),18),((9,16),(8,19))),21);
(((((((((5,10),((13,15),(12,17))),(11,(7,(4,20)))),(3,14)),(6,(1,2))),18),(8,19)),(9,16)),21);
(((((((((6,(1,2)),(20,4)),(7,11)),(3,14)),((13,15),((10,17),(5,12)))),18),(19,(8,9))),16),21);
(((((((((4,20),(7,(2,6))),1),((13,15),(12,(5,(10,17))))),(11,(3,14))),18),(9,16)),(8,19)),21);
((((((((20,(7,(4,(1,2)))),6),(11,(3,14))),((13,15),(12,(17,(10,5))))),18),(9,16)),(8,19)),21);
((((((((4,20),((1,2),(6,7))),(12,(5,(10,17)))),(3,14)),(11,(13,15))),18),((8,19),(9,16))),21);
((((((((3,14),((12,17),((5,10),(13,15)))),((7,(4,6)),(20,(1,2)))),11),18),(9,16)),(8,19)),21);
((((((3,14),(((4,20),(7,(1,2))),(((13,15),(12,(10,(5,17)))),(6,11)))),18),(9,16)),(8,19)),21);
(((((((13,15),((3,14),((7,(6,(1,2))),(11,(4,20))))),(12,(5,(10,17)))),16),18),(19,(8,9))),21);
(((((((1,2),(6,(4,20))),11),(3,14)),(7,(12,((10,(5,17)),(13,15))))),(18,((9,16),(8,19)))),21);
(((((((((1,2),((4,20),(6,7))),(5,(10,17))),11),((12,(13,15)),(3,14))),18),(8,19)),(9,16)),21);
(((((((6,7),(3,14)),((11,((1,2),(4,20))),((12,(17,(5,10))),(13,15)))),18),(9,16)),(8,19)),21);
(((((((17,(12,(5,10))),(13,15)),(11,((4,20),(6,(7,(1,2)))))),(3,14)),18),((8,19),(9,16))),21);
((((((11,((7,(4,20)),((12,17),((5,10),(13,15))))),((6,(1,2)),(3,14))),18),(8,19)),(9,16)),21);
((((((((((1,2),(4,(6,7))),20),11),((13,15),(5,(12,(10,17))))),(3,14)),18),(8,19)),(9,16)),21);
((((((((((1,2),(4,20)),(6,7)),(((5,17),(10,12)),(13,15))),(3,14)),11),18),(8,19)),(9,16)),21);
(((((((((7,(4,20)),(1,2)),6),(3,14)),(11,((12,(5,(10,17))),(13,15)))),18),(8,19)),(9,16)),21);
(((((((((4,20),((1,2),(6,7))),11),((12,(10,(5,17))),(13,15))),(3,14)),18),(8,19)),(9,16)),21);
((((((((12,(17,(5,10))),(13,15)),(3,14)),(11,(6,(7,(1,2))))),(18,(4,20))),(19,(8,9))),16),21);
((((((((4,20),(11,(6,(7,(1,2))))),(((5,17),(10,12)),(13,15))),(3,14)),18),(8,19)),(9,16)),21);
((((((7,(11,((4,20),(6,(1,2))))),(10,(5,17))),((3,14),(12,(13,15)))),18),(16,(19,(8,9)))),21);
(((8,(18,(11,(((4,20),((1,2),(6,7))),((3,14),(15,((10,(12,(5,17))),13))))))),(19,(9,16))),21);
((((((((4,20),(7,(1,2))),(6,11)),((12,(10,17)),(3,14))),(5,(13,15))),18),(16,(19,(8,9)))),21);
(((((((((6,(7,(1,2))),(4,20)),11),(13,(15,(17,(5,10))))),(3,14)),12),18),((9,16),(8,19))),21);
(((((((((4,20),(7,(6,(1,2)))),11),((12,(5,(10,17))),(13,15))),(3,14)),18),(8,19)),(9,16)),21);
(((((((3,14),(15,(13,(12,(5,(10,17)))))),(6,(11,((4,20),(7,(1,2)))))),(8,19)),(9,16)),18),21);
((((((11,((4,20),(2,((1,7),6)))),((3,14),((13,15),((10,17),(5,12))))),18),(19,(8,9))),16),21);
((((((((11,(4,20)),((1,2),(6,7))),(3,14)),((17,(5,10)),(12,(13,15)))),18),(19,(8,9))),16),21);
((((((7,((1,2),(6,(4,20)))),(3,14)),(11,((12,(5,(10,17))),(13,15)))),18),((9,16),(8,19))),21);
(((((((13,(15,(20,((2,6),((1,7),4))))),(12,(17,(5,10)))),11),(3,14)),18),(16,(19,(8,9)))),21);
(((((((3,14),(15,(5,(17,(10,12))))),(13,((7,(4,20)),(11,(6,(1,2)))))),18),(9,16)),(8,19)),21);
(((((((11,(6,7)),((4,20),(1,2))),((13,15),(12,(5,(10,17))))),(3,14)),18),((9,16),(8,19))),21);
((((((((((6,(1,2)),7),(4,20)),11),(13,(12,(5,(10,17))))),15),(18,(3,14))),(9,16)),(8,19)),21);
((((((((((4,20),6),(7,(1,2))),((13,15),(12,(17,(5,10))))),11),(3,14)),18),(8,19)),(9,16)),21);
((((((((6,((1,2),7)),11),(4,20)),((3,14),((13,15),((12,17),(5,10))))),18),(8,19)),(9,16)),21);
((((((((4,20),(7,(6,(1,2)))),11),((3,14),(13,15))),(12,(5,(10,17)))),18),((9,16),(8,19))),21);
((((((6,7),((3,14),((12,(5,(17,10))),(13,15)))),(11,((4,20),(1,2)))),(18,(9,16))),(8,19)),21);
((((((((12,(17,(5,10))),(13,15)),(3,14)),((1,(7,2)),(11,(6,(4,20))))),18),(19,(8,9))),16),21);
((((((7,(11,((4,20),(6,(1,2))))),((3,14),((12,(10,(5,17))),(13,15)))),18),(9,16)),(8,19)),21);
((((((((6,(1,2)),(5,(12,(10,17)))),(3,14)),(13,15)),(7,(11,(4,20)))),(9,16)),(18,(8,19))),21);
((((((((11,(7,(4,20))),(12,(5,(10,17)))),(13,15)),((3,14),(6,(1,2)))),18),(8,19)),(9,16)),21);
((((((((6,(1,2)),(20,(4,7))),11),((3,14),((12,(5,(10,17))),(13,15)))),18),16),(19,(8,9))),21);
((((((((6,(2,(7,1))),11),((17,(15,13)),((12,(5,10)),(3,14)))),(4,20)),18),(8,19)),(9,16)),21);
((((((((((4,20),(6,(1,2))),7),11),(15,(13,((5,17),(10,12))))),(3,14)),18),(8,19)),(9,16)),21);
(((((((20,(6,(2,7))),1),((3,14),(4,11))),(18,((5,17),((10,12),(13,15))))),(19,(8,9))),16),21);
(((((((((6,(20,2)),(4,(1,7))),11),(3,14)),((13,15),(5,(12,(10,17))))),18),(9,16)),(8,19)),21);
((((((((7,(6,(4,20))),(1,2)),((17,(12,(5,10))),(13,15))),(11,(3,14))),18),(8,19)),(9,16)),21);
(((((((((4,20),(5,(10,17))),(11,((1,2),(6,7)))),(12,(13,15))),(3,14)),18),(9,16)),(8,19)),21);
(((((((11,(6,(7,(1,2)))),(4,20)),((3,14),((13,15),((5,12),(10,17))))),18),(9,16)),(8,19)),21);
(((((3,14),(20,(((13,15),(5,(12,(10,17)))),(11,(4,((1,2),(6,7))))))),(9,16)),(18,(8,19))),21);
((((((3,14),(7,((5,((10,17),12)),(13,15)))),((4,20),(11,(6,(1,2))))),18),((9,16),(8,19))),21);
((((((((17,(12,(5,10))),(13,15)),(11,((6,(4,20)),(7,(1,2))))),(3,14)),18),(19,(8,9))),16),21);
((((((4,20),((6,7),(1,2))),((3,14),(11,(13,(15,(12,(5,(10,17)))))))),(18,(8,19))),(9,16)),21);
((((((((12,(5,(10,17))),(13,15)),(3,14)),18),((4,20),(11,(6,(7,(1,2)))))),(19,(8,9))),16),21);
((((((((6,(1,2)),(7,(4,20))),(((13,15),((10,17),(5,12))),11)),(3,14)),18),(8,19)),(9,16)),21);
((((((((((4,20),((1,6),(2,7))),(12,(13,15))),(5,(10,17))),(3,14)),11),18),(8,19)),(9,16)),21);
((((((((((((1,2),6),7),4),20),((12,(10,(5,17))),(13,15))),11),(3,14)),18),(8,19)),(9,16)),21);
(((((((((((6,7),1),(4,20)),2),11),(3,14)),(((5,10),(12,17)),(13,15))),18),(8,19)),(9,16)),21);
(((((((13,15),(11,(5,(12,(10,17))))),((3,14),(7,((4,20),(1,(2,6)))))),18),(8,19)),(9,16)),21);
(((((((((2,(1,6)),(4,7)),20),11),((3,14),((13,15),(10,(12,(5,17)))))),18),(9,16)),(8,19)),21);
(((((((((11,(7,(1,2))),(6,(4,20))),14),((12,(17,(5,10))),(13,15))),3),18),(8,19)),(9,16)),21);
(((((((((20,(4,6)),(11,7)),(1,2)),(13,15)),((5,10),(12,17))),(18,(3,14))),(8,19)),(9,16)),21);
((((((((11,((6,(1,(4,20))),(2,7))),(13,15)),(5,(12,(10,17)))),(3,14)),18),(8,19)),(9,16)),21);
((((((11,((13,(5,(12,(10,17)))),(2,(6,(1,7))))),((3,14),(4,20))),15),18),(16,(19,(8,9)))),21);
(((((((((5,(12,(10,17))),(13,15)),(3,14)),11),((1,7),((4,20),(2,6)))),18),(9,16)),(8,19)),21);
(((((((((6,7),(4,(1,2))),(11,20)),((13,15),((10,17),(5,12)))),(3,14)),18),(8,19)),(9,16)),21);
(((((((12,(5,(10,17))),(13,15)),((6,7),(11,(1,2)))),(18,((3,14),(4,20)))),(9,16)),(8,19)),21);
((((((3,14),(((4,20),(7,(1,2))),((13,15),(12,(17,(5,10)))))),(6,11)),18),((9,16),(8,19))),21);
(((((((11,(6,7)),((3,14),((4,20),(1,2)))),((13,15),(12,(17,(5,10))))),18),(8,19)),(9,16)),21);
((((9,16),(18,(((13,15),(4,(11,20))),((3,14),(((5,10),(12,17)),(6,(7,(1,2)))))))),(19,8)),21);
(((((((((1,2),(6,7)),(4,20)),11),((3,14),((13,15),(12,(5,(10,17)))))),18),(19,(8,9))),16),21);
((((((((((1,(6,7)),2),11),(4,20)),(3,14)),((10,(5,17)),(12,(13,15)))),18),(8,19)),(9,16)),21);
((((((5,10),(12,17)),((13,15),((3,14),((1,2),(11,((4,20),(6,7))))))),18),((9,16),(8,19))),21);
((((((((4,(7,(1,6))),20),(((13,15),((10,17),(5,12))),(2,11))),18),(3,14)),(8,19)),(9,16)),21);
((((((((13,15),(12,(17,(5,10)))),(3,14)),(4,6)),(11,(20,(7,(1,2))))),18),((8,19),(9,16))),21);
((((((((6,7),((1,2),(4,20))),((3,14),((5,(12,17)),(13,15)))),(10,11)),18),(19,(8,9))),16),21);
(((((((11,((13,15),(12,(17,(5,10))))),(6,((4,20),(7,(1,2))))),(3,14)),18),(9,16)),(8,19)),21);
(((((((((((6,(1,2)),7),20),4),11),(13,(15,(10,(17,(5,12)))))),(3,14)),18),(8,19)),(9,16)),21);
((((((((((1,2),(6,7)),(4,20)),11),(3,14)),((((17,12),10),5),(13,15))),18),(8,19)),(9,16)),21);
((((((11,((3,14),(13,15))),((4,(6,(1,2))),(7,20))),(18,(12,(17,(5,10))))),(9,16)),(8,19)),21);
((((((((((6,(1,2)),7),(4,20)),11),(5,(12,(10,17)))),(13,15)),(3,14)),(8,19)),(18,(9,16))),21);
((((((((((1,7),(2,6)),(4,20)),11),(5,(12,(10,17)))),((3,14),(13,15))),18),(8,19)),(9,16)),21);
((((((((1,((4,20),(2,(6,7)))),11),((13,15),(10,(17,(5,12))))),(3,14)),18),(8,19)),(9,16)),21);
((((((11,(20,(6,(1,2)))),(10,((13,15),(12,(5,17))))),((3,14),(4,7))),18),((8,19),(9,16))),21);
((((((((1,(4,20)),11),(2,(7,6))),((3,14),((5,12),((10,17),(13,15))))),18),(9,16)),(8,19)),21);
(((((((6,(1,2)),(11,(7,(4,20)))),(3,14)),(((10,17),(5,12)),(13,15))),18),(16,(19,(8,9)))),21);
(((((((((6,(4,20)),(7,(1,2))),(15,(13,(12,(5,(10,17)))))),(3,14)),11),18),(8,19)),(9,16)),21);
(((((((((((6,7),2),1),(4,20)),11),(3,14)),((5,(12,(10,17))),(13,15))),18),(8,19)),(9,16)),21);
((((((7,(6,((1,2),(4,20)))),11),((3,14),((13,15),(12,(10,(5,17)))))),18),((9,16),(8,19))),21);
((((((((11,((4,20),(7,(1,2)))),6),(3,14)),(15,((5,10),(13,(12,17))))),18),(19,(8,9))),16),21);
((((((((7,(6,(1,2))),(4,20)),11),(3,14)),(18,((13,15),(12,(5,(10,17)))))),(19,(8,9))),16),21);
((((((((13,15),(12,(5,(10,17)))),((4,20),((1,2),(6,7)))),11),(3,14)),18),(16,(19,(8,9)))),21);
(((((((3,14),(13,15)),(11,((4,20),(6,(7,(1,2)))))),(12,(17,(5,10)))),18),(16,(19,(8,9)))),21);
((((((((6,7),(4,20)),(1,2)),(3,14)),(11,(((10,17),(5,12)),(13,15)))),18),((9,16),(8,19))),21);
(((((((11,((1,2),(6,7))),((4,20),(3,14))),((12,(5,(10,17))),(13,15))),18),16),(19,(8,9))),21);
(((((((((((4,20),7),1),(2,6)),((12,(10,(5,17))),(13,15))),(3,14)),11),18),(8,19)),(9,16)),21);
((((((((6,(4,20)),(7,(1,2))),11),((3,14),((13,15),((5,12),(10,17))))),18),(8,19)),(9,16)),21);
((((((((11,((4,20),(1,2))),(6,7)),((12,(5,(10,17))),(13,15))),(3,14)),18),(8,19)),(9,16)),21);
((((((((7,((1,2),6)),(4,20)),(3,14)),(11,(12,(5,(10,17))))),(13,15)),18),(16,(19,(8,9)))),21);
((((((((10,(5,12)),17),(13,15)),(6,(3,14))),(18,((4,20),(11,(7,(1,2)))))),(8,19)),(9,16)),21);
((((((((6,7),(1,2)),(4,20)),(11,(12,((13,15),(17,(5,10)))))),(3,14)),18),((8,19),(9,16))),21);
(((((((((6,(1,7)),(2,11)),(4,20)),(12,(5,(10,17)))),(3,14)),(13,15)),18),((19,(8,9)),16)),21);
(((((((7,(1,(2,6))),(4,20)),11),((3,14),((12,(10,(5,17))),(13,15)))),18),((8,19),(9,16))),21);
(((((((4,(7,(20,(6,(1,2))))),11),(3,14)),((5,(10,17)),(12,(13,15)))),18),((8,19),(9,16))),21);
((((((((11,(4,20)),(((1,2),(6,7)),((10,17),(5,12)))),(13,15)),(3,14)),18),(8,19)),(9,16)),21);
((((((((7,(1,2)),(4,20)),(6,11)),((12,(10,(5,17))),(3,14))),(13,15)),18),((9,16),(8,19))),21);
(((((((11,(7,(20,(4,(1,2))))),6),((12,(5,(10,17))),((13,15),(3,14)))),18),(9,16)),(8,19)),21);
(((((((((1,2),((4,20),(6,7))),11),((12,(5,(10,17))),(3,14))),(13,15)),18),(8,19)),(9,16)),21);
((((((((2,6),(1,(4,20))),11),7),((3,14),((12,(5,(10,17))),(13,15)))),18),((9,16),(8,19))),21);
((((((((4,20),(11,((1,2),(6,7)))),(3,14)),((12,(5,(10,17))),(13,15))),18),(8,19)),(9,16)),21);
(((((((((((6,7),(1,2)),4),20),11),((13,15),(5,(12,(10,17))))),(3,14)),18),(9,16)),(8,19)),21);
(((((((3,14),(13,(6,(7,(1,2))))),((15,((5,10),(12,17))),(11,(4,20)))),18),(19,(8,9))),16),21);
(((((((((((2,6),7),1),(4,20)),11),(3,14)),(13,15)),(17,(12,(5,10)))),18),(16,(19,(8,9)))),21);
(((((((((13,15),((5,10),(12,17))),(3,14)),11),((4,20),(7,(6,(1,2))))),18),(8,19)),(9,16)),21);
(((((((((4,20),(6,(7,(1,2)))),11),(3,14)),((13,15),(12,(17,(5,10))))),18),(8,19)),(9,16)),21);
(((((((11,(6,((4,20),(7,(1,2))))),((12,(5,(10,17))),(13,15))),(3,14)),18),(8,19)),(9,16)),21);
((((((13,15),(3,14)),((12,(17,(5,10))),((7,(6,(1,2))),(11,(4,20))))),18),((9,16),(8,19))),21);
((((((4,(6,7)),(20,(1,2))),((3,14),(11,((13,15),(12,(10,(5,17))))))),18),((9,16),(8,19))),21);
(((((((((6,(2,7)),1),(4,20)),11),18),((13,15),((5,(12,(10,17))),(3,14)))),(9,16)),(8,19)),21);
(((((((3,14),((1,2),(11,(4,(20,(6,7)))))),((17,(10,(12,5))),(13,15))),18),(8,19)),(9,16)),21);
((((((((17,(5,10)),(12,13)),((3,14),(15,(7,11)))),((4,20),(6,(1,2)))),18),(8,19)),(9,16)),21);
(((((3,14),((((4,20),(6,7)),(11,(1,2))),((12,(17,(5,10))),(13,15)))),18),((8,19),(9,16))),21);
(((((((3,14),((6,(7,(1,2))),(11,(4,20)))),((13,15),(12,(17,(5,10))))),18),(9,16)),(8,19)),21);
(((((((11,(7,(4,20))),((6,(1,2)),((12,(10,(5,17))),(13,15)))),(3,14)),18),(9,16)),(8,19)),21);
(((((((((3,14),(7,(6,(1,2)))),(13,15)),(4,20)),(11,(5,(12,(10,17))))),18),16),(19,(8,9))),21);
((((((15,((13,(12,(5,(10,17)))),(11,((6,7),((1,2),(4,20)))))),3),14),18),((8,19),(9,16))),21);
(((((((11,(20,(4,(6,(7,(1,2)))))),(((5,17),(10,12)),(3,14))),(13,15)),18),(9,16)),(8,19)),21);
(((18,(((1,2),(4,(6,7))),((11,20),((3,14),((12,(17,(5,10))),(13,15)))))),((8,19),(9,16))),21);
(((((((4,20),(2,(1,(6,7)))),11),(18,((19,(8,9)),16))),((12,(5,(10,17))),(13,15))),(3,14)),21);
((((((((3,14),(((6,7),((4,20),(1,2))),(13,(17,(5,10))))),(12,15)),11),18),(8,19)),(9,16)),21);
((((((((10,17),(5,12)),(13,15)),11),((3,14),((1,(2,7)),(6,(4,20))))),18),((9,16),(8,19))),21);
(((((((((5,(12,(10,17))),(6,(4,20))),(3,14)),(13,15)),(11,(1,(2,7)))),18),(8,19)),(9,16)),21);
(((((((15,((11,(6,7)),5)),(3,14)),(((1,2),(4,20)),(13,(12,(10,17))))),18),(8,19)),(9,16)),21);
((((((((4,20),((5,17),(10,12))),(13,15)),(11,(7,(6,(1,2))))),(3,14)),18),((9,16),(8,19))),21);
(((((((((4,20),((1,6),(2,7))),(13,15)),(11,(12,(17,(5,10))))),(3,14)),18),(9,16)),(8,19)),21);
(((((((((1,2),(6,7)),(4,20)),(13,15)),((3,14),(11,(5,(12,(10,17)))))),18),(8,19)),(9,16)),21);
((((((((((1,2),((4,20),(6,7))),11),(3,14)),((13,15),(17,(5,(10,12))))),18),8),19),(9,16)),21);
((((((3,11),(((5,(10,12)),(17,(13,15))),(14,(7,((1,2),(20,(4,6))))))),18),(8,19)),(9,16)),21);
(((((((((4,20),(6,7)),(1,2)),(3,14)),(11,((12,(17,(5,10))),(13,15)))),18),(8,19)),(9,16)),21);
(((((((((12,(17,(5,10))),(13,15)),(11,(1,(6,(2,7))))),(4,20)),(3,14)),18),(8,19)),(9,16)),21);
((((((((1,2),(4,20)),(11,(6,7))),((3,14),(13,(15,(12,(5,(10,17))))))),18),(8,19)),(9,16)),21);
(((((((((6,7),1),2),(4,20)),((3,14),(11,(17,(12,(5,10)))))),(18,(13,15))),(8,19)),(9,16)),21);
((((((((6,(7,(1,2))),(4,20)),11),(3,14)),((13,15),(5,(12,(10,17))))),18),(16,(19,(8,9)))),21);
((((((((((6,(1,2)),7),(4,20)),11),((13,15),(12,(17,(10,5))))),(3,14)),18),(8,19)),(9,16)),21);
((((((((1,(4,20)),(2,(6,7))),11),(3,14)),(((10,17),(5,12)),(13,15))),18),((9,16),(8,19))),21);
(((((((2,(6,1)),7),(11,(4,20))),((3,14),(((10,17),(5,12)),(13,15)))),18),((19,(8,9)),16)),21);
(((((((((12,17),(5,10)),(13,15)),(1,(4,20))),((3,14),(11,(6,(2,7))))),18),(8,19)),(9,16)),21);
((((((((20,((1,2),(4,(6,7)))),11),(3,14)),((13,15),((5,10),(12,17)))),18),(8,19)),(9,16)),21);
((((((((11,(6,(7,(4,20)))),(1,2)),(3,14)),(5,((12,(10,17)),(13,15)))),18),(8,19)),(9,16)),21);
(((((((3,14),(7,20)),((11,(4,(6,(1,2)))),((17,(12,(5,10))),(13,15)))),18),(8,19)),(9,16)),21);
(((((((3,14),((17,(5,10)),(12,(13,15)))),(((4,20),(7,(1,2))),(6,11))),18),(8,19)),(9,16)),21);
((((((11,((4,20),((12,(10,17)),(13,15)))),((3,14),(5,(6,(7,(1,2)))))),18),16),(19,(8,9))),21);
((((((((10,17),(5,12)),(6,(1,2))),(11,(7,(4,20)))),((3,14),(13,15))),18),((9,16),(8,19))),21);
((((((((13,(11,((1,2),(6,7)))),((4,20),(12,(5,(10,17))))),(3,14)),15),18),(19,(8,9))),16),21);
((((((((3,14),(11,(7,(1,2)))),((13,15),((10,12),(5,17)))),(6,(4,20))),18),(8,19)),(9,16)),21);
(((((((5,(12,(10,17))),((3,14),(6,11))),((13,15),(7,((1,2),(4,20))))),18),(9,16)),(8,19)),21);
(((((((4,20),((7,(1,2)),6)),11),(18,((3,14),((13,15),(12,(17,(5,10))))))),(8,19)),(9,16)),21);
(((((((4,20),(((12,(5,(10,17))),(13,15)),(11,(6,(7,(1,2)))))),(3,14)),18),(9,16)),(8,19)),21);
((((((3,14),(((13,15),((5,10),(12,17))),((4,20),(11,((1,2),(6,7)))))),18),(9,16)),(8,19)),21);
((((((((6,(1,2)),(20,4)),(15,(3,14))),((7,11),(13,(12,(5,(10,17)))))),18),(19,(8,9))),16),21);
(((((((((13,15),(12,(17,(5,10)))),(6,(7,20))),11),(3,14)),(4,(1,2))),18),(16,(19,(8,9)))),21);
((((((((6,(1,2)),(4,20)),7),11),((3,14),((5,(17,(10,12))),(13,15)))),18),((9,16),(8,19))),21);
(((((((11,(5,(17,10))),(4,(7,(1,2)))),(3,14)),((6,20),(15,(12,13)))),18),((19,(8,9)),16)),21);
((((((((((1,2),(6,7)),(4,20)),11),((12,(5,(10,17))),(13,15))),(3,14)),18),(8,19)),(9,16)),21);
((((((((13,15),(12,(5,(10,17)))),(11,((4,20),(1,(2,(7,6)))))),(3,14)),18),(8,19)),(9,16)),21);
(((((((13,((4,7),(11,(6,(20,(1,2)))))),(3,14)),(15,((10,17),(5,12)))),18),(9,16)),(8,19)),21);
(((((((10,(5,(12,17))),(13,15)),(3,14)),((4,6),(11,(20,(7,(1,2)))))),18),((9,16),(8,19))),21);
((((((7,(4,20)),(((13,15),(5,(12,(10,17)))),((3,14),(11,(6,(1,2)))))),18),(9,16)),(8,19)),21);
((((((((((4,(7,20)),6),11),(1,2)),15),((3,14),(13,(12,(5,(10,17)))))),18),(8,19)),(9,16)),21);
(((18,(((3,14),((12,(5,(10,17))),(13,15))),(11,((6,7),((4,20),(1,2)))))),((9,16),(8,19))),21);
(((((((((1,6),(2,7)),(4,20)),((3,14),((13,15),((10,17),(5,12))))),18),11),(9,16)),(8,19)),21);
(((((((7,(1,2)),6),4),(11,20)),(18,((3,14),((13,15),((5,10),(12,17)))))),((8,19),(9,16))),21);
(((((((((((2,7),1),6),(4,20)),11),(3,14)),(13,15)),(18,((5,17),(10,12)))),(8,19)),(9,16)),21);
(((((((((4,20),((1,2),(6,7))),11),(3,14)),((13,15),(12,(10,(5,17))))),18),(8,19)),(9,16)),21);
(((((((((13,15),(12,(17,(10,5)))),(11,(4,20))),(3,14)),(6,(7,(1,2)))),18),16),(19,(8,9))),21);
((((((((4,(20,(6,(7,(1,2))))),(11,((17,(10,12)),(13,15)))),(3,14)),5),18),(19,(8,9))),16),21);
((((((((11,6),(7,(1,2))),(4,20)),((3,14),((13,15),(17,(12,(5,10)))))),18),(8,19)),(9,16)),21);
(((((((((6,(1,2)),7),4),20),(11,((13,15),((5,17),(10,12))))),(3,14)),18),((9,16),(8,19))),21);
((((((((((6,7),2),(4,20)),(1,11)),(3,14)),((13,15),((10,17),(5,12)))),18),(8,19)),(9,16)),21);
(((((((4,20),((3,14),(11,((1,2),(6,7))))),((13,15),(5,(17,(10,12))))),18),(9,16)),(8,19)),21);
((((((11,(4,20)),((3,14),((13,15),(5,(12,(10,17)))))),(6,(7,(1,2)))),18),((9,16),(8,19))),21);
(((((((15,(13,(10,(17,(5,12))))),((3,14),(11,(4,20)))),(6,(7,(1,2)))),18),(8,19)),(9,16)),21);
((((((((((6,7),(4,(1,2))),20),11),(3,14)),((13,15),(12,(17,(5,10))))),18),(19,(8,9))),16),21);
(((((((((1,2),(6,7)),11),(4,20)),((3,14),((5,(12,(10,17))),(13,15)))),18),(9,16)),(8,19)),21);
(((((((((17,(13,15)),(12,(5,10))),(2,6)),(3,14)),(11,((1,7),(4,20)))),(8,19)),(9,16)),18),21);
(((((4,20),(11,(6,(1,(2,7))))),((3,14),((13,15),(5,((10,17),12))))),((18,(19,(8,9))),16)),21);
((((((((12,(15,17)),((5,10),13)),(7,(6,(1,2)))),11),(18,((4,20),(3,14)))),(8,19)),(9,16)),21);
(((((((((13,15),((5,17),(10,12))),(3,14)),11),((1,2),((4,20),(6,7)))),18),(8,19)),(9,16)),21);
(((((((((1,2),(4,20)),(6,7)),11),((12,(5,(10,17))),(13,15))),(3,14)),18),((8,19),(9,16))),21);
((((((3,14),(11,((1,2),((4,20),(6,7))))),((13,15),((5,12),(10,17)))),18),((9,16),(8,19))),21);
((((((((((((1,2),6),7),20),4),11),((13,15),((10,17),(5,12)))),(3,14)),18),16),(19,(8,9))),21);
(((((((((2,6),1),7),(4,20)),11),((3,14),((5,(12,(10,17))),(13,15)))),18),((9,16),(8,19))),21);
(((((((((4,20),((1,2),(6,7))),11),(3,14)),((13,15),(12,(17,(5,10))))),18),(8,19)),(9,16)),21);
(((((11,((3,14),(((12,(10,(5,17))),(13,15)),((1,2),((4,20),(6,7)))))),18),(8,19)),(9,16)),21);
((((((((((((4,20),7),(1,2)),6),11),(13,(12,(5,(10,17))))),15),(3,14)),18),(19,(8,9))),16),21);
(((((((12,((10,(17,5)),(13,15))),(3,14)),(6,(1,2))),(7,(11,(4,20)))),18),((9,16),(8,19))),21);
((((((((11,(6,7)),(13,(15,(12,(17,(5,10)))))),((1,2),(4,20))),(3,14)),18),16),(19,(8,9))),21);
(((((((11,(1,((6,7),(2,(4,20))))),(10,(12,(5,17)))),(13,15)),(3,14)),18),((9,16),(8,19))),21);
((((((3,14),((13,15),(6,((4,20),(7,(1,2)))))),(11,(12,((10,17),5)))),18),((9,16),(8,19))),21);
((((((3,14),(((13,15),(12,(5,(10,17)))),(11,((7,(1,2)),(6,(4,20)))))),18),(9,16)),(8,19)),21);
((((((((11,(7,(1,2))),(4,20)),6),((5,12),((10,17),(13,15)))),(3,14)),18),((9,16),(8,19))),21);
((((((4,20),(11,(7,(6,(1,2))))),((12,(10,17)),((3,14),(5,(13,15))))),18),((8,19),(9,16))),21);
((((((((1,6),(2,7)),((13,15),(17,(12,(5,10))))),((3,14),(11,(4,20)))),18),(8,19)),(9,16)),21);
(((((((((2,7),1),6),(4,20)),11),((3,14),((12,(10,(5,17))),(13,15)))),18),((9,16),(8,19))),21);
((((((((20,4),1),(7,(2,6))),11),((3,14),((12,(5,(10,17))),(13,15)))),18),((9,16),(8,19))),21);
(((((((7,(6,(1,2))),(4,20)),11),17),((3,14),((12,(5,10)),(13,15)))),(18,((19,(8,9)),16))),21);
((((((((4,20),(7,(1,2))),6),11),((3,14),((13,15),(10,((5,17),12))))),18),((9,16),(8,19))),21);
(((((((((4,20),(11,((1,2),(6,7)))),14),((13,15),(10,(17,(12,5))))),3),18),(9,16)),(8,19)),21);
((((((((11,((6,7),(1,2))),4),20),((3,14),((13,15),(17,(12,(5,10)))))),18),(8,19)),(9,16)),21);
((((((((1,7),2),(11,(6,(4,20)))),((3,14),((13,15),(10,(5,(17,12)))))),18),(9,16)),(8,19)),21);
((((((((7,(4,20)),(6,(1,2))),11),((13,15),((5,17),(10,12)))),(3,14)),18),((9,16),(8,19))),21);
((((((1,2),(6,20)),((3,14),((11,(4,7)),((12,(10,(5,17))),(13,15))))),18),((9,16),(8,19))),21);
((((((((3,14),((13,15),(17,(5,(10,12))))),11),((6,(1,2)),(7,(4,20)))),18),16),(19,(8,9))),21);
(((((6,(4,20)),(12,(17,(10,5)))),((9,16),(18,((3,14),((13,15),(11,(7,(1,2)))))))),(8,19)),21);
((((((((4,20),(6,(7,(1,2)))),(11,((13,15),(12,(10,(5,17)))))),(3,14)),18),(8,19)),(9,16)),21);
((((((((6,((1,2),7)),11),(4,20)),((13,15),((5,17),(10,12)))),(3,14)),(9,(18,(8,19)))),16),21);
((((((11,((13,15),(7,(1,(4,20))))),((3,14),((2,6),((10,17),(5,12))))),18),(8,19)),(9,16)),21);
(((((((6,7),((3,14),((12,(10,17)),(5,(13,15))))),((1,2),(11,(4,20)))),18),(9,16)),(8,19)),21);
(((((((((7,(6,(4,20))),(1,2)),11),(3,14)),(12,((10,(5,17)),(13,15)))),18),(19,(8,9))),16),21);
(((((((13,(15,(12,(5,(10,17))))),((11,(4,20)),(6,(7,(1,2))))),(3,14)),18),(9,16)),(8,19)),21);
(((((((((((1,2),20),4),11),(6,7)),((12,(5,(10,17))),(13,15))),(3,14)),18),(9,16)),(8,19)),21);
((((((15,(13,(12,(10,(5,17))))),(3,14)),((11,(2,(1,(7,6)))),(4,20))),18),((9,16),(8,19))),21);
((((((3,14),(11,((1,2),(6,(7,(4,20)))))),(((5,10),(12,17)),(13,15))),18),((9,16),(8,19))),21);
((((((((13,(12,(10,(5,17)))),15),((4,20),(2,(6,(1,7))))),(11,(3,14))),18),(9,16)),(8,19)),21);
((((((((6,(1,2)),7),(4,20)),(((13,15),(5,(17,(10,12)))),(11,(3,14)))),18),(8,19)),(9,16)),21);
(((((((((((2,6),(4,20)),(1,7)),11),(3,14)),(13,15)),(17,(12,(5,10)))),18),(8,19)),(9,16)),21);
((((((((10,17),(1,2)),(((13,15),(5,12)),(11,((4,20),(6,7))))),(3,14)),18),(9,16)),(8,19)),21);
(((((((((4,20),(6,(7,(1,2)))),11),15),((3,14),(13,((10,17),(5,12))))),18),(8,19)),(9,16)),21);
(((((((3,14),((12,(5,(10,17))),(13,15))),(11,(((1,2),(4,20)),(6,7)))),18),(8,19)),(9,16)),21);
(((((((((6,(1,7)),2),(4,20)),11),((3,14),((13,15),((10,17),(5,12))))),18),(9,16)),(8,19)),21);
((((((7,6),((10,(13,15)),(11,((1,2),(4,20))))),((3,14),(17,(5,12)))),18),((9,16),(8,19))),21);
((((((((7,(6,(1,2))),(11,(4,20))),((5,17),(10,12))),((13,15),(3,14))),(8,19)),18),(9,16)),21);
(((((((11,(6,(((10,12),(5,17)),(13,15)))),(3,14)),((7,(1,2)),(4,20))),18),(8,19)),(9,16)),21);
(((((((4,20),((1,2),(6,7))),11),((13,15),((10,17),(5,12)))),(18,(3,14))),((9,16),(8,19))),21);
(((((((3,14),((6,(1,2)),(4,20))),(7,(11,((12,(17,(5,10))),(13,15))))),18),(8,19)),(9,16)),21);
(((((((3,14),(((5,(12,(10,17))),(13,15)),((4,20),(1,6)))),(11,(2,7))),18),(8,19)),(9,16)),21);
(((((((((((7,(1,2)),6),4),20),11),(3,14)),((13,15),((10,17),(5,12)))),18),(8,19)),(9,16)),21);
(((((((((1,2),(4,20)),11),7),6),((3,14),((13,15),(17,(12,(5,10)))))),18),((8,19),(9,16))),21);
((((((((13,15),((4,20),(7,(6,(1,2))))),(5,(17,(10,12)))),11),(3,14)),(18,(9,16))),(8,19)),21);
(((((((5,(12,(10,17))),(6,(7,(1,2)))),11),((13,15),((4,20),(3,14)))),18),((9,16),(8,19))),21);
(((((((4,(3,14)),((11,(7,(6,(1,2)))),((12,(5,(10,17))),(13,15)))),20),18),(9,16)),(8,19)),21);
((((((((1,2),((4,20),(6,7))),(3,14)),(11,((13,15),((12,17),(5,10))))),18),(8,19)),(9,16)),21);
(((((((3,14),(11,(7,(4,20)))),((6,(1,2)),(((10,17),(5,12)),(13,15)))),18),(8,19)),(9,16)),21);
((((((7,((3,14),((5,10),((12,17),(13,15))))),((4,20),(11,(6,(1,2))))),18),(8,19)),(9,16)),21);
((((((13,15),((5,12),(10,17))),((3,14),((4,20),(11,(6,(7,(1,2))))))),18),((9,16),(8,19))),21);
(((((((11,(7,((4,20),(6,(1,2))))),(3,14)),((13,15),(12,(5,(10,17))))),18),(8,19)),(9,16)),21);
(((((((((((1,2),(4,20)),7),6),11),(12,(5,(10,17)))),((13,15),(3,14))),18),(8,19)),(9,16)),21);
(((((((((7,20),(1,2)),(4,6)),11),((3,14),((13,15),((5,10),(12,17))))),18),(8,19)),(9,16)),21);
(((((((((6,(2,1)),(4,20)),7),(13,(12,(10,(5,17))))),(15,(11,(3,14)))),18),(9,16)),(8,19)),21);
((((((6,7),((12,(10,(5,17))),((3,14),(13,15)))),(18,(11,((1,2),(4,20))))),(9,16)),(8,19)),21);
(((((((13,(12,(5,(10,17)))),15),(3,14)),((11,(6,(1,2))),(7,(4,20)))),18),(16,(19,(8,9)))),21);
((((((((4,20),((1,2),11)),((6,7),((13,15),((10,17),(5,12))))),(3,14)),18),(8,19)),(9,16)),21);
(((((((6,((7,(1,2)),(4,20))),11),(10,(12,(17,5)))),((3,14),(13,15))),18),(16,(19,(8,9)))),21);
((((((3,14),(((4,11),(7,(20,(6,(1,2))))),((13,15),(12,(17,(5,10)))))),18),(9,16)),(8,19)),21);
((((((((((10,17),(5,12)),(13,15)),(11,(4,(7,(1,2))))),(3,14)),(6,20)),18),16),(19,(8,9))),21);
(((((((2,(4,(20,7))),(1,6)),((3,14),((13,((10,17),(5,12))),(11,15)))),18),(9,16)),(8,19)),21);
((((((11,((15,(13,(12,(5,(10,17))))),((4,20),(7,(6,(1,2)))))),(3,14)),18),(8,19)),(9,16)),21);
(((((((((3,14),((4,20),(6,7))),(11,(1,2))),15),(5,(13,(10,(12,17))))),18),(8,19)),(9,16)),21);
(((((((3,14),((6,7),(11,((1,2),(4,20))))),((13,15),((5,10),(12,17)))),18),(8,19)),(9,16)),21);
((((((((20,(6,(7,(1,2)))),11),(4,(15,(13,(12,(10,(17,5))))))),(3,14)),18),(8,19)),(9,16)),21);
(((((((11,((4,20),(6,7))),(3,14)),((1,2),(17,(12,(5,10))))),(13,15)),18),((9,16),(8,19))),21);
(((((((((1,(6,7)),2),(4,20)),(3,14)),11),((5,(12,(10,17))),(13,15))),18),((9,16),(8,19))),21);
(((((((((6,(1,2)),(4,20)),7),(3,14)),(11,((13,15),(12,(5,(10,17)))))),18),(8,19)),(9,16)),21);
(((((((((6,7),((1,2),(4,20))),11),((12,(10,(5,17))),(13,15))),(3,14)),18),(8,19)),(9,16)),21);
(((((((((6,(1,2)),(4,20)),11),7),(3,14)),((10,(17,(5,12))),(13,15))),(9,16)),(18,(8,19))),21);
((((((4,20),(7,(1,(2,6)))),(((12,(5,(10,17))),(13,15)),(11,(3,14)))),18),((9,16),(8,19))),21);
((((((((6,(1,2)),(7,(4,20))),(10,(13,15))),(3,14)),(11,(12,(5,17)))),18),((9,16),(8,19))),21);
((((((((4,15),(13,(10,(5,(12,17))))),(11,(6,(20,(7,(1,2)))))),(3,14)),18),(9,16)),(8,19)),21);
(((((((3,14),(11,(13,15))),((10,(12,(5,17))),(4,(20,((1,2),(6,7)))))),18),(8,19)),(9,16)),21);
((((((((12,(17,5)),10),(13,15)),(6,(7,(1,2)))),(18,(11,((3,14),(4,20))))),(8,19)),(9,16)),21);
(((((((((4,20),(6,7)),(11,(1,2))),(12,(10,(5,17)))),18),((3,14),(13,15))),16),(19,(8,9))),21);
(((((((5,(12,(10,17))),(15,13)),(3,14)),(6,(11,((4,20),(7,(1,2)))))),18),((19,(8,9)),16)),21);
((((((((13,(12,(5,(10,17)))),15),(3,14)),(11,((4,20),(7,(6,(1,2)))))),18),(19,(8,9))),16),21);
((((((((7,(2,6)),1),(11,(4,20))),(3,14)),((13,15),(10,(12,(5,17))))),((9,16),(8,19))),18),21);
(((((((((6,(7,(1,2))),(11,(4,20))),(15,(17,(10,12)))),(5,13)),(3,14)),18),(8,19)),(9,16)),21);
((((((((6,(4,20)),(11,(1,(2,7)))),(3,14)),((12,(5,(10,17))),(13,15))),18),(8,19)),(9,16)),21);
((((((((((4,20),(2,7)),(1,6)),11),((13,15),(12,(17,(5,10))))),(3,14)),18),(9,16)),(8,19)),21);
(((((((((13,15),(12,(10,17))),5),(((4,20),(1,6)),(11,(2,7)))),(3,14)),18),(8,19)),(9,16)),21);
(((((((11,(3,14)),((13,15),(12,(10,(5,17))))),((4,20),((1,2),(6,7)))),18),(8,19)),(9,16)),21);
(((((((((1,2),(6,7)),(4,20)),11),((3,14),((13,15),((10,17),(5,12))))),18),(8,19)),(9,16)),21);
(((((((12,(13,15)),(10,(5,17))),(6,(7,(4,20)))),((3,14),(11,(1,2)))),18),((8,19),(9,16))),21);
((((((((13,15),(11,(6,20))),((12,(5,(10,17))),(4,((1,2),7)))),(3,14)),(8,19)),(9,16)),18),21);
(((((((((6,(7,(1,2))),20),11),4),((3,14),((13,15),((5,10),(12,17))))),18),(8,19)),(9,16)),21);
((((((((10,17),(5,12)),((11,((1,2),(7,6))),((13,15),(3,14)))),(4,20)),18),(9,16)),(8,19)),21);
(((((((((4,20),(6,(1,2))),7),11),((3,14),((13,15),(5,(12,(10,17)))))),18),(8,19)),(9,16)),21);
((((((((15,(17,(12,(5,10)))),13),((4,20),(6,(7,(1,2))))),(11,(3,14))),18),(8,19)),(9,16)),21);
((((((((((6,(1,2)),7),(4,20)),11),(3,14)),((13,15),((5,10),(12,17)))),18),(9,16)),(8,19)),21);
(((((((20,(4,(6,(1,2)))),((7,11),((13,15),(12,(5,(10,17)))))),(3,14)),18),16),(19,(8,9))),21);
(((((((((((20,(1,2)),(4,6)),11),7),(3,14)),(13,15)),18),(12,(17,(5,10)))),(9,16)),(8,19)),21);
(((((((6,7),((1,2),(4,20))),11),(3,14)),(((10,12),((5,17),(13,15))),18)),((9,16),(8,19))),21);
(((((((12,(5,(10,17))),(13,15)),(3,14)),(11,((4,20),(6,(7,(1,2)))))),18),((8,19),(9,16))),21);
(((((((4,20),(11,(7,(6,(1,2))))),((13,15),(12,(10,(17,5))))),(3,14)),18),((8,(9,19)),16)),21);
((((((13,((15,(12,(10,(5,17)))),(11,((7,(6,(1,2))),(4,20))))),(3,14)),18),(8,19)),(9,16)),21);
((((((((10,12),(5,17)),(13,15)),(3,14)),(6,((4,20),(11,(7,(1,2)))))),((9,16),(8,19))),18),21);
(((((((11,(4,20)),((13,15),((10,12),(5,17)))),(3,14)),(7,(6,(1,2)))),18),((9,16),(8,19))),21);
(((((((3,14),((13,15),(12,(17,(5,10))))),((4,20),(2,(6,7)))),(1,11)),18),((9,16),(8,19))),21);
(((((((3,14),((12,(5,(10,17))),(13,15))),((4,20),(11,(7,(6,(1,2)))))),18),(9,16)),(8,19)),21);
((((((((3,14),(11,((1,2),(4,20)))),((6,7),(13,(12,(17,(5,10)))))),15),18),(9,16)),(8,19)),21);
(((((((((5,17),((10,12),(13,15))),(11,(6,(1,2)))),(3,14)),(7,(4,20))),18),(8,19)),(9,16)),21);
(((((((4,20),(6,(7,(1,2)))),((3,14),(11,((12,(5,(10,17))),(13,15))))),18),(8,19)),(9,16)),21);
(((((10,17),(5,12)),((3,14),((13,15),((7,(6,(1,2))),(11,(4,20)))))),(18,((9,16),(8,19)))),21);
((((((((7,(1,2)),(4,(6,20))),11),((3,14),((13,15),(10,(5,(17,12)))))),18),(8,19)),(9,16)),21);
((((((11,((13,15),((10,17),(5,12)))),((3,14),((4,20),((1,2),(6,7))))),18),16),(19,(8,9))),21);
(((((((4,(2,(7,20))),(11,(1,6))),((3,14),(12,(5,(10,17))))),(13,15)),18),((8,19),(9,16))),21);
((((((((((4,(20,(6,7))),2),1),11),(3,14)),((10,17),((5,12),(13,15)))),18),(19,(8,9))),16),21);
((((((5,10),(12,17)),((13,15),((3,14),(11,(((1,2),(6,7)),(4,20)))))),18),(16,(19,(8,9)))),21);
(((18,((((4,20),((1,2),(6,7))),(((13,15),(5,(12,(10,17)))),(11,(3,14)))),(9,16))),(8,19)),21);
((((((((((6,7),(1,2)),4),20),((3,14),(13,15))),(11,((10,17),(5,12)))),18),(8,19)),(9,16)),21);
((((((((17,(5,10)),12),(13,15)),(6,(1,2))),((3,14),(11,(7,(4,20))))),18),((9,16),(8,19))),21);
(((((((((((1,7),6),2),(4,20)),11),(3,14)),((13,15),(17,(12,(5,10))))),18),(8,19)),(9,16)),21);
((((((((((7,(6,1)),2),4),11),(3,14)),(20,((12,(10,17)),(5,(13,15))))),18),(8,19)),(9,16)),21);
(((((((((10,(5,12)),17),(13,15)),(3,14)),(11,((4,20),((1,2),(6,7))))),18),(8,19)),(9,16)),21);
((((((11,(5,(12,(10,17)))),(6,(1,2))),(3,14)),((4,20),(7,(13,15)))),((9,16),(18,(8,19)))),21);
((((((((((11,(4,20)),(6,7)),(1,2)),(3,14)),(12,(5,(10,17)))),(13,15)),18),(9,16)),(8,19)),21);
((((((((7,(1,2)),(6,(4,20))),(3,14)),18),(11,((13,15),(17,(5,(10,12)))))),(9,16)),(8,19)),21);
(((((((10,(13,(12,(5,17)))),(11,(((1,2),(6,7)),(4,20)))),(3,14)),15),18),((9,16),(8,19))),21);
(((((((((6,7),(1,2)),(4,20)),11),(3,14)),((13,15),(10,(17,(5,12))))),18),((19,(8,9)),16)),21);
((((((((4,20),(6,7)),(11,(1,2))),((3,14),(17,((13,15),(10,(5,12)))))),18),(8,19)),(9,16)),21);
((((((((2,11),(1,((4,20),(6,7)))),((13,15),(12,(10,(17,5))))),(3,14)),18),(8,19)),(9,16)),21);
((((((((4,20),(1,2)),(11,(6,7))),((5,(12,(10,17))),(13,15))),(3,14)),(18,(8,19))),(9,16)),21);
(((((((((4,6),(20,(7,(1,2)))),(15,(12,(5,(10,17))))),11),(13,(3,14))),18),(9,16)),(8,19)),21);
(((((((4,20),(6,(7,(1,2)))),11),(18,((3,14),((5,10),(15,(13,(12,17))))))),(8,19)),(9,16)),21);
(((((((13,15),((3,14),((6,7),(11,((4,20),(1,2)))))),(12,(10,(5,17)))),18),(8,19)),(9,16)),21);
(((((((3,14),(11,((4,20),(6,(1,2))))),(7,((5,(12,(10,17))),(13,15)))),18),(19,(8,9))),16),21);
(((((((((4,(7,(1,2))),6),20),11),(3,(((13,15),((10,17),(5,12))),14))),18),(19,(8,9))),16),21);
((((((((((1,20),(6,7)),2),11),((12,(17,(5,10))),(13,15))),(4,(3,14))),(8,19)),18),(9,16)),21);
((((((15,(13,(5,(12,(10,17))))),(((1,2),(6,(4,20))),((7,11),(3,14)))),18),(8,19)),(9,16)),21);
((((((((4,((1,2),(7,20))),11),(3,14)),(6,((10,12),((5,17),(13,15))))),18),(9,16)),(8,19)),21);
(((((11,((3,14),(((12,17),(5,10)),(13,15)))),((4,20),((1,2),(6,7)))),18),((9,16),(8,19))),21);
((((((3,14),(15,(5,13))),((12,(10,17)),(11,(7,((4,20),(6,(1,2))))))),16),(18,(19,(8,9)))),21);
((((((((((7,((1,2),6)),4),11),20),(3,14)),((13,15),(12,(5,(10,17))))),18),(8,19)),(9,16)),21);
((((((((7,(4,20)),(13,15)),(5,(12,(10,17)))),((3,14),(11,(6,(1,2))))),18),(9,16)),(8,19)),21);
(((((((((((5,10),17),12),(13,15)),11),(3,14)),((4,20),((1,2),(7,6)))),(8,19)),18),(9,16)),21);
((((((((3,14),(5,(12,(10,17)))),((1,(2,6)),(7,((4,20),11)))),(13,15)),18),(9,16)),(8,19)),21);
(((((((((1,2),(6,7)),11),(4,20)),((3,14),((10,(12,(5,17))),(13,15)))),18),(9,16)),(8,19)),21);
((((((((((7,(1,2)),6),(4,20)),11),((5,(10,17)),(13,15))),(12,(3,14))),18),(19,(8,9))),16),21);
(((((((12,(13,15)),((3,14),(11,((1,7),(2,6))))),((10,(5,17)),(4,20))),18),(8,19)),(9,16)),21);
(((((((10,17),((13,15),(5,12))),(6,11)),((3,14),((4,20),(7,(1,2))))),18),((9,16),(8,19))),21);
((((((11,(1,7)),(3,14)),(((2,(6,(4,20))),(13,(12,(17,(5,10))))),15)),(18,(9,16))),(8,19)),21);
((((((((((7,(1,6)),2),(4,20)),11),((12,(10,(5,17))),(13,15))),18),(3,14)),(19,(8,9))),16),21);
((((((2,((4,20),(1,(6,7)))),((3,14),(11,((13,15),(5,(12,(10,17))))))),18),(8,19)),(9,16)),21);
(((((((11,(4,20)),((1,2),(6,7))),(3,14)),(17,(10,(5,12)))),(18,(13,15))),((9,16),(8,19))),21);
((((((3,14),((13,15),((12,(17,(5,10))),(11,(6,((7,(1,2)),(4,20))))))),18),(9,16)),(8,19)),21);
((((((((4,20),(6,(1,2))),((5,(12,(10,17))),(13,15))),((3,14),(7,11))),18),(8,19)),(9,16)),21);
(((((((13,(15,((5,10),(12,17)))),(4,(1,(2,(6,7))))),(11,20)),(3,14)),(18,(8,19))),(9,16)),21);
((((((((15,(5,(12,(10,17)))),13),((6,(4,20)),(11,(7,(1,2))))),(3,14)),18),(8,19)),(9,16)),21);
(((((((((1,2),((4,20),(6,7))),11),(3,14)),((13,15),(12,(17,(5,10))))),18),(9,16)),(8,19)),21);
(((((((11,(6,(4,20))),(7,(1,2))),((12,(5,(10,17))),(13,15))),(3,14)),18),((8,19),(9,16))),21);
(((((((11,((4,20),(6,(1,(7,2))))),(13,15)),((3,14),((10,17),(5,12)))),18),(8,19)),(9,16)),21);
(((((((((6,7),20),11),4),(12,(5,(17,10)))),(18,((3,14),((1,2),(13,15))))),16),(19,(8,9))),21);
((((((((((7,(6,(1,2))),4),20),11),(3,14)),((10,17),(5,12))),18),(13,15)),((9,16),(8,19))),21);
((((((5,((13,15),(17,(10,12)))),(7,((1,2),(4,20)))),(6,(11,(3,14)))),18),((9,16),(8,19))),21);
((((((((((1,2),(4,20)),(6,7)),11),((5,(12,17)),(10,(13,15)))),(3,14)),18),(8,19)),(9,16)),21);
((((((((1,2),(6,7)),(11,(4,20))),((3,14),((5,(10,17)),(12,(13,15))))),(19,(8,9))),18),16),21);
(((((((10,17),(5,12)),(11,(13,15))),((3,14),((4,20),(6,(7,(1,2)))))),18),((9,16),(8,19))),21);
(((((((3,14),(13,(11,(6,((1,2),(4,20)))))),(7,(15,((10,17),(5,12))))),18),16),(19,(8,9))),21);
(((18,((11,((13,15),(12,(10,(5,17))))),((3,14),((6,7),((1,2),(4,20)))))),((8,19),(9,16))),21);
((((((3,14),((2,(4,20)),(11,(6,(1,7))))),(15,(13,(12,(5,(10,17)))))),(16,(19,(8,9)))),18),21);
((((((((20,(6,7)),(11,(4,(1,2)))),((12,(5,(10,17))),(13,15))),(3,14)),18),(9,16)),(8,19)),21);
(((((((((1,2),((4,20),(6,7))),(3,14)),(12,(13,15))),(11,(5,(10,17)))),(8,19)),(9,16)),18),21);
((((((((((20,(4,(7,(1,2)))),6),11),15),(3,14)),(13,(5,(12,(10,17))))),18),(19,(8,9))),16),21);
((((((3,14),((13,15),(11,((4,20),((1,2),(6,7)))))),((5,12),(10,17))),18),((9,16),(8,19))),21);
((((((((2,(6,(1,7))),20),4),((3,14),((5,(12,17)),(10,(13,15))))),18),11),((8,19),(9,16))),21);
((((((((10,(12,(5,17))),(13,15)),((4,20),11)),((3,14),((1,2),(7,6)))),18),(8,19)),(9,16)),21);
((((((3,14),((11,((1,2),((4,20),(6,7)))),(((12,17),(5,10)),13))),15),((9,16),18)),(8,19)),21);
(((((11,((1,2),(6,7))),(((13,15),(12,(17,(5,10)))),(3,14))),(18,(4,20))),((9,16),(8,19))),21);
(((((((6,7),((1,2),(4,20))),(11,(3,14))),(((10,17),(5,12)),(13,15))),18),((19,(8,9)),16)),21);
(((((((((4,20),6),(7,(1,2))),11),((3,14),((12,(5,(10,17))),(13,15)))),18),(19,(8,9))),16),21);
(((((((((7,((1,2),(4,20))),6),11),((12,(5,(10,17))),(13,15))),(3,14)),18),(8,19)),(9,16)),21);
(((((((11,(6,(7,(1,2)))),((3,14),(4,20))),((12,(5,(10,17))),(13,15))),18),(8,19)),(9,16)),21);
(((((((((((1,2),(4,20)),7),11),6),((5,(12,(10,17))),(13,15))),(3,14)),18),(9,16)),(8,19)),21);
(((((((7,(6,(1,2))),(4,20)),11),((3,14),((17,(12,(5,10))),(13,15)))),18),(16,(19,(8,9)))),21);
((((((((6,(1,2)),7),(11,(4,20))),(3,14)),((10,12),(13,(15,(5,17))))),18),((9,16),(8,19))),21);
((((((((((20,(1,2)),(6,7)),4),11),(3,14)),((13,15),(12,(5,(10,17))))),18),(8,19)),(9,16)),21);
((((((((((6,(1,2)),7),(4,20)),(13,15)),(3,14)),(11,(17,(5,(10,12))))),18),(8,19)),(9,16)),21);
((((((((7,(4,20)),(6,(1,2))),11),((13,15),(12,(5,(10,17))))),(3,14)),18),((8,19),(9,16))),21);
((((((((1,2),(4,20)),(11,(6,7))),((3,14),(5,((13,15),(12,(10,17)))))),18),(8,19)),(9,16)),21);
((((((((4,20),(15,(12,17))),(11,(6,(1,2)))),(3,14)),(18,(7,(13,(5,10))))),(8,19)),(9,16)),21);
((((((13,(15,((5,17),(10,12)))),((3,14),(((1,2),(4,20)),(11,(6,7))))),18),(9,16)),(8,19)),21);
((((((((13,15),(5,(12,(10,17)))),(6,11)),((3,14),((1,2),(7,(4,20))))),18),(9,16)),(8,19)),21);
((((((20,((2,(6,7)),(1,4))),(11,((3,14),((12,(17,(5,10))),(13,15))))),18),(9,16)),(8,19)),21);
((((((11,(((13,15),(5,(17,(10,12)))),((6,(1,2)),(7,(4,20))))),(3,14)),18),(8,19)),(9,16)),21);
((((((((6,(11,(20,(1,2)))),(3,14)),(4,7)),((13,15),(5,(12,(10,17))))),18),(8,19)),(9,16)),21);
((((((((12,(10,(5,17))),(13,15)),(3,14)),(11,((6,7),((1,2),(4,20))))),18),(8,19)),(9,16)),21);
((((((12,((5,(10,17)),(13,15))),((11,(20,(4,(7,(6,(1,2)))))),(3,14))),18),(8,19)),(9,16)),21);
(((((((11,(13,15)),(3,14)),((5,(12,(10,17))),((4,20),((1,2),(6,7))))),18),(9,16)),(8,19)),21);
(((((((2,(4,20)),(11,(1,(6,7)))),(13,15)),(5,(12,(10,17)))),(3,14)),((9,16),(18,(8,19)))),21);
(((((((((1,2),(6,7)),11),((12,(17,(5,10))),(13,15))),(3,14)),(4,20)),18),((9,16),(8,19))),21);
(((((((3,14),((13,15),(10,(5,(12,17))))),(11,((4,20),(6,(7,(1,2)))))),(19,(8,9))),16),18),21);
((((((6,(4,20)),(11,(7,(1,2)))),((3,14),((13,15),(12,(5,(10,17)))))),18),(16,(19,(8,9)))),21);
(((((((((((1,6),(7,20)),(2,4)),11),14),3),((13,15),(12,(5,(10,17))))),18),(9,16)),(8,19)),21);
((((((((((2,(1,7)),6),(4,20)),11),((13,15),((5,17),(10,12)))),(3,14)),18),(9,16)),(8,19)),21);
((((((11,((4,(7,(1,2))),(6,20))),((3,14),(((5,17),(10,12)),(13,15)))),18),(19,(8,9))),16),21);
(((((((7,(4,20)),(11,((6,(1,2)),((13,15),((5,10),(12,17)))))),(3,14)),18),(8,19)),(9,16)),21);
((((((11,(7,(2,(1,6)))),((3,14),((4,20),((13,15),((5,17),(10,12)))))),18),(8,19)),(9,16)),21);
(((((((((1,7),(4,20)),(2,6)),(11,(3,14))),18),((5,(10,17)),(12,(13,15)))),(8,19)),(9,16)),21);
(((((((((4,20),(2,7)),(1,6)),(11,(3,14))),((12,(5,(10,17))),(13,15))),18),(8,19)),(9,16)),21);
((((((((13,15),(12,(5,(10,17)))),(3,14)),(((6,(1,2)),(7,20)),(4,11))),18),(19,(8,9))),16),21);
((((((7,((4,20),(6,(1,2)))),11),((3,14),(13,((12,(5,(10,17))),15)))),((8,19),(9,16))),18),21);
(((((((((6,7),(1,2)),(20,4)),11),((3,14),((12,(5,(10,17))),(13,15)))),18),(19,(8,9))),16),21);
(((((((((6,(1,2)),(7,(4,20))),11),(3,14)),(17,((12,(5,10)),(13,15)))),18),(9,16)),(8,19)),21);
(((((((6,((4,20),(7,(1,2)))),11),((3,14),((13,15),(17,(10,(5,12)))))),18),(8,19)),(9,16)),21);
(((((((11,((4,20),((13,15),(10,(17,(5,12)))))),(3,14)),((1,2),(6,7))),18),(9,16)),(8,19)),21);
(((((11,((1,2),(7,(6,(4,20))))),((3,14),((12,(17,(5,10))),(13,15)))),((9,16),(8,19))),18),21);
(((((11,(13,15)),((3,14),(((5,10),(12,17)),((1,2),((4,20),(6,7)))))),18),((9,16),(8,19))),21);
(((((((((7,(1,2)),6),(4,20)),((13,15),(12,(10,(5,17))))),(11,(3,14))),18),(9,16)),(8,19)),21);
(((18,((11,(7,(4,20))),((1,(2,6)),((3,14),(13,(15,(5,(12,(10,17))))))))),(16,(19,(8,9)))),21);
((((((((11,(7,(4,20))),(6,(1,2))),((12,(17,(5,10))),(13,15))),(3,14)),(8,19)),18),(9,16)),21);
((((((11,(1,2)),((4,20),(6,7))),((3,14),((13,15),(12,(5,(10,17)))))),18),((8,19),(9,16))),21);
(((((11,(6,((4,20),(7,(1,2))))),((3,14),((13,15),((10,17),(5,12))))),(9,16)),(18,(8,19))),21);
((((((1,(7,(2,6))),(((3,14),(15,(13,(12,(5,(10,17)))))),(11,(4,20)))),18),(9,16)),(8,19)),21);
(((((((((4,20),(1,2)),(6,7)),(11,((10,17),(5,12)))),((3,14),(13,15))),18),(8,19)),(9,16)),21);
(((((((((10,17),5),12),(11,((1,2),(6,7)))),((3,14),(13,15))),(4,20)),18),(16,(19,(8,9)))),21);
(((((((3,(13,15)),(11,((4,20),(6,(7,(1,2)))))),(14,(10,(12,(5,17))))),18),(8,19)),(9,16)),21);
((((((((((4,20),((1,2),(6,7))),11),15),(3,14)),(13,((5,10),(12,17)))),18),(19,(8,9))),16),21);
((((((((((20,(6,7)),4),(1,2)),(3,14)),((13,15),(5,(12,(10,17))))),11),18),(8,19)),(9,16)),21);
((((((11,((3,14),(7,(6,(1,2))))),((4,20),((5,(17,(10,12))),(13,15)))),18),(9,16)),(8,19)),21);
((((18,(((4,20),(1,2)),(11,(6,7)))),((3,14),((13,15),(10,(12,(5,17)))))),((8,19),(9,16))),21);
(((((((13,15),(11,(4,20))),((12,(5,(10,17))),(3,14))),(7,(6,(1,2)))),18),((19,(8,9)),16)),21);
(((((3,14),((11,(6,7)),(15,(13,((5,17),(10,12)))))),(18,(2,(1,(4,20))))),((9,16),(8,19))),21);
(((((((((6,((4,20),(7,(1,2)))),(13,15)),11),(5,(10,(12,17)))),(3,14)),(18,19)),(8,9)),16),21);
((((((3,14),(((4,20),(6,(7,(1,2)))),(11,((13,15),(10,(12,(17,5))))))),18),(8,19)),(9,16)),21);
(((((((7,((3,14),(6,(11,20)))),(4,(1,2))),(13,(15,(12,(5,(10,17)))))),18),(8,19)),(9,16)),21);
(((((13,15),((5,12),(10,17))),((3,14),((6,(4,20)),(11,(7,(1,2)))))),(16,(18,(19,(8,9))))),21);
((((((((((1,2),(6,7)),(4,20)),11),((5,(12,(10,17))),(13,15))),(3,14)),18),(8,19)),(9,16)),21);
(((((((15,(11,((4,20),(2,6)))),((3,14),(13,(1,7)))),(12,(5,(10,17)))),18),(8,19)),(9,16)),21);
((((((((6,7),(1,2)),(11,(4,20))),((3,14),(15,(13,(12,(5,(10,17))))))),18),(8,19)),(9,16)),21);
((((((4,(((12,(5,(17,10))),(13,15)),(11,(20,(6,(7,(1,2))))))),(3,14)),18),(8,19)),(9,16)),21);
(((((((((5,12),(10,17)),(13,15)),(11,(1,2))),18),((3,14),((4,20),(6,7)))),(8,19)),(9,16)),21);
((((((((4,20),(7,(6,(1,2)))),(3,14)),(11,((12,(5,(10,17))),(13,15)))),18),(19,(8,9))),16),21);
((((((((1,2),(7,6)),(11,(4,20))),(12,(5,(10,17)))),((13,15),(3,14))),18),((9,16),(8,19))),21);
((((((((7,(4,20)),(6,(1,2))),11),((12,17),(5,10))),((3,14),(13,15))),18),((9,16),(8,19))),21);
(((((((20,((1,2),(6,7))),4),((13,15),((5,17),(10,12)))),(11,(3,14))),18),((9,16),(8,19))),21);
(((((((((1,2),7),(6,(4,20))),11),(3,14)),((12,(5,(10,17))),(13,15))),18),((9,16),(8,19))),21);
(((((((11,((7,(1,2)),(6,(4,20)))),(3,14)),(13,(15,((10,17),(5,12))))),18),(8,19)),(9,16)),21);
((((((((1,2),(4,20)),(11,(6,7))),((13,15),(3,14))),(10,(12,(5,17)))),((8,19),(9,16))),18),21);
((((((((11,((6,20),(1,2))),(4,7)),(3,14)),((13,15),(17,(5,(10,12))))),18),(8,19)),(9,16)),21);
(((((((14,(7,11)),(6,20)),((4,(1,2)),((12,(5,(10,17))),(13,15)))),3),18),((8,19),(9,16))),21);
(((((((3,14),(((5,10),(12,17)),(11,(13,15)))),(6,((4,20),(7,(1,2))))),18),(8,19)),(9,16)),21);
(((((11,(7,(6,((4,20),(1,2))))),((3,14),((13,15),(12,(5,(10,17)))))),18),((9,16),(8,19))),21);
((((((((((7,(4,20)),6),(1,2)),11),(3,14)),((5,12),((10,17),(13,15)))),18),(9,16)),(8,19)),21);
(((((((((6,7),(11,((1,2),(4,20)))),(17,(5,(10,12)))),(13,15)),(3,14)),18),(8,19)),(9,16)),21);
((((((11,(7,(6,(4,20)))),((1,2),((13,15),(12,(17,(5,10)))))),(3,14)),18),((9,16),(8,19))),21);
(((((((((6,(7,(1,2))),(4,20)),(3,14)),(13,15)),18),(11,(12,(5,(10,17))))),(8,19)),(9,16)),21);
((((((((((1,2),(6,7)),(4,20)),11),(3,14)),((10,12),((5,17),(13,15)))),18),(8,19)),(9,16)),21);
((((((((3,14),(11,(12,((10,17),5)))),(13,15)),((1,2),((4,20),(6,7)))),18),(9,16)),(8,19)),21);
((((((((((1,7),2),(4,20)),11),(3,14)),(12,(5,(10,17)))),(6,(13,15))),(18,(8,19))),(9,16)),21);
((((((11,((4,20),(6,(7,(1,2))))),(((10,17),(5,12)),(13,15))),(3,14)),18),((9,16),(8,19))),21);
((((((((6,((1,2),20)),(11,(4,7))),(12,(5,(10,17)))),(3,14)),(13,15)),18),((9,16),(8,19))),21);
((((((11,(((4,20),(6,((1,2),7))),(5,((12,(10,17)),(13,15))))),(3,14)),18),(8,19)),(9,16)),21);
(((((((((4,(6,7)),20),(1,2)),11),(5,(17,(10,12)))),((3,14),(13,15))),18),((9,16),(8,19))),21);
(((((((11,(4,20)),((5,(12,(10,17))),(13,15))),((7,(6,(1,2))),(3,14))),18),(8,19)),(9,16)),21);
(((((((((4,20),(6,(1,2))),(7,11)),((12,(17,(10,5))),(13,15))),(3,14)),18),(8,19)),(9,16)),21);
((((((((4,20),(6,11)),(15,(13,(12,(17,(5,10)))))),(7,(1,2))),(3,14)),18),((9,16),(8,19))),21);
((((((11,(3,14)),((4,20),((1,2),(6,7)))),((13,15),((5,17),(10,12)))),18),((9,16),(8,19))),21);
((((((((7,(6,(1,2))),(4,20)),11),((3,14),((13,15),((10,17),(5,12))))),18),(8,19)),(9,16)),21);
(((((((3,((13,15),((10,17),(5,12)))),14),((7,11),((4,20),(6,(1,2))))),18),(9,16)),(8,19)),21);
((((((((((1,6),2),7),(11,(4,20))),(3,14)),((17,(5,10)),(12,(13,15)))),18),(8,19)),(9,16)),21);
(((((((((6,(7,(1,2))),11),(4,20)),(15,(13,(12,(5,(10,17)))))),(3,14)),18),(8,19)),(9,16)),21);
((((((((((4,20),(6,7)),(1,2)),(3,14)),((12,(5,(10,17))),(13,15))),11),18),(8,19)),(9,16)),21);
(((((((11,(4,20)),(7,(6,(1,2)))),((3,14),(12,((10,(5,17)),(13,15))))),18),(8,19)),(9,16)),21);
((((((((7,(6,(1,2))),(11,(4,20))),(3,14)),((5,10),((13,15),(12,17)))),18),(8,19)),(9,16)),21);
((((((((4,20),(11,((2,7),(1,6)))),((13,15),(17,(12,(5,10))))),(3,14)),18),(9,16)),(8,19)),21);
((((11,((3,14),(((12,(5,(10,17))),(13,15)),((4,20),(6,(7,(1,2))))))),18),((9,16),(8,19))),21);
(((((((3,14),(13,15)),(11,((10,17),(5,12)))),((7,(1,2)),(6,(4,20)))),(8,19)),(18,(9,16))),21);
((((((((5,10),((12,17),(13,15))),(11,(6,(7,(1,2))))),((3,14),(4,20))),18),(8,19)),(9,16)),21);
((((((((3,14),(4,20)),((13,15),(17,(12,(5,10))))),(11,(6,(7,(1,2))))),18),(9,16)),(8,19)),21);
(((((((11,(6,7)),((4,20),(1,2))),((3,14),((17,(12,(5,10))),(13,15)))),18),(9,16)),(8,19)),21);
((((((((13,15),(12,(5,(10,17)))),(11,(((7,6),(4,20)),(1,2)))),(3,14)),18),(19,(8,9))),16),21);
(((((((((6,7),((1,2),(4,20))),11),((13,15),(17,(12,(5,10))))),(3,14)),18),(8,19)),(9,16)),21);
(((((((((4,20),(6,7)),11),(1,2)),((3,14),((13,15),(10,(12,(5,17)))))),18),(8,19)),(9,16)),21);
(((((((5,(10,(12,17))),(13,15)),11),((3,14),((4,20),(6,(7,(1,2)))))),18),((9,16),(8,19))),21);
((((((((12,(5,(10,17))),(13,15)),((1,2),(6,(7,(4,20))))),(11,(3,14))),18),(8,19)),(9,16)),21);
((((((11,(6,(1,2))),((13,15),(12,(5,(10,17))))),((3,14),(7,(4,20)))),18),((9,16),(8,19))),21);
((((((((6,(7,(1,2))),(4,20)),11),((13,15),(12,(17,(5,10))))),(3,14)),18),((9,16),(8,19))),21);
(((((((((4,20),(6,7)),(1,2)),11),(3,14)),((13,15),((5,10),(12,17)))),18),((9,16),(8,19))),21);
(((((((11,((4,20),(1,(7,2)))),6),(12,((10,(5,17)),(13,15)))),(3,14)),18),(16,(19,(8,9)))),21);
(((((((3,14),(((13,15),(12,(5,(10,17)))),(11,(4,20)))),18),(6,(7,(1,2)))),(8,19)),(9,16)),21);
((((((((7,(1,2)),6),(4,20)),((3,14),(11,((12,(17,(5,10))),(13,15))))),18),(8,19)),(9,16)),21);
(((((((11,((4,20),(6,(1,2)))),7),(3,14)),(15,(13,((10,17),(5,12))))),18),((9,16),(8,19))),21);
((((((((((10,17),(5,12)),((7,(1,2)),(6,(4,20)))),11),(13,15)),18),(3,14)),(8,19)),(9,16)),21);
((((11,((((15,((10,17),(5,12))),13),((3,14),20)),(4,(7,(6,(1,2)))))),(18,(19,(8,9)))),16),21);
((((((((6,(1,2)),(4,20)),7),(11,((3,14),((12,(10,(5,17))),(13,15))))),18),(8,19)),(9,16)),21);
(((((11,(4,(20,((1,2),(6,7))))),((13,15),((10,17),(5,12)))),(3,14)),((9,16),(18,(8,19)))),21);
((((((11,((6,7),((1,2),(4,20)))),14),(3,(((5,10),(12,17)),(13,15)))),18),((9,16),(8,19))),21);
(((((((((7,(2,6)),20),(1,4)),(((10,(12,17)),((13,15),5)),(3,14))),11),18),(8,19)),(9,16)),21);
((((((((((6,7),(1,2)),(4,20)),11),((12,(10,17)),((13,15),5))),(3,14)),18),(9,16)),(8,19)),21);
((((((((12,(5,(10,17))),(15,13)),(((1,2),(4,20)),(6,(11,7)))),(3,14)),18),(8,19)),(9,16)),21);
(((((((4,(1,2)),((20,(6,7)),11)),(3,14)),((13,15),((10,12),(5,17)))),18),((9,16),(8,19))),21);
(((((((((6,(7,(1,2))),(4,20)),11),((12,(17,(5,10))),(13,15))),(3,14)),18),(8,19)),(9,16)),21);
((((((13,15),((1,2),(6,7))),((3,14),((10,(12,(5,17))),(11,(4,20))))),18),((9,16),(8,19))),21);
((((((3,(((13,15),((5,10),(12,17))),(11,(((1,2),(4,20)),(6,7))))),14),(8,19)),(9,16)),18),21);
(((((((((6,(1,2)),7),20),(4,11)),((3,14),((13,15),((5,17),(10,12))))),18),(19,(8,9))),16),21);
(((((((((20,(4,(6,7))),(11,(1,2))),3),15),(14,(13,((10,17),(5,12))))),18),(8,19)),(9,16)),21);
(((((((11,(20,((4,(6,7)),(1,2)))),((3,14),((13,15),(12,(5,17))))),10),18),(8,19)),(9,16)),21);
(((((11,((4,20),((1,2),(6,7)))),((13,15),(17,(12,(5,10))))),(3,14)),((18,(8,19)),(9,16))),21);
(((((11,((5,(10,17)),(12,(13,15)))),((3,14),((1,2),((4,20),(6,7))))),18),((8,19),(9,16))),21);
(((((((3,14),(7,(6,(1,2)))),((13,15),(5,(12,(10,17))))),(11,(4,20))),18),((9,16),(8,19))),21);
(((((((13,(11,(6,(1,2)))),7),(4,20)),((3,14),(15,(12,(5,(10,17)))))),18),((9,16),(8,19))),21);
(((((((12,(5,(10,17))),(13,15)),(3,14)),((7,(6,(1,2))),(11,(4,20)))),18),((9,16),(8,19))),21);
((((((((6,(1,2)),(4,20)),11),7),((3,14),((10,(5,(12,17))),(13,15)))),18),(16,(19,(8,9)))),21);
(((((((((13,15),((5,17),(10,12))),((1,2),(7,(6,(4,20))))),(3,14)),11),18),(8,19)),(9,16)),21);
((((((((13,15),(12,(5,(10,17)))),(11,(3,14))),((4,20),(6,(7,(1,2))))),18),(8,19)),(9,16)),21);
((((((13,(11,(((4,20),(6,7)),((1,2),(3,14))))),(15,(12,(10,(5,17))))),18),(8,19)),(9,16)),21);
(((((((11,((13,15),(20,(4,((1,2),(6,7)))))),((10,17),(5,12))),(3,14)),18),(19,(8,9))),16),21);
(((((((7,(4,20)),(12,((5,(10,17)),(13,15)))),((3,14),(11,(6,(1,2))))),18),(8,19)),(9,16)),21);
((((((((4,20),(6,7)),(11,(1,2))),((13,15),(5,(12,(10,17))))),(3,14)),((9,16),(8,19))),18),21);
((((((((11,6),(4,20)),(7,(1,2))),(3,((17,(5,10)),(12,(13,15))))),14),18),((8,19),(9,16))),21);
(((((((12,(17,(5,10))),(11,(6,(20,(4,(7,(1,2))))))),(13,15)),(3,14)),18),((9,16),(8,19))),21);
((((((((3,14),((13,15),(17,(12,(5,10))))),(7,(1,2))),(11,(6,(4,20)))),18),(8,19)),(9,16)),21);
(((((((((4,20),((1,2),(6,7))),11),(3,14)),((13,15),(10,(12,(5,17))))),18),(9,16)),(8,19)),21);
(((((((11,((4,20),(1,2))),(6,7)),((3,14),((13,15),(17,(12,(5,10)))))),18),(9,16)),(8,19)),21);
(((((((1,2),((10,17),(3,14))),(((13,15),(5,12)),(11,(6,(7,(4,20)))))),18),(9,16)),(8,19)),21);
(((((((((6,(1,2)),(11,(4,20))),7),((3,14),(12,(10,(5,17))))),(13,15)),18),(8,19)),(9,16)),21);
((((((11,((5,(17,10)),(12,15))),((4,20),(6,(7,(1,2))))),(18,(13,(3,14)))),(8,19)),(9,16)),21);
((((((((7,(11,((1,2),(6,(4,20))))),((5,(10,17)),(13,15))),(3,14)),12),18),(19,(8,9))),16),21);
((((((6,7),(11,((1,2),(4,20)))),((3,14),((13,15),((10,17),(5,12))))),18),((8,19),(9,16))),21);
((((((7,(6,(1,2))),(12,((13,15),(17,(5,10))))),((11,(4,20)),(3,14))),18),(16,(19,(8,9)))),21);
(((((((((((2,7),(6,1)),11),20),4),(5,((13,15),(12,(10,17))))),(3,14)),18),(8,19)),(9,16)),21);
((((((((4,6),(2,7)),(10,(3,14))),((5,(12,17)),(13,15))),(11,(1,20))),18),((8,19),(9,16))),21);
((((((6,(7,(1,2))),(4,20)),11),(18,((3,14),((13,15),(12,(17,(10,5))))))),((9,16),(8,19))),21);
(((((((((6,20),(4,(7,(1,2)))),11),(3,14)),((13,15),((10,17),(5,12)))),18),(9,16)),(8,19)),21);
(((((((((6,7),4),20),(11,(1,2))),(12,(10,(17,5)))),((3,14),(13,15))),18),((8,19),(9,16))),21);
(((((((((6,(1,2)),7),20),(3,14)),(11,((13,15),(5,(12,(10,17)))))),4),18),(16,(19,(8,9)))),21);
((((((((4,(6,7)),(11,(20,(1,2)))),((12,(17,(5,10))),(13,15))),(3,14)),18),(8,19)),(9,16)),21);
((((((((13,15),(5,(12,(10,17)))),(((1,2),(6,7)),4)),(3,14)),(11,20)),18),((9,16),(8,19))),21);
((((((((7,6),2),1),(4,20)),(((13,15),(5,(12,(10,17)))),((3,14),11))),18),((8,19),(9,16))),21);
((((((((((7,(1,2)),4),(6,20)),11),(3,14)),(10,((13,15),(12,(5,17))))),18),(9,16)),(8,19)),21);
((((((((7,((4,20),1)),(2,6)),11),(13,15)),((12,(5,(10,17))),(3,14))),18),((9,16),(8,19))),21);
((((((((11,(3,14)),((4,20),(7,((1,2),6)))),(13,(12,(5,(10,17))))),15),18),16),(19,(8,9))),21);
(((((((12,(10,(5,17))),(13,15)),(11,(6,(1,2)))),((3,14),(7,(4,20)))),18),((9,16),(8,19))),21);
(((((3,14),(((12,(17,(5,10))),(13,15)),(11,((4,20),((1,2),(6,7)))))),18),(16,(19,(8,9)))),21);
((((((13,15),(5,(12,(10,17)))),((3,14),((20,(6,(1,2))),(11,(4,7))))),18),((8,19),(9,16))),21);
(((((((((7,(4,20)),(6,(1,2))),(3,14)),11),(((10,17),(5,12)),(13,15))),18),(8,19)),(9,16)),21);
(((((((3,14),(4,20)),((15,(13,((5,10),(12,17)))),(11,(7,(6,(1,2)))))),18),(9,16)),(8,19)),21);
(((((((4,(6,20)),((3,14),(11,(7,(1,2))))),((13,15),(12,(5,(10,17))))),18),(8,19)),(9,16)),21);
((((((12,((10,(5,17)),(11,((3,14),((7,(1,2)),(6,(4,20))))))),(13,15)),18),(19,(8,9))),16),21);
((((((6,((4,20),(7,(1,2)))),11),((3,14),(((5,10),(12,17)),(13,15)))),18),((8,19),(9,16))),21);
(((((((12,(5,(10,17))),((3,14),(4,20))),((13,15),(11,(6,(7,(1,2)))))),18),(19,(8,9))),16),21);
(((((((((4,20),(11,(7,(6,(1,2))))),(13,15)),(12,(10,(5,17)))),(3,14)),18),(8,19)),(9,16)),21);
(((((((((7,(4,20)),6),(1,2)),14),18),(11,(3,((13,15),(12,(5,(10,17))))))),(19,(8,9))),16),21);
(((((((((4,20),11),(1,2)),(6,7)),((3,14),((13,15),(17,(12,(5,10)))))),18),16),(19,(8,9))),21);
(((((((((7,(6,(1,2))),(4,20)),11),((13,15),((5,17),(10,12)))),(3,14)),18),(8,19)),(9,16)),21);
(((((11,((4,20),(6,((1,2),7)))),((5,12),((10,17),(13,15)))),(3,14)),(18,((8,19),(9,16)))),21);
((((((7,(6,(1,2))),(11,(4,20))),(18,((3,14),((12,(5,(10,17))),(13,15))))),(8,19)),(9,16)),21);
((((((((20,(4,(6,7))),2),(11,(15,((10,17),(5,12))))),(1,(3,14))),18),13),(16,(19,(8,9)))),21);
(((((((12,(17,(5,10))),(13,15)),(11,(6,(1,2)))),((3,14),(7,(4,20)))),18),((9,16),(8,19))),21);
((((((13,(11,((6,7),((1,2),(4,20))))),((3,14),(15,(12,(17,(5,10)))))),18),(8,19)),(9,16)),21);
(((((((6,7),((4,20),11)),((1,2),((12,(5,(10,17))),(13,15)))),(3,14)),18),((9,16),(8,19))),21);
((((((11,((4,20),(6,(7,(1,2))))),((12,(5,(10,17))),(13,15))),(3,14)),18),((9,16),(8,19))),21);
((((((((6,(7,(1,2))),11),((3,14),(4,20))),((5,12),((10,17),(13,15)))),18),(8,19)),(9,16)),21);
((((((11,(((1,2),(6,7)),(4,20))),(((10,12),((5,17),(13,15))),(3,14))),18),(19,(8,9))),16),21);
(((((((((1,2),(6,7)),(4,20)),11),((12,(5,(10,17))),(13,15))),(3,14)),18),((9,16),(8,19))),21);
(((((((12,(5,(10,17))),(11,((6,(1,2)),(7,(4,20))))),((3,14),(13,15))),18),(8,19)),(9,16)),21);
((((((((6,7),((1,2),(4,20))),11),((13,15),(12,(5,(10,17))))),(3,14)),18),((9,16),(8,19))),21);
((((((13,15),(12,(5,(10,17)))),((((1,6),(4,20)),(2,7)),11)),(3,14)),((18,(8,19)),(9,16))),21);
((((((((11,((4,20),(6,7))),(1,2)),(3,14)),(15,(13,(12,(5,(10,17)))))),18),(19,(8,9))),16),21);
(((((((((11,(7,(6,(1,2)))),(10,(12,(5,17)))),3),(13,15)),14),(4,20)),18),((9,16),(8,19))),21);
((((((((12,(5,(10,17))),(6,7)),((11,((1,2),(4,20))),(3,14))),(13,15)),18),(9,16)),(8,19)),21);
(((((((11,((6,7),(4,20))),((5,10),(12,17))),((1,2),((3,14),(13,15)))),18),(19,(8,9))),16),21);
(((((((13,(12,(10,17))),5),15),((3,14),(11,((6,7),((1,2),(4,20)))))),18),((9,16),(8,19))),21);
((((((((7,(20,(11,4))),(6,(1,2))),15),((3,14),(13,(12,(5,(10,17)))))),18),(19,(8,9))),16),21);
(((((((3,14),((6,(7,(1,2))),(10,(13,15)))),(11,(4,20))),(12,(5,17))),18),((8,19),(9,16))),21);
(((((((2,(1,7)),(((4,20),6),11)),((3,14),((13,15),((5,10),(12,17))))),(8,19)),18),(9,16)),21);
(((((9,16),(((3,14),(6,((4,20),(7,(1,2))))),(11,((12,(10,(5,17))),(13,15))))),18),(8,19)),21);
(((((((((4,20),(2,(6,7))),1),(3,14)),((12,(10,17)),(11,(5,(13,15))))),18),(8,19)),(9,16)),21);
(((((((((6,(7,(1,2))),(4,20)),11),((13,15),(12,(10,(5,17))))),(3,14)),18),(8,19)),(9,16)),21);
(((((((((3,14),(13,15)),(11,(7,(6,(1,2))))),(4,20)),(12,(5,(10,17)))),18),(9,16)),(8,19)),21);
((((((((((5,(12,17)),(10,15)),((4,20),(6,(1,2)))),(11,(3,14))),13),7),18),(8,19)),(9,16)),21);
((((((11,(1,6)),((4,20),(2,7))),((3,14),(((5,10),(12,17)),(13,15)))),18),((9,16),(8,19))),21);
(((((((3,14),(1,2)),11),(((6,7),(4,20)),((13,15),(12,(17,(5,10)))))),((8,19),18)),(9,16)),21);
(((((((11,((6,7),((1,2),(4,20)))),(15,(5,(12,(10,17))))),(3,14)),13),18),((8,19),(9,16))),21);
((((((((11,(13,15)),(3,14)),((10,17),(5,12))),((4,20),(6,(7,(1,2))))),18),(8,19)),(9,16)),21);
((((((((1,2),(6,7)),11),((3,14),((4,20),((13,15),((10,17),(5,12)))))),18),(8,19)),(9,16)),21);
(((((((13,(15,(12,(5,(10,17))))),(3,14)),(11,((4,20),((1,2),(6,7))))),18),16),(19,(8,9))),21);
(((((((((4,(1,2)),(20,(6,7))),11),(3,14)),((10,((5,17),12)),(13,15))),18),(9,16)),(8,19)),21);
(((((((3,14),(((10,17),(5,12)),(13,15))),(11,((4,20),(6,(7,(1,2)))))),18),(8,19)),(9,16)),21);
(((((((((20,(7,(1,2))),4),6),11),(3,14)),((13,15),(12,(5,(10,17))))),18),((8,19),(9,16))),21);
((((((((3,14),((13,15),(12,(5,(10,17))))),(7,11)),((4,20),(6,(1,2)))),18),16),(19,(8,9))),21);
((((((((6,7),20),11),((17,(12,(5,10))),(13,15))),((3,14),(4,(1,2)))),18),((9,16),(8,19))),21);
((((((((17,(13,15)),(11,((1,2),((4,20),(6,7))))),(5,(10,12))),(3,14)),18),(8,19)),(9,16)),21);
(((((((3,14),(7,(4,20))),(11,(6,(1,2)))),(17,((13,15),(12,(5,10))))),18),((9,16),(8,19))),21);
((((((((17,(12,5)),10),(13,15)),((6,7),((1,2),(4,20)))),(18,(11,(3,14)))),(8,19)),(9,16)),21);
((((((((((6,((1,2),7)),20),11),4),(12,(10,(5,17)))),(13,15)),(3,14)),18),((9,16),(8,19))),21);
((((((4,(11,(20,((1,2),(6,7))))),((3,14),((5,(10,17)),(12,(13,15))))),18),(19,(8,9))),16),21);
((((((((3,14),((5,10),(12,17))),((13,15),(11,(4,(2,7))))),(1,(6,20))),18),(19,(8,9))),16),21);
((((((((11,((4,20),(6,(1,2)))),7),(3,14)),((13,15),(12,(10,(5,17))))),18),(9,16)),(8,19)),21);
((((((((20,(6,(1,2))),(4,7)),11),(13,15)),((3,14),(17,(12,(5,10))))),18),((9,16),(8,19))),21);
(((((((11,(7,(4,20))),((13,15),(12,(5,(10,17))))),((6,(1,2)),(3,14))),18),(8,19)),(9,16)),21);
(((((((1,(6,7)),(11,2)),(4,20)),((3,14),((12,(5,(10,17))),(13,15)))),(9,16)),(18,(8,19))),21);
(((((((((7,(1,2)),6),11),(4,20)),18),((3,14),((13,15),(17,(12,(5,10)))))),(9,16)),(8,19)),21);
(((((((11,((1,2),(7,(4,20)))),(3,14)),(6,((5,(12,(10,17))),(13,15)))),18),(8,19)),(9,16)),21);
(((((((11,(((10,17),(5,12)),(13,15))),(3,14)),((1,2),((6,7),(4,20)))),18),(9,16)),(8,19)),21);
(((((11,((3,14),(4,20))),((13,15),((5,(12,(10,17))),((1,2),(6,7))))),18),((8,19),(9,16))),21);
(((((((((7,(1,2)),(4,20)),6),11),(3,14)),(15,(13,(5,(12,(10,17)))))),18),((9,16),(8,19))),21);
((((((((7,(4,20)),(2,(1,6))),11),((3,14),((13,15),(10,(12,(5,17)))))),18),(8,19)),(9,16)),21);
((((((((11,((7,(1,2)),(6,(4,20)))),(10,(12,(5,17)))),(13,15)),(3,14)),18),(19,(8,9))),16),21);
(((((((((4,20),2),(1,(6,7))),11),(((13,15),(12,(5,(10,17)))),(3,14))),18),(19,(8,9))),16),21);
((((((((3,14),(((10,17),(5,12)),(13,15))),(4,20)),(11,((2,6),(1,7)))),18),(8,19)),(9,16)),21);
(((((((((1,2),7),(4,20)),6),11),(((10,12),(5,17)),((3,14),(13,15)))),18),((19,(8,9)),16)),21);
((((((12,(17,(10,5))),(13,15)),((4,6),((3,14),(11,(20,(7,(1,2))))))),18),((9,16),(8,19))),21);
(((((((3,14),((13,15),((10,17),(5,12)))),(11,20)),(7,(4,(6,(1,2))))),18),((9,16),(8,19))),21);
(((((((((6,7),((1,2),11)),(4,20)),(13,(12,(5,(10,17))))),(15,(3,14))),(8,19)),18),(9,16)),21);
((((((((((7,(1,2)),20),6),4),11),((3,14),((13,15),((5,10),(12,17))))),18),(8,19)),(9,16)),21);
((((((((4,20),(7,(11,(6,(1,2))))),(3,14)),((13,15),(12,(5,(17,10))))),18),(8,19)),(9,16)),21);
((((8,19),(18,((11,((13,15),(12,(10,(5,17))))),((4,20),((3,14),((1,2),(6,7))))))),(9,16)),21);
(((((((3,14),((12,(10,(5,17))),(13,15))),((6,7),((1,2),(4,20)))),11),18),((8,19),(9,16))),21);
(((((((5,(12,(10,17))),(13,15)),((1,2),(4,7))),(18,((3,14),(11,(6,20))))),(8,19)),(9,16)),21);
((((8,19),(18,((((1,2),(4,20)),(11,(6,7))),((3,14),(12,((10,(5,17)),(13,15))))))),(9,16)),21);
(((((((((4,20),(2,7)),6),11),1),(18,((3,14),((12,(17,(5,10))),(13,15))))),(8,19)),(9,16)),21);
((((((((13,15),(3,14)),(12,(5,(10,17)))),((4,20),(11,(7,(6,(1,2)))))),18),(8,19)),(9,16)),21);
(((((((3,14),((2,((6,7),(1,(4,20)))),11)),(((10,17),(5,12)),(13,15))),18),(8,19)),(9,16)),21);
(((((((11,((3,14),(13,15))),((5,10),(12,17))),((20,(6,(1,2))),(4,7))),18),(8,19)),(9,16)),21);
(((((((((6,7),(4,20)),11),(1,2)),(((12,(10,(5,17))),(13,15)),(14,3))),18),(8,19)),(9,16)),21);
(((((((11,((1,2),(4,20))),(12,(17,(5,10)))),((13,15),((3,14),(6,7)))),18),(19,(8,9))),16),21);
(((((((((6,(1,2)),(7,20)),11),((13,15),(17,(12,(5,10))))),(4,(3,14))),18),(8,19)),(9,16)),21);
((((((((20,(6,7)),(4,(1,2))),11),(13,15)),((3,14),((10,17),(5,12)))),18),(16,(19,(8,9)))),21);
((((((((1,2),(6,7)),(4,20)),(3,14)),11),(16,(18,((5,(10,(12,17))),(13,15))))),(19,(8,9))),21);
(((((((((6,(1,2)),7),(4,20)),(11,(3,14))),((13,15),(5,(12,(10,17))))),18),(9,16)),(8,19)),21);
(((((((3,14),(15,(12,(5,(10,17))))),(11,(2,((4,20),(1,(6,7)))))),(18,13)),(8,19)),(9,16)),21);
((((((((((4,(6,7)),20),(1,2)),11),(13,15)),((12,(5,(10,17))),(3,14))),18),(8,19)),(9,16)),21);
((((((((13,15),((6,7),(11,(4,(1,2))))),20),((3,14),(5,(12,(10,17))))),18),(8,19)),(9,16)),21);
((((((((11,(4,20)),((1,2),(6,7))),((3,14),(13,15))),(12,(5,(10,17)))),18),(8,19)),(9,16)),21);
(((((((10,((12,(5,17)),(13,15))),(3,14)),((11,(4,7)),((1,2),(6,20)))),18),(19,(8,9))),16),21);
(((((((11,(6,(4,20))),(7,(1,2))),((3,14),(12,(5,(10,17))))),(13,15)),18),((8,19),(9,16))),21);
((((((((((6,(1,2)),7),(4,20)),11),(3,14)),((13,15),((10,17),(5,12)))),18),(8,19)),(9,16)),21);
((((((((((1,2),(6,7)),4),20),11),(3,14)),((12,(10,(5,17))),(13,15))),18),(16,(19,(8,9)))),21);
(((((((4,20),((1,2),(6,7))),11),((3,14),(12,((5,(10,17)),(13,15))))),18),((8,19),(9,16))),21);
((((((((11,(6,(2,(7,20)))),(1,4)),((13,15),((10,17),(5,12)))),18),(3,14)),(9,16)),(8,19)),21);
((((11,((3,14),(((4,20),((1,2),(6,7))),((13,15),(12,(5,(10,17))))))),18),((9,16),(8,19))),21);
((((((20,(((1,2),(6,7)),(11,4))),((13,15),(17,(10,(5,12))))),(3,14)),18),((9,16),(8,19))),21);
((((((11,((2,(6,7)),(1,(4,20)))),((3,14),((13,15),((10,17),(5,12))))),18),(19,(8,9))),16),21);
((((((((((7,(1,2)),6),20),4),11),((12,(5,(10,17))),(13,15))),(3,14)),18),((8,19),(9,16))),21);
((((((((((1,2),(6,7)),11),(4,20)),(3,14)),18),(((5,17),(10,12)),(13,15))),(8,19)),(9,16)),21);
((((((((3,(13,15)),(7,(2,(4,20)))),14),(17,(5,(10,12)))),(11,(1,6))),18),((9,16),(8,19))),21);
((((((((11,((7,(6,(1,2))),(4,20))),(3,14)),5),((12,(10,17)),(13,15))),18),(8,19)),(9,16)),21);
(((((((11,((4,20),((1,2),(6,7)))),(14,(13,15))),(3,(12,(17,(5,10))))),18),(9,16)),(8,19)),21);
(((((((13,15),(12,(5,(10,17)))),(11,((3,14),(20,(4,(6,(7,(1,2)))))))),18),(9,16)),(8,19)),21);
(((((((((1,(6,2)),7),4),20),((3,14),((13,15),(12,(10,(5,17)))))),11),((19,(8,9)),18)),16),21);
(((((11,(4,20)),((7,(6,(1,2))),((10,12),((5,17),(13,15))))),(3,14)),(((8,19),(9,16)),18)),21);
((((((((4,20),(6,(7,(1,2)))),(11,(((5,10),(12,17)),(13,15)))),(3,14)),18),(9,16)),(8,19)),21);
((((((13,15),((12,(17,(10,5))),(11,((4,20),(6,(7,(1,2))))))),(3,14)),18),((9,16),(8,19))),21);
((((((((7,((3,14),(15,((12,17),(5,10))))),(6,(1,2))),(11,(4,20))),13),18),(9,16)),(8,19)),21);
(((((((((4,7),((1,2),(6,20))),(3,14)),((13,15),(12,(10,(17,5))))),11),18),(8,19)),(9,16)),21);
((((((((17,(5,(10,12))),(15,13)),(3,14)),(11,((4,20),((1,2),(6,7))))),18),(9,16)),(8,19)),21);
(((((((6,(4,20)),7),(1,2)),((3,14),(11,((13,15),(10,(12,(5,17))))))),18),((9,16),(8,19))),21);
(((((((((7,(4,20)),11),(6,(1,2))),(3,14)),((13,15),(12,(5,(10,17))))),18),(19,(8,9))),16),21);
(((((((1,7),(11,(2,(6,(4,20))))),((13,15),(5,(12,(10,17))))),(3,14)),18),((8,19),(9,16))),21);
(((((((((1,2),((4,20),(6,7))),11),((10,17),(5,12))),((3,14),(13,15))),18),(9,16)),(8,19)),21);
(((((((3,14),(11,(2,(4,20)))),((13,15),(12,(5,(10,17))))),(6,(1,7))),18),(16,(19,(8,9)))),21);
(((((((11,(7,(4,(6,(1,2))))),(12,(5,(10,17)))),((13,15),(3,14))),20),((9,16),18)),(8,19)),21);
(((((((11,((4,20),((1,2),(6,7)))),(3,14)),((13,15),(12,(17,(5,10))))),18),(19,(8,9))),16),21);
((((((((11,(10,(12,(5,17)))),(3,14)),(13,15)),((4,20),((1,2),(6,7)))),18),(19,(8,9))),16),21);
(((((((((7,(4,20)),(6,(1,2))),11),((13,15),(17,(12,(5,10))))),(3,14)),18),(8,19)),(9,16)),21);
((((((((13,15),(10,(5,(17,12)))),(((4,20),(6,(1,2))),(7,11))),(3,14)),18),(19,(8,9))),16),21);
((((((6,(3,14)),(11,(((5,17),(10,12)),(13,15)))),((4,20),(2,(1,7)))),(8,19)),((9,16),18)),21);
((((((((1,2),((4,20),(6,7))),((3,14),(12,(10,(5,17))))),(11,(13,15))),18),(19,(8,9))),16),21);
((((((((6,(7,(1,2))),11),(4,20)),(3,14)),((13,15),((5,10),(12,17)))),18),((8,19),(9,16))),21);
((((((((3,14),((6,(1,2)),(11,(7,(4,20))))),((10,17),(5,12))),(13,15)),18),(19,(8,9))),16),21);
((((((((3,14),((12,(5,(10,17))),(13,15))),(1,((4,20),(7,(2,6))))),11),18),(8,19)),(9,16)),21);
(((((((11,(7,(4,20))),((3,14),(6,(1,2)))),((13,15),((10,17),(5,12)))),18),(8,19)),(9,16)),21);
((((((((1,2),(6,7)),(4,20)),((13,15),(10,(12,(5,17))))),(11,(3,14))),18),(16,(19,(8,9)))),21);
((((((((((6,(1,7)),2),(4,20)),11),(17,((12,(5,10)),(13,15)))),(3,14)),18),(8,19)),(9,16)),21);
(((((((((6,7),(1,2)),(4,20)),((13,15),(17,(12,(5,10))))),(11,(3,14))),18),(8,19)),(9,16)),21);
(((((7,((3,14),(11,(6,(1,2))))),((4,20),((5,(10,17)),(12,(13,15))))),18),((8,19),(9,16))),21);
(((((((13,15),(5,(12,(10,17)))),((4,20),(6,(7,(1,2))))),11),(3,14)),(18,((9,16),(8,19)))),21);
(((((((((7,(1,2)),6),(4,20)),11),(3,14)),(18,((13,15),(12,(5,(10,17)))))),(19,(8,9))),16),21);
((((((13,(12,(5,(10,17)))),((11,((4,20),(7,(6,(1,2))))),(3,14))),15),18),((8,19),(9,16))),21);
(((((((((((1,2),((4,20),(6,7))),11),3),12),((10,(17,5)),(13,15))),14),18),(8,19)),(9,16)),21);
(((((((((15,(12,(5,17))),13),10),(20,(4,(7,(6,(1,2)))))),(11,(3,14))),18),(8,19)),(9,16)),21);
((((((((4,20),(1,2)),(11,(6,7))),((3,14),((13,15),(12,(5,(10,17)))))),18),(8,19)),(9,16)),21);
((((((((15,(11,(4,20))),(3,14)),(6,(7,(1,2)))),(13,(5,(12,(10,17))))),18),(8,19)),(9,16)),21);
((((((((6,(7,(4,20))),(11,(1,2))),(13,(15,((5,17),(12,10))))),(3,14)),(9,16)),18),(8,19)),21);
((((((((3,14),((4,20),(7,(6,(1,2))))),(5,(12,(10,17)))),(13,15)),(11,18)),(8,19)),(9,16)),21);
((((((((4,20),(6,7)),(1,2)),11),((3,14),((13,15),((5,10),(12,17))))),(9,16)),(18,(8,19))),21);
(((((3,14),(((10,(5,17)),(12,(13,15))),(7,(11,((4,20),(6,(1,2))))))),18),((9,16),(8,19))),21);
((((((((3,14),((13,15),((4,20),((1,2),(6,7))))),11),((5,17),(10,12))),18),(8,19)),(9,16)),21);
((((((((((2,7),(4,20)),1),11),6),((13,15),((10,17),(5,12)))),(3,14)),18),((8,19),(9,16))),21);
(((((((12,(10,(5,17))),(13,15)),(11,((6,(1,2)),(7,(4,20))))),(3,14)),18),((9,16),(8,19))),21);
(((((((4,20),(12,((10,(5,17)),(13,15)))),((3,14),(11,(6,(7,(1,2)))))),18),(8,19)),(9,16)),21);
(((((((((6,(1,2)),(4,20)),7),11),((3,14),(13,(15,((10,17),(5,12)))))),18),(8,19)),(9,16)),21);
(((((((((20,(7,(1,2))),6),4),11),(5,((13,15),(12,(10,17))))),(3,14)),18),(16,(19,(8,9)))),21);
(((((((13,15),(6,((4,20),(11,(7,(1,2)))))),((3,14),(12,(5,(10,17))))),18),(8,19)),(9,16)),21);
(((((((3,14),(((13,15),(12,(5,(10,17)))),(11,((4,20),(6,(1,2)))))),7),18),(9,16)),(8,19)),21);
((((((((5,(10,17)),12),(13,15)),((4,20),(7,(6,(1,2))))),(11,(3,14))),18),(16,(19,(8,9)))),21);
(((((((((1,2),(6,(4,20))),7),11),((5,(12,(10,17))),(13,15))),(3,14)),18),((19,(8,9)),16)),21);
((((((((((1,2),6),(4,20)),11),7),(3,14)),((13,15),((5,17),(10,12)))),18),(16,(19,(8,9)))),21);
(((((((3,14),(11,((7,(1,2)),(6,(4,20))))),((10,(12,(5,17))),(13,15))),18),(9,16)),(8,19)),21);
(((((((7,(6,(1,2))),((13,15),(12,(5,(10,17))))),(3,14)),18),(11,(4,20))),((9,16),(8,19))),21);
(((((((3,14),((12,(10,(5,17))),(13,15))),11),((4,20),(6,(7,(1,2))))),18),((9,16),(8,19))),21);
(((((13,15),((5,10),(12,17))),(11,((4,20),(6,7)))),((18,((3,14),(1,2))),((8,19),(9,16)))),21);
((((((((4,(20,((1,2),(6,7)))),11),((10,(12,(5,17))),(13,15))),18),(3,14)),(8,19)),(9,16)),21);
((((((((1,2),(11,((4,20),(6,7)))),(13,15)),(((5,10),(12,17)),(3,14))),18),(8,19)),(9,16)),21);
(((((((((13,15),(17,(12,(5,10)))),((4,20),(7,(6,(1,2))))),11),(3,14)),18),(19,(8,9))),16),21);
(((((((((((6,7),(1,2)),4),20),11),(12,(17,((5,10),(13,15))))),(3,14)),18),(9,16)),(8,19)),21);
((((((((7,(1,2)),((6,(4,20)),11)),((12,(5,(10,17))),(13,15))),(3,14)),18),(9,16)),(8,19)),21);
(((((((5,((10,(12,17)),(13,15))),(11,(((1,2),(6,7)),(4,20)))),(3,14)),18),(19,(8,9))),16),21);
(((((((((13,(15,(10,(12,17)))),5),(7,((1,2),(4,20)))),(6,11)),(3,14)),18),(8,19)),(9,16)),21);
((((9,16),(((7,(4,20)),((6,(1,2)),(11,(3,14)))),(18,((5,(12,(10,17))),(13,15))))),(8,19)),21);
(((((((17,(12,(5,10))),(13,15)),(11,(6,((4,20),(7,(1,2)))))),(3,14)),18),((9,16),(8,19))),21);
(((((((3,14),(((1,2),(6,7)),(11,(4,20)))),(12,((5,(10,17)),(13,15)))),18),(8,19)),(9,16)),21);
((((((((11,(2,(6,7))),((12,(5,(10,17))),(3,14))),(13,15)),(1,(4,20))),18),(9,16)),(8,19)),21);
(((((((17,(5,(10,12))),(13,15)),((3,14),(11,(4,20)))),(7,((1,2),6))),18),((9,16),(8,19))),21);
((((((((6,(7,(1,2))),(4,20)),11),((3,14),((13,15),(12,(17,(10,5)))))),18),(19,(8,9))),16),21);
(((((11,(((13,15),(12,(5,(10,17)))),(((1,2),(6,7)),(4,20)))),(3,14)),18),((9,16),(8,19))),21);
((((((((((6,(7,(1,2))),4),20),11),((13,15),(5,(12,(10,17))))),(3,14)),(9,16)),18),(8,19)),21);
((((((((2,(7,(1,6))),(11,(4,20))),14),(3,((5,(12,(10,17))),(13,15)))),18),(8,19)),(9,16)),21);
((((((((7,(20,(1,2))),(11,(4,6))),((17,(12,(5,10))),(13,15))),(3,14)),18),(9,16)),(8,19)),21);
(((((((11,((4,20),(7,(1,2)))),((13,15),(17,(12,(5,10))))),(3,14)),6),18),(16,(19,(8,9)))),21);
(((((((13,15),((6,7),(11,((1,2),(4,20))))),(3,14)),(12,(5,(10,17)))),18),((9,16),(8,19))),21);
((((((((17,(5,10)),(13,15)),((7,(6,(1,2))),(12,(11,(4,20))))),(3,14)),18),(9,16)),(8,19)),21);
((((((((17,((13,15),(12,(5,10)))),2),(3,14)),(4,((1,(6,7)),(11,20)))),18),(9,16)),(8,19)),21);
(((((((((13,15),(10,17)),((4,(7,(6,(1,2)))),11)),(3,14)),(20,(5,12))),18),(8,19)),(9,16)),21);
((((((((6,20),(4,(7,(1,2)))),(11,((13,15),(12,(17,(5,10)))))),(3,14)),18),(9,16)),(8,19)),21);
((((((2,(20,(1,(6,7)))),(((13,15),((10,17),(5,12))),(4,11))),(3,14)),18),((9,16),(8,19))),21);
((((((((((12,15),5),13),(10,17)),(3,14)),(11,(((4,20),(1,2)),(6,7)))),18),(8,19)),(9,16)),21);
((((((((4,20),((6,(7,(1,2))),11)),(3,14)),(13,(15,(10,(12,(5,17)))))),18),(8,19)),(9,16)),21);
((((((((((6,7),(1,2)),(4,20)),11),((13,15),(12,(5,(10,17))))),(3,14)),18),(8,19)),(9,16)),21);
(((((((20,((4,(1,7)),(11,(2,6)))),(13,15)),((3,14),(5,((10,17),12)))),18),16),(19,(8,9))),21);
((((((((((7,(1,2)),4),(11,(6,20))),(5,10)),((12,17),(13,15))),(3,14)),18),(9,16)),(8,19)),21);
((((((((6,(11,((4,20),(7,(1,2))))),(12,(5,(10,17)))),(13,15)),(3,14)),18),(19,(8,9))),16),21);
((((((((5,17),(10,12)),(11,((3,14),(13,15)))),((6,(1,2)),(7,(4,20)))),18),(8,19)),(9,16)),21);
((((((((3,14),(1,11)),(13,((4,20),(2,(7,6))))),(15,(12,(10,(5,17))))),18),16),(19,(8,9))),21);
((((((((((1,2),6),7),(4,20)),11),((3,14),((5,(12,(10,17))),(15,13)))),18),(9,16)),(8,19)),21);
(((((((((((1,2),(7,6)),4),20),((12,((5,10),17)),(13,15))),(3,14)),11),18),(8,19)),(9,16)),21);
(((((((((11,(7,(1,2))),(6,20)),(3,14)),(12,(17,(10,5)))),(4,(13,15))),18),(8,19)),(9,16)),21);
((((((3,14),(11,((13,15),(5,(10,(12,17)))))),((2,6),((4,20),(1,7)))),18),((8,19),(9,16))),21);
((((((((((6,(7,(1,2))),(4,20)),11),(13,15)),(5,(12,(10,17)))),(3,14)),18),(8,19)),(9,16)),21);
((((((6,7),(((12,(17,(5,10))),(13,15)),(11,((1,2),(4,20))))),(3,14)),18),((9,16),(8,19))),21);
((((((3,14),((7,(6,(1,2))),(11,(4,20)))),((13,15),(12,(17,(5,10))))),18),(16,(19,(8,9)))),21);
(((((((((4,20),((1,2),(6,7))),((5,(10,17)),(12,(13,15)))),(3,14)),11),18),16),(19,(8,9))),21);
(((((((((5,10),(12,17)),((1,2),(3,14))),(13,15)),(11,(6,(7,(4,20))))),18),(19,(8,9))),16),21);
(((((((((6,7),((1,2),(4,20))),(3,14)),11),((10,(12,(5,17))),(13,15))),18),(9,16)),(8,19)),21);
((((((15,(13,(5,(17,(10,12))))),(3,14)),((6,7),(11,((4,20),(1,2))))),18),((9,16),(8,19))),21);
((((((((6,(7,(1,2))),(11,(4,20))),((13,15),(12,(5,(10,17))))),(3,14)),18),(8,19)),(9,16)),21);
(((((((((10,17),(5,12)),((3,14),(13,15))),11),((7,(1,2)),(20,(4,6)))),18),(8,19)),(9,16)),21);
((((((11,(6,7)),((3,14),((1,2),(4,20)))),(12,((17,(5,10)),(13,15)))),18),((9,16),(8,19))),21);
((((((3,14),(6,(4,20))),((7,(1,2)),11)),(18,((13,15),((5,10),(12,17))))),((9,16),(8,19))),21);
(((((((11,(4,(20,(1,2)))),(6,7)),((3,14),((12,(10,(17,5))),(13,15)))),18),(9,16)),(8,19)),21);
((((((((11,((5,17),(10,12))),(3,14)),(13,15)),(7,((4,20),(6,(1,2))))),18),(8,19)),(9,16)),21);
((((((1,2),((11,((4,6),(7,20))),(((13,15),(12,(5,(10,17)))),(3,14)))),18),(9,16)),(8,19)),21);
(((((((3,14),((12,(5,(10,17))),(((6,(1,2)),(4,20)),(7,11)))),(13,15)),18),(8,19)),(9,16)),21);
((((((14,((11,(7,(4,20))),(6,(1,2)))),(3,((13,15),(12,(10,(5,17)))))),18),(8,19)),(9,16)),21);
((((((((((7,6),1),2),11),(4,20)),((10,17),(5,12))),((3,14),(13,15))),18),((8,19),(9,16))),21);
(((((((4,(11,((6,(1,2)),(7,20)))),(12,((13,15),(5,(10,17))))),(3,14)),18),(9,16)),(8,19)),21);
(((((((12,(17,(5,10))),(((6,7),(4,20)),(3,14))),((1,2),(11,(13,15)))),18),(8,19)),(9,16)),21);
(((((((11,(13,15)),(3,14)),((12,(5,(10,17))),((4,20),((1,2),(6,7))))),18),(9,16)),(8,19)),21);
((((((15,(13,(5,(12,(10,17))))),((3,14),((4,(1,(2,7))),(6,20)))),11),18),((9,16),(8,19))),21);
((((((((((5,(10,(12,17))),(13,15)),7),11),((4,20),(6,(1,2)))),(3,14)),18),(8,19)),(9,16)),21);
((((((((3,14),(11,(6,20))),(4,(7,(1,2)))),(((10,17),(5,12)),(13,15))),18),(8,19)),(9,16)),21);
(((((((3,14),((13,15),(12,(17,(10,5))))),((7,20),(4,(6,(1,2))))),11),((9,16),(8,19))),18),21);
(((((((4,6),(11,(20,(1,(2,7))))),((3,14),(((10,17),(5,12)),(13,15)))),18),(8,19)),(9,16)),21);
(((((((11,(6,(1,2))),(4,7)),((3,14),(20,((13,15),((10,17),(5,12)))))),18),(8,19)),(9,16)),21);
(((((((((1,2),(4,20)),(6,7)),11),((12,(5,(10,17))),(13,15))),(3,14)),18),((8,19),(9,16))),21);
(((((((((3,14),(13,15)),((5,(12,(10,17))),(20,(4,6)))),(7,(1,2))),11),18),(19,(8,9))),16),21);
((((((((((1,2),(6,7)),(4,20)),11),((13,15),(12,(5,(10,17))))),(3,14)),18),(8,19)),(9,16)),21);
((((((((13,15),((11,20),(4,(1,7)))),((5,10),(12,17))),((3,14),(2,6))),18),(8,19)),(9,16)),21);
((((((((7,(1,2)),(20,(6,4))),11),((3,14),((13,15),(12,(5,(10,17)))))),18),(8,19)),(9,16)),21);
((((((((((((1,2),4),6),(7,20)),(12,(5,(10,17)))),11),(13,15)),(3,14)),18),(8,19)),(9,16)),21);
((((((((6,(7,(1,2))),(11,(4,20))),13),(3,14)),(15,(12,(10,(17,5))))),18),(16,(19,(8,9)))),21);
((((((((4,20),(6,(7,(1,2)))),((13,15),(17,(12,(5,10))))),(11,(3,14))),18),(8,19)),(9,16)),21);
(((((((((7,(1,2)),(4,20)),6),11),(15,(13,((5,10),(12,17))))),(3,14)),18),(16,(19,(8,9)))),21);
(((((((3,14),((20,(4,(7,(1,2)))),(6,11))),((13,15),(12,(10,(5,17))))),18),(8,19)),(9,16)),21);
(((((((3,14),(11,((4,20),(6,(7,(1,2)))))),((13,15),(5,(17,(12,10))))),18),(9,16)),(8,19)),21);
((((((((6,7),((4,20),(1,2))),11),(((10,17),(12,5)),(13,15))),(3,14)),18),((9,16),(8,19))),21);
(((((((11,(6,(4,20))),(7,(1,2))),((3,14),((13,15),((10,17),(5,12))))),18),(19,(8,9))),16),21);
((((((((4,(20,((1,2),(6,7)))),(3,14)),11),(((5,17),(10,12)),(13,15))),18),16),(19,(8,9))),21);
((((((((7,(6,(4,20))),(11,(1,2))),(15,(13,((10,17),(5,12))))),(3,14)),(8,19)),18),(9,16)),21);
((((((((((1,2),6),7),(4,20)),(3,14)),((5,(10,17)),(11,(13,(12,15))))),18),(8,19)),(9,16)),21);
(((((((((2,6),1),7),(4,20)),((3,14),(11,((5,(12,17)),(10,(13,15)))))),18),(9,16)),(8,19)),21);
(((((((((2,(6,7)),20),11),1),4),((3,14),((13,15),((5,17),(10,12))))),18),(16,(19,(8,9)))),21);
((((((((11,(1,7)),((4,20),(2,6))),((13,15),(17,(5,(10,12))))),(3,14)),18),(9,16)),(8,19)),21);
(((((((((4,20),(6,7)),(1,2)),(3,14)),(11,((12,(5,(10,17))),(13,15)))),18),(8,19)),(9,16)),21);
((((((((11,(7,(6,(1,2)))),(4,20)),(3,14)),((13,15),(17,(10,(5,12))))),18),(19,(8,9))),16),21);
(((((((2,(3,14)),((13,15),(12,(17,(5,10))))),(11,((4,20),(1,(6,7))))),18),(8,19)),(9,16)),21);
(((((((3,14),(((13,15),(12,(5,(10,17)))),11)),((4,20),(7,(6,(1,2))))),18),(9,16)),(8,19)),21);
(((((((11,((1,2),((4,20),(6,7)))),((17,(12,(5,10))),(13,15))),18),(3,14)),(19,(8,9))),16),21);
(((((((((4,20),(6,(1,2))),11),((3,14),((5,(10,17)),(12,(13,15))))),7),18),16),(19,(8,9))),21);
(((((((11,((1,2),((6,7),(4,20)))),(3,14)),((13,15),((5,17),(10,12)))),18),(8,19)),(9,16)),21);
((((((((20,(6,(1,2))),(11,(4,7))),(3,14)),((12,(10,(5,17))),(13,15))),16),(19,(8,9))),18),21);
((((((((6,(4,20)),(7,(1,2))),11),((3,14),((12,(17,(10,5))),(13,15)))),18),(8,19)),(9,16)),21);
((((((((((4,20),(6,(1,2))),7),11),(3,14)),(13,(15,(10,(12,(5,17)))))),18),(19,(8,9))),16),21);
((((((((((1,2),(4,20)),(6,7)),11),((13,15),(12,(17,(5,10))))),(3,14)),18),(9,16)),(8,19)),21);
((((((((6,(3,14)),((5,(10,(12,17))),(13,15))),11),((1,2),(7,(4,20)))),18),(8,19)),(9,16)),21);
((((((((3,14),((13,15),((4,(6,7)),(20,(1,2))))),((10,12),(5,17))),11),18),(19,(8,9))),16),21);
(((((((11,(10,(5,17))),((4,20),(7,(6,(1,2))))),((3,14),(12,(13,15)))),18),(9,16)),(8,19)),21);
((((((((4,20),(1,2)),((6,7),11)),((3,14),((12,(10,(5,17))),(13,15)))),18),(8,19)),(9,16)),21);
(((((((((2,(6,7)),(1,(4,20))),11),(3,14)),(15,(13,(12,(5,(10,17)))))),18),(9,16)),(8,19)),21);
((((((((1,2),(12,((13,15),(17,(5,10))))),(3,14)),((4,20),(11,(6,7)))),18),(9,16)),(8,19)),21);
(((((((((4,6),20),((13,15),((5,10),(12,17)))),(3,14)),(11,(7,(1,2)))),18),(8,19)),(9,16)),21);
(((((((7,(2,(1,6))),(11,(4,20))),((3,14),((13,15),(12,(5,(10,17)))))),18),(19,(8,9))),16),21);
((((((((7,(1,2)),(6,(4,20))),11),((5,(10,(12,17))),((3,14),(13,15)))),18),(9,16)),(8,19)),21);
((((((((3,14),((4,20),((1,2),(6,7)))),(12,((17,(5,10)),(13,15)))),11),18),(8,19)),(9,16)),21);
((((((((4,20),(1,(6,(2,7)))),11),(3,14)),(5,((12,(10,17)),(13,15)))),18),((19,(8,9)),16)),21);
((((((((13,15),(11,(1,7))),((5,10),(12,17))),((3,14),((2,20),(4,6)))),18),(9,16)),(8,19)),21);
((((((((1,2),(6,(7,(4,20)))),(11,((13,15),((10,17),(5,12))))),(3,14)),18),(8,19)),(9,16)),21);
((((((11,((4,20),(6,(7,(1,2))))),(12,(5,(10,17)))),(18,((3,14),(13,15)))),(8,19)),(9,16)),21);
(((((((3,14),((4,20),(7,(2,6)))),(((13,15),((10,17),(5,12))),(1,11))),18),(9,16)),(8,19)),21);
((((((((7,(1,2)),6),(4,20)),11),((3,14),((13,15),(12,(5,(10,17)))))),18),((9,16),(8,19))),21);
((((((((6,(1,2)),(7,(4,20))),11),((3,14),((12,(5,(10,17))),(13,15)))),18),(8,19)),(9,16)),21);
((((((((6,(4,20)),7),(1,2)),11),18),((3,14),((13,15),(17,(12,(5,10)))))),((9,16),(8,19))),21);
((((((((11,(2,(1,7))),(4,(6,20))),(3,14)),((13,15),(12,(5,(10,17))))),18),(19,(8,9))),16),21);
(((((((((5,(10,(17,12))),(7,11)),(3,14)),((4,20),(6,(1,2)))),(13,15)),18),(8,19)),(9,16)),21);
((((((((2,7),(15,(13,((5,17),(12,10))))),6),((3,14),(11,(1,(4,20))))),(8,19)),18),(9,16)),21);
(((((((3,14),(11,((6,7),((1,2),(4,20))))),((13,15),(12,(5,(10,17))))),18),(19,(8,9))),16),21);
(((((((12,(5,17)),((3,14),((2,(6,7)),(11,(1,(4,20)))))),(10,(13,15))),18),(8,19)),(9,16)),21);
((((((((4,20),(11,((1,2),(6,7)))),(3,14)),((12,(17,(5,10))),(13,15))),18),(8,19)),(9,16)),21);
((((((((((((7,6),1),2),(4,20)),11),(13,15)),(3,14)),(17,(12,(5,10)))),18),(9,16)),(8,19)),21);
((((((((11,(6,(7,20))),(4,(1,2))),((13,15),(12,(5,(10,17))))),(3,14)),18),(8,19)),(9,16)),21);
(((((((11,((13,15),(10,(12,(5,17))))),(3,14)),18),((4,20),((1,2),(6,7)))),(8,19)),(9,16)),21);
((((((((12,(17,(5,10))),11),((4,20),(7,(1,2)))),(6,((3,14),(13,15)))),18),(19,(8,9))),16),21);
(((((((6,((3,14),((4,20),(7,(1,2))))),((12,(5,(10,17))),(13,15))),11),18),(9,16)),(8,19)),21);
((((((((1,2),((6,7),(11,(4,20)))),((5,17),((13,15),(10,12)))),(3,14)),18),(8,19)),(9,16)),21);
(((((((6,3),((13,15),(5,(12,(10,17))))),14),((7,(4,20)),(11,(1,2)))),18),(16,(19,(8,9)))),21);
((((((11,((1,2),((4,20),(6,7)))),((13,15),(3,14))),(12,(5,(10,17)))),18),((9,16),(8,19))),21);
((((((4,11),((3,14),((12,(5,(10,17))),(13,15)))),(20,((1,2),(6,7)))),18),((9,16),(8,19))),21);
(((((((13,15),(12,(10,(5,17)))),(((6,(1,2)),(7,(4,20))),(11,(3,14)))),18),(9,16)),(8,19)),21);
((((((17,(3,14)),((11,(4,20)),((1,2),(6,7)))),(13,(15,(12,(5,10))))),18),(16,(19,(8,9)))),21);
((((((((3,14),((13,15),((10,17),(5,12)))),(6,(7,(1,2)))),(11,(4,20))),18),(8,19)),(9,16)),21);
((((((((7,((4,(6,(1,2))),(13,15))),(11,20)),((5,17),(10,12))),(3,14)),18),(8,19)),(9,16)),21);
(((((((11,((4,20),((1,2),(6,7)))),(3,14)),((13,15),((10,17),(5,12)))),18),(8,19)),(9,16)),21);
(((((((((4,20),(6,(1,2))),11),((10,15),(13,(17,(5,12))))),(3,14)),(18,7)),(8,19)),(9,16)),21);
((((((((12,(5,(10,17))),(13,15)),((4,20),(11,(6,(7,(1,2)))))),(3,14)),18),(9,16)),(8,19)),21);
(((9,16),((8,19),(((13,15),((12,(17,(5,10))),(3,14))),(18,((6,(1,2)),(11,(7,(4,20)))))))),21);
((((((((((6,(1,2)),7),20),4),11),((3,14),((5,(10,17)),(12,(13,15))))),18),(8,19)),(9,16)),21);
(((((((3,(13,15)),((4,20),(11,(2,(6,(1,7)))))),14),((5,17),(10,12))),18),(16,(19,(8,9)))),21);
((((((11,((20,((1,2),(6,(4,7)))),(13,15))),((3,14),((10,17),(5,12)))),18),(8,19)),(9,16)),21);
(((((((((((6,(1,2)),20),4),7),((12,(5,(10,17))),(13,15))),(3,14)),11),18),(9,16)),(8,19)),21);
((((((((4,20),(6,(1,2))),((3,14),(7,11))),((10,(5,(12,17))),(13,15))),18),(8,19)),(9,16)),21);
(((((((7,((1,2),6)),(11,(4,20))),(3,14)),((13,15),((10,17),(5,12)))),18),((9,16),(8,19))),21);
(((((((((4,20),(6,(7,(1,2)))),11),((12,(5,(10,17))),(13,15))),(3,14)),18),(8,19)),(9,16)),21);
((((((((11,((1,2),(7,20))),(4,6)),((5,(10,17)),(12,(13,15)))),(3,14)),18),(9,16)),(8,19)),21);
(((((((11,(13,15)),(17,(12,(5,10)))),((3,14),((1,2),((4,20),(6,7))))),18),(19,(8,9))),16),21);
(((((((3,14),(6,7)),((11,((4,20),(1,2))),(13,(15,((12,17),(5,10)))))),18),(19,(8,9))),16),21);
((((((((15,(12,(17,(5,10)))),13),(6,(11,(2,7)))),((3,14),(1,(4,20)))),18),(8,19)),(9,16)),21);
(((((((12,(10,(5,17))),(((6,7),(1,2)),(11,(4,20)))),((3,14),(13,15))),18),(19,(8,9))),16),21);
((((((((6,(20,7)),1),4),(2,11)),(18,((3,14),((12,(5,(10,17))),(13,15))))),(8,19)),(9,16)),21);
(((((((((6,(4,20)),11),(7,(1,2))),(3,14)),((10,12),((5,17),(13,15)))),18),(8,19)),(9,16)),21);
(((((((((4,(6,(1,2))),(7,20)),(3,14)),((13,15),((5,10),(12,17)))),11),18),(8,19)),(9,16)),21);
((((((((3,14),((1,2),(11,(7,(6,(4,20)))))),((13,15),(12,(5,17)))),10),18),(8,19)),(9,16)),21);
((((((((13,(5,(12,(10,17)))),15),11),((3,14),((6,7),((1,2),(4,20))))),18),(8,19)),(9,16)),21);
(((((((((1,(7,(2,6))),(4,20)),(12,(5,(10,17)))),((3,14),(13,15))),11),18),(8,19)),(9,16)),21);
(((((((((1,2),(6,7)),(4,20)),((13,15),((5,10),(12,17)))),(11,(3,14))),18),(8,19)),(9,16)),21);
(((((((11,((4,20),(3,14))),(((10,17),(5,12)),(13,15))),((1,2),(6,7))),18),(8,19)),(9,16)),21);
(((((((3,14),(11,((7,(1,2)),(4,20)))),(6,((13,15),(12,(10,(5,17)))))),18),(19,(8,9))),16),21);
((((((((3,14),((6,7),((1,2),(4,20)))),((17,(10,(5,12))),(13,15))),11),18),(8,19)),(9,16)),21);
((((((((15,(13,(5,(12,(10,17))))),11),(3,14)),(7,((6,(1,2)),(4,20)))),18),(8,19)),(9,16)),21);
((((((((((1,2),(4,20)),7),6),11),((3,14),((12,(10,17)),(5,(13,15))))),18),(9,16)),(8,19)),21);
((((((11,((13,15),((6,7),((1,2),(4,20))))),((3,14),(5,(12,(10,17))))),18),16),(19,(8,9))),21);
(((((((((4,20),(6,(7,(1,2)))),11),(12,(17,(5,10)))),((3,14),(13,15))),18),(8,19)),(9,16)),21);
(((((((11,(6,7)),((3,14),(12,((17,(5,10)),(13,15))))),(2,(1,(4,20)))),18),(8,19)),(9,16)),21);
(((((((11,((7,(2,6)),(4,1))),20),(3,14)),((13,15),(12,(17,(5,10))))),18),(16,(19,(8,9)))),21);
(((((8,19),(11,18)),(((13,15),(12,(10,(5,17)))),((4,20),((3,14),((1,7),(6,2)))))),(9,16)),21);
(((((((((1,2),(6,7)),11),(4,20)),((3,14),((13,15),(10,(5,(12,17)))))),18),(8,19)),(9,16)),21);
(((((11,((4,20),(6,(7,(1,2))))),((3,14),((13,15),(12,(5,(10,17)))))),18),((9,16),(8,19))),21);
((((((20,((7,(6,1)),4)),(2,11)),((3,14),((13,15),((12,17),(5,10))))),18),((9,16),(8,19))),21);
((((((((13,15),(12,(5,(10,17)))),(11,((1,2),((6,7),(4,20))))),(3,14)),18),(8,19)),(9,16)),21);
(((((((6,(4,20)),(11,(7,(1,2)))),((3,14),(13,15))),(18,((10,17),(5,12)))),(9,16)),(8,19)),21);
(((((((((12,(5,(10,17))),(13,15)),(6,11)),(3,14)),((1,2),(7,(4,20)))),18),16),(19,(8,9))),21);
((((((((6,(4,20)),(1,7)),2),(11,((3,14),(5,((10,(12,17)),(13,15)))))),18),(8,19)),(9,16)),21);
(((((((((6,(1,2)),(7,(4,20))),11),(3,14)),((12,(5,(10,17))),(13,15))),18),(19,(8,9))),16),21);
((((((((6,(1,2)),(7,(4,20))),11),(3,14)),(13,(15,(5,(12,(10,17)))))),18),(16,(19,(8,9)))),21);
((((((((13,15),(5,(12,(10,17)))),((4,(20,(2,7))),(11,(1,6)))),(3,14)),18),(8,19)),(9,16)),21);
(((((4,(11,((6,7),(1,2)))),((13,15),(12,(5,(10,17))))),(18,(20,(3,14)))),((9,16),(8,19))),21);
(((((((((3,14),(7,(6,(1,2)))),((12,(17,(5,10))),(11,(4,20)))),(13,15)),18),19),8),(9,16)),21);
(((((((11,((1,6),(2,(4,20)))),(7,(3,14))),(15,(13,((5,17),(10,12))))),18),(19,(8,9))),16),21);
((((((10,12),(((5,17),(13,15)),(4,(3,14)))),((11,(6,7)),((1,2),20))),18),((9,16),(8,19))),21);
(((((((11,((12,(17,(5,10))),(13,15))),(3,14)),((4,20),((1,2),(6,7)))),18),(8,19)),(9,16)),21);
((((((((4,(1,2)),(20,(6,7))),((3,14),(13,15))),(11,(12,(5,(10,17))))),18),(9,16)),(8,19)),21);
(((((((((4,20),(6,(1,2))),7),11),(3,14)),(17,((12,(5,10)),(13,15)))),18),((9,16),(8,19))),21);
((((((((7,(4,20)),(11,(6,(1,2)))),(12,(5,(10,17)))),((3,14),(13,15))),18),(8,19)),(9,16)),21);
(((((((13,15),(12,(5,(10,17)))),(3,14)),(11,((4,20),((1,2),(6,7))))),18),((9,16),(8,19))),21);
((((((11,(2,((4,20),(1,(6,7))))),((12,(17,(5,10))),((3,14),(13,15)))),18),(9,16)),(8,19)),21);
(((((((((13,15),((10,17),(5,12))),((1,2),(6,7))),(11,(3,14))),18),(4,20)),(9,16)),(8,19)),21);
(((((((3,14),((13,15),(5,(12,(10,17))))),(7,(6,(4,20)))),(11,(1,2))),18),((9,16),(8,19))),21);
((((((((3,14),(1,(4,20))),((2,(6,7)),11)),((13,15),((10,17),(5,12)))),18),(8,19)),(9,16)),21);
(((((((((6,((1,2),(4,20))),11),7),(3,14)),(10,((13,15),(5,(12,17))))),18),(9,16)),(8,19)),21);
((((((((6,7),11),((13,15),(12,(5,(10,17))))),((3,14),((4,20),(1,2)))),18),(19,(8,9))),16),21);
((((((((4,20),(2,(6,7))),(1,11)),((3,14),((12,(5,(10,17))),(13,15)))),18),(8,19)),(9,16)),21);
(((((((((6,(7,1)),(2,20)),4),(3,14)),11),((17,(12,(5,10))),(13,15))),(18,(8,19))),(9,16)),21);
(((((((6,(7,(1,2))),(4,20)),((12,(17,(5,10))),(13,15))),(11,(3,14))),18),((9,16),(8,19))),21);
((((((((4,((1,2),(6,7))),((13,15),(5,(12,(10,17))))),(3,14)),(11,20)),18),(8,19)),(9,16)),21);
((((((((((1,2),(6,7)),20),(4,11)),((13,15),((10,12),(5,17)))),(3,14)),18),(9,16)),(8,19)),21);
(((((((17,(12,(5,10))),((4,20),(6,(7,(1,2))))),((13,15),(11,(3,14)))),18),(8,19)),(9,16)),21);
((((9,16),(8,19)),(((3,14),(11,(1,2))),(18,(((4,20),(6,7)),((13,15),(10,(12,(5,17)))))))),21);
((((((((6,7),(1,2)),(11,(4,20))),((3,14),((5,(12,(10,17))),(13,15)))),18),(8,19)),(9,16)),21);
((((((((((((6,2),1),7),20),4),11),(10,(12,(5,17)))),((13,15),(3,14))),18),(8,19)),(9,16)),21);
((((((((((7,(1,2)),6),(4,20)),11),(3,14)),((5,(10,17)),(12,(13,15)))),(8,19)),18),(9,16)),21);
(((((((3,14),(15,(13,(12,(10,(5,17)))))),(6,(7,(11,((1,2),(4,20)))))),18),16),(19,(8,9))),21);
(((((((((12,15),(13,(5,(10,17)))),(11,(4,20))),(3,14)),(6,(7,(1,2)))),18),(9,16)),(8,19)),21);
((((((((3,14),((13,15),((10,17),(5,12)))),(11,((1,2),(6,7)))),(4,20)),18),(8,19)),(9,16)),21);
(((((((11,(4,(6,(7,(1,2))))),20),(3,14)),((13,15),(12,(17,(5,10))))),(9,16)),((8,19),18)),21);
((((((((7,20),(4,(6,(1,2)))),11),(3,14)),((13,15),((10,12),(5,17)))),18),((9,16),(8,19))),21);
((((((((6,7),((1,2),(4,20))),11),((3,14),((10,(5,12)),(17,(13,15))))),18),(8,19)),(9,16)),21);
((((((((((1,2),(4,20)),6),7),11),((12,(17,(5,10))),(13,15))),(3,14)),18),((9,16),(8,19))),21);
((((((((12,(5,(10,17))),(6,(1,2))),(13,15)),(7,((4,20),11))),(3,14)),18),((8,19),(9,16))),21);
((((((((15,(12,(17,(5,10)))),(((4,20),(7,(2,6))),(11,13))),(3,14)),1),18),(8,19)),(9,16)),21);
(((((((((4,20),((1,2),(6,7))),((15,((10,17),(5,12))),13)),11),(3,14)),18),(8,19)),(9,16)),21);
((((((11,((13,15),(5,(12,(10,17))))),((3,14),((4,20),(7,(6,(1,2)))))),18),(9,16)),(8,19)),21);
((((((((17,(5,(10,12))),(13,15)),(20,14)),(3,(4,(11,((1,2),(6,7)))))),18),(8,19)),(9,16)),21);
(((((((((12,(10,17)),5),(13,15)),(3,14)),(((1,2),(4,20)),(11,(6,7)))),18),(8,19)),(9,16)),21);
((((((15,(13,(12,(5,(10,17))))),(3,14)),(((1,2),(4,20)),(11,(6,7)))),18),((9,16),(8,19))),21);
(((((((11,((3,14),(15,(13,((5,10),(12,17)))))),(4,((1,2),(6,7)))),20),18),(8,19)),(9,16)),21);
((((((((7,(6,(1,2))),(11,(4,20))),(3,14)),((13,15),(12,(17,(5,10))))),18),(19,(8,9))),16),21);
(((((((6,(7,(1,2))),(20,4)),(3,14)),(11,((13,15),((10,17),(5,12))))),18),((8,19),(9,16))),21);
(((((((((6,(7,(1,2))),(4,20)),((12,(5,(10,17))),(13,15))),(3,14)),11),18),(8,19)),(9,16)),21);
(((((((((20,(7,(6,(1,2)))),4),11),((5,((10,17),12)),(13,15))),(3,14)),18),(8,19)),(9,16)),21);
((((((((6,(4,20)),(7,(1,2))),11),((3,14),((12,17),((5,10),(13,15))))),18),(19,(8,9))),16),21);
((((((((5,10),(12,17)),(13,15)),(11,(3,14))),(18,(4,((6,7),(20,(1,2)))))),(9,16)),(8,19)),21);
((((((((12,(5,(10,17))),(13,15)),11),((3,14),((4,20),((1,2),(6,7))))),18),(19,(8,9))),16),21);
(((((((11,(6,((1,2),(4,20)))),(7,12)),((3,14),((13,15),(17,(5,10))))),18),(8,19)),(9,16)),21);
((((((7,(11,((4,20),(1,(2,6))))),((3,14),((13,15),((10,17),(5,12))))),18),(8,19)),(9,16)),21);
(((((((((7,(1,2)),(6,(4,20))),11),(3,14)),((5,(17,(10,12))),(13,15))),18),(8,19)),(9,16)),21);
((((((((1,2),(4,20)),(((13,15),(17,(12,(5,10)))),(11,(6,7)))),(3,14)),18),(9,16)),(8,19)),21);
(((((((11,(1,(2,6))),(7,(4,20))),((13,15),(17,(12,(5,10))))),(3,14)),18),((9,16),(8,19))),21);
((((((((((5,17),(10,12)),(13,15)),(11,(6,((1,2),7)))),(4,20)),(3,14)),18),(9,16)),(8,19)),21);
((((((((1,2),(4,20)),(6,7)),(10,(12,(5,17)))),((13,15),(11,(3,14)))),((8,19),18)),(9,16)),21);
((((((((6,((7,(1,2)),(4,20))),(11,(15,(13,(10,(5,17)))))),(3,14)),12),18),(8,19)),(9,16)),21);
(((((((11,((7,(1,4)),(20,(2,6)))),((12,(5,(10,17))),(13,15))),(3,14)),18),(8,19)),(9,16)),21);
((((((((11,((1,2),(4,(6,7)))),((5,(10,17)),(12,(13,15)))),(3,14)),20),18),(9,16)),(8,19)),21);
((((((((7,(1,4)),((17,(10,(5,12))),(20,(2,6)))),(13,15)),(11,(3,14))),18),(8,19)),(9,16)),21);
((((((((6,(7,(1,2))),11),(4,20)),((3,14),(((5,10),(12,17)),(13,15)))),18),(19,(8,9))),16),21);
(((((((3,14),(11,(4,20))),((((5,10),(12,17)),(13,15)),((1,7),(2,6)))),18),(9,16)),(8,19)),21);
((((((((((10,17),(5,12)),(13,15)),((1,2),(4,(6,7)))),(3,14)),(11,20)),18),(9,16)),(8,19)),21);
(((((((4,7),(20,(6,(1,2)))),(10,(5,(12,17)))),((3,14),(11,(13,15)))),18),((9,16),(8,19))),21);
((((((((3,14),(11,(6,(4,20)))),(7,(1,2))),((5,(12,(10,17))),(13,15))),18),(8,19)),(9,16)),21);
(((((((((4,20),(7,(6,(1,2)))),(3,14)),((13,15),(12,(5,(17,10))))),11),18),(8,19)),(9,16)),21);
(((((((((12,(5,17)),10),15),13),(3,14)),18),(11,((4,20),(6,(7,(1,2)))))),((9,16),(8,19))),21);
(((((((((11,(6,7)),((4,20),(1,2))),(13,15)),(3,14)),(5,(12,(10,17)))),18),(19,(8,9))),16),21);
(((((((((1,2),((4,20),(6,7))),11),(3,14)),((13,15),(5,(12,(10,17))))),18),(8,19)),(9,16)),21);
(((((((3,((10,(5,17)),(12,(13,15)))),((7,(1,2)),(4,(6,20)))),11),14),18),((9,16),(8,19))),21);
((((((((6,(7,(1,2))),(20,4)),((13,15),(5,(12,(10,17))))),(11,(3,14))),18),(8,19)),(9,16)),21);
(((((((((7,(1,2)),6),(4,20)),11),((5,(12,(10,17))),((13,15),(3,14)))),18),(8,19)),(9,16)),21);
(((((((3,14),(((13,15),((10,17),(5,12))),(11,(1,2)))),18),(4,(20,(6,7)))),(9,16)),(8,19)),21);
(((((((12,(5,17)),(13,15)),((11,(3,14)),(10,((4,20),(7,(6,(1,2))))))),18),(8,19)),(9,16)),21);
((((((11,((6,(1,2)),(4,7))),(20,(3,14))),((17,(10,(5,12))),(13,15))),((8,19),(9,16))),18),21);
