((((6,((18,19),(13,((7,(10,(3,(4,11)))),(2,5))))),(17,(12,(9,16)))),(8,(1,(14,(15,20))))),21);
(((((((7,(10,(4,11))),3),(2,5)),13),(6,(18,19))),((17,(16,(9,12))),(1,(8,(14,(15,20)))))),21);
(((((((3,10),((7,(4,11)),(2,5))),6),13),((18,19),((9,16),(12,17)))),(8,(1,(14,(15,20))))),21);
((((((((3,(4,11)),(10,7)),(2,5)),13),(6,(18,19))),(17,(9,(12,16)))),(8,(1,(14,(15,20))))),21);
(((((((((((4,11),7),10),3),(2,5)),13),6),(18,19)),(17,(12,(9,16)))),(8,(1,(14,(15,20))))),21);
((((((6,(18,19)),(13,(7,(4,11)))),((3,10),(2,5))),((9,16),(12,17))),(8,(1,(14,(15,20))))),21);
((((((((10,(3,4)),7),11),(2,5)),(13,(6,(18,19)))),(17,(12,(9,16)))),((14,(15,20)),(1,8))),21);
((((((6,(18,19)),(5,(2,((3,(4,11)),(7,10))))),13),(17,(9,(12,16)))),(8,(1,(14,(15,20))))),21);
(((((((((4,11),(3,10)),7),(2,5)),13),(19,(6,18))),(17,(12,(9,16)))),(8,(1,(14,(15,20))))),21);
((((((((7,(3,(4,11))),10),(2,5)),13),(6,(18,19))),(17,(16,(12,9)))),((1,14),(8,(15,20)))),21);
((((((13,((11,(3,4)),(2,5))),(7,10)),(6,(18,19))),(17,(12,(9,16)))),(1,(8,(14,(15,20))))),21);
(((((6,(18,19)),((2,5),((3,(4,11)),(7,10)))),(13,(17,(12,(9,16))))),(8,(1,(14,(15,20))))),21);
(((((((((3,4),11),(7,10)),(2,5)),13),(6,(18,19))),((12,16),(9,17))),(8,(1,(14,(15,20))))),21);
(((((((3,(4,11)),((7,10),(2,5))),13),(6,(18,19))),(17,(12,(9,16)))),(1,(8,(14,(15,20))))),21);
((((((2,5),(10,(7,(3,(4,11))))),((6,(18,19)),13)),((12,17),(9,16))),(8,(1,(14,(15,20))))),21);
((((((7,(10,(3,(4,11)))),(2,5)),(13,(6,(18,19)))),(17,(12,(9,16)))),(8,((14,20),(1,15)))),21);
(((((6,(18,19)),(13,((11,(7,10)),((3,4),(2,5))))),(17,(12,(9,16)))),(8,(1,(14,(15,20))))),21);
(((((((3,(7,(5,(10,(4,11))))),2),13),(6,(18,19))),(12,(17,(9,16)))),((1,14),(8,(15,20)))),21);
((((((((((3,11),4),10),7),5),2),(6,(13,(18,19)))),((12,16),(9,17))),((14,(15,20)),(8,1))),21);
((((((((((4,11),(7,3)),10),2),5),13),(19,(6,18))),(17,(12,(9,16)))),(8,(1,(14,(15,20))))),21);
((((((((3,4),11),(7,10)),13),((2,5),(6,(18,19)))),(12,(17,(9,16)))),((14,(15,20)),(1,8))),21);
(((((13,(6,(18,19))),(2,(5,((3,10),(7,(4,11)))))),(12,(17,(9,16)))),(8,(1,(14,(15,20))))),21);
(((((((((3,4),(10,7)),(2,5)),11),13),(6,(18,19))),((9,16),(12,17))),(1,(8,(14,(15,20))))),21);
((((((((10,(3,4)),11),7),(2,5)),13),(6,(18,19))),(((9,16),(12,17)),(8,(1,(14,(15,20)))))),21);
((((17,(16,(12,9))),(13,((6,(18,19)),((2,5),((3,(4,11)),(7,10)))))),(8,(1,(20,(14,15))))),21);
((((((((7,10),4),3),11),(2,5)),(((12,16),(9,17)),(13,(6,(18,19))))),(1,(8,(14,(15,20))))),21);
(((((((2,(3,(4,11))),5),(7,10)),13),((9,(17,(12,16))),(6,(18,19)))),(8,(1,(14,(15,20))))),21);
((((((((((3,4),10),11),7),(2,5)),13),(17,(9,(12,16)))),(6,(18,19))),(8,(1,(14,(15,20))))),21);
(((((((((3,10),4),(7,11)),(2,5)),13),(6,(18,19))),(17,(16,(9,12)))),((14,20),(8,(1,15)))),21);
((((6,(18,19)),((17,(9,(16,12))),(((10,(4,11)),(2,5)),(13,(3,7))))),(1,(8,(14,(15,20))))),21);
((((((((10,(3,7)),(4,11)),(2,5)),13),(6,(18,19))),(17,(12,(9,16)))),((14,(15,20)),(1,8))),21);
(((((((4,(7,(3,10))),(2,(5,11))),13),(6,(18,19))),(17,(12,(9,16)))),(8,(1,(14,(15,20))))),21);
((((((((10,(3,(4,11))),7),(2,5)),13),(6,(18,19))),((9,16),(17,12))),(8,(1,(14,(15,20))))),21);
(((((((4,11),((2,5),(3,(7,10)))),13),(6,(18,19))),((9,16),(17,12))),(8,(1,(14,(15,20))))),21);
(((((((((10,11),4),(3,7)),(2,5)),13),(6,(18,19))),((9,16),(12,17))),((14,(15,20)),(1,8))),21);
((((((((11,(3,4)),7),10),2),(6,(18,19))),((5,13),(17,(12,(9,16))))),((1,(15,20)),(8,14))),21);
((((((5,(7,(10,(4,(3,11))))),(2,13)),(6,(18,19))),(17,(12,(9,16)))),(1,(8,(14,(15,20))))),21);
(((((((7,(4,(3,11))),10),(2,5)),(13,(6,(18,19)))),(17,(12,(9,16)))),((14,(15,20)),(1,8))),21);
((((6,((18,19),(13,((2,5),(11,(7,(10,(3,4)))))))),(17,(12,(9,16)))),(8,(1,(14,(15,20))))),21);
(((((6,(18,19)),((2,(5,(7,((3,(4,11)),10)))),13)),(17,(12,(9,(15,16))))),((14,20),(1,8))),21);
((((((6,(18,19)),((4,11),((2,5),(7,(3,10))))),13),(17,(12,(9,16)))),(8,(1,(14,(15,20))))),21);
((((((((7,(3,10)),(4,11)),(2,5)),13),(6,(18,19))),(8,(1,(14,(15,20))))),(12,(17,(9,16)))),21);
((((((((3,(4,11)),(7,10)),(2,5)),13),(6,(18,19))),(17,(12,(9,16)))),(1,(8,(14,(15,20))))),21);
(((((((3,(2,5)),(7,(10,(4,11)))),13),(6,(18,19))),(17,(12,(9,16)))),(8,(1,(14,(15,20))))),21);
((((((2,(7,10)),(5,(3,(4,11)))),6),((17,(16,(9,12))),(13,(18,19)))),(1,(8,(14,(15,20))))),21);
((((((((10,11),(3,4)),7),(13,(2,5))),(6,(18,19))),(17,(16,(9,12)))),((20,(14,15)),(1,8))),21);
(((((13,((2,5),((7,11),(10,(3,4))))),(6,(18,19))),(17,(9,(16,12)))),((20,(14,15)),(1,8))),21);
(((((18,19),(6,(13,(2,(5,((3,11),(4,(7,10)))))))),((15,20),(8,(1,14)))),((9,16),(12,17))),21);
(((((((((3,(4,7)),10),2),(5,11)),13),(6,(18,19))),(17,(12,(9,16)))),(8,(1,(14,(15,20))))),21);
((((17,(9,(12,16))),((6,(18,19)),((2,5),(13,(10,(7,(3,(4,11)))))))),((14,(15,20)),(1,8))),21);
(((((((11,((3,4),(7,10))),(2,5)),13),(6,(18,19))),(17,(12,(9,16)))),(8,((15,20),(1,14)))),21);
((((((((3,10),(7,(4,11))),(2,5)),13),(6,(18,19))),(17,(12,(9,16)))),(8,(1,(14,(15,20))))),21);
(((((13,(((11,(3,4)),(7,10)),(2,5))),(19,(6,18))),(17,(12,(9,16)))),(1,(8,(14,(20,15))))),21);
(((((((5,(2,4)),((3,11),(7,10))),13),(6,(18,19))),(17,((9,15),(12,16)))),((14,20),(1,8))),21);
((((((((10,(4,(3,11))),7),5),(2,(6,(18,19)))),13),(16,(17,(9,12)))),(8,(1,(14,(15,20))))),21);
(((((((((3,(4,11)),7),10),(2,5)),13),(6,(18,19))),(17,(9,(12,16)))),((15,20),(8,(1,14)))),21);
(((((((((3,(4,11)),(10,7)),(2,5)),13),6),(18,19)),(17,(12,(9,16)))),((1,15),(8,(14,20)))),21);
(((((((((10,11),7),(3,4)),(2,5)),13),(6,(18,19))),(12,(17,(9,16)))),((14,(15,20)),(1,8))),21);
((((((13,((3,10),(2,5))),(6,(18,19))),(7,(4,11))),((9,12),(16,17))),(8,(1,(20,(14,15))))),21);
(((((((2,5),((4,11),(10,(7,3)))),(19,(6,18))),13),(17,(12,(9,16)))),((15,20),(8,(1,14)))),21);
(((((((11,(3,7)),(4,10)),(2,5)),13),(6,(18,19))),((17,(12,(9,(15,16)))),(1,(8,(14,20))))),21);
(((((6,(18,19)),(13,(7,(((4,11),(3,10)),(2,5))))),((12,17),(15,(9,16)))),(8,(20,(1,14)))),21);
(((((((11,((3,4),(10,7))),(2,5)),13),(6,(18,19))),(1,(8,(14,20)))),(15,((9,16),(17,12)))),21);
(((((((((3,10),(7,4)),11),(2,5)),(6,(18,19))),13),((12,(15,16)),(9,17))),(8,(1,(14,20)))),21);
((((((((4,7),(11,(3,10))),(2,5)),13),(6,(18,19))),((14,(15,20)),(1,8))),(17,(12,(9,16)))),21);
(((((((((4,11),(7,3)),10),(2,5)),13),(6,(18,19))),(17,(12,(9,16)))),(8,(1,(14,(15,20))))),21);
(((((((((7,(3,4)),10),11),(2,5)),13),(6,(18,19))),(17,(16,(9,12)))),(8,(1,(14,(15,20))))),21);
((((((((7,(4,10)),3),11),2),(13,(5,(6,(18,19))))),(17,(12,(9,16)))),(8,(1,(14,(15,20))))),21);
(((((6,(18,19)),(13,((2,5),((4,11),(7,(3,10)))))),(17,(12,(9,16)))),((1,14),(8,(15,20)))),21);
(((((17,(9,(12,16))),(6,(18,19))),(13,(5,(2,(7,(10,(3,(4,11)))))))),((14,(15,20)),(1,8))),21);
((((((2,5),(13,(7,(10,(3,(4,11)))))),(6,(18,19))),(12,(17,(9,16)))),(8,(1,(14,(15,20))))),21);
(((((((((7,10),4),(3,11)),(2,5)),13),(6,(18,19))),(16,(17,(9,12)))),(8,(1,(14,(15,20))))),21);
(((((((((4,11),(10,7)),3),(2,5)),(6,(18,19))),13),((12,16),(9,17))),(8,(15,(1,(14,20))))),21);
((((((((3,(10,(4,11))),7),13),(2,5)),(6,(18,19))),(12,(17,(9,16)))),(1,(8,(14,(15,20))))),21);
(((((((((4,7),(3,11)),10),(2,5)),13),(6,(18,19))),((12,17),(9,16))),((14,(15,20)),(8,1))),21);
(((((6,(18,19)),(13,((2,5),(10,((4,11),(3,7)))))),((9,16),(12,17))),((1,(15,20)),(8,14))),21);
((((((2,((7,(4,11)),(5,(3,10)))),13),(6,(18,19))),(17,(12,(9,16)))),(8,(1,(14,(15,20))))),21);
((((((((10,(7,(4,11))),3),(2,5)),13),(6,(18,19))),(8,(1,(14,(15,20))))),(17,(12,(9,16)))),21);
((((((((4,11),(10,(3,7))),(13,(2,5))),(18,19)),6),(1,(8,(14,20)))),((9,(15,16)),(12,17))),21);
((((((((7,(4,(3,11))),10),(2,5)),13),(6,(18,19))),(17,(12,(9,16)))),(8,(1,(14,(15,20))))),21);
((((((((11,(4,7)),3),10),(6,(18,19))),(13,(2,5))),((9,16),(12,17))),(8,(1,(14,(15,20))))),21);
(((((((((((3,11),4),7),10),2),5),13),(6,(18,19))),(17,(12,(9,16)))),(8,(20,(1,(14,15))))),21);
((((((((3,(7,(10,11))),(2,5)),4),13),(17,(12,(9,16)))),(6,(18,19))),(8,(20,(1,(14,15))))),21);
(((((((6,(18,19)),(10,((4,11),(3,7)))),13),(2,5)),(17,(16,(9,12)))),(8,(1,(14,(15,20))))),21);
((((((((3,10),7),(4,11)),13),((2,5),(6,(18,19)))),(17,(12,(9,16)))),((14,(15,20)),(1,8))),21);
(((((((((((4,10),3),11),7),5),2),13),(6,(18,19))),(9,(17,(12,16)))),(8,(1,(14,(15,20))))),21);
((((((((7,10),(3,(4,11))),(2,5)),13),(6,(18,19))),(17,(12,(9,16)))),(8,(1,(14,(15,20))))),21);
(((((((2,5),(3,(7,11))),(6,(18,19))),(13,(4,10))),(17,(9,(12,16)))),((14,(15,20)),(1,8))),21);
((((((((3,(4,11)),(7,10)),(2,5)),13),(6,(18,19))),(17,(12,(9,16)))),(1,(8,(14,(15,20))))),21);
(((((6,(18,19)),(13,((2,5),((4,11),(7,(3,10)))))),(17,(12,(9,16)))),(8,(1,(14,(15,20))))),21);
(((((((((4,11),3),10),7),(2,5)),13),(6,(18,19))),((8,(1,(14,(15,20)))),(17,(12,(9,16))))),21);
((((((3,(7,10)),(4,11)),5),((6,(18,19)),(2,13))),((17,(9,(12,16))),(8,(1,(14,(15,20)))))),21);
((((((2,5),(13,(7,(11,(3,(10,4)))))),(6,(18,19))),((9,16),(12,17))),(8,(1,(14,(15,20))))),21);
(((((((((4,11),(3,7)),10),(2,5)),13),(6,(18,19))),(17,(12,(9,(15,16))))),(8,(20,(1,14)))),21);
(((((((((3,7),10),(2,5)),(4,11)),13),(17,(12,(9,16)))),(6,(18,19))),(1,(8,(14,(15,20))))),21);
(((((((((7,(3,4)),11),10),(2,5)),13),(6,(18,19))),(17,(12,(9,16)))),(1,(8,(14,(15,20))))),21);
((((((((((3,11),(4,10)),7),(2,5)),13),(6,(18,19))),(17,(12,(9,16)))),(1,(14,(15,20)))),8),21);
((((((((7,((4,11),3)),10),(2,5)),13),(6,(18,19))),(17,(12,(9,16)))),(8,(15,(1,(14,20))))),21);
((((((((3,(10,(4,11))),7),(2,5)),13),(6,(18,19))),(12,(17,(9,16)))),(8,(1,(20,(14,15))))),21);
(((((((((7,(3,11)),10),4),(2,5)),13),(6,(18,19))),(17,(12,(9,(15,16))))),(1,(8,(14,20)))),21);
((((((((3,(10,(4,11))),7),(2,5)),13),(6,(18,19))),(8,(14,(1,(15,20))))),((9,16),(12,17))),21);
((((((2,5),(6,(18,19))),(13,(11,(10,(7,(3,4)))))),(17,(16,(12,(9,15))))),(8,(1,(14,20)))),21);
((((((2,13),(6,(18,19))),(5,(10,(7,(4,(11,3)))))),((9,16),(12,17))),(8,(1,(14,(15,20))))),21);
(((((((((3,11),(4,7)),10),(2,5)),(6,(18,19))),13),(((12,17),9),(15,16))),(1,(8,(14,20)))),21);
(((((((2,5),(13,(10,11))),(3,(4,7))),(6,(18,19))),((20,(14,15)),(1,8))),(12,((9,16),17))),21);
(((((((((3,4),(10,(7,11))),5),2),13),(6,(18,19))),(17,(16,(9,12)))),(8,(1,(14,(15,20))))),21);
((((((((((3,4),11),7),10),(2,5)),13),(17,(12,(9,16)))),(6,(18,19))),(8,(14,(1,(15,20))))),21);
((((((((11,(7,(3,4))),(10,5)),2),13),(6,(18,19))),(8,(20,(1,(14,15))))),(17,(12,(9,16)))),21);
(((((((((3,7),10),(4,11)),(2,5)),13),(6,(18,19))),((9,16),(17,12))),(8,(1,(14,(15,20))))),21);
((((((2,(5,(10,(7,(3,(4,11)))))),13),(6,(18,19))),(12,(17,(9,16)))),((1,(15,20)),(8,14))),21);
((((((((3,7),(4,11)),2),(5,10)),(13,(6,(18,19)))),(17,(12,(9,(15,16))))),(1,(8,(14,20)))),21);
(((((((((7,(3,(4,11))),10),(2,5)),13),(18,19)),(17,(12,(16,(9,15))))),6),(8,(1,(14,20)))),21);
(((((((((7,(10,11)),4),3),13),(2,5)),(6,(18,19))),(12,(17,(9,16)))),(8,(1,(14,(15,20))))),21);
((((((((3,10),(7,(4,11))),(2,5)),13),(6,(18,19))),((14,(15,20)),(8,1))),(17,(12,(9,16)))),21);
((((17,(12,(9,16))),(13,((6,(18,19)),((3,(4,11)),((7,10),(2,5)))))),(8,(1,(14,(15,20))))),21);
((((14,(8,(1,(15,20)))),((6,(18,19)),(13,((3,10),((7,(4,11)),(2,5)))))),(17,(16,(9,12)))),21);
((((((((4,11),(3,10)),(7,(2,5))),13),(6,(18,19))),((16,17),(9,12))),(8,(1,(14,(15,20))))),21);
(((((((7,(3,(4,11))),10),(2,5)),(13,(6,(18,19)))),(17,(12,(9,(15,16))))),((14,20),(1,8))),21);
((((((7,(2,5)),(13,(10,(3,(4,11))))),(6,(18,19))),(17,(12,(9,16)))),(1,(8,(14,(15,20))))),21);
(((((((7,(10,(3,(4,11)))),(2,5)),13),(6,(18,19))),(17,(16,(9,12)))),((14,(15,20)),(1,8))),21);
(((((((((4,3),(10,11)),7),13),(2,5)),(6,(18,19))),(17,(12,(9,16)))),(1,(14,(8,(15,20))))),21);
((((((((3,10),(7,(4,11))),((2,5),13)),(18,19)),(17,(12,(9,16)))),6),(8,(1,(15,(14,20))))),21);
(((((((((4,(3,11)),7),10),(2,5)),13),(6,(18,19))),((9,16),(12,17))),(8,(1,(20,(14,15))))),21);
(((((((10,(7,(11,(3,4)))),(2,5)),(6,(18,19))),13),(17,(12,(9,16)))),(14,(8,(1,(15,20))))),21);
((((((((7,(3,(4,11))),10),13),(2,5)),(6,(18,19))),(17,(12,(9,16)))),(8,(1,(14,(15,20))))),21);
((((13,(7,((3,11),10))),((6,(18,19)),(4,(2,5)))),((17,(12,(9,16))),(8,(1,(14,(15,20)))))),21);
((((((2,(4,(7,(10,(3,11))))),5),(13,(6,(18,19)))),(17,(12,(9,16)))),(8,(1,(14,(15,20))))),21);
((((((((3,7),(10,(4,11))),(2,5)),13),(6,(18,19))),(17,(12,(9,16)))),(8,(1,(14,(15,20))))),21);
(((((((2,5),(10,(7,(3,(4,11))))),13),(6,(18,19))),(17,(12,(9,16)))),((14,(15,20)),(1,8))),21);
((((((((3,(4,11)),(7,10)),(2,5)),13),(6,(18,19))),(17,(12,(15,(9,16))))),(((1,8),20),14)),21);
((((((((10,(3,(4,11))),7),5),(2,13)),(17,(9,(12,16)))),(19,(6,18))),(1,(8,(14,(15,20))))),21);
(((((((7,(3,(10,(4,11)))),(2,5)),(6,(18,19))),13),(17,(15,(12,(9,16))))),((14,20),(1,8))),21);
(((((((10,(7,(11,(3,4)))),(2,5)),(6,(18,19))),13),((16,(9,15)),(12,17))),(20,(8,(1,14)))),21);
(((((((((10,(7,(3,(4,11)))),5),2),13),(18,19)),6),((12,17),(9,16))),(8,(14,(1,(15,20))))),21);
((((((3,(10,(7,(4,11)))),(2,5)),(13,(6,(18,19)))),((9,16),(17,12))),(8,(1,(14,(15,20))))),21);
((((((((11,(3,4)),(7,10)),(2,5)),13),(6,(18,19))),(17,(16,(9,12)))),(8,(1,(14,(15,20))))),21);
((((((((7,10),3),(4,11)),(2,5)),13),((12,(17,(9,16))),(6,(18,19)))),(8,(1,(15,(14,20))))),21);
((((((((3,10),(7,(4,11))),(2,5)),13),(18,19)),(6,(17,(12,(9,(15,16)))))),(1,(20,(8,14)))),21);
((((((((3,(4,11)),(10,7)),(2,5)),13),(6,(18,19))),(17,((15,16),(9,12)))),(8,(1,(14,20)))),21);
(((((((3,7),((11,(4,10)),(2,5))),13),(6,(18,19))),(17,(12,(9,(15,16))))),((14,20),(1,8))),21);
((((((10,((3,11),(4,7))),(13,(2,5))),(6,(18,19))),(17,(12,(9,16)))),(8,(20,(1,(14,15))))),21);
(((((13,((2,5),(7,(10,(3,(4,11)))))),(6,(18,19))),(17,(12,(9,16)))),((14,(15,20)),(1,8))),21);
(((((((((3,7),(10,11)),4),(2,5)),13),(6,(18,19))),(17,(12,(9,16)))),(8,(1,(14,(15,20))))),21);
((((((((3,4),(10,11)),7),(13,(2,5))),(6,(18,19))),((9,16),(12,17))),((14,(15,20)),(1,8))),21);
((((((((3,10),(7,(4,11))),13),(2,5)),(6,(18,19))),(17,(12,(9,16)))),((14,(15,20)),(1,8))),21);
(((((((((3,11),(4,10)),7),5),13),2),((1,(15,20)),(14,8))),((6,(18,19)),(17,(12,(9,16))))),21);
((((((((11,(3,10)),(4,7)),(2,5)),13),(6,(18,19))),(17,(12,(9,16)))),(8,(1,(14,(15,20))))),21);
((((((2,5),((3,4),(11,(7,10)))),(13,(6,(18,19)))),(17,(12,(9,(15,16))))),(8,(1,(14,20)))),21);
(((((((7,(4,(3,11))),10),13),(2,5)),((6,(18,19)),(17,(12,(9,16))))),(8,(1,(14,(15,20))))),21);
(((((((((4,11),(10,3)),7),(2,5)),13),(19,(6,18))),(17,(9,(12,(15,16))))),((8,20),(1,14))),21);
(((((((((4,10),7),(3,11)),(2,5)),13),(6,(18,19))),((9,16),(12,17))),((14,(15,20)),(1,8))),21);
(((((5,(13,(10,(2,(3,(7,(4,11))))))),(6,(18,19))),(17,(9,(12,16)))),((15,(14,20)),(1,8))),21);
(((((((((3,11),(7,(4,10))),5),2),13),(6,(18,19))),((1,(15,20)),(8,14))),(17,(12,(9,16)))),21);
((((((((11,((3,4),10)),7),(2,5)),(6,(18,19))),13),((9,16),(17,12))),(8,(1,(14,(15,20))))),21);
((((((((11,(4,3)),10),7),(2,5)),(17,(12,(9,16)))),(13,(6,(18,19)))),(1,(8,(14,(15,20))))),21);
(((((6,(18,19)),((2,5),(13,((4,11),(7,(3,10)))))),(17,(12,(9,16)))),((14,(15,20)),(1,8))),21);
(((((((((3,10),(4,11)),7),(2,5)),13),(6,(18,19))),(17,((15,16),(9,12)))),(8,(1,(14,20)))),21);
(((((6,(18,19)),((7,(10,(3,(4,11)))),(13,(2,5)))),(17,((9,(15,16)),12))),(1,(8,(14,20)))),21);
(((((18,19),(6,(13,((2,5),(7,(10,(3,(4,11)))))))),(17,(12,(9,16)))),((14,(15,20)),(1,8))),21);
(((((((4,7),((2,5),(10,(3,11)))),13),(6,(18,19))),(12,(17,(16,(9,15))))),(1,(8,(14,20)))),21);
(((((((((((4,10),11),7),3),2),5),(6,(18,19))),13),(12,(17,(9,16)))),((14,(15,20)),(1,8))),21);
((((((((4,(3,7)),(10,11)),(2,5)),(6,(18,19))),13),((9,16),(12,17))),((20,(14,15)),(1,8))),21);
((((((((((7,(4,11)),3),10),5),2),13),(6,(18,19))),(17,(12,(9,(15,16))))),(14,(8,(1,20)))),21);
(((((((10,(3,(4,11))),7),(2,5)),(13,(6,(18,19)))),(17,(12,(9,16)))),(8,(1,(14,(15,20))))),21);
(((((17,(12,(9,16))),((6,(18,19)),((2,5),(7,((4,11),(3,10)))))),(8,(1,(14,(15,20))))),13),21);
((((13,((((4,11),(3,10)),(7,(2,5))),(6,(18,19)))),(17,(12,(9,16)))),(1,(8,(20,(14,15))))),21);
(((((7,((3,4),(10,11))),((6,(18,19)),(13,(2,5)))),(17,((15,16),(9,12)))),(1,(8,(14,20)))),21);
(((((13,(11,(((3,4),(7,10)),(2,5)))),(6,(18,19))),((12,16),(9,17))),((1,14),(8,(15,20)))),21);
((((((((((3,4),10),7),11),(2,5)),13),(6,(18,19))),(17,(9,(16,12)))),(8,(1,(14,(15,20))))),21);
((((((5,(2,(7,(10,(3,(4,11)))))),13),(6,(18,19))),(17,(12,(9,16)))),(8,((15,20),(14,1)))),21);
(((((13,(((3,10),(7,(4,11))),(2,5))),(6,(18,19))),(12,(17,(9,16)))),((1,14),(8,(15,20)))),21);
((((((((3,10),(7,(4,11))),(2,5)),13),(6,(18,19))),((9,16),(17,12))),(8,((15,20),(1,14)))),21);
(((((((2,5),((10,11),(7,(3,4)))),13),(6,(18,19))),(9,(17,(12,16)))),((14,(15,20)),(8,1))),21);
(((((((7,(10,(3,(4,11)))),(2,5)),13),(18,(6,19))),(8,((14,15),(1,20)))),((9,16),(12,17))),21);
((((((9,15),(17,(12,16))),((2,5),(13,(7,(10,(3,(4,11))))))),(6,(18,19))),((14,20),(1,8))),21);
(((((13,(6,(18,19))),((10,(3,(4,11))),(7,(2,5)))),(17,(12,(9,16)))),(8,(20,(1,(14,15))))),21);
(((((13,(7,((10,(3,(4,11))),(2,5)))),(6,(18,19))),(17,(16,(9,12)))),((14,(15,20)),(8,1))),21);
((((((((3,(4,11)),7),(2,5)),10),13),((17,(12,(9,16))),(6,(18,19)))),((1,20),(8,(14,15)))),21);
(((((13,(6,(18,19))),((5,(10,(3,(4,11)))),(2,7))),(17,(12,(9,16)))),(8,((14,20),(1,15)))),21);
(((((5,(3,(7,(10,(4,11))))),((6,(18,19)),(2,13))),(17,(9,(12,16)))),(8,(14,(1,(15,20))))),21);
((((((5,2),(7,((4,11),(3,10)))),(13,(6,(18,19)))),(17,(12,(9,16)))),(8,(1,(14,(15,20))))),21);
(((((((7,(10,(3,(4,11)))),(2,5)),13),(6,(18,19))),((9,16),(12,17))),(8,(1,(14,(15,20))))),21);
(((((((((10,(3,(4,11))),7),(2,5)),13),(18,19)),6),((9,12),(16,17))),(8,(1,(14,(20,15))))),21);
((((((((((3,(4,11)),7),10),(2,5)),13),(18,19)),6),(17,(12,(9,16)))),((15,20),(8,(1,14)))),21);
(((((13,(7,(10,(4,(11,3))))),((2,5),(6,(18,19)))),(17,(12,(9,16)))),(8,(14,(1,(15,20))))),21);
((((((10,((4,7),(3,11))),(13,(2,5))),(6,(18,19))),(17,(12,(9,16)))),(14,(8,(1,(15,20))))),21);
(((((7,(3,(10,(4,11)))),((6,(18,19)),(13,(2,5)))),(17,(12,(9,16)))),((1,(15,20)),(8,14))),21);
((((((((3,(4,11)),7),10),(2,5)),(13,(6,(18,19)))),(17,(12,(9,16)))),(8,(1,(14,(15,20))))),21);
(((((((2,5),((3,(4,11)),(7,10))),(6,(18,19))),13),(17,(12,(9,16)))),(8,(1,(14,(15,20))))),21);
((((((((10,(4,11)),(3,7)),(2,5)),13),(6,(18,19))),(17,(16,(12,9)))),(14,(8,(1,(15,20))))),21);
(((((((((((3,11),4),7),10),5),2),(6,(18,19))),13),(17,(12,(9,16)))),(8,(1,(14,(15,20))))),21);
(((((((7,(10,(3,4))),11),(2,5)),(13,(6,(18,19)))),((9,(15,16)),(12,17))),(8,(1,(14,20)))),21);
(((((6,(18,19)),(13,(((7,10),(4,(3,11))),(2,5)))),((8,1),(14,20))),((15,16),(17,(9,12)))),21);
(((((((10,(3,4)),((7,11),(2,5))),13),(6,(18,19))),(17,(12,(9,16)))),(8,(1,(14,(15,20))))),21);
((((13,(11,((2,5),((7,10),(3,4))))),((17,(12,(9,16))),(6,(18,19)))),(8,(1,(14,(15,20))))),21);
(((((((2,5),(7,((4,11),(3,10)))),13),(6,(18,19))),(17,(12,(9,16)))),(8,(1,(14,(15,20))))),21);
(((((6,(18,19)),((3,(4,11)),(13,((7,10),(2,5))))),(17,(9,(12,(15,16))))),(8,(1,(14,20)))),21);
((((((2,5),(6,(18,19))),(13,(7,((3,11),(4,10))))),(17,(12,(9,16)))),(8,(1,(14,(15,20))))),21);
(((((((((4,11),3),7),10),(2,5)),(13,(6,(18,19)))),(17,(9,(12,16)))),(8,(1,(14,(15,20))))),21);
((((((((3,(4,11)),(7,10)),(2,5)),13),(6,(18,19))),(17,(9,(12,16)))),(8,(1,(14,(15,20))))),21);
(((((((((7,(4,11)),3),10),(2,5)),(6,(18,19))),(17,(12,(9,16)))),13),((8,14),(1,(15,20)))),21);
(((((((((3,7),(10,(4,11))),2),5),13),(17,(12,(9,16)))),(6,(18,19))),(8,(1,(14,(15,20))))),21);
(((((((((4,7),(3,10)),11),(2,5)),13),(6,(18,19))),(17,(12,(9,16)))),(1,(8,(14,(15,20))))),21);
((((((((10,(4,7)),(3,11)),(2,5)),13),(6,(18,19))),((9,16),(12,17))),(8,(14,(1,(15,20))))),21);
((((((13,(2,5)),((18,19),(7,(10,(3,(4,11)))))),6),(17,(12,(9,16)))),(1,(8,(14,(15,20))))),21);
((((((((10,(7,(3,4))),11),(2,5)),(6,(18,19))),13),(17,(12,(9,16)))),(8,(1,(14,(15,20))))),21);
((((((((((3,10),7),(4,11)),(2,5)),13),6),(18,19)),(12,(17,(9,16)))),(8,(14,(1,(15,20))))),21);
((((((((3,(4,11)),(7,10)),(2,5)),13),(6,(18,19))),(17,(16,(9,12)))),(8,(1,(14,(15,20))))),21);
((((((((3,10),(7,(4,11))),(2,5)),13),(6,(19,18))),(17,(12,(9,16)))),((14,(15,20)),(1,8))),21);
(((((6,(18,19)),(13,((5,(3,7)),(2,(11,(4,10)))))),(17,(12,(9,16)))),(8,(1,(14,(15,20))))),21);
((((17,(16,(9,12))),(13,(((7,(10,(3,(4,11)))),(2,5)),(6,(18,19))))),(8,(1,(14,(15,20))))),21);
((((((((7,(4,11)),(3,10)),(2,5)),13),(6,(18,19))),(17,(12,(9,16)))),((14,(15,20)),(1,8))),21);
(((((((((7,(4,11)),3),10),(2,5)),(6,(18,19))),13),(12,(17,(9,16)))),(8,(14,((15,20),1)))),21);
(((((((((10,11),(3,4)),7),(2,5)),(6,(18,19))),13),(17,(12,(9,16)))),(8,(1,(14,(15,20))))),21);
((((((((3,11),(2,5)),(7,(4,10))),13),(6,(18,19))),(12,(17,(9,(15,16))))),(1,(8,(14,20)))),21);
(((((17,(12,(9,16))),(6,(18,19))),(14,((1,(15,20)),8))),((2,5),(13,((3,(4,11)),(10,7))))),21);
(((((((7,(4,11)),(3,10)),(6,(18,19))),(13,(2,5))),((9,16),(12,17))),(1,(8,(14,(15,20))))),21);
(((((((((((3,4),11),10),7),2),5),13),(6,(18,19))),(17,(12,(9,(15,16))))),(1,(8,(14,20)))),21);
(((((((2,5),((7,10),(3,(4,11)))),13),(6,(18,19))),(17,(16,(9,12)))),(8,(1,(14,(15,20))))),21);
((((((((3,10),(7,(4,11))),(2,5)),(6,(18,19))),13),(17,(9,(12,(15,16))))),(1,(8,(14,20)))),21);
((((((((10,11),3),(4,7)),(13,(2,5))),(6,(18,19))),((9,16),(12,17))),(8,(1,(14,(15,20))))),21);
(((((((3,(4,11)),(10,7)),(2,5)),(17,(12,(9,(15,16))))),(13,(6,(18,19)))),(1,(8,(14,20)))),21);
((((((6,(18,19)),(7,((2,5),((4,11),(3,10))))),13),((9,16),(12,17))),((1,(15,20)),(8,14))),21);
((((((((((3,11),4),10),7),5),13),2),(6,(18,19))),(((9,16),(12,17)),(8,(1,(14,(15,20)))))),21);
(((((((((3,(4,11)),10),7),(2,5)),13),(6,(18,19))),(17,(12,(9,(15,16))))),((14,20),(1,8))),21);
(((((13,((2,5),((3,7),(10,(4,11))))),(6,(18,19))),((9,16),(12,17))),((14,(15,20)),(1,8))),21);
((((((((4,(3,11)),(7,10)),(2,5)),13),(6,(18,19))),(17,(12,(9,16)))),(8,(1,(15,(14,20))))),21);
((((((2,5),(6,(18,19))),(13,((4,11),(10,(3,7))))),(17,(12,(9,16)))),((14,(15,20)),(1,8))),21);
((((((((10,(3,(4,11))),7),(2,5)),13),(17,(12,(9,16)))),(6,(18,19))),(8,(1,(14,(15,20))))),21);
(((((13,((10,(7,(3,(4,11)))),(2,5))),(6,(18,19))),((9,16),(12,17))),(8,(1,(14,(15,20))))),21);
((((((((3,(10,(4,11))),7),(2,5)),13),(6,(18,19))),(17,(12,(9,16)))),((15,(20,14)),(1,8))),21);
(((((((((3,10),7),(4,11)),(2,5)),13),(6,(18,19))),((8,1),((15,20),14))),(17,(12,(9,16)))),21);
(((((((5,(7,(10,(3,(4,11))))),2),13),(19,(6,18))),(17,(16,(9,12)))),(8,(1,(14,(15,20))))),21);
(((((((((7,(10,(4,11))),3),2),5),13),(6,(18,19))),(17,(12,(9,16)))),((14,(15,20)),(1,8))),21);
(((((((((11,4),7),3),(5,(2,10))),13),(6,(18,19))),((9,16),(12,17))),(8,(14,(1,(15,20))))),21);
(((((((7,3),((4,11),10)),13),((2,5),(6,(18,19)))),(15,(17,(12,(9,16))))),(8,(14,(1,20)))),21);
((((((((((3,4),11),10),7),(2,5)),(6,(18,19))),13),(17,(12,(9,16)))),((1,(15,20)),(8,14))),21);
(((((((7,(3,(4,11))),10),(2,5)),13),((8,(14,(1,(15,20)))),(17,(12,(9,16))))),(6,(18,19))),21);
(((((((3,(4,11)),(7,10)),(2,5)),(13,(6,(18,19)))),((12,16),(9,17))),(1,(8,(14,(15,20))))),21);
(((((((2,5),(7,(10,(3,(4,11))))),13),(6,(18,19))),(15,(17,(12,(9,16))))),(8,(1,(14,20)))),21);
(((((((((10,(4,11)),3),7),(2,5)),13),(6,(18,19))),(12,(17,(9,(15,16))))),(8,(1,(14,20)))),21);
((((((6,(18,19)),((3,10),(13,(7,(2,(4,11)))))),(17,(12,(9,16)))),5),((20,(14,15)),(1,8))),21);
((((((((2,5),(7,(4,11))),(3,10)),(6,(18,19))),13),(17,(12,(9,16)))),(8,(1,(14,(15,20))))),21);
(((((5,(2,(7,10))),(3,(4,11))),((13,(6,(18,19))),(17,((9,(15,16)),12)))),((14,20),(1,8))),21);
((((((((7,(3,(4,11))),10),(2,5)),13),(9,(17,(12,(15,16))))),(19,(6,18))),(8,(1,(14,20)))),21);
((((((((3,(7,(4,11))),10),(2,5)),13),(6,(18,19))),(17,(16,(9,12)))),(1,(8,(14,(15,20))))),21);
(((((((2,5),((10,(4,11)),(3,7))),(6,(18,19))),13),((16,(9,15)),(12,17))),(8,(1,(14,20)))),21);
(((((15,(1,(14,20))),8),((17,(9,(12,16))),(2,(6,(18,19))))),(13,(5,((4,11),(7,(3,10)))))),21);
((((((3,(7,(10,(4,11)))),(6,(18,19))),(13,(2,5))),((9,16),(17,12))),(14,(8,(1,(15,20))))),21);
(((((((((7,(4,11)),10),3),(2,5)),13),(6,(18,19))),(17,(12,(9,16)))),(1,(8,(15,(14,20))))),21);
((((((((7,(4,11)),(3,10)),(2,5)),13),(19,(6,18))),(15,(17,(12,(9,16))))),((14,20),(1,8))),21);
(((13,((6,(18,19)),((2,5),((10,(4,11)),(3,7))))),((17,(12,(9,16))),(8,(1,(14,(15,20)))))),21);
((((((18,19),(13,((2,5),(7,(10,(3,(4,11))))))),6),((12,16),(9,17))),(8,(1,(14,(15,20))))),21);
(((((3,(13,(10,((7,(4,11)),(2,5))))),(6,(18,19))),(12,(17,(9,16)))),(8,(1,(14,(15,20))))),21);
(((((((((4,11),(3,10)),7),(2,5)),(6,(18,19))),(12,((9,16),17))),13),(8,(1,(14,(15,20))))),21);
(((((((10,(3,(4,11))),7),((2,5),13)),(6,(18,19))),(17,(9,(12,16)))),(8,(1,(14,(15,20))))),21);
((((((6,(18,19)),(13,(2,5))),(3,(10,(7,(4,11))))),(17,(12,(9,16)))),(8,(1,(14,(15,20))))),21);
((((((((7,10),(3,(4,11))),5),2),(6,(18,19))),(13,(9,(12,(16,17))))),((14,(15,20)),(1,8))),21);
(((((((((3,(4,11)),(7,10)),2),5),13),(6,(18,19))),(17,(12,(9,16)))),((14,(15,20)),(1,8))),21);
((((((7,(3,(11,(4,10)))),2),5),(13,(6,(18,19)))),((17,(12,(9,16))),(8,(1,(14,(15,20)))))),21);
((((((2,5),(13,(7,(11,(10,(3,4)))))),(19,(6,18))),(17,(12,(9,16)))),(8,((14,15),(1,20)))),21);
(((((((((3,7),(4,11)),10),(2,5)),(6,(18,19))),13),(17,(12,(9,16)))),(8,(14,(1,(15,20))))),21);
((((((7,(10,(3,(4,11)))),(2,5)),(13,(6,(18,19)))),(12,(17,(9,16)))),((14,(15,20)),(1,8))),21);
(((((((4,11),(3,(7,10))),(2,5)),(13,(6,(18,19)))),(8,(1,(14,20)))),(17,(12,(9,(15,16))))),21);
((((((((10,(4,(3,11))),(2,5)),7),13),(6,(18,19))),(17,(12,(9,16)))),(8,(1,(14,(15,20))))),21);
(((((6,(13,(18,19))),((2,5),((3,(4,11)),(7,10)))),((9,16),(12,17))),(8,(1,(14,(15,20))))),21);
(((((9,(12,17)),16),(((10,(4,11)),((3,7),(2,5))),(13,(6,(18,19))))),(8,(1,(14,(15,20))))),21);
(((((6,(18,19)),(13,((2,5),((3,(4,11)),(7,10))))),(17,(12,(9,16)))),(1,(8,(14,(15,20))))),21);
((((((((3,(7,(4,11))),10),(2,5)),13),(6,(18,19))),(17,(16,(9,12)))),(8,(1,(14,(15,20))))),21);
((((((10,(7,(3,(4,11)))),(2,5)),13),((17,(12,(9,16))),(6,(18,19)))),((20,(14,15)),(1,8))),21);
((((((((((3,4),11),10),7),(2,5)),13),(6,(18,19))),((9,16),(12,17))),(8,(1,(14,(15,20))))),21);
((((((((3,10),(7,(4,11))),13),(2,5)),(6,(18,19))),(17,(12,(9,16)))),(14,(8,(1,(15,20))))),21);
((((((5,(10,(3,(4,11)))),(7,2)),(6,(18,19))),13),((8,(1,(14,(15,20)))),(17,(12,(9,16))))),21);
((((((2,(3,7)),(6,(18,19))),(13,(5,(4,(11,10))))),(17,(12,(9,16)))),(8,(1,(14,(15,20))))),21);
((((((((4,7),(10,(3,11))),2),5),(13,(6,(18,19)))),(17,(12,(9,16)))),(1,(8,(14,(15,20))))),21);
(((((13,((2,5),(7,(3,(10,(4,11)))))),(6,(18,19))),(17,(12,(9,16)))),(8,(1,(14,(15,20))))),21);
((((13,((6,(18,19)),(((4,11),(7,10)),(3,(2,5))))),(17,(12,(16,9)))),((14,(15,20)),(1,8))),21);
((((((((10,(3,(4,11))),7),(2,5)),13),(6,(18,19))),((9,12),(16,17))),(1,(8,(14,(15,20))))),21);
(((((((((4,10),(7,(3,11))),(2,5)),6),(18,19)),13),(17,(12,(9,(15,16))))),(8,(1,(14,20)))),21);
((((((3,((4,11),(7,10))),(2,5)),13),(6,(18,19))),((1,(8,(14,(15,20)))),(17,(12,(9,16))))),21);
(((((((3,(10,(4,11))),7),(2,5)),(13,(6,(18,19)))),(17,(12,(9,16)))),((14,(15,20)),(1,8))),21);
(((((((10,((3,(4,11)),7)),(2,5)),13),(18,(6,19))),((9,12),(17,(15,16)))),(1,(8,(14,20)))),21);
(((((((((10,(4,11)),3),7),(2,5)),13),(6,(18,19))),(17,(12,(9,16)))),(1,(8,(14,(15,20))))),21);
(((((((((11,(4,10)),3),7),(2,5)),13),(6,(18,19))),(17,(12,(9,16)))),(8,(1,(14,(15,20))))),21);
(((((((((11,3),4),(7,10)),(2,5)),13),(6,(18,19))),(17,((15,16),(9,12)))),((14,20),(1,8))),21);
((((((2,5),((7,10),(3,(4,11)))),13),(8,((15,20),(1,14)))),((17,(12,(9,16))),(6,(18,19)))),21);
(((((((5,7),(2,(3,(10,(4,11))))),(6,(18,19))),13),(17,(9,(12,16)))),(8,(1,(14,(15,20))))),21);
((((((((10,((4,11),7)),3),(2,5)),13),(6,(18,19))),(17,((14,(8,1)),(15,20)))),(12,(9,16))),21);
(((((6,(18,19)),(13,((2,5),(7,((4,11),(10,3)))))),(17,(16,(9,12)))),(8,(1,(14,(15,20))))),21);
((((((3,(4,11)),(10,7)),2),((17,(12,(16,(9,15)))),((6,(18,19)),(5,13)))),(20,(8,(1,14)))),21);
(((((((((3,(4,11)),10),7),(2,5)),13),(6,(18,19))),(17,(12,(9,16)))),(1,(8,(14,(15,20))))),21);
(((((((((3,11),(4,10)),7),(2,5)),13),(19,(6,18))),(17,(12,(9,16)))),(8,((15,20),(1,14)))),21);
(((((((3,(2,5)),(10,(7,(4,11)))),(6,(18,19))),13),(17,(12,(9,16)))),(14,((15,20),(1,8)))),21);
((((((((10,(3,(4,11))),7),2),5),(17,(12,(9,16)))),(13,(6,(18,19)))),((14,(15,20)),(1,8))),21);
((((((10,(7,(3,(4,11)))),(2,5)),(6,(18,19))),13),(((14,(15,20)),(1,8)),(17,(12,(9,16))))),21);
(((((((7,(4,11)),((2,5),(3,10))),13),(6,(18,19))),(17,(12,(9,16)))),(8,(1,(15,(14,20))))),21);
(((((((3,(7,10)),(4,11)),(13,(2,5))),((9,16),(12,17))),(6,(18,19))),(8,(1,(14,(15,20))))),21);
(((((((10,(7,(4,(3,11)))),(2,5)),13),(6,(18,19))),(12,(17,(9,16)))),(8,(1,(14,(15,20))))),21);
(((((((2,5),(7,10)),(13,(3,(4,11)))),(6,(18,19))),(17,(12,(9,16)))),(8,(1,(14,(15,20))))),21);
(((((((3,4),(7,10)),11),13),((2,5),(6,(18,19)))),(((9,12),(16,17)),(8,((14,20),(1,15))))),21);
(((((((((3,(4,11)),10),7),(2,5)),13),(6,(18,19))),(17,(9,(12,16)))),(8,(1,(14,(15,20))))),21);
(((((((((4,(3,10)),7),11),(2,5)),13),(6,(18,19))),(17,(12,(9,16)))),(8,(1,(14,(15,20))))),21);
(((((((((3,11),7),(4,10)),(2,5)),13),(6,(18,19))),(17,(15,(12,(9,16))))),(8,(1,(14,20)))),21);
(((((((((3,(4,11)),10),7),(2,5)),13),(6,(18,19))),(17,(12,(9,16)))),(8,(1,(14,(15,20))))),21);
(((((5,(10,2)),(7,(3,(4,11)))),13),(((6,(18,19)),(17,(9,(12,16)))),(1,(8,(14,(15,20)))))),21);
((((((((((3,11),4),7),10),13),(2,5)),(6,(18,19))),(17,(12,(9,16)))),(1,(8,(14,(15,20))))),21);
(((((((((3,7),10),(4,11)),(2,5)),13),(6,(18,19))),((9,16),(12,17))),(8,(1,(14,(15,20))))),21);
((((((((10,(4,11)),(3,7)),(2,5)),13),(6,(18,19))),(17,(12,(9,16)))),(8,(1,(14,(15,20))))),21);
(((((((11,(7,(4,(3,10)))),(2,5)),(6,(18,19))),13),(9,(17,(12,16)))),((15,20),(8,(1,14)))),21);
((((((((3,11),(10,7)),4),13),((2,5),(6,(18,19)))),(17,(12,(9,16)))),(8,(1,(14,(15,20))))),21);
((((((((10,(4,11)),3),7),(13,(2,5))),(6,(18,19))),((9,(15,16)),(12,17))),(14,(8,(1,20)))),21);
(((((((((3,(7,10)),(4,11)),2),5),(6,(18,19))),13),(17,(16,(12,9)))),((1,(15,20)),(8,14))),21);
((((((5,(2,((7,(4,11)),(3,10)))),13),(6,(18,19))),((9,16),(12,17))),((14,(15,20)),(1,8))),21);
(((((6,(18,19)),(12,(17,(9,16)))),(13,((2,5),((3,7),(10,(4,11)))))),(1,(8,(14,(15,20))))),21);
(((((((((4,11),(3,10)),7),(2,5)),13),(6,(18,19))),(8,((1,(15,20)),14))),((9,16),(12,17))),21);
(((((((((10,(4,11)),7),3),(2,5)),13),(6,(18,19))),(17,(12,(9,16)))),(8,(1,(15,(14,20))))),21);
(((((6,(18,19)),((3,(7,(10,(4,11)))),(13,(2,5)))),(17,(12,(9,16)))),((1,8),(14,(15,20)))),21);
(((((((((3,(4,11)),7),10),(2,5)),13),(6,(18,19))),(17,(12,(15,(9,16))))),(1,(8,(14,20)))),21);
(((((((((3,11),4),7),(2,10)),(6,(18,19))),(17,(12,(9,16)))),(5,13)),(8,(1,(14,(15,20))))),21);
((((((13,(2,5)),(18,19)),(6,((10,(4,11)),(3,7)))),(17,(12,(9,16)))),(1,(8,(14,(15,20))))),21);
((((((((10,(4,11)),(2,5)),(3,7)),13),(6,(18,19))),(17,(12,(9,16)))),(8,(1,(14,(15,20))))),21);
((((((((3,(7,(4,11))),10),(2,5)),13),(6,(18,19))),((9,12),(16,17))),((1,14),(8,(15,20)))),21);
((((((2,(7,(10,(4,11)))),(3,5)),(13,(6,(18,19)))),(12,(17,(9,16)))),((14,(15,20)),(1,8))),21);
(((((5,(2,(7,(10,(3,(4,11)))))),(13,(6,(18,19)))),(17,(12,(9,16)))),(1,(8,(14,(15,20))))),21);
(((((((3,(7,10)),(4,11)),(2,5)),13),(((9,16),(12,17)),(6,(18,19)))),(1,(8,(14,(15,20))))),21);
((((((((11,(3,4)),(7,10)),(2,5)),13),(6,(18,19))),((9,12),(16,17))),(8,(1,(14,(15,20))))),21);
(((((((10,(7,11)),((3,4),(2,5))),13),(6,(18,19))),(9,(17,(12,16)))),(8,(14,(1,(15,20))))),21);
((((((((7,(3,(4,11))),10),(2,5)),13),(6,(18,19))),(17,(12,(9,16)))),(8,(1,(14,(15,20))))),21);
((((((((3,10),(7,(4,11))),(2,5)),13),(6,(18,19))),(17,(12,(9,16)))),(1,(8,(14,(15,20))))),21);
(((((((10,((3,(4,11)),7)),(2,5)),13),(6,(18,19))),(12,(17,(9,16)))),(8,(1,(20,(14,15))))),21);
((((((((10,(3,4)),(2,5)),(7,11)),13),(6,(18,19))),(12,(17,(9,16)))),(1,(8,(14,(15,20))))),21);
(((((((((3,(4,11)),7),10),(2,5)),(6,(18,19))),13),(12,(17,(9,16)))),(8,(1,(15,(14,20))))),21);
(((((((((((7,4),10),3),2),11),13),5),(6,(18,19))),(17,(16,(9,12)))),(1,(8,(14,(15,20))))),21);
((((((((7,(3,10)),(4,11)),13),(2,5)),(6,(18,19))),(17,(12,(9,16)))),(8,(14,(1,(15,20))))),21);
(((((((2,5),((3,(4,11)),(7,10))),13),(6,(18,19))),(17,(16,(9,12)))),((14,(15,20)),(1,8))),21);
(((((((7,(3,(4,11))),(10,(2,5))),(6,(18,19))),13),(17,((9,15),(12,16)))),((14,20),(1,8))),21);
(((((((((3,(4,11)),10),7),(2,5)),13),(6,(18,19))),(17,(12,(9,16)))),(8,((15,20),(1,14)))),21);
((((((((3,10),(7,(4,11))),(2,5)),13),(6,(18,19))),(17,(12,(9,16)))),(8,(1,(14,(15,20))))),21);
(((((((7,(10,(3,(4,11)))),(2,5)),13),(6,(18,19))),(9,(17,(12,16)))),((14,(15,20)),(1,8))),21);
(((((((((7,10),11),(3,4)),(2,5)),(6,(18,19))),13),(17,(12,(9,(15,16))))),((14,20),(8,1))),21);
((((((((7,(4,11)),(2,5)),(3,10)),13),(6,(18,19))),(17,(12,(9,16)))),((14,(15,20)),(8,1))),21);
(((((6,(18,19)),(((4,11),(7,(3,10))),(13,(2,5)))),(17,(12,(9,16)))),(1,(8,(14,(15,20))))),21);
(((13,((9,(17,(12,16))),((6,(18,19)),(2,(5,(3,(7,(10,(4,11))))))))),(1,(8,(14,(15,20))))),21);
(((((6,(18,19)),(13,((2,5),(7,((4,11),(3,10)))))),((9,16),(12,17))),(8,(1,(14,(15,20))))),21);
((((((((4,11),(3,7)),10),(2,5)),13),((17,(12,(9,(15,16)))),(6,(18,19)))),(8,(14,(1,20)))),21);
((((((((10,(4,11)),(3,7)),(2,5)),13),(17,(12,(9,16)))),(6,(18,19))),(8,(1,(14,(15,20))))),21);
(((((((((10,(4,3)),7),11),(2,5)),13),(6,(18,19))),(17,(9,(12,16)))),(8,(1,(14,(15,20))))),21);
(((((((2,5),((3,(4,11)),(7,10))),13),((9,16),(12,17))),(6,(18,19))),((1,8),(14,(15,20)))),21);
((((((7,(10,(3,4))),(11,(2,5))),(13,(6,(18,19)))),(17,(12,(9,(15,16))))),(1,(8,(14,20)))),21);
((((((((((10,3),4),7),5),11),13),(2,(6,(18,19)))),(12,(17,(9,16)))),((14,15),(20,(1,8)))),21);
(((((((((3,10),(4,7)),11),(2,5)),(6,(18,19))),13),(17,(12,(9,16)))),((14,(15,20)),(1,8))),21);
(((((((7,10),(3,(4,11))),(2,5)),(13,(6,(18,19)))),(17,(12,(9,16)))),(8,(1,(14,(15,20))))),21);
((((((((2,5),11),((3,10),(4,7))),13),(6,(18,19))),(17,(16,(9,12)))),(14,(8,(1,(15,20))))),21);
((((((((4,11),(3,10)),(5,7)),2),(13,(6,(18,19)))),(17,(12,(9,16)))),(8,(1,(14,(15,20))))),21);
(((((((((3,(11,4)),10),7),(2,5)),13),(6,(18,19))),(17,(12,(9,16)))),((14,(15,20)),(1,8))),21);
(((((((10,(7,3)),(4,11)),(2,5)),13),(6,(18,19))),((17,(12,(9,16))),((1,(15,20)),(8,14)))),21);
(((((((((10,(4,11)),7),3),(2,5)),13),(6,(18,19))),(17,(16,(9,12)))),(1,(8,(14,(15,20))))),21);
((((((((3,(4,11)),(7,10)),(2,5)),13),(6,(18,19))),(17,(12,(9,16)))),((14,(15,20)),(1,8))),21);
(((((((((4,(3,11)),10),7),13),(2,5)),(6,(18,19))),(17,((15,16),(9,12)))),(1,(8,(14,20)))),21);
((((((((3,10),(4,(7,11))),(2,5)),13),(6,(18,19))),(17,(12,(9,16)))),(8,(1,(14,(15,20))))),21);
(((((((2,5),(7,(3,(4,11)))),(6,(18,19))),(10,13)),((12,(15,16)),(9,17))),(8,(1,(14,20)))),21);
((((((((3,(10,7)),(4,11)),(2,5)),13),(6,(18,19))),(17,(9,(12,16)))),(8,(14,(1,(15,20))))),21);
((((13,(6,(18,19))),((17,(12,(15,(9,16)))),((2,5),(3,((4,11),(7,10)))))),((14,20),(1,8))),21);
(((((13,(11,((2,5),(7,(10,(3,4)))))),(6,(18,19))),(17,(12,(9,16)))),(8,(1,(14,(15,20))))),21);
(((((((7,(3,4)),((10,11),(2,5))),(6,(18,19))),13),(17,(16,(9,12)))),(1,(8,(14,(15,20))))),21);
((((((((3,7),(10,(4,11))),13),(2,5)),(6,(18,19))),(17,(12,(9,16)))),(1,(8,(14,(15,20))))),21);
((((((10,(7,(3,(4,11)))),(13,(2,5))),(6,(18,19))),(17,(12,(9,16)))),(1,(8,(14,(15,20))))),21);
((((((((7,(4,11)),(3,10)),(2,5)),13),(6,(18,19))),(17,(12,(9,16)))),(8,(1,(14,(15,20))))),21);
(((((((7,(2,5)),((4,11),(3,10))),(6,(18,19))),13),(17,(12,(9,(15,16))))),(1,(8,(14,20)))),21);
((((((4,11),((2,5),(10,(3,7)))),13),(6,(18,19))),((17,(16,(12,9))),((1,(15,20)),(8,14)))),21);
(((((((3,4),(10,(7,11))),(2,5)),(13,(6,(18,19)))),(17,(12,(9,16)))),(8,(1,(14,(15,20))))),21);
((((((7,(10,(11,(3,4)))),(6,(18,19))),(13,(2,5))),(17,(12,(9,(15,16))))),(1,(8,(14,20)))),21);
((((((((((10,3),(4,11)),7),5),2),13),(6,(18,19))),(17,(12,(9,16)))),(8,(1,(20,(14,15))))),21);
(((((((2,5),(7,(10,(3,(4,11))))),(6,(18,19))),13),(8,(1,(14,(15,20))))),(17,(12,(9,16)))),21);
((((((13,((7,(3,(4,11))),(5,10))),2),(6,(18,19))),(17,(12,(9,16)))),(8,(1,(14,(15,20))))),21);
(((((((2,5),(7,(10,(4,(3,11))))),13),(6,(18,19))),(17,(12,(9,16)))),(8,(1,(14,(15,20))))),21);
((((((5,(2,(11,((4,10),(3,7))))),13),(6,(18,19))),(12,(17,(9,16)))),(8,(1,(14,(15,20))))),21);
((((((((2,5),((10,(4,11)),(3,7))),13),(6,(18,19))),(17,(12,(9,16)))),8),(1,(14,(15,20)))),21);
(((((((((7,10),(4,11)),3),13),(2,5)),(6,(18,19))),(17,(12,(9,(15,16))))),((1,8),(14,20))),21);
(((((13,((7,(3,(4,11))),(10,(2,5)))),(6,(18,19))),(17,(16,(12,9)))),(1,(8,(20,(14,15))))),21);
((((((7,(3,(4,11))),(13,(10,(2,5)))),(6,(18,19))),(12,(17,(9,16)))),((14,(15,20)),(1,8))),21);
(((((6,(18,19)),((13,(2,5)),(10,(7,(3,(4,11)))))),(17,(12,(16,(9,15))))),(1,(8,(14,20)))),21);
(((((((((7,(10,11)),(3,4)),5),13),2),(6,(18,19))),(16,(17,(9,12)))),((15,20),(14,(1,8)))),21);
(((((6,(18,19)),(13,(10,(((4,11),(3,7)),(2,5))))),((16,17),(9,12))),(8,(1,(14,(15,20))))),21);
(((((((4,11),(7,3)),10),((6,(18,19)),(13,(2,5)))),(17,(12,(9,16)))),(8,(1,(14,(15,20))))),21);
((((((((4,11),(3,(7,10))),(2,5)),13),(6,(18,19))),(9,(17,(12,16)))),(8,(14,(1,(15,20))))),21);
((((((((2,5),3),(10,(7,(4,11)))),13),(6,(18,19))),(17,(12,(9,16)))),(8,(1,(14,(15,20))))),21);
(((((((((10,(4,11)),7),(2,5)),3),(6,(18,19))),13),(17,(12,(9,16)))),((15,20),(8,(14,1)))),21);
(((((((2,5),((7,(10,(3,(4,11)))),13)),6),(18,19)),((9,17),(12,16))),(8,(1,(14,(15,20))))),21);
((((((((3,7),(4,11)),10),(13,(2,5))),(6,(18,19))),((9,12),(16,17))),(8,(1,(14,(15,20))))),21);
(((((((((10,(4,11)),(7,3)),2),5),13),(6,(18,19))),(17,(12,(9,(15,16))))),(8,(1,(14,20)))),21);
((((((((3,(7,10)),(2,5)),(4,11)),13),(6,(18,19))),(17,((15,16),(9,12)))),(8,(1,(14,20)))),21);
(((((13,(((4,11),(7,(3,10))),(2,5))),(6,(18,19))),(8,(14,(1,(15,20))))),(17,(12,(9,16)))),21);
(((((((5,((4,7),(10,(3,11)))),2),13),(17,(12,(9,16)))),(6,(18,19))),(8,(1,(14,(15,20))))),21);
((((((((4,11),10),(3,7)),(2,5)),(13,(6,(18,19)))),(17,(12,(9,16)))),(((1,(15,20)),8),14)),21);
((((((6,(18,19)),(7,13)),(5,(2,(10,(3,(4,11)))))),(17,(12,(9,16)))),(8,((14,(15,20)),1))),21);
((((((((11,(4,(7,10))),3),(2,5)),(6,(18,19))),13),(17,(12,(9,16)))),(8,(1,(14,(15,20))))),21);
(((((((((3,11),10),(4,7)),(2,5)),13),(6,(18,19))),(17,(12,(9,16)))),(1,(8,(14,(15,20))))),21);
((((((((2,5),(7,(3,(4,11)))),10),13),((9,12),(16,17))),(6,(19,18))),((14,(15,20)),(8,1))),21);
(((((((((4,11),3),7),10),(2,5)),(13,(6,(18,19)))),((9,16),(12,17))),(8,((15,20),(1,14)))),21);
((((((6,((18,19),(3,7))),13),((10,(4,11)),(2,5))),(17,(12,(9,16)))),((14,(15,20)),(1,8))),21);
((((17,(12,(9,16))),(((2,5),((10,(3,4)),(7,11))),(13,(6,(18,19))))),(1,(8,(14,(15,20))))),21);
(((((((2,(11,5)),(7,(4,(3,10)))),13),(18,(6,19))),(17,(12,(9,16)))),(14,(8,(1,(15,20))))),21);
((((((11,(4,10)),(3,7)),(13,((2,5),(6,(18,19))))),((12,16),(9,17))),((14,(15,20)),(1,8))),21);
(((((((((3,(4,11)),10),7),(2,5)),13),(17,(16,(9,12)))),(6,(18,19))),(8,(1,(20,(14,15))))),21);
((((((((((4,11),10),7),3),(2,5)),13),(6,(18,19))),(12,(17,(9,16)))),(1,(8,(14,(15,20))))),21);
(((((((5,13),2),((3,(4,11)),(7,10))),(6,(18,19))),(17,(12,(9,16)))),(8,(1,(15,(20,14))))),21);
((((((((3,10),7),(4,11)),(2,5)),((6,(18,19)),13)),(17,(12,(9,16)))),(8,(14,(1,(15,20))))),21);
((((((((10,(7,(4,11))),3),(2,5)),13),(6,(18,19))),(17,(12,(9,16)))),(8,((14,(15,20)),1))),21);
(((((((11,(3,4)),(7,10)),(2,5)),(13,(6,(18,19)))),((9,16),(12,17))),((14,(15,20)),(8,1))),21);
(((((18,19),(6,(13,(2,(5,((4,11),(7,(3,10)))))))),(17,(12,(9,16)))),((14,(15,20)),(1,8))),21);
(((((17,(12,(9,16))),(13,((2,5),((7,(4,11)),(3,10))))),(6,(18,19))),((14,(15,20)),(1,8))),21);
(((((((((3,(4,11)),7),10),(2,5)),13),(6,(18,19))),(9,((16,17),12))),((14,(15,20)),(1,8))),21);
((((((((7,(4,11)),(3,10)),(2,5)),13),(6,(18,19))),(1,(8,(14,(15,20))))),((9,12),(16,17))),21);
((((((((7,10),(3,(4,11))),(2,5)),13),(6,(18,19))),(17,(9,(12,(15,16))))),(8,(20,(1,14)))),21);
((((((6,(18,19)),(13,(2,((4,(3,11)),(7,10))))),5),(8,(1,(14,20)))),(17,((9,15),(12,16)))),21);
((((((((11,(10,(3,4))),7),(2,5)),13),(6,(18,19))),((9,15),(17,(12,16)))),(8,(1,(14,20)))),21);
((((((((3,11),(4,(7,10))),(2,5)),13),(6,(18,19))),(17,(12,(9,16)))),(8,(1,(14,(15,20))))),21);
(((((6,(13,((2,5),(10,(7,(3,(4,11))))))),(17,(12,(9,(15,16))))),(18,19)),(1,(8,(14,20)))),21);
((((((((4,(10,(3,11))),7),(2,5)),13),(6,(18,19))),(12,(17,(9,16)))),(1,((14,(15,20)),8))),21);
((((((((10,(3,4)),11),7),(2,5)),13),((6,(18,19)),(17,(12,(9,16))))),(8,(1,(14,(15,20))))),21);
(((((6,(18,19)),(13,((3,(4,11)),((2,5),(7,10))))),(17,(12,(9,(15,16))))),(8,(1,(14,20)))),21);
(((((((((3,11),4),(7,10)),(2,5)),13),(17,(12,(9,16)))),(6,(18,19))),((14,(15,20)),(1,8))),21);
(((((((((4,11),3),7),10),(2,5)),((9,16),(12,17))),(13,(6,(18,19)))),(8,(1,(14,(15,20))))),21);
(((((((3,(7,(4,11))),10),(2,5)),13),(6,(18,19))),((17,(12,(9,16))),(8,(1,(14,(15,20)))))),21);
(((((((((3,(10,11)),(7,4)),5),13),2),(6,(18,19))),((9,12),(16,17))),(8,(1,(14,(15,20))))),21);
((((((((10,(3,4)),(11,7)),(2,5)),13),(6,(18,19))),(17,(12,(16,(9,15))))),(8,(1,(14,20)))),21);
((((((((7,11),(10,(3,4))),(2,5)),13),(6,(18,19))),((16,(9,15)),(12,17))),((14,20),(1,8))),21);
(((((((((3,11),4),10),7),(2,5)),13),((17,(12,(9,16))),(6,(18,19)))),(8,(1,(14,(15,20))))),21);
(((((((((((10,(3,11)),7),4),2),5),13),6),(18,19)),((9,12),(17,(15,16)))),(8,(1,(14,20)))),21);
(((((13,((2,5),(10,(7,(3,(4,11)))))),(6,(18,19))),(1,((14,(15,20)),8))),(17,(12,(9,16)))),21);
(((((((11,(3,7)),((4,10),(2,5))),13),(6,(18,19))),((12,(15,16)),(9,17))),(1,(8,(14,20)))),21);
(((((((((10,(4,11)),7),3),(2,5)),13),(6,(18,19))),(17,(9,(12,16)))),(8,(1,(14,(15,20))))),21);
((((((2,(10,(4,11))),(13,(5,(3,7)))),(6,(18,19))),(17,(12,(9,16)))),(1,(8,(14,(15,20))))),21);
((((((7,(2,5)),(10,(3,(4,11)))),(13,(6,(18,19)))),((9,12),(16,17))),(1,(8,(14,(15,20))))),21);
(((((((4,11),((2,5),(7,(3,10)))),13),(6,(18,19))),(17,(12,(9,16)))),(1,(8,(14,(15,20))))),21);
((((((3,(7,10)),(6,(18,19))),(13,((4,11),(2,5)))),(17,(16,(9,12)))),(8,(1,(14,(15,20))))),21);
((((17,(12,(9,16))),(((7,10),((3,(4,11)),(2,5))),(13,(6,(18,19))))),((14,(15,20)),(8,1))),21);
(((((2,10),((5,(7,(3,(4,11)))),(6,(18,19)))),(13,((9,12),(16,17)))),(1,(8,(14,(15,20))))),21);
((((((2,5),(((3,7),(10,(4,11))),13)),(6,(18,19))),(17,(12,(9,16)))),(8,(1,(15,(14,20))))),21);
((((((((4,11),(10,(3,7))),(2,5)),13),(6,(18,19))),(8,(1,(14,(15,20))))),(17,(12,(9,16)))),21);
((((((((3,10),(7,(4,11))),(2,5)),13),(6,(18,19))),(17,(12,(9,16)))),((15,20),(8,(1,14)))),21);
((((((((10,((3,7),(4,11))),(2,5)),(18,19)),13),6),(17,(12,(9,(16,15))))),(8,(1,(14,20)))),21);
((((((((7,(3,11)),(4,10)),(2,5)),13),(6,(18,19))),(17,(12,(9,16)))),(1,(8,(20,(14,15))))),21);
((((((((11,(4,10)),(3,7)),(2,5)),13),(17,(16,(9,12)))),(6,(18,19))),(8,(1,(14,(15,20))))),21);
(((((((3,(4,11)),(7,10)),(2,5)),(13,(6,(18,19)))),(17,(12,(9,16)))),(8,(15,((14,20),1)))),21);
((((6,(18,19)),((10,(7,(4,(3,11)))),(13,(2,5)))),((17,(16,(9,12))),((14,(15,20)),(1,8)))),21);
(((((((((3,(4,11)),7),10),(2,5)),13),(6,(18,19))),(17,(12,(9,16)))),(8,(1,(14,(15,20))))),21);
(((((((((3,7),(11,(4,10))),2),5),13),(6,(18,19))),(17,(9,(12,16)))),((14,(15,20)),(1,8))),21);
(((13,(((9,16),(12,17)),((6,(18,19)),(7,((2,5),(10,(3,(4,11)))))))),((1,(14,(15,20))),8)),21);
((((((((4,11),3),(7,10)),(2,5)),13),((1,14),(8,20))),((17,(12,(9,(15,16)))),(6,(18,19)))),21);
(((((((4,11),3),(7,10)),(2,5)),((17,(12,(9,16))),(13,(6,(18,19))))),(8,(1,(14,(15,20))))),21);
(((((13,(6,(18,19))),(7,(((4,11),(10,3)),(2,5)))),(17,(12,(9,16)))),(8,(1,(14,(15,20))))),21);
((((((((((4,10),3),11),(2,5)),13),7),(6,(18,19))),(17,(12,(9,16)))),(8,(1,(14,(15,20))))),21);
((((6,(18,19)),((7,(3,(4,11))),(13,(10,(2,5))))),((12,(17,(9,16))),((1,(15,20)),(14,8)))),21);
((((((5,(7,(11,(3,4)))),(2,10)),(18,19)),((6,13),((9,12),(17,16)))),(8,(1,(14,(15,20))))),21);
((((((((4,10),(11,(3,7))),(2,5)),13),(6,(18,19))),(17,(16,(9,12)))),(8,(1,(14,(15,20))))),21);
((((8,(14,(15,20))),((17,(12,(9,16))),(((2,5),(10,(7,(3,(4,11))))),(13,(6,(18,19)))))),1),21);
((((((((3,(4,11)),(7,10)),(2,5)),(6,(18,19))),13),((9,16),(12,17))),(8,(1,(14,(15,20))))),21);
((((((((11,(4,10)),(3,7)),(2,5)),13),(6,(18,19))),(17,(12,(9,16)))),((14,(15,20)),(1,8))),21);
((((((((7,(3,(4,11))),10),(2,5)),13),(6,(18,19))),(17,(12,(9,16)))),(8,((15,20),(1,14)))),21);
((((9,(17,(12,(15,16)))),((2,5),((6,(18,19)),(13,(7,(3,(10,(4,11)))))))),(1,(8,(14,20)))),21);
(((((((((4,(7,3)),10),11),13),(2,5)),(6,(18,19))),((16,(9,15)),(12,17))),(8,(14,(1,20)))),21);
((((((((10,(3,(4,11))),7),(2,5)),13),(6,(18,19))),(17,(12,(9,16)))),(8,(1,(14,(15,20))))),21);
(((((((((10,(3,4)),(11,7)),2),5),13),(6,(18,19))),(17,(12,(9,16)))),(8,(1,(15,(14,20))))),21);
(((((((2,5),((10,(4,11)),(3,7))),13),(6,(18,19))),(17,((15,16),(9,12)))),(8,(1,(14,20)))),21);
(((((((((4,10),(3,11)),7),(2,5)),13),(6,(18,19))),(17,(12,(9,16)))),(8,(1,(14,(15,20))))),21);
((((((2,5),(10,(7,(3,(4,11))))),(13,(6,(18,19)))),(17,(12,(9,16)))),(1,(8,(14,(15,20))))),21);
((((((((((10,11),3),(4,7)),(2,5)),13),(18,19)),6),(17,(12,(9,16)))),((1,(15,20)),(8,14))),21);
(((((((5,(2,((4,11),(3,7)))),10),13),(6,(18,19))),((9,16),(12,17))),(8,(1,(14,(15,20))))),21);
(((((((((4,11),3),7),10),(13,(2,5))),(6,(18,19))),(17,(12,(9,16)))),(8,(1,(14,(15,20))))),21);
(((((((11,3),(4,10)),(13,(7,(2,5)))),(6,(18,19))),(17,(12,(9,16)))),(8,(1,(20,(14,15))))),21);
((((((((7,10),(2,5)),(3,(4,11))),13),(6,(18,19))),(17,(12,(9,16)))),(8,((1,14),(15,20)))),21);
((((((((((4,11),3),7),10),(2,5)),13),(6,(18,19))),(17,(12,(9,16)))),(8,(1,(14,(15,20))))),21);
((((((2,5),(13,((7,10),(3,(4,11))))),(6,(18,19))),(12,(17,(9,16)))),(8,((15,20),(1,14)))),21);
((((((10,(4,(7,(3,11)))),(2,5)),13),((6,(18,19)),(12,(17,(9,16))))),(8,(1,(14,(15,20))))),21);
((((13,((6,(18,19)),((7,(4,11)),((3,10),(2,5))))),((12,(15,16)),(9,17))),(1,(8,(14,20)))),21);
(((((13,((2,5),((3,(4,11)),(7,10)))),(6,(18,19))),(17,(12,(9,16)))),(8,(1,(14,(15,20))))),21);
((((((((10,(3,(4,11))),7),(2,5)),13),(6,(18,19))),(17,(12,(9,(15,16))))),(1,(8,(14,20)))),21);
(((((6,(18,19)),(13,(((3,(4,11)),(7,10)),(2,5)))),(17,(9,(12,16)))),((14,(15,20)),(1,8))),21);
(((((((((4,11),(3,10)),7),(2,5)),13),(6,(18,19))),(17,(12,(9,16)))),(8,(1,(14,(15,20))))),21);
((((((((3,(4,11)),(7,10)),(2,5)),13),(6,(18,19))),(17,(12,(9,16)))),(8,(1,((15,20),14)))),21);
(((((14,(15,20)),(1,8)),((6,(18,19)),(17,(12,(9,16))))),((2,13),(5,((4,11),(7,(3,10)))))),21);
((((((((7,10),(3,(4,11))),2),5),(13,(6,(18,19)))),(17,(12,(9,16)))),((14,(15,20)),(1,8))),21);
((((((((7,10),3),(4,11)),(2,5)),(13,(6,(18,19)))),(17,(12,(9,16)))),(1,(8,(14,(15,20))))),21);
(((((((((10,(4,11)),7),3),(2,5)),13),(6,(18,19))),(17,(16,(9,12)))),(8,((1,(15,20)),14))),21);
((((((((10,(3,(4,11))),7),(2,5)),13),(6,(18,19))),(17,(12,(9,16)))),(1,(14,(8,(15,20))))),21);
(((((((2,5),((7,10),(3,(4,11)))),13),(6,(18,19))),(17,(12,(9,(15,16))))),(8,(1,(14,20)))),21);
((((((((3,4),(7,10)),11),(2,5)),(13,(6,(18,19)))),(12,((9,16),17))),((14,(15,20)),(1,8))),21);
(((((((7,5),(2,((4,11),(3,10)))),13),(6,(18,19))),(17,(12,(9,16)))),(8,((15,20),(1,14)))),21);
(((((13,(6,(18,19))),((10,(7,(4,11))),(3,(2,5)))),(17,(12,(9,16)))),(14,(1,(8,(15,20))))),21);
((((((13,(2,5)),((10,(4,11)),(3,7))),(6,(18,19))),(12,(17,(9,(15,16))))),(1,(8,(14,20)))),21);
(((((13,((2,5),(3,(7,(10,(4,11)))))),(6,(18,19))),(17,(9,(12,(15,16))))),(1,(8,(14,20)))),21);
(((((13,((3,(4,11)),(7,10))),(6,((18,19),(2,5)))),(17,(12,(9,16)))),(8,(1,(14,(15,20))))),21);
(((((((4,(3,(7,(10,11)))),(2,5)),13),(6,(18,19))),(17,(9,(12,16)))),(1,(8,(14,(15,20))))),21);
(((((((((3,7),(10,(4,11))),(2,5)),13),(18,19)),6),((14,20),(1,8))),(17,(9,(12,(15,16))))),21);
((((((((10,(7,(3,11))),4),(2,5)),13),(6,(18,19))),(17,(12,(9,16)))),((14,(15,20)),(1,8))),21);
(((((13,(2,((7,(3,10)),(5,(4,11))))),(6,(18,19))),(17,(12,(9,16)))),(8,(1,(14,(15,20))))),21);
(((((((((7,11),(4,10)),3),(2,5)),13),(6,(18,19))),(17,(9,(12,16)))),(8,(1,(14,(15,20))))),21);
((((((((((4,11),10),3),7),(2,5)),13),(6,(18,19))),(9,(17,(12,16)))),(1,(8,(14,(15,20))))),21);
((((((((((4,11),3),7),10),(2,5)),13),(6,(18,19))),(17,(12,(9,16)))),(8,(14,(1,(15,20))))),21);
(((((((2,5),((10,(4,11)),(3,7))),13),(6,(18,19))),(17,(12,(9,16)))),(8,(1,(14,(15,20))))),21);
(((((13,(((7,10),(2,5)),(4,(3,11)))),(18,(6,19))),(17,(12,(9,16)))),(8,(1,(14,(15,20))))),21);
(((((((((4,11),(3,10)),7),(2,5)),13),(6,(18,19))),(17,(12,(9,16)))),(8,(1,(14,(15,20))))),21);
((((((((((3,4),10),11),(2,5)),7),13),((9,16),(12,17))),(6,(18,19))),(8,(1,(15,(14,20))))),21);
((((13,((6,(18,19)),((2,5),(3,(7,(10,(4,11))))))),(17,(9,(12,16)))),(1,(8,(14,(15,20))))),21);
(((((((((7,(11,(3,4))),10),(2,5)),(18,19)),13),6),(17,(12,(9,16)))),(8,(1,(14,(15,20))))),21);
(((((((((4,11),(3,10)),7),(2,5)),13),(6,(18,19))),(17,(12,(9,16)))),((14,(15,20)),(1,8))),21);
((((((((10,(3,7)),(4,11)),(2,5)),13),(6,(18,19))),((9,16),(12,17))),(8,(1,(14,(15,20))))),21);
((((((5,(2,((4,(3,11)),(7,10)))),13),(6,(18,19))),(17,(12,(9,16)))),(1,(8,(14,(15,20))))),21);
((((((((3,(4,11)),(7,10)),(2,5)),13),(6,(18,19))),(17,((15,16),(9,12)))),((14,20),(8,1))),21);
(((((((7,10),(2,(5,(3,(4,11))))),13),(6,(18,19))),((9,16),(12,17))),(8,(1,(14,(15,20))))),21);
((((((((3,(7,(4,11))),10),(2,5)),6),(13,(18,19))),(17,(12,(9,16)))),(8,(1,(14,(15,20))))),21);
(((((13,(6,(18,19))),((10,(3,(7,(4,11)))),(2,5))),(17,(12,(9,16)))),((14,(15,20)),(1,8))),21);
((((((((4,11),(5,(2,10))),(3,7)),13),(6,(18,19))),(17,(12,(9,16)))),(8,(1,(14,(15,20))))),21);
(((((13,((2,5),(10,(7,(3,(4,11)))))),((12,16),(9,17))),(6,(18,19))),((8,(14,15)),(1,20))),21);
((((((((3,(4,10)),(7,11)),(2,5)),13),(6,(18,19))),(17,(12,(9,16)))),(1,(8,(14,(15,20))))),21);
((((((((10,(3,(4,11))),7),(2,5)),13),(6,(18,19))),((9,16),(12,17))),(1,(8,(14,(15,20))))),21);
(((((((((4,11),(3,10)),7),(2,5)),13),(6,(18,19))),((9,15),(17,(12,16)))),(1,(8,(14,20)))),21);
(((((6,(18,19)),((5,(7,((4,11),(3,10)))),(2,13))),(17,(12,(9,16)))),(8,(1,(14,(15,20))))),21);
((((((6,(18,19)),(((7,10),(4,(3,11))),(2,5))),13),((9,16),(12,17))),(8,(1,(14,(15,20))))),21);
(((((6,(18,19)),(13,(((10,(4,11)),(3,7)),(2,5)))),(17,(12,(9,16)))),(8,(1,(14,(15,20))))),21);
(((((((((7,10),(3,(4,11))),5),2),13),(6,(18,19))),(17,(16,(9,12)))),(8,(1,(14,(15,20))))),21);
((((((((10,(4,11)),3),7),(2,5)),(13,(6,(18,19)))),(17,(12,(9,16)))),(8,((15,20),(1,14)))),21);
(((((((2,((3,7),(10,(4,11)))),5),13),(6,(18,19))),(17,(16,(9,12)))),(8,((15,20),(1,14)))),21);
(((((((7,((10,(3,4)),11)),(2,5)),13),(6,(18,19))),(15,(17,(12,(9,16))))),((14,20),(1,8))),21);
(((((((7,(2,5)),((4,11),(3,10))),13),(6,(18,19))),((9,16),(12,17))),(8,(1,(14,(15,20))))),21);
((((((((4,(3,11)),10),7),(6,(18,19))),(13,(2,5))),(12,(17,(15,(9,16))))),(8,(1,(14,20)))),21);
((((((7,(4,11)),((3,10),(2,5))),13),((19,(6,18)),(12,(17,(9,16))))),(8,((15,20),(14,1)))),21);
(((((6,(18,19)),((2,5),(13,((3,(4,11)),(7,10))))),(17,(12,(9,16)))),(1,(8,(14,(15,20))))),21);
(((((((7,(10,(4,11))),3),13),((6,(18,19)),(2,5))),(9,(17,(12,16)))),((14,(15,20)),(1,8))),21);
((((((((7,(4,3)),(10,11)),13),(2,5)),(6,(18,19))),(17,(12,(9,16)))),(14,(8,(1,(15,20))))),21);
(((((((7,11),(10,(3,4))),(13,(2,5))),(6,(18,19))),(17,(12,(9,16)))),(8,(1,(14,(15,20))))),21);
((((((((7,(4,11)),(2,5)),(3,10)),13),(6,(18,19))),((12,17),(9,16))),((14,(15,20)),(1,8))),21);
(((((((2,5),((4,10),(7,(3,11)))),13),(6,(18,19))),((14,20),(1,8))),(17,(12,(16,(9,15))))),21);
(((((((3,(7,10)),(2,5)),(4,11)),(13,(6,(18,19)))),((9,16),(12,17))),(8,(1,(14,(15,20))))),21);
((((((((((4,10),11),7),3),(2,5)),13),(6,(18,19))),(17,(12,(9,16)))),((1,14),(8,(15,20)))),21);
((((((((3,(4,11)),10),7),(2,5)),(13,(6,(18,19)))),(12,(17,(9,16)))),(8,(1,(15,(14,20))))),21);
(((((((2,5),((10,(4,11)),(3,7))),(6,(18,19))),13),(17,(12,(9,16)))),(1,(8,(14,(15,20))))),21);
(((((((7,(10,(3,(4,11)))),5),2),(13,(6,(18,19)))),(8,(1,(20,14)))),(17,(12,(15,(9,16))))),21);
(((((((7,((10,11),(3,4))),(2,5)),13),(6,(18,19))),(17,(16,(9,12)))),(8,(1,(14,(15,20))))),21);
(((((((((3,10),(7,(4,11))),2),5),13),(6,(18,19))),(17,(12,(16,(9,15))))),(8,(1,(14,20)))),21);
((((((13,(3,(4,11))),((7,10),(2,5))),(6,(18,19))),(17,(12,(9,16)))),(8,(1,(14,(15,20))))),21);
(((((((((4,11),(3,10)),7),(2,5)),13),(6,(18,19))),((9,12),(16,17))),(8,(1,(14,(15,20))))),21);
(((((13,((7,(3,(4,11))),(10,(2,5)))),(6,(18,19))),(8,(1,(14,(15,20))))),(17,(12,(9,16)))),21);
(((((((2,5),((3,7),(10,(4,11)))),13),(6,(18,19))),(17,(9,(12,16)))),(8,(1,(14,(15,20))))),21);
(((((((((7,11),(3,10)),4),(2,5)),13),(6,(18,19))),(17,(12,(9,16)))),(8,(1,(14,(15,20))))),21);
(((((((((3,4),(10,11)),7),(2,5)),13),(6,(18,19))),(17,(12,(9,16)))),(8,((15,20),(1,14)))),21);
((((((((7,10),(3,(4,11))),(2,5)),13),(6,(18,19))),(9,(17,(12,16)))),(8,((14,(15,20)),1))),21);
(((((((11,(3,4)),(7,10)),(2,5)),(17,(12,(9,16)))),(13,(6,(18,19)))),(8,(14,(1,(15,20))))),21);
((((((((3,(7,10)),(4,11)),13),(6,(18,19))),(2,5)),(17,(12,(9,16)))),(8,(1,(14,(15,20))))),21);
((((13,((7,(3,10)),((4,11),(2,5)))),((6,(18,19)),((9,16),(12,17)))),((14,(15,20)),(1,8))),21);
(((((((((3,4),7),(10,11)),13),(2,5)),(6,(18,19))),((9,16),(12,17))),(14,(8,(1,(15,20))))),21);
(((((13,(10,((2,5),(7,(3,(4,11)))))),(6,(18,19))),(17,(12,(9,16)))),(1,(8,(14,(15,20))))),21);
(((((((((4,11),10),(3,7)),(2,5)),13),(6,(18,19))),(17,(12,(9,16)))),(8,(1,(20,(14,15))))),21);
((((((((7,10),(3,(4,11))),(2,5)),13),(6,(18,19))),(17,(16,(9,12)))),(8,(1,(14,(15,20))))),21);
(((((((((3,7),(10,11)),(2,4)),5),13),(6,(18,19))),(15,(17,(12,(9,16))))),(8,(1,(14,20)))),21);
(((((((((10,(4,11)),7),3),(2,5)),(6,(18,19))),13),(17,(16,(9,12)))),(8,(1,(15,(14,20))))),21);
(((((5,(13,(3,(2,(7,(10,(4,11))))))),(6,(18,19))),(17,(12,(9,16)))),((14,(15,20)),(1,8))),21);
((((((((3,10),(2,5)),(7,(4,11))),13),(6,(18,19))),(12,(17,(9,(15,16))))),(8,(1,(14,20)))),21);
(((((13,((7,10),((4,(3,11)),(2,5)))),(6,(18,19))),(17,(12,(9,16)))),(8,(14,(1,(15,20))))),21);
((((((((10,(7,(4,11))),3),(2,5)),13),(6,(18,19))),(17,(9,(12,16)))),((20,(15,14)),(8,1))),21);
(((((((2,((4,11),(10,(3,7)))),5),(6,(18,19))),13),((12,16),(9,17))),(8,(1,(14,(15,20))))),21);
((((((((3,11),(4,7)),(10,(2,5))),13),(6,(18,19))),(17,(12,(9,16)))),(8,(1,(14,(15,20))))),21);
((((((13,(2,5)),(3,(7,(10,(4,11))))),(6,(18,19))),(17,(12,(9,16)))),((15,20),(8,(1,14)))),21);
(((((((5,(3,((4,11),(7,10)))),2),13),(17,(12,(9,16)))),(6,(18,19))),((14,(15,20)),(8,1))),21);
((((((((((3,11),(4,10)),7),2),5),13),(6,(18,19))),(17,(12,(9,16)))),(8,(1,(14,(15,20))))),21);
((((((((3,(10,(4,11))),7),(2,5)),13),(6,(18,19))),(9,(17,(12,16)))),(8,((1,14),(15,20)))),21);
((((17,(12,(9,16))),((6,(18,19)),(((4,11),(10,7)),(13,(3,(2,5)))))),((14,(15,20)),(1,8))),21);
((((12,(17,(9,(15,16)))),((2,5),((6,(18,19)),(13,((4,11),(3,(7,10))))))),(8,(1,(14,20)))),21);
(((((18,(6,19)),(13,((2,5),((7,10),(3,(4,11)))))),(17,(16,(9,12)))),(8,(1,(14,(15,20))))),21);
(((((6,(18,19)),(13,(3,((7,(10,(4,11))),(2,5))))),(17,(12,(9,16)))),(8,(1,(14,(15,20))))),21);
((((((((3,10),(2,5)),(7,(4,11))),13),(6,(18,19))),(17,(12,(9,16)))),(8,(1,(14,(15,20))))),21);
(((((((7,10),(3,(4,11))),(6,(18,19))),(13,(2,5))),(17,(12,(9,16)))),((14,(15,20)),(1,8))),21);
((((((((3,10),7),(4,11)),(13,(2,5))),(18,19)),6),((15,(17,(12,(9,16)))),(8,(14,(1,20))))),21);
((((((((((4,11),3),10),7),(2,5)),13),(6,(18,19))),(17,(12,(9,16)))),(8,(1,(14,(15,20))))),21);
(((((((((11,(3,4)),10),7),(2,5)),13),(6,(18,19))),(17,(16,(9,12)))),(1,(8,(14,(15,20))))),21);
(((((((((4,11),3),10),7),(2,5)),13),(6,(18,19))),((17,(12,(9,16))),(1,(8,(14,(15,20)))))),21);
(((((((((3,4),(10,11)),7),(2,5)),13),(17,(12,(9,16)))),(6,(18,19))),(8,((14,20),(1,15)))),21);
((((((((4,11),10),(3,7)),(2,5)),(13,(6,(18,19)))),((14,(15,20)),(1,8))),(17,(12,(9,16)))),21);
((((((((10,(4,11)),(3,7)),(2,5)),13),(6,(18,19))),(17,(12,(9,16)))),(8,(20,(1,(14,15))))),21);
((((((((10,(4,(3,11))),7),(2,5)),(6,(18,19))),13),(17,(12,(9,(15,16))))),((1,20),(8,14))),21);
((((((((3,(7,(4,11))),10),(2,5)),13),(6,(18,19))),(17,(12,(9,16)))),(8,(1,(20,(14,15))))),21);
((((((((3,(4,11)),(7,10)),(2,5)),13),(6,(18,19))),(8,(1,(14,(15,20))))),(17,(12,(9,16)))),21);
((((((5,7),(2,13)),((6,(18,19)),((4,10),(3,11)))),(17,(16,(9,12)))),(8,(1,(14,(15,20))))),21);
(((1,(8,(14,(15,20)))),((((2,5),(3,(10,11))),(6,(18,19))),((13,(4,7)),((9,12),(16,17))))),21);
((((((((10,7),(11,(4,3))),(2,5)),13),(6,(18,19))),(17,(12,(9,16)))),(8,(1,(20,(14,15))))),21);
((((((7,((2,5),(3,(10,(4,11))))),13),(17,(12,(9,16)))),(6,(18,19))),(8,(1,(14,(15,20))))),21);
((((((((7,(3,(4,11))),10),(2,5)),(6,(18,19))),13),((14,(15,20)),(8,1))),(17,(12,(9,16)))),21);
((((((((3,(10,(4,11))),7),(2,5)),13),((18,19),6)),(17,(12,(9,16)))),((8,((15,20),14)),1)),21);
((((((7,10),((2,5),(11,(3,4)))),13),((17,(12,(9,16))),(6,(18,19)))),(8,(1,(14,(15,20))))),21);
((((((6,(18,19)),((2,5),((3,7),(10,(4,11))))),13),(17,(12,(9,16)))),(1,(8,(14,(15,20))))),21);
(((((((3,(4,11)),(7,10)),(2,5)),(13,(6,(18,19)))),(17,(12,(9,16)))),(8,(1,(14,(15,20))))),21);
((((((((4,11),(10,(7,3))),2),5),13),((6,(18,19)),((9,16),(12,17)))),(8,(1,(14,(15,20))))),21);
(((((1,14),(8,(15,20))),((17,(16,(9,12))),(13,(11,(2,5))))),((10,(7,(3,4))),(6,(18,19)))),21);
(((((((5,((11,(3,4)),(7,10))),2),13),(6,(18,19))),(17,(9,(12,16)))),(8,(1,(15,(14,20))))),21);
(((((((2,5),(11,((3,4),(7,10)))),13),(6,(18,19))),(17,(12,(9,16)))),((14,(15,20)),(1,8))),21);
(((((((((3,10),(4,11)),7),(2,5)),13),(6,(18,19))),(17,(12,(9,(15,16))))),(8,(14,(20,1)))),21);
(((((((2,5),((7,10),(3,(4,11)))),13),(6,(18,19))),(17,(12,(15,(9,16))))),((14,20),(1,8))),21);
(((((13,((2,5),(7,(3,(10,(4,11)))))),(6,(18,19))),(17,(12,(9,16)))),(8,(1,(14,(15,20))))),21);
(((((((((3,7),(4,10)),11),(2,5)),13),(6,(18,19))),(17,(16,(9,12)))),(8,(1,(14,(15,20))))),21);
(((((((((3,4),(7,11)),2),(5,10)),13),(6,(18,19))),((12,(15,16)),(9,17))),(8,(20,(14,1)))),21);
((((((((4,11),(10,3)),7),(2,5)),(13,(6,(18,19)))),(17,(12,(9,16)))),(1,(8,(14,(15,20))))),21);
((((((((4,11),(3,(7,10))),(2,5)),13),(6,(18,19))),(17,(15,(12,(9,16))))),((14,20),(1,8))),21);
((((((((11,(3,4)),10),7),(2,5)),13),((17,(12,(9,16))),(6,(18,19)))),(8,((15,20),(1,14)))),21);
((((((18,19),(13,((10,(7,(3,11))),(4,(2,5))))),6),(12,(17,(9,16)))),(8,(1,(14,(15,20))))),21);
(((((13,((2,5),(3,(7,(10,(4,11)))))),(6,(18,19))),((9,(15,16)),(12,17))),(1,(8,(14,20)))),21);
((((13,((2,5),((3,10),(7,(4,11))))),((17,(16,(9,12))),(6,(18,19)))),(14,(8,(1,(15,20))))),21);
(((((((10,(4,(3,11))),7),(13,(2,5))),(17,(12,(9,16)))),(6,(18,19))),(8,(1,(14,(15,20))))),21);
((((((2,5),((3,11),(7,(4,10)))),(13,(6,(18,19)))),(17,(12,(15,(9,16))))),(1,(8,(14,20)))),21);
((((((7,(2,5)),13),(((3,11),(4,10)),(6,(18,19)))),(17,(9,(12,16)))),(8,((15,20),(1,14)))),21);
(((((((((3,(4,11)),7),10),(2,5)),13),(18,(6,19))),(17,(16,(9,12)))),((14,(15,20)),(8,1))),21);
((((((2,5),(13,((4,11),(3,(7,10))))),(6,(18,19))),(17,(12,(9,16)))),(8,(14,(1,(15,20))))),21);
(((((((7,(10,(3,(4,11)))),(2,5)),13),(6,(18,19))),(9,(17,(12,16)))),((14,(15,20)),(1,8))),21);
(((((6,(18,19)),(2,(13,(5,((10,(3,11)),(4,7)))))),(17,(12,(9,16)))),(8,(1,(14,(15,20))))),21);
((((((((10,(7,(4,11))),3),(2,5)),(6,(18,19))),13),(17,(12,(9,(15,16))))),(8,(14,(1,20)))),21);
(((((((10,(3,(4,11))),(7,(2,5))),13),(6,(18,19))),(12,(17,(9,16)))),(8,(14,(1,(15,20))))),21);
(((((((((3,10),(4,11)),7),13),(2,5)),(6,(18,19))),(16,(17,(9,12)))),(8,(1,(14,(15,20))))),21);
(((((((((4,11),(7,10)),3),(2,5)),13),(6,(18,19))),(9,(17,(12,16)))),(1,(8,(14,(15,20))))),21);
((((((2,5),((4,11),(7,(3,10)))),(13,(6,(18,19)))),(17,(12,(9,16)))),(8,(1,(14,(15,20))))),21);
((((((13,((4,(3,11)),(7,10))),(2,5)),(6,(18,19))),(17,(12,(9,16)))),(14,(8,(1,(15,20))))),21);
((((((((3,(10,(4,11))),7),(2,5)),(6,(18,19))),13),(12,(17,(9,16)))),((14,(15,20)),(1,8))),21);
((((((13,(3,(2,5))),(7,(4,(10,11)))),(6,(18,19))),(17,(16,(12,(9,15))))),(8,(1,(14,20)))),21);
((((((((4,11),(7,(3,10))),(2,5)),13),(6,(18,19))),(17,(12,(9,16)))),(1,(8,(14,(15,20))))),21);
((((((2,5),(13,(7,(10,(3,(4,11)))))),(6,(18,19))),(12,(17,(9,16)))),(8,(1,(14,(15,20))))),21);
(((((((((7,10),(4,11)),3),(2,5)),13),(6,(18,19))),(12,(17,(9,16)))),(8,(1,(14,(15,20))))),21);
((((((((2,5),(10,(3,11))),(4,7)),13),(6,(18,19))),(17,(12,(9,16)))),(1,(8,(14,(15,20))))),21);
((((((((3,(4,11)),(7,10)),(2,5)),13),(6,(18,19))),(17,(12,(9,16)))),(1,(8,(14,(15,20))))),21);
(((((((10,(3,(4,11))),7),13),(2,5)),(6,(18,19))),(((9,16),(12,17)),((14,(15,20)),(1,8)))),21);
(((((6,(18,19)),(13,((2,5),((3,(4,11)),(7,10))))),((12,16),(9,17))),(8,(1,(14,(15,20))))),21);
((((((((7,10),(3,(4,11))),(2,5)),13),(6,(18,19))),(17,(16,(9,12)))),((1,14),(8,(15,20)))),21);
(((((((2,5),(13,(7,(3,(4,11))))),10),(6,(18,19))),(17,(12,(9,(15,16))))),(8,(1,(14,20)))),21);
((((((2,5),(13,(10,(7,(3,(4,11)))))),(6,(18,19))),(17,(12,(9,16)))),(8,((15,20),(1,14)))),21);
(((((6,(18,19)),(13,(2,(5,((3,(4,11)),(7,10)))))),(17,(12,(9,16)))),(8,(1,(14,(15,20))))),21);
(((((((((10,(7,11)),(3,4)),5),2),13),(6,(18,19))),((9,12),(17,16))),(8,(1,(14,(15,20))))),21);
(((((5,(2,((3,(4,11)),(7,10)))),(13,(6,(18,19)))),((9,(15,16)),(12,17))),(8,(1,(14,20)))),21);
(((((((2,5),((10,(4,11)),(3,7))),13),(6,(18,19))),(17,(12,(9,16)))),((1,(15,20)),(8,14))),21);
((((((((((10,(3,11)),7),4),13),5),(6,(18,19))),2),(12,(17,(9,16)))),(8,(1,(14,(15,20))))),21);
((((((((3,(4,11)),10),7),(2,5)),13),((6,(18,19)),(17,(12,(9,16))))),(8,(1,(14,(15,20))))),21);
(((((7,(2,5)),(6,(18,19))),((17,(12,(9,16))),(13,(10,(3,(4,11)))))),(1,((15,20),(8,14)))),21);
((((((((11,(3,4)),10),7),(6,(18,19))),(13,(2,5))),(17,(9,(12,16)))),(8,(1,(14,(15,20))))),21);
((((1,(15,20)),(8,14)),((9,(17,(12,16))),(13,((6,(18,19)),((2,5),(7,((4,11),(3,10)))))))),21);
((((((10,(3,(4,11))),7),(2,5)),((17,(12,(9,16))),(13,(6,(18,19))))),(1,(8,((14,15),20)))),21);
(((((((((4,(3,11)),10),7),(2,5)),13),(6,(18,19))),(17,(16,(9,12)))),(1,((14,(15,20)),8))),21);
((((((((10,(3,4)),(11,7)),(2,5)),13),(6,(18,19))),(17,(9,(12,16)))),(8,(1,(14,(15,20))))),21);
((((((((((3,4),11),7),(2,5)),10),13),(6,(18,19))),(17,(9,(12,(15,16))))),(1,(8,(14,20)))),21);
((((((((7,(11,(3,4))),10),(2,5)),13),(6,(18,19))),(12,(17,(9,16)))),(8,(1,(14,(15,20))))),21);
(((((((((3,(4,7)),11),10),2),(6,(18,19))),(5,13)),(17,(12,(9,(15,16))))),(8,(1,(14,20)))),21);
((((((2,5),(18,(6,19))),(13,((3,10),(7,(4,11))))),(9,(17,(12,16)))),(8,(1,(14,(15,20))))),21);
((((((((7,10),(4,11)),3),(2,5)),(17,(9,(12,16)))),(13,(6,(18,19)))),(8,(1,(14,(15,20))))),21);
((((((((3,(4,11)),(7,10)),(2,5)),13),(6,(18,19))),(17,(16,(9,12)))),((1,(15,20)),(8,14))),21);
(((((6,(18,19)),(13,(5,(2,((4,11),(10,(3,7))))))),(17,(12,(15,(9,16))))),((1,20),(8,14))),21);
(((((((((7,(4,11)),3),10),(2,5)),13),(18,(6,19))),((9,12),(16,17))),(8,(1,(14,(15,20))))),21);
(((((((((4,11),(3,10)),(2,5)),7),13),(6,(18,19))),((9,12),(16,17))),((14,(15,20)),(1,8))),21);
((((((((7,(3,11)),10),(4,(2,5))),13),(6,(18,19))),(17,(12,(9,16)))),((14,(15,20)),(1,8))),21);
((((((((4,11),(10,3)),(7,(2,5))),13),(6,(18,19))),((12,16),(9,17))),(8,(1,(15,(14,20))))),21);
(((((13,((18,19),(((4,11),(7,(10,3))),(2,5)))),6),(17,(12,(9,16)))),((8,14),(1,(15,20)))),21);
((((((10,(7,(3,(4,11)))),13),((2,5),(6,(18,19)))),(17,(12,(9,16)))),((14,(15,20)),(1,8))),21);
((((((13,((2,5),((4,11),(7,(3,10))))),(18,19)),(17,(12,(16,9)))),6),(8,(1,(14,(15,20))))),21);
(((((((2,3),(5,((4,11),(10,7)))),13),(6,(18,19))),(17,(12,(9,16)))),(8,((15,20),(14,1)))),21);
((((((((((4,(3,11)),10),7),2),5),13),(6,(18,19))),(8,(1,(14,(15,20))))),(17,(12,(9,16)))),21);
((((((((3,4),(10,(7,11))),(2,5)),13),(6,(18,19))),(12,(17,(9,16)))),(8,(1,(14,(15,20))))),21);
(((((((((11,(3,10)),4),7),(2,5)),(6,(18,19))),13),(12,(17,(9,16)))),(8,(1,(14,(15,20))))),21);
((((((7,(3,(4,11))),10),(2,5)),((17,(16,(12,9))),(13,(6,(18,19))))),(8,(1,(14,(15,20))))),21);
((((((((3,(4,11)),(10,7)),(2,5)),13),(6,(18,19))),(12,(17,(9,16)))),((14,(15,20)),(1,8))),21);
((((((((10,(4,11)),(2,5)),(3,7)),13),(6,(18,19))),((9,16),(12,17))),((14,(15,20)),(1,8))),21);
((((((((4,7),(11,10)),3),(2,5)),(6,(13,(18,19)))),(9,(17,(12,16)))),((15,(14,20)),(1,8))),21);
(((((13,((3,(4,11)),((7,10),(2,5)))),(6,(18,19))),((9,(15,16)),(12,17))),((14,20),(8,1))),21);
((((((((10,(4,11)),(2,5)),(3,7)),13),(6,(18,19))),(17,(12,(9,16)))),((14,(15,20)),(1,8))),21);
(((((((5,(10,(4,11))),(2,(3,7))),13),(6,(18,19))),(17,(16,(9,12)))),(8,(14,(1,(15,20))))),21);
((((((2,5),(13,((4,11),(10,(3,7))))),(6,(18,19))),((9,16),(12,17))),((15,20),(8,(1,14)))),21);
((((((((((3,11),10),4),7),(2,5)),(6,(18,19))),13),((12,16),(17,(9,15)))),(8,(1,(14,20)))),21);
(((((((((4,7),(11,10)),3),(2,5)),13),(6,(18,19))),(17,(12,(9,16)))),((1,(14,20)),(8,15))),21);
(((((((3,7),(10,(4,11))),5),2),(13,(6,(18,19)))),(((9,17),(12,16)),(8,(14,(1,(15,20)))))),21);
((((((13,(7,(10,(3,(4,11))))),(2,5)),(6,(18,19))),(12,(17,(9,16)))),(8,(1,(14,(15,20))))),21);
(((((((((11,(4,3)),7),10),(2,5)),13),(6,(18,19))),(17,(12,(9,16)))),(8,(1,(14,(15,20))))),21);
(((((((((10,(4,11)),7),3),(2,5)),13),(6,(18,19))),(17,(9,(12,16)))),(8,(1,(14,(15,20))))),21);
(((((6,(18,19)),(13,((2,5),((7,(4,11)),(3,10))))),(17,(9,(12,16)))),((14,(15,20)),(1,8))),21);
(((((((((7,(10,11)),3),4),(2,5)),(6,(18,19))),(17,(12,(9,16)))),13),(((8,20),(14,15)),1)),21);
(((((10,(13,((7,(3,(4,11))),(2,5)))),(6,(18,19))),((16,(15,9)),(12,17))),(8,(1,(14,20)))),21);
(((((((((((3,11),4),10),7),2),5),13),(6,(18,19))),(17,(12,(9,16)))),(1,(8,(14,(15,20))))),21);
(((((((2,5),((4,11),(7,(3,10)))),(6,(18,19))),13),(17,(9,(12,16)))),(8,(1,(14,(15,20))))),21);
((((((((11,(3,4)),(7,10)),(2,5)),13),(6,(18,19))),(17,(12,(9,16)))),(8,(1,(14,(15,20))))),21);
(((((((2,((7,10),(3,(4,11)))),5),13),(6,(18,19))),((9,16),(12,17))),(1,(8,(14,(15,20))))),21);
((((((((7,(3,10)),(4,11)),(2,5)),13),(6,(18,19))),(17,(16,(9,12)))),((15,20),(8,(1,14)))),21);
(((((((((3,4),(10,11)),7),(2,5)),13),(6,(18,19))),(17,(12,(9,16)))),(8,(14,(1,(15,20))))),21);
((((((((3,4),(10,11)),7),(2,5)),13),((17,(12,(9,16))),(6,(18,19)))),(8,(1,(14,(15,20))))),21);
(((((3,(7,(10,(4,11)))),((6,(18,19)),(13,(2,5)))),(17,(12,(9,16)))),((14,(15,20)),(1,8))),21);
(((((6,(18,19)),(13,((2,5),((7,(3,11)),(4,10))))),(12,(17,(9,16)))),(1,(8,(14,(15,20))))),21);
(((((((4,(3,11)),((7,10),(2,5))),(6,(18,19))),13),(17,(12,(9,16)))),(8,(14,(1,(15,20))))),21);
(((((((7,10),((2,5),(11,(3,4)))),13),(6,(18,19))),(12,(17,(9,16)))),(8,(14,(1,(15,20))))),21);
((((((2,(5,(3,(7,(10,(4,11)))))),13),(6,(18,19))),(17,(12,(9,(15,16))))),((14,20),(1,8))),21);
((((((((3,(4,11)),(10,7)),(2,5)),13),6),(18,19)),((8,(1,(15,(14,20)))),((9,12),(16,17)))),21);
((((((((3,(4,11)),7),10),(2,5)),13),((17,(15,(12,(9,16)))),(6,(18,19)))),(8,(1,(14,20)))),21);
(((((((3,(7,(4,11))),10),(2,5)),(13,(6,(18,19)))),(17,(12,(9,16)))),(8,((15,20),(1,14)))),21);
((((((((3,10),(7,(4,11))),(5,2)),13),(6,(18,19))),(17,(12,(9,16)))),(1,(8,(14,(15,20))))),21);
((((((((7,(3,10)),(4,11)),(2,5)),13),(6,(18,19))),(17,(9,(12,16)))),(8,(1,(14,(15,20))))),21);
((((((((7,10),(3,(4,11))),(2,5)),13),(6,(18,19))),(17,(16,(9,12)))),(8,((15,20),(1,14)))),21);
(((((((((4,11),(3,7)),10),(2,5)),13),(6,(18,19))),((9,16),(12,17))),(1,(8,(14,(15,20))))),21);
(((((((10,(3,(4,11))),(7,(2,5))),13),(6,(18,19))),(17,(12,(9,16)))),(8,(1,(14,(15,20))))),21);
(((((((4,11),(10,(3,7))),(2,5)),(13,(6,(18,19)))),((9,16),(12,17))),(1,(8,(20,(14,15))))),21);
((((((2,((7,10),5)),(3,(4,11))),(19,(6,18))),(13,(17,(12,(9,16))))),((15,(14,20)),(1,8))),21);
((((((2,5),((4,11),(7,10))),3),(13,(6,(18,19)))),((17,(12,(9,16))),(8,(14,(1,(15,20)))))),21);
(((((13,((2,5),(7,(10,(3,(4,11)))))),(6,(18,19))),(17,(12,(9,16)))),(8,(1,(14,(15,20))))),21);
((((((((10,(4,7)),(2,(3,11))),5),13),(6,(18,19))),((12,16),(9,17))),(8,(14,(1,(15,20))))),21);
(((((((7,(3,(4,11))),10),(2,5)),13),(6,(18,19))),((17,(12,(9,16))),(8,(1,(20,(14,15)))))),21);
((((((((((3,(4,11)),10),7),2),5),(6,(18,19))),13),(17,(12,(9,16)))),(8,(14,(1,(15,20))))),21);
((((((((4,(3,11)),7),10),5),((6,(18,19)),(2,13))),(17,((9,16),(12,15)))),((1,20),(8,14))),21);
(((((((7,(10,(3,(4,11)))),(2,5)),13),(18,19)),(6,(17,(9,(12,16))))),(1,(8,(14,(15,20))))),21);
((((((((3,11),(4,10)),(2,5)),7),13),(6,(18,19))),((1,(8,(14,20))),(17,(12,(15,(9,16)))))),21);
((((((((10,(4,11)),7),3),((2,5),13)),(6,(18,19))),(17,(12,(9,16)))),((14,(15,20)),(1,8))),21);
(((((6,(18,19)),(13,((3,((4,11),10)),(7,(2,5))))),(17,(12,(9,16)))),(8,(1,(15,(14,20))))),21);
((((((9,16),(12,17)),15),((13,(2,5)),((10,(7,(3,(4,11)))),(6,(18,19))))),(8,(1,(14,20)))),21);
(((((((2,5),7),(3,(4,(10,11)))),13),((17,(12,(9,16))),(6,(18,19)))),(8,(1,(14,(15,20))))),21);
(((((((2,5),(7,(10,(3,(4,11))))),13),((9,15),(17,(12,16)))),(6,(18,19))),(8,(1,(14,20)))),21);
((((((((4,11),(3,(7,10))),(13,(2,5))),(18,19)),6),(12,(17,(9,16)))),(8,(1,(14,(15,20))))),21);
(((((((7,10),(3,(4,11))),(2,5)),(13,(6,(18,19)))),(12,(17,(9,16)))),(8,((14,15),(20,1)))),21);
((((((5,(2,((3,4),(7,(10,11))))),13),(6,(18,19))),(17,(12,(9,(15,16))))),(8,(20,(1,14)))),21);
((((((13,((7,(4,11)),(3,10))),(2,5)),(6,(18,19))),(17,(12,(9,16)))),((14,(15,20)),(1,8))),21);
((((((18,19),(6,((2,5),(3,(7,(10,(4,11))))))),13),(17,(12,(9,16)))),(8,((15,20),(1,14)))),21);
((((((((((4,11),10),3),7),(2,5)),13),(6,(18,19))),(17,(9,(12,16)))),(1,(8,(14,(15,20))))),21);
(((((((((10,(3,(4,11))),5),2),7),13),(6,(18,19))),(17,(12,(16,(9,15))))),(8,(1,(14,20)))),21);
(((((((10,(3,(4,11))),7),13),((2,5),(6,(18,19)))),((9,16),(12,17))),((1,14),(8,(15,20)))),21);
((((((((10,(7,(3,(4,11)))),5),2),13),(6,(18,19))),((9,16),(12,17))),(8,((14,15),(1,20)))),21);
((((13,((2,5),(7,(10,(3,(4,11)))))),((17,(12,(9,16))),(6,(18,19)))),(8,(1,(14,(15,20))))),21);
(((((((7,(11,(3,10))),4),(2,5)),(13,(6,(18,19)))),(17,(12,(9,(15,16))))),(1,(8,(14,20)))),21);
(((((6,(18,19)),(13,((2,5),(7,(3,(10,(4,11))))))),(17,(16,(9,12)))),(8,(1,(14,(15,20))))),21);
((((((((4,7),(3,11)),10),(2,5)),(13,(6,(18,19)))),(12,(17,(9,16)))),((14,(15,20)),(1,8))),21);
(((((((2,5),(4,(7,11))),(3,10)),13),(6,(18,19))),((1,(8,(15,(14,20)))),(17,(12,(9,16))))),21);
(((((6,(18,19)),((10,(7,(3,(4,11)))),(13,(2,5)))),(17,(9,(12,16)))),((14,(15,20)),(1,8))),21);
((((((((4,((10,11),3)),7),(2,5)),13),(6,(18,19))),(17,(12,(9,16)))),(8,(1,(14,(15,20))))),21);
(((((((((10,(4,11)),3),7),(2,5)),13),(6,(18,19))),(17,(9,(12,16)))),(8,(1,(14,(15,20))))),21);
((((((((3,10),(7,(4,11))),(2,5)),13),(6,(18,19))),(17,(15,(12,(9,16))))),(8,(1,(14,20)))),21);
((((((((7,(4,(3,11))),10),(2,5)),6),(13,(18,19))),((9,15),(17,(12,16)))),(14,(20,(1,8)))),21);
(((((10,((2,5),(7,(3,(4,11))))),13),((6,(18,19)),((9,12),(17,(15,16))))),((14,20),(1,8))),21);
((((((((7,11),(4,(3,10))),(2,5)),13),(6,(18,19))),(17,(12,(9,16)))),(8,(1,(14,(15,20))))),21);
(((((((2,5),(10,(3,(7,(4,11))))),(6,(18,19))),13),(17,(16,(9,12)))),(8,(1,(14,(15,20))))),21);
((((((13,(5,(2,((10,(4,11)),(3,7))))),(18,19)),6),((9,16),(17,(12,15)))),(8,(1,(14,20)))),21);
((((((7,(3,(4,11))),10),(6,(18,19))),((17,(12,(9,16))),(13,(2,5)))),(8,(14,(1,(15,20))))),21);
((((((13,(7,(10,(3,(4,11))))),(6,(18,19))),(2,5)),(17,(12,(9,16)))),((14,(15,20)),(1,8))),21);
(((((((((7,(10,4)),5),2),13),(6,(18,19))),(3,11)),(17,(16,(9,12)))),((20,(14,15)),(1,8))),21);
((((((((7,(3,10)),(4,11)),(2,5)),13),(6,(18,19))),((9,(15,16)),(12,17))),((1,20),(8,14))),21);
((((((((((4,11),3),10),7),(2,5)),13),(6,(18,19))),((9,16),(12,17))),(8,(1,(14,(15,20))))),21);
((((((((((3,4),7),11),10),(2,5)),13),(6,(18,19))),((16,(9,15)),(12,17))),(8,(1,(14,20)))),21);
(((((2,(5,((10,11),(7,(3,4))))),13),(6,(18,19))),((17,(12,(9,16))),((14,(15,20)),(1,8)))),21);
((((((((2,5),(3,(10,(4,11)))),7),(6,(18,19))),13),(17,(12,(9,16)))),(8,(1,(14,(15,20))))),21);
(((((((((4,11),(3,10)),7),(2,5)),13),(6,(18,19))),(12,(17,(9,16)))),(14,(8,(1,(15,20))))),21);
(((((((5,(2,10)),(11,(3,(4,7)))),13),(6,(18,19))),(17,(12,(9,16)))),(8,(1,(20,(14,15))))),21);
((((((((((3,(4,11)),10),7),5),2),13),(6,(18,19))),((9,16),(12,17))),(1,(8,(14,(15,20))))),21);
(((((((((7,10),(3,(4,11))),5),2),13),(6,(18,19))),(17,(12,(9,16)))),(8,(1,(15,(14,20))))),21);
(((((((7,(10,(3,(4,11)))),(2,5)),13),(6,(18,19))),(17,(12,(9,16)))),((14,(15,20)),(1,8))),21);
(((((((((7,(3,4)),(10,11)),(2,5)),13),(18,19)),(17,(12,(9,(15,16))))),6),((14,20),(1,8))),21);
(((((((2,5),(7,(3,(10,(4,11))))),13),(17,(12,(9,16)))),(6,(18,19))),(8,((15,20),(1,14)))),21);
((((((((10,(3,4)),11),7),(2,5)),(13,(6,(18,19)))),(17,(12,(9,16)))),((20,(15,14)),(1,8))),21);
((((((((3,(7,(4,11))),10),(2,5)),13),(6,(18,19))),(17,(16,(9,12)))),((14,(15,20)),(1,8))),21);
((((((18,19),(13,6)),((2,5),((4,11),(3,(7,10))))),(17,(12,(9,16)))),(8,(1,(14,(15,20))))),21);
((((((((7,10),(11,(3,4))),(2,5)),(6,(18,19))),13),(17,(12,(9,16)))),(8,(1,(14,(15,20))))),21);
((((((((10,11),3),(4,7)),(13,(2,5))),(6,(18,19))),(17,(9,(12,16)))),(8,(1,(14,(15,20))))),21);
(((((((((4,11),10),(3,7)),(2,5)),13),(6,(18,19))),((9,12),(16,17))),(8,(1,(14,(15,20))))),21);
((((((((10,(4,11)),(7,3)),5),2),(13,(6,(18,19)))),(8,(1,(14,(15,20))))),(17,(12,(9,16)))),21);
(((((13,(6,(18,19))),((4,11),((7,(3,10)),(2,5)))),((9,16),(12,17))),(8,(1,(14,(15,20))))),21);
((((((((7,(4,11)),(3,10)),(2,5)),13),(6,(18,19))),(17,(9,(12,16)))),((14,(15,20)),(1,8))),21);
((((13,(((2,5),((3,4),(7,(10,11)))),(6,(18,19)))),((9,16),(12,17))),(8,(1,(14,(15,20))))),21);
((((((((7,(3,10)),(4,11)),(2,5)),13),(6,(18,19))),(17,(12,(9,16)))),(8,(1,(14,(15,20))))),21);
(((((13,(4,(3,11))),(2,(5,(7,10)))),(6,(18,19))),((17,(12,(9,16))),(8,(1,(14,(15,20)))))),21);
((((((((7,10),(3,(4,11))),(2,5)),13),(6,(18,19))),((9,16),(12,17))),(8,(1,(14,(15,20))))),21);
(((((13,((2,(7,(11,(3,4)))),(5,10))),(6,(18,19))),(17,(12,(9,16)))),(8,(1,(20,(14,15))))),21);
((((((((7,11),(10,(3,4))),(2,5)),13),(6,(18,19))),(17,(9,(12,16)))),(1,(8,(14,(15,20))))),21);
(((((((((3,10),7),(4,11)),(2,5)),13),(17,(12,(9,16)))),(6,(18,19))),(8,(1,(14,(15,20))))),21);
(((((((7,(10,(3,(4,11)))),(2,5)),13),(6,(18,19))),(17,(12,(9,16)))),((8,14),(1,(15,20)))),21);
((((((((((3,4),11),(7,10)),5),13),(6,(18,19))),2),(17,(9,(12,16)))),(8,(14,(1,(15,20))))),21);
((((((((10,(3,4)),(7,11)),(2,5)),13),(6,(18,19))),(17,(12,(9,16)))),((14,(15,20)),(1,8))),21);
((((((((7,(3,(4,11))),10),(2,5)),(6,(18,19))),(17,(12,(9,16)))),13),(8,(1,(14,(15,20))))),21);
(((((((10,(7,(3,(4,11)))),(2,5)),13),(6,(18,19))),(12,(17,(9,16)))),(((14,8),(15,20)),1)),21);
((((((7,(3,(10,(4,11)))),(2,5)),(6,(13,(18,19)))),((9,16),(12,17))),(8,(1,(14,(15,20))))),21);
(((((((((10,11),((3,4),7)),2),5),13),(18,(6,19))),((12,16),(9,17))),((14,(15,20)),(1,8))),21);
(((((16,(9,15)),((12,17),((7,((4,11),(10,3))),(13,(2,5))))),(6,(18,19))),(1,(8,(14,20)))),21);
((((((((((4,11),3),10),7),(2,5)),(6,(18,19))),13),((15,20),(8,(1,14)))),(17,(9,(12,16)))),21);
((((((5,(2,(10,(7,(3,(4,11)))))),13),(6,(18,19))),(17,(12,(9,16)))),(8,(1,(14,(15,20))))),21);
((((((5,(2,(3,(7,(10,(4,11)))))),13),(6,(18,19))),(17,(16,((9,15),12)))),(8,(1,(14,20)))),21);
((((((((7,(3,(4,11))),10),2),5),(13,(6,(18,19)))),(17,(12,(9,16)))),(8,(1,(14,(15,20))))),21);
(((((((((11,(3,4)),10),7),(2,5)),(6,(18,19))),13),(17,(9,(12,16)))),(8,(1,(14,(15,20))))),21);
((((((2,5),(13,(7,(10,(3,(4,11)))))),(6,(18,19))),(17,((15,16),(9,12)))),((1,14),(8,20))),21);
(((((3,11),(13,((10,(4,7)),(2,5)))),(6,(18,19))),((17,(9,(12,16))),(8,(1,(14,(15,20)))))),21);
(((((((3,11),(7,(4,10))),(2,5)),(17,(12,(9,(15,16))))),(13,(6,(18,19)))),(8,(20,(14,1)))),21);
(((((13,(6,((2,5),((7,10),(3,(4,11)))))),(18,19)),((12,16),(9,17))),(8,(1,(14,(15,20))))),21);
(((((((7,(3,(10,(4,11)))),(2,5)),13),(17,(12,(9,(15,16))))),(6,(18,19))),(8,(14,(1,20)))),21);
((((((((2,5),((4,11),(3,10))),7),(13,(6,18))),19),(17,(9,(12,16)))),(8,((15,20),(1,14)))),21);
(((((6,(18,19)),(13,(7,(((4,11),(3,10)),(2,5))))),(17,(12,(9,16)))),(8,(1,(14,(15,20))))),21);
((((((13,((7,10),((3,(4,11)),(2,5)))),(18,19)),6),(17,(12,(9,16)))),((14,(15,20)),(1,8))),21);
(((((((11,(4,10)),3),7),(2,5)),((17,(12,(9,16))),(13,(6,(18,19))))),(8,(1,(15,(14,20))))),21);
(((((13,6),(((2,5),(7,(10,(3,(4,11))))),(18,19))),(17,((12,15),(9,16)))),(14,(8,(1,20)))),21);
(((((((5,((4,11),(3,7))),2),10),(6,(18,19))),(13,(17,(12,(9,16))))),((14,(15,20)),(1,8))),21);
(((((13,((2,5),((4,11),(3,(10,7))))),(6,(18,19))),(17,(12,(9,16)))),(1,(8,(14,(15,20))))),21);
((((((((7,11),(10,(3,4))),(2,5)),13),(6,(18,19))),(17,(16,(9,12)))),((14,(15,20)),(1,8))),21);
(((((((3,7),(11,(4,10))),(2,5)),13),(6,(18,19))),((17,(15,(16,(9,12)))),(8,(1,(14,20))))),21);
((((((((((4,11),(3,7)),10),2),5),(18,(6,19))),13),((15,(9,16)),(12,17))),(1,(8,(14,20)))),21);
(((((13,((2,5),((4,10),(7,(3,11))))),(6,(18,19))),(17,(12,(9,16)))),((14,(15,20)),(8,1))),21);
(((((13,((2,5),(10,(3,(7,(4,11)))))),(6,(18,19))),(14,(8,(1,(15,20))))),(17,(12,(9,16)))),21);
((((((18,19),(13,(11,((2,5),((3,4),(7,10)))))),6),(17,((9,15),(12,16)))),((14,20),(8,1))),21);
(((((((((4,(7,(3,11))),(5,10)),2),13),6),(18,19)),((15,(9,16)),(12,17))),(1,(8,(14,20)))),21);
((((((6,(18,19)),(13,(2,5))),((3,10),(7,(4,11)))),((9,(15,16)),(12,17))),(14,(20,(1,8)))),21);
(((((((((10,(4,3)),11),7),(2,5)),13),(6,(18,19))),(17,(12,(9,16)))),((1,(14,15)),(8,20))),21);
(((((((7,((4,11),(3,10))),(2,5)),13),(6,(18,19))),(17,(12,(9,16)))),(8,(1,(14,(15,20))))),21);
((((((10,(3,(4,11))),(13,(7,(2,5)))),(6,(18,19))),(17,(9,(12,16)))),(1,(8,(14,(15,20))))),21);
((((((((7,11),(4,(3,10))),(2,5)),13),(6,(18,19))),(17,(9,(12,16)))),(1,(8,(15,(14,20))))),21);
(((((((((3,(4,11)),7),10),(2,5)),13),(6,(18,19))),(17,(12,(9,16)))),(8,((15,20),(1,14)))),21);
((((13,(6,(18,19))),((17,(12,(9,16))),((4,(3,11)),((7,10),(2,5))))),(8,(1,(14,(15,20))))),21);
(((((((10,(4,11)),(3,7)),(2,5)),(13,(6,(19,18)))),(17,(12,(15,(9,16))))),(8,(20,(1,14)))),21);
(((((((2,5),(3,((4,11),(7,10)))),13),(6,(18,19))),(12,(17,(9,16)))),(1,(8,(20,(14,15))))),21);
((((((((10,(3,(4,11))),(2,5)),7),13),(6,(18,19))),(12,(16,(9,17)))),(8,(1,(14,(15,20))))),21);
(((((3,(13,((2,5),(7,(10,(4,11)))))),(6,(18,19))),(17,(12,(9,16)))),(((15,20),(14,8)),1)),21);
(((((((((4,(3,11)),10),7),(2,5)),(6,(18,19))),13),(12,(17,(9,16)))),(8,(1,(15,(14,20))))),21);
(((((((5,(10,2)),((4,11),(3,7))),(6,(18,19))),13),((9,16),(12,17))),((14,(15,20)),(1,8))),21);
((((((((3,(4,11)),7),10),(13,(2,5))),(6,(18,19))),(17,(12,(9,16)))),((14,(15,20)),(1,8))),21);
(((((((((10,(7,4)),11),3),(2,5)),13),(6,(18,19))),((9,16),(12,17))),(8,(1,(14,(15,20))))),21);
((((((((3,7),(10,(4,11))),(2,5)),13),(6,(18,19))),((9,16),(12,17))),(8,((15,20),(1,14)))),21);
(((((((((4,11),(7,10)),3),(2,5)),13),(6,(18,19))),((14,(15,20)),(1,8))),(17,(12,(9,16)))),21);
(((((((((3,10),(4,(7,11))),2),5),13),(6,(18,19))),(17,(12,(9,16)))),(8,(1,(14,(15,20))))),21);
(((((6,((2,5),((7,(10,(3,(4,11)))),13))),(18,19)),(17,(12,(9,16)))),(1,(8,(14,(15,20))))),21);
(((((((5,(7,(10,(4,11)))),(2,3)),13),(6,(18,19))),(9,(17,(12,16)))),((14,(15,20)),(1,8))),21);
(((((((4,(3,11)),(7,10)),(2,5)),(13,(6,(18,19)))),(17,(12,(9,16)))),(1,(8,(14,(15,20))))),21);
((((((2,5),(7,(10,(3,(4,11))))),(17,((15,16),(9,12)))),(13,(6,(18,19)))),((14,20),(1,8))),21);
((((((((7,(4,11)),(3,10)),(2,5)),13),(6,(18,19))),(17,(12,(9,16)))),(8,(1,(20,(14,15))))),21);
((((((((2,5),(10,(4,7))),(3,11)),13),(6,(18,19))),(17,(9,(12,16)))),((20,(14,15)),(8,1))),21);
(((((18,19),(6,(13,(((10,(4,11)),(3,7)),(2,5))))),(8,(1,(14,(15,20))))),(17,(12,(9,16)))),21);
((((((((3,(4,11)),7),10),(2,5)),13),((17,(12,(9,(15,16)))),(6,(18,19)))),(8,(1,(14,20)))),21);
((((((((7,(4,10)),(11,3)),5),2),(13,(6,(18,19)))),(17,(12,(9,16)))),(8,(1,(14,(15,20))))),21);
((((((((2,5),10),(7,(3,(4,11)))),(6,(18,19))),13),(17,(12,(9,16)))),((14,(15,20)),(8,1))),21);
((((((((2,(7,10)),5),(3,(4,11))),13),(6,(18,19))),(17,(9,(12,16)))),(8,(1,(14,(15,20))))),21);
(((((((7,(10,(3,(4,11)))),(2,5)),13),(6,(18,19))),(16,(17,(9,12)))),((14,(15,20)),(1,8))),21);
(((((6,(18,19)),((7,(3,(10,(4,11)))),(13,(2,5)))),(17,(12,(16,(9,15))))),((14,20),(1,8))),21);
(((((((2,(7,(10,11))),(5,(3,4))),13),(6,(18,19))),(8,(1,(14,(15,20))))),(17,(12,(9,16)))),21);
((((((((7,(4,11)),10),3),(2,5)),(13,(6,(18,19)))),(8,(1,(14,(15,20))))),(17,(9,(12,16)))),21);
(((((((((4,11),(3,7)),(2,5)),10),13),(6,(18,19))),(17,(12,(9,16)))),(8,(1,(14,(15,20))))),21);
((((((((11,(10,(3,4))),7),(2,5)),13),(6,(18,19))),(17,(12,(9,(15,16))))),(8,(1,(14,20)))),21);
((((((((2,5),(7,(4,11))),(3,10)),13),(6,(18,19))),(17,(12,(9,16)))),(8,(14,(1,(15,20))))),21);
((((((((2,5),(7,(3,11))),(4,10)),(18,19)),(6,13)),((9,16),(12,17))),(1,(8,(14,(15,20))))),21);
((((((((10,(3,(4,11))),7),(2,5)),13),(6,(18,19))),(12,(17,(9,(15,16))))),(1,(8,(14,20)))),21);
((((((((((7,(4,11)),3),10),5),2),13),(6,(18,19))),(17,(12,(9,16)))),(8,(1,(14,(15,20))))),21);
((((((((10,(4,(3,11))),7),(2,5)),((18,19),6)),13),((9,12),(16,17))),((14,(15,20)),(1,8))),21);
(((((((10,(7,(11,(3,4)))),(2,5)),13),(6,(18,19))),(17,(12,(9,16)))),(8,(1,(14,(15,20))))),21);
((((((((10,(4,11)),(3,7)),(2,5)),13),(6,(18,19))),(1,(14,(8,(15,20))))),(17,(9,(12,16)))),21);
(((((((11,(7,10)),((3,4),(2,5))),13),(6,(18,19))),(12,(17,(9,16)))),(1,(8,(14,(15,20))))),21);
((((13,((2,5),(4,((3,11),(7,10))))),((6,(18,19)),(12,(17,(9,16))))),((((15,20),1),8),14)),21);
(((((((((11,(4,10)),7),3),(2,5)),13),(6,(18,19))),((9,16),(12,17))),(1,(8,(14,(15,20))))),21);
(((((((3,(4,11)),(7,10)),(13,(2,5))),(6,(18,19))),(17,(9,(12,(15,16))))),(8,(1,(14,20)))),21);
(((((((((3,((4,11),10)),7),2),5),13),(6,(18,19))),(17,(12,(9,16)))),(1,(8,(20,(14,15))))),21);
((((((7,((3,(10,(4,11))),(2,5))),13),(6,(18,19))),(17,(12,(9,16)))),(8,(1,(14,(15,20))))),21);
(((((((10,11),((2,5),(7,(3,4)))),13),(6,(18,19))),(17,(12,(9,16)))),(1,(8,(14,(15,20))))),21);
(((((((10,(3,(7,(4,11)))),(2,5)),13),(6,(18,19))),((12,17),(9,16))),(8,(1,(14,(15,20))))),21);
(((((6,(18,19)),(13,((4,(3,11)),((2,5),(7,10))))),(17,(12,(9,16)))),(14,(8,(1,(15,20))))),21);
(((((((((3,10),7),(4,11)),(2,5)),13),(6,(18,19))),((9,16),(12,17))),(8,(1,(14,(15,20))))),21);
(((((6,(18,19)),(13,((2,5),((3,(4,11)),(7,10))))),(17,(12,(9,(15,16))))),(8,(1,(14,20)))),21);
((((((((10,(4,11)),3),7),13),(6,(18,19))),(12,(17,(9,16)))),((2,5),((14,(15,20)),(1,8)))),21);
(((((((((((7,11),3),10),4),5),2),13),(6,(18,19))),(17,(12,(9,16)))),(((8,(15,20)),1),14)),21);
(((((((10,(7,(3,(4,11)))),(2,5)),13),(6,(18,19))),(17,(12,(9,16)))),(8,(1,(14,(15,20))))),21);
(((((6,(18,19)),(((2,5),(7,(10,(3,(4,11))))),13)),(17,(12,(9,16)))),(8,(1,(14,(15,20))))),21);
(((((((10,(4,3)),(7,11)),13),(2,5)),(19,(6,18))),((17,(12,(9,16))),(8,(1,(20,(14,15)))))),21);
((((((((2,5),((7,(4,11)),(3,10))),13),(6,(18,19))),17),(12,(9,16))),(1,(8,(14,(15,20))))),21);
((((((3,(2,(5,(7,(4,(10,11)))))),13),(6,(18,19))),((1,14),(8,20))),(17,(9,(12,(15,16))))),21);
((((((13,((2,5),(7,((4,11),(3,10))))),6),(18,19)),(17,(12,(9,16)))),(8,(1,(14,(15,20))))),21);
(((((((((10,(3,(4,11))),7),2),5),13),(6,(18,19))),(17,(9,(12,16)))),((14,(15,20)),(8,1))),21);
(((((((7,(2,5)),(3,(10,(4,11)))),13),(6,(18,19))),(17,(12,(9,16)))),(8,(1,(15,(14,20))))),21);
(((((((((4,11),(3,7)),(2,5)),10),13),(6,(18,19))),(17,(12,(9,16)))),(8,(1,(14,(15,20))))),21);
((((((((4,11),(7,(3,10))),(2,5)),13),(6,(18,19))),(17,(16,(9,12)))),(8,(1,(14,(15,20))))),21);
(((((13,((2,5),(10,((4,11),(3,7))))),(6,(18,19))),(17,(12,(9,16)))),(8,(1,(14,(15,20))))),21);
(((((((((4,11),(7,3)),10),(2,5)),13),(6,(18,19))),(17,(12,(9,16)))),(1,(8,(14,(15,20))))),21);
(((((((2,5),(3,(7,(10,(4,11))))),13),(6,(18,19))),(17,(16,(9,12)))),((1,14),(8,(15,20)))),21);
(((((17,(12,(9,(15,16)))),(13,((2,5),((3,10),(7,(4,11)))))),(6,(18,19))),((14,20),(8,1))),21);
(((((((((10,(4,11)),3),7),(2,5)),13),(6,(18,19))),((9,16),(12,17))),(8,(1,(14,(15,20))))),21);
((((((((7,(10,3)),4),11),(2,5)),(13,(6,(18,19)))),(17,(12,(9,16)))),(1,((14,(15,20)),8))),21);
(((((((7,((4,11),(3,10))),(2,5)),13),(18,(6,19))),(17,(16,(9,12)))),(8,(14,(1,(15,20))))),21);
(((((((((3,(4,11)),(10,7)),5),2),13),(6,(18,19))),((12,16),(17,9))),(8,(1,(14,(15,20))))),21);
(((((6,(18,19)),((2,5),(13,((3,10),(7,(4,11)))))),((9,16),(12,17))),(8,(1,(14,(15,20))))),21);
((((((13,(7,(3,(10,(4,11))))),(2,5)),(6,(18,19))),(17,(9,(12,16)))),((15,20),(8,(1,14)))),21);
((((((((3,(7,(4,11))),10),(2,5)),13),(6,(18,19))),(17,(9,(12,16)))),((15,20),(8,(1,14)))),21);
(((((((7,10),((3,(4,11)),(2,5))),13),(6,(18,19))),(17,(12,(9,16)))),((14,(15,20)),(8,1))),21);
(((((13,(((3,(4,11)),(5,(7,10))),2)),(6,(18,19))),((12,16),(9,17))),((14,(15,20)),(1,8))),21);
((((((7,(3,(4,11))),(10,(2,5))),13),(6,(18,19))),((17,(12,(9,16))),(8,(1,(14,(15,20)))))),21);
((((((((3,(4,11)),(7,10)),(2,5)),13),(6,(18,19))),(12,(17,(9,16)))),(1,(8,(14,(15,20))))),21);
((((((((3,7),((4,11),10)),13),(2,5)),(6,(18,19))),(17,(12,(9,16)))),((15,20),(14,(1,8)))),21);
((((13,((6,(18,19)),((2,5),(10,(7,(3,(4,11))))))),(17,(12,(9,16)))),(1,(8,(14,(15,20))))),21);
((((((((3,11),4),10),7),((13,(2,5)),(6,(18,19)))),(17,(12,(9,16)))),((14,(15,20)),(1,8))),21);
((((((((3,4),11),7),(10,(2,5))),(13,(6,(18,19)))),(8,(1,(14,(15,20))))),((9,16),(12,17))),21);
(((((6,(18,19)),(((2,5),(3,(10,(7,(4,11))))),13)),(17,(12,(9,16)))),(8,(1,(14,(15,20))))),21);
((((((((3,(4,11)),(7,10)),(2,5)),13),(6,(18,19))),(17,(12,(9,16)))),((14,(20,15)),(1,8))),21);
(((((13,(5,((7,(4,11)),(3,10)))),2),((17,(12,(9,16))),(6,(18,19)))),((14,(15,20)),(1,8))),21);
(((((6,(18,19)),((7,(10,(3,(4,11)))),(2,5))),((12,(17,(9,16))),13)),(8,(1,(14,(15,20))))),21);
(((((((3,(10,(4,11))),7),(13,(2,5))),(6,(18,19))),(17,(12,(9,16)))),((8,(15,20)),(1,14))),21);
(((((13,((7,(4,11)),((3,10),(2,5)))),(6,(18,19))),((9,16),(12,17))),(8,(1,(14,(15,20))))),21);
(((((((((3,(10,(4,11))),7),(2,5)),6),(18,19)),13),(17,(12,(9,16)))),((14,(15,20)),(1,8))),21);
(((((((((4,11),(7,3)),10),(2,5)),13),(6,(18,19))),(17,((9,12),16))),((14,(15,20)),(1,8))),21);
(((((((2,5),(3,((4,11),(7,10)))),13),(6,(18,19))),((12,16),(9,17))),(8,(1,(20,(14,15))))),21);
((((((((3,(4,11)),(7,10)),(2,5)),(6,(18,19))),13),(17,(12,(9,16)))),(1,(8,(15,(14,20))))),21);
(((((((10,(4,(3,11))),7),13),(6,(18,19))),((2,5),(17,(9,(12,16))))),(8,(1,(14,(15,20))))),21);
(((((6,(18,19)),(13,(2,(5,(7,(10,(3,(4,11)))))))),(17,(12,(9,(15,16))))),((14,20),(1,8))),21);
(((((((((7,(3,(4,11))),10),2),13),(6,(18,19))),5),(17,(12,(9,16)))),(8,(1,(14,(20,15))))),21);
((((((((3,(4,11)),(7,10)),(2,5)),13),(6,(18,19))),(17,(12,(9,16)))),((14,(15,20)),(1,8))),21);
(((((((7,(4,(3,10))),11),(2,5)),13),((17,(12,(9,(15,16)))),(6,(18,19)))),((14,20),(1,8))),21);
((((13,(5,(10,(3,(4,11))))),((2,7),(6,(18,19)))),(((1,20),(8,14)),(17,(12,(9,(15,16)))))),21);
(((8,(20,(1,14))),((17,(12,(15,(9,16)))),(((2,5),(7,(10,(3,(4,11))))),(13,(6,(18,19)))))),21);
(((((((4,10),(7,(3,11))),(2,5)),13),(6,(18,19))),((17,(12,(9,(15,16)))),((14,20),(1,8)))),21);
((((((((((10,11),(7,3)),4),5),13),2),(6,(18,19))),((9,16),(12,17))),((1,14),(8,(15,20)))),21);
((((((((3,(4,11)),(7,10)),(2,5)),13),(6,(18,19))),(17,(12,(9,16)))),(8,(1,(14,(20,15))))),21);
(((((((18,19),(2,5)),6),(13,((3,(4,11)),(7,10)))),(17,(12,(9,16)))),(8,(1,(14,(15,20))))),21);
(((((((((7,10),4),11),13),(3,(2,5))),(6,(18,19))),(17,(12,(9,16)))),((15,20),(8,(1,14)))),21);
(((((((10,(3,(7,(4,11)))),2),5),(13,(6,(18,19)))),(17,(12,(9,16)))),(8,(1,(14,(15,20))))),21);
((((((((3,(10,(4,11))),7),(2,5)),13),(6,(18,19))),(17,(12,(9,16)))),((15,20),(8,(1,14)))),21);
((((((((((10,7),(4,11)),3),(2,5)),13),6),(18,19)),(17,(12,(9,16)))),(8,(1,(14,(15,20))))),21);
(((((((10,11),(7,(3,4))),(2,5)),(13,(6,(18,19)))),(17,(12,(9,16)))),((14,(15,20)),(1,8))),21);
(((((((((3,11),10),(4,7)),(2,5)),13),(6,(18,19))),(17,(12,(9,(15,16))))),((14,20),(1,8))),21);
((((((6,(18,19)),((7,(10,(3,(4,11)))),(2,5))),13),(17,(12,(9,16)))),(8,(1,(14,(15,20))))),21);
(((((((2,7),(10,(3,(4,11)))),5),(13,(6,(18,19)))),(17,(12,(9,16)))),(1,(8,(14,(15,20))))),21);
((((((((7,(4,(3,11))),(2,5)),10),13),(6,(18,19))),(17,(12,(9,16)))),(8,(1,(14,(15,20))))),21);
(((((((2,(3,7)),(5,(10,(4,11)))),13),(6,(18,19))),(17,(12,(9,16)))),(8,(1,(14,(15,20))))),21);
(((((6,(18,19)),((10,(2,5)),(13,(3,(7,(4,11)))))),((9,16),(12,17))),(1,(8,(14,(15,20))))),21);
(((((((10,(7,(4,11))),3),(13,(2,5))),(6,(18,19))),(17,(12,(9,16)))),((20,(14,15)),(1,8))),21);
(((((13,((3,7),((10,(4,11)),(2,5)))),(19,(6,18))),(17,(9,(12,16)))),((14,(15,20)),(1,8))),21);
(((((13,((2,5),((4,11),(7,10)))),(3,(6,(18,19)))),(17,(12,(9,16)))),(1,(8,(14,(15,20))))),21);
((((((((((3,4),7),11),10),(2,5)),13),(6,(18,19))),(12,(17,(9,16)))),(8,(1,(14,(15,20))))),21);
(((((((2,5),(7,(3,11))),(13,(4,10))),(6,(18,19))),(17,(12,(9,16)))),(8,(1,(14,(15,20))))),21);
(((((((((3,10),7),(4,11)),(2,5)),13),(6,(18,19))),(17,((15,16),(9,12)))),(1,(8,(14,20)))),21);
((((((2,5),(3,(7,(10,(4,11))))),(13,(6,(18,19)))),(17,(12,(16,(9,15))))),(8,(1,(14,20)))),21);
(((((((((3,(10,11)),7),4),5),(2,13)),(6,(18,19))),(17,(12,(9,16)))),((15,20),(8,(1,14)))),21);
(((((((((3,(4,11)),(7,10)),2),5),13),(6,(18,19))),(17,(12,(9,16)))),(8,(1,(15,(14,20))))),21);
((((((18,19),(13,((3,(10,(4,11))),(2,5)))),6),(7,(17,(12,(9,16))))),(8,(1,(14,(15,20))))),21);
((((17,(16,(9,12))),(((4,11),(2,5)),((19,(6,18)),(13,(7,(3,10)))))),(8,(1,(14,(15,20))))),21);
((((((((3,4),(2,5)),(7,(10,11))),13),(6,(18,19))),((9,16),(12,17))),(8,(1,(14,(15,20))))),21);
((((18,(6,19)),((2,(3,7)),(13,(5,(10,(4,11)))))),((17,(12,(9,16))),(8,(1,(14,(15,20)))))),21);
((((((((7,10),(3,(4,11))),(2,5)),13),(6,(18,19))),(17,(12,(9,16)))),(8,(1,(14,(15,20))))),21);
(((((((((3,10),(4,11)),7),(2,5)),(6,(18,19))),13),((9,16),(12,17))),((14,(15,20)),(1,8))),21);
(((((((10,11),(3,(4,7))),(2,5)),13),((17,(12,(16,9))),(6,(18,19)))),(8,(1,(14,(15,20))))),21);
((((((4,((7,11),(3,10))),(2,5)),(13,(6,(18,19)))),(17,(12,(9,16)))),((14,15),(20,(1,8)))),21);
(((((((3,(4,11)),(7,10)),(2,5)),(6,(18,19))),(((1,(14,15)),(8,20)),(17,(12,(9,16))))),13),21);
(((((((((3,11),(7,10)),4),(2,5)),13),(6,(18,19))),((12,16),(9,17))),(1,(8,(14,(15,20))))),21);
(((((((7,11),(3,(4,10))),(2,5)),(13,(6,(18,19)))),((9,16),(17,(12,15)))),(8,(1,(14,20)))),21);
(((((((5,((4,((3,11),10)),7)),2),13),(6,(18,19))),(17,(12,(9,16)))),(1,(8,(14,(15,20))))),21);
((((((((7,(10,4)),(3,11)),(2,5)),13),(6,(18,19))),(17,(9,(12,16)))),(8,(1,(14,(15,20))))),21);
(((((((((10,11),(3,4)),7),(2,5)),13),(6,(18,19))),(17,(12,(9,16)))),((1,14),((15,20),8))),21);
(((((6,(18,19)),((2,5),(13,((4,11),(7,(3,10)))))),(17,(12,(9,16)))),(1,(8,(14,(15,20))))),21);
(((((((((7,10),(3,(4,11))),2),5),13),(6,(18,19))),(8,(1,(14,(15,20))))),(17,(12,(9,16)))),21);
((((((((((3,11),10),7),4),(2,5)),13),(6,(18,19))),(12,(17,(9,16)))),(8,(1,(14,(15,20))))),21);
((((((3,((4,11),(10,7))),(5,2)),13),(((9,16),(12,17)),(6,(18,19)))),((14,(15,20)),(1,8))),21);
((((((((11,(10,(3,4))),7),(2,5)),13),(6,(18,19))),(17,(12,(9,16)))),(1,(8,(14,(15,20))))),21);
(((((((7,(10,(3,(4,11)))),(2,5)),(6,(18,19))),13),(17,(16,(9,12)))),((15,20),(8,(1,14)))),21);
((((((((7,3),(10,(4,11))),13),(2,5)),(6,(18,19))),(17,(12,(9,16)))),(8,(1,(14,(15,20))))),21);
(((((((((7,(4,3)),11),10),(2,5)),13),(17,(12,(9,(16,15))))),((14,20),(1,8))),(6,(18,19))),21);
(((((((((10,11),3),7),4),(2,5)),13),((17,(12,(9,16))),(6,(18,19)))),(8,((15,20),(1,14)))),21);
(((((6,(18,19)),(13,((2,5),(10,(7,(3,(4,11))))))),(16,(9,(17,12)))),(8,(1,(14,(20,15))))),21);
((((6,((18,19),(13,((7,((4,11),(3,10))),(2,5))))),(17,(12,(9,16)))),((14,(15,20)),(1,8))),21);
(((((((7,(10,11)),(3,4)),(2,5)),(6,(13,(18,19)))),(17,(12,(9,(15,16))))),(8,(20,(1,14)))),21);
(((((((10,(7,(3,(4,11)))),(2,5)),13),(6,(18,19))),(17,(12,(9,16)))),(1,((14,20),(8,15)))),21);
((((((7,(4,11)),(6,((18,19),((3,10),(2,5))))),13),(17,(12,(9,16)))),((1,8),(14,(15,20)))),21);
(((((((7,(3,(10,(4,11)))),(2,5)),(6,(18,19))),13),(17,(12,(9,16)))),(8,(1,(14,(15,20))))),21);
(((((((10,(7,(3,(4,11)))),(2,5)),13),(6,(18,19))),(17,(12,(9,(15,16))))),(1,(14,(8,20)))),21);
(((((((((10,(4,11)),3),7),(2,5)),13),(6,(18,19))),(9,(12,(16,17)))),(8,(1,(14,(15,20))))),21);
((((((((7,3),4),(10,11)),(2,5)),(13,(6,(18,19)))),(12,(17,(9,16)))),((15,(14,20)),(1,8))),21);
(((((((((3,10),(4,7)),11),(2,5)),(6,(18,19))),13),(16,(9,(12,17)))),(8,(1,(14,(15,20))))),21);
(((((((((4,7),(3,10)),11),13),(2,5)),(6,(18,19))),(12,(17,(9,16)))),(8,(14,(1,(15,20))))),21);
(((((((((3,4),(10,11)),7),(2,5)),13),(6,(18,19))),((12,(9,15)),(16,17))),(1,(8,(14,20)))),21);
(((((((4,10),(3,11)),(7,(2,5))),13),(17,(12,(9,16)))),((6,(18,19)),(1,(8,(14,(15,20)))))),21);
(((((13,((4,11),(10,(3,7)))),((2,5),(6,(18,19)))),(17,(12,(9,16)))),(14,(8,(1,(15,20))))),21);
(((((6,(18,19)),((2,(5,(7,(10,(4,11))))),(3,13))),(17,(12,(9,16)))),((1,14),(8,(15,20)))),21);
(((((((7,(10,(3,(4,11)))),(2,5)),13),(6,(18,19))),(16,(17,(9,12)))),(20,(1,(8,(14,15))))),21);
(((((6,(18,19)),(13,((2,5),(7,((4,11),(3,10)))))),(17,(9,(12,16)))),((14,20),((15,8),1))),21);
(((((6,(((3,(7,(10,(4,11)))),(2,5)),13)),(18,19)),(17,(9,(12,16)))),(1,(8,(14,(15,20))))),21);
(((((((3,(10,(7,(4,11)))),((2,5),13)),(6,(18,19))),(12,17)),(9,16)),(8,(1,(14,(15,20))))),21);
(((((17,(12,(9,16))),((10,(3,7)),((4,11),(2,5)))),(13,(6,(18,19)))),(8,(1,(20,(14,15))))),21);
(((((((3,(4,11)),((7,10),(2,5))),13),(6,(18,19))),(17,(12,(9,16)))),(8,(1,(14,(15,20))))),21);
((((((((2,11),(10,(7,(3,4)))),5),13),(6,(18,19))),(17,(12,(9,16)))),(8,(1,(14,(15,20))))),21);
(((((6,(13,((2,5),((3,(10,11)),(4,7))))),(18,19)),(17,(12,(9,16)))),(8,(1,(14,(15,20))))),21);
(((((((3,(4,(7,10))),(11,(2,5))),13),(6,(18,19))),((16,(9,15)),(12,17))),(8,(1,(14,20)))),21);
(((((((((7,(4,11)),5),2),(3,10)),13),(6,(18,19))),(17,(12,(9,(15,16))))),(8,(1,(14,20)))),21);
(((((((((4,7),3),(10,11)),(2,5)),13),(6,(18,19))),(17,(12,(9,16)))),(8,(1,(14,(15,20))))),21);
(((((((2,5),(4,7)),(11,(3,10))),(17,(16,(9,12)))),(13,(18,(6,19)))),((14,(15,20)),(1,8))),21);
((((((((3,(4,11)),(7,10)),(2,5)),13),(6,(18,19))),(17,(9,(12,16)))),((14,(15,20)),(1,8))),21);
(((8,(1,(14,(15,20)))),(((9,16),(12,17)),((6,(18,19)),(((4,11),(3,10)),(13,(7,(2,5))))))),21);
(((((((((3,7),(10,(4,11))),5),2),13),(6,(18,19))),((9,16),(12,17))),((1,14),(8,(15,20)))),21);
(((((((((10,11),4),3),7),(6,(18,19))),(13,(2,5))),(16,(17,(9,12)))),((14,(15,20)),(8,1))),21);
(((((((((11,(4,10)),7),3),(2,5)),13),(6,(18,19))),(17,(12,(9,16)))),((14,15),(8,(1,20)))),21);
((((((((((3,11),4),(7,10)),2),13),(18,19)),(5,6)),(17,(16,(9,12)))),(1,(8,(20,(14,15))))),21);
((((((((10,11),(7,(3,4))),(2,5)),13),(6,(18,19))),(8,(1,(14,(15,20))))),(17,(16,(9,12)))),21);
((((((2,5),(7,(10,(3,(4,11))))),(13,(6,(18,19)))),(17,(12,(9,(15,16))))),((14,20),(1,8))),21);
(((((((((4,11),3),10),7),(13,(2,5))),(6,(18,19))),(17,(12,(9,(15,16))))),(1,(8,(14,20)))),21);
(((((((7,(10,(3,(4,11)))),(2,5)),13),(6,(18,19))),(17,(12,(9,16)))),((8,14),(1,(15,20)))),21);
((((((((10,(3,7)),(4,11)),13),(2,5)),(6,(18,19))),(9,(17,(12,16)))),((14,(15,20)),(8,1))),21);
(((((((2,5),(13,(10,(7,(3,(4,11)))))),(18,19)),6),((9,16),(17,12))),(8,(1,(14,(15,20))))),21);
((((((((3,10),(7,(4,11))),(2,5)),13),(6,(18,19))),(17,(12,(9,16)))),((14,(15,20)),(1,8))),21);
(((((((((3,4),11),10),7),(2,5)),13),(6,(18,19))),((8,(1,(14,(15,20)))),(12,(17,(9,16))))),21);
((((((((((3,7),10),4),11),(2,5)),13),(6,(18,19))),(17,(12,(9,16)))),(1,(8,(14,(15,20))))),21);
(((((((((3,(4,7)),(10,11)),(2,5)),13),6),(18,19)),(17,(12,(9,16)))),(8,(1,(14,(15,20))))),21);
(((((((((3,7),11),(4,10)),(2,5)),13),(6,(18,19))),(12,(17,(9,(15,16))))),(8,(1,(14,20)))),21);
(((((((((3,10),(4,11)),7),(2,5)),13),((15,(16,9)),(12,17))),(8,(1,(14,20)))),(6,(18,19))),21);
((((((((((11,(3,4)),10),7),5),13),2),(6,(18,19))),(17,(12,(9,16)))),(8,(1,(14,(15,20))))),21);
((((((2,5),(13,((3,10),(7,(4,11))))),(6,(18,19))),(17,(12,(9,16)))),((14,(15,20)),(1,8))),21);
(((((((7,(3,(4,11))),(10,(2,5))),(6,(18,19))),13),(17,(9,(12,16)))),(8,(1,(14,(15,20))))),21);
(((((((2,(5,(7,(3,(4,11))))),10),13),(6,(18,19))),(17,(16,(9,12)))),((14,(15,20)),(8,1))),21);
(((((((2,(10,(7,(3,(4,11))))),5),13),(6,(18,19))),(12,(17,(9,16)))),(8,(1,(14,(15,20))))),21);
(((((((((10,(3,4)),11),7),(2,5)),(6,(18,19))),13),(17,(12,(9,16)))),(8,(1,(14,(15,20))))),21);
