(((((5,10),(2,(9,15))),((1,14),(3,8))),((11,(7,6)),(13,(4,12)))),16);
(((((((1,8),14),3),(2,15)),(9,(5,10))),((11,(7,6)),(13,(4,12)))),16);
((((((1,8),3),14),((5,10),(2,(9,15)))),((11,(6,7)),(4,(12,13)))),16);
(((((((9,15),10),5),(3,(14,(1,8)))),2),(12,((7,(6,11)),(4,13)))),16);
(((((9,15),(2,(5,10))),(14,(3,(1,8)))),((6,(7,11)),(13,(4,12)))),16);
((((((9,15),(5,10)),2),(3,(14,(1,8)))),((6,(7,11)),(13,(4,12)))),16);
(((((9,(2,15)),(5,10)),(3,(8,(1,14)))),((7,(6,11)),(13,(12,4)))),16);
((((((2,15),9),(5,10)),(3,(1,(8,14)))),((7,(6,11)),(13,(4,12)))),16);
(((((1,(8,14)),3),(5,(10,(2,(9,15))))),((6,(7,11)),(12,(4,13)))),16);
((((((9,15),2),(5,10)),(3,(1,(8,14)))),((6,(7,11)),(13,(4,12)))),16);
(((((15,(5,10)),(2,9)),((1,8),(3,14))),((6,11),(13,(12,(4,7))))),16);
(((((9,15),(2,(5,10))),((8,(1,14)),3)),(13,((6,11),(12,(4,7))))),16);
((((((9,(2,15)),(5,10)),(3,(8,(1,14)))),(13,(4,12))),(6,(7,11))),16);
((((((1,(8,14)),3),(5,10)),(2,(9,15))),((6,(7,11)),(13,(4,12)))),16);
(((((5,10),(2,(9,15))),((1,8),(3,14))),((6,11),(13,(12,(4,7))))),16);
((((((8,14),1),3),((5,10),(9,(2,15)))),((11,(6,7)),(4,(12,13)))),16);
(((((3,8),(1,14)),((5,10),(9,(2,15)))),((6,(7,11)),(13,(4,12)))),16);
(((((1,3),(8,14)),((9,15),(2,(5,10)))),((7,(6,11)),(13,(4,12)))),16);
((((((10,(9,(2,15))),5),14),(3,(1,8))),(13,((6,11),(12,(4,7))))),16);
(((((9,(2,15)),(5,10)),(14,(8,(1,3)))),((6,(7,11)),(4,(12,13)))),16);
((((((2,(9,15)),5),10),((1,8),(3,14))),((7,(6,11)),(13,(4,12)))),16);
((((1,3),((8,14),(5,(10,(9,(2,15)))))),(13,((6,(7,11)),(4,12)))),16);
((((((9,(2,15)),(5,10)),(3,(8,(14,1)))),(12,(4,13))),(11,(7,6))),16);
((((14,(3,(1,8))),(2,((5,10),(9,15)))),((11,(6,7)),(13,(4,12)))),16);
((((((9,15),2),(5,10)),((1,8),(3,14))),(13,((6,(7,11)),(4,12)))),16);
((((((5,10),(9,15)),2),(3,(14,(1,8)))),((7,(6,11)),(13,(4,12)))),16);
((((((9,15),2),(5,10)),(3,(14,(1,8)))),((6,(7,11)),(13,(4,12)))),16);
(((((2,(9,15)),(5,10)),(14,(3,(1,8)))),((11,(6,7)),(13,(4,12)))),16);
((((2,(5,(10,(9,15)))),(3,(14,(1,8)))),((6,(7,11)),(13,(4,12)))),16);
((((((2,15),9),(5,10)),(14,(3,(1,8)))),((6,(7,11)),(13,(4,12)))),16);
(((((((9,15),2),5),10),(1,(3,(8,14)))),((4,(12,13)),(6,(7,11)))),16);
(((4,((11,(6,7)),(12,13))),((3,(14,(1,8))),((5,10),(15,(2,9))))),16);
(((((((1,8),3),14),(5,10)),(2,(9,15))),((6,(11,7)),(13,(4,12)))),16);
(((((8,(1,14)),3),(5,(10,(9,(2,15))))),((12,(4,7)),(13,(6,11)))),16);
(((((((9,15),2),10),5),(14,(3,(1,8)))),((6,(7,11)),(4,(12,13)))),16);
((((((2,9),15),(5,10)),(8,(3,(1,14)))),((6,11),(13,(12,(4,7))))),16);
(((((5,(9,(2,15))),10),(14,(8,(1,3)))),((4,12),(13,(11,(6,7))))),16);
(((((2,(9,15)),(5,10)),((1,8),(14,3))),((6,11),(13,(12,(4,7))))),16);
((((14,(8,(1,3))),((2,9),(15,(5,10)))),((6,11),(13,(12,(4,7))))),16);
((((((5,10),(9,15)),2),(8,(3,(1,14)))),((11,(6,7)),(13,(4,12)))),16);
(((((2,(9,15)),(5,10)),(3,(14,(1,8)))),(13,((11,(6,7)),(4,12)))),16);
(((((15,(5,10)),(2,9)),(3,(14,(1,8)))),((7,(6,11)),(13,(4,12)))),16);
((((((15,(2,9)),(5,10)),14),(3,(1,8))),((12,(4,13)),(6,(7,11)))),16);
(((((2,(9,15)),(5,10)),(14,(3,(1,8)))),((11,(6,7)),(4,(12,13)))),16);
(((((12,4),13),(7,(6,11))),((3,(14,(1,8))),((5,10),(2,(9,15))))),16);
(((((((2,9),15),5),10),(3,(1,(8,14)))),((11,(6,7)),(13,(4,12)))),16);
((((((2,15),9),(5,10)),((8,14),(1,3))),((11,(6,7)),(12,(13,4)))),16);
((((((5,10),(2,(9,15))),((8,14),(1,3))),(6,11)),(13,(12,(4,7)))),16);
((((((15,(5,10)),(2,9)),((1,3),(8,14))),(6,11)),(13,(12,(4,7)))),16);
(((((15,(2,9)),(5,10)),(3,(1,(8,14)))),(13,((6,11),(12,(4,7))))),16);
(((((5,(9,(2,15))),10),((1,14),(3,8))),((7,(6,11)),(13,(4,12)))),16);
(((((5,10),(15,(9,2))),((1,8),(3,14))),((7,(6,11)),(4,(12,13)))),16);
((((3,(14,(1,8))),(2,((9,15),(5,10)))),((6,(7,11)),(13,(4,12)))),16);
(((((14,(1,8)),3),((2,15),(9,(5,10)))),((13,(4,12)),(11,(6,7)))),16);
(((((((2,(9,15)),5),10),(3,(8,(1,14)))),(11,(6,7))),(13,(4,12))),16);
(((((5,10),(2,(9,15))),(3,(1,(8,14)))),((11,(6,7)),(13,(4,12)))),16);
((((((9,15),(5,10)),(3,(14,(1,8)))),2),((6,11),(13,(12,(4,7))))),16);
(((((9,(2,15)),(5,10)),(3,(8,(1,14)))),(13,((6,(7,11)),(4,12)))),16);
((((((2,(9,15)),10),5),(3,(1,(8,14)))),((11,(6,7)),(12,(4,13)))),16);
((((((2,(9,15)),5),10),(3,(14,(1,8)))),((7,(6,11)),(13,(4,12)))),16);
(((((5,(9,(2,15))),10),((1,8),(3,14))),(13,((11,(6,7)),(4,12)))),16);
((((((5,10),(2,15)),9),(3,(14,(8,1)))),((4,12),(13,(6,(7,11))))),16);
((((((9,15),2),(5,10)),((1,8),(3,14))),((6,(7,11)),(13,(4,12)))),16);
(((((5,10),(2,(9,15))),((8,14),(1,3))),((6,(7,11)),(13,(4,12)))),16);
((((((2,(9,15)),5),10),(14,(3,(1,8)))),((6,(7,11)),(12,(4,13)))),16);
(((((9,(2,15)),(5,10)),(14,(3,(1,8)))),((7,(6,11)),(4,(12,13)))),16);
(((((5,10),(2,(9,15))),(3,(14,(8,1)))),((6,11),(13,(12,(4,7))))),16);
((((5,(2,(9,15))),(10,(3,(14,(1,8))))),((11,(6,7)),(13,(4,12)))),16);
((((((1,14),3),8),((2,(9,15)),(5,10))),((7,(6,11)),(13,(4,12)))),16);
((((((14,(1,8)),3),(2,(9,15))),(5,10)),((7,(6,11)),(13,(4,12)))),16);
(((((1,8),(3,14)),((5,10),(15,(2,9)))),((6,(7,11)),(13,(4,12)))),16);
(((((3,8),(1,14)),((2,(9,15)),(5,10))),((4,12),(13,(6,(7,11))))),16);
((((6,(7,11)),(13,(4,12))),(((5,10),(9,(2,15))),(3,(1,(8,14))))),16);
((((((9,15),2),(5,10)),(8,(3,(1,14)))),((6,(7,11)),(13,(4,12)))),16);
((((((2,15),9),(5,10)),(3,(1,8))),(14,((6,(7,11)),(13,(4,12))))),16);
((((((9,15),(5,10)),2),(14,(3,(1,8)))),((6,(7,11)),(4,(12,13)))),16);
(((((5,10),(2,(9,15))),(8,(3,(1,14)))),((11,(6,7)),(13,(4,12)))),16);
(((((((2,9),15),10),5),((8,14),(1,3))),(12,((6,11),(13,(4,7))))),16);
((((2,((9,15),(5,10))),(3,(8,(1,14)))),((7,(6,11)),(13,(4,12)))),16);
(((((2,(9,15)),(5,10)),(3,(14,(1,8)))),((7,(6,11)),(13,(4,12)))),16);
(((((1,8),(3,14)),((5,10),(15,(2,9)))),((7,(6,11)),(13,(4,12)))),16);
((((((9,15),2),(5,10)),(14,(3,(1,8)))),((13,(4,12)),(6,(7,11)))),16);
(((((15,(5,10)),(2,9)),(1,(3,(8,14)))),((13,(4,12)),(11,(6,7)))),16);
((((((5,10),9),(2,15)),((1,3),(8,14))),((11,(6,7)),(13,(4,12)))),16);
((((((9,15),2),(5,10)),((8,14),(1,3))),((7,(6,11)),(13,(4,12)))),16);
((((((9,15),2),(5,10)),(14,(3,(1,8)))),((4,12),(13,(6,(7,11))))),16);
((((((2,15),9),(5,10)),(14,(3,(1,8)))),((6,(7,11)),(13,(4,12)))),16);
(((((((9,15),2),(5,10)),(3,(1,8))),14),((6,(7,11)),(13,(4,12)))),16);
(((((10,(2,(9,15))),5),(14,(3,(1,8)))),((6,(7,11)),(13,(4,12)))),16);
(((((3,(14,8)),1),((5,10),(15,(2,9)))),(13,((6,11),(12,(4,7))))),16);
((((((2,(9,15)),(5,10)),(3,14)),(1,8)),((11,(6,7)),(13,(4,12)))),16);
((((((8,(1,14)),3),(5,10)),(9,(2,15))),((6,11),(13,(12,(4,7))))),16);
(((((5,10),(2,(9,15))),(1,(3,(8,14)))),(13,((6,(7,11)),(4,12)))),16);
((((((2,9),(5,(10,15))),(14,(1,8))),3),((7,(6,11)),(13,(4,12)))),16);
((((6,(7,11)),(13,(4,12))),(((1,8),(3,14)),((2,(9,15)),(5,10)))),16);
(((((15,(5,10)),(2,9)),(3,(8,(1,14)))),((6,11),(13,(12,(4,7))))),16);
(((((15,(2,9)),(5,10)),(1,(3,(8,14)))),((11,(6,7)),(13,(4,12)))),16);
((((((1,8),14),3),((5,10),(2,(9,15)))),((11,(6,7)),(13,(4,12)))),16);
(((((((5,10),9),(2,15)),(1,8)),(3,14)),((6,(7,11)),(13,(4,12)))),16);
(((((1,8),(3,14)),((5,10),(9,(2,15)))),((11,(6,7)),(12,(4,13)))),16);
(((((((9,15),2),5),10),(3,(14,(1,8)))),((11,(6,7)),(13,(4,12)))),16);
((((((9,15),2),(5,10)),((1,8),(3,14))),(13,((6,(7,11)),(4,12)))),16);
((((8,(3,(1,14))),((2,10),(5,(9,15)))),((6,11),((7,12),(4,13)))),16);
((((((9,15),2),(5,10)),((1,8),(3,14))),((11,(6,7)),(13,(4,12)))),16);
(((((15,(2,9)),(5,10)),(3,(14,(1,8)))),((4,13),(12,(11,(6,7))))),16);
((((((1,8),14),3),((5,10),(15,(2,9)))),(12,((11,(7,6)),(4,13)))),16);
(((((3,8),(1,14)),((2,(9,15)),(5,10))),((6,(7,11)),(13,(4,12)))),16);
((((((2,(5,10)),(9,15)),((1,8),(3,14))),(6,(7,11))),(13,(4,12))),16);
(((((((9,15),2),5),10),(14,(3,(1,8)))),((13,(12,(4,7))),(6,11))),16);
((((10,(9,15)),(2,5)),((14,(3,(8,1))),((6,(7,11)),(13,(4,12))))),16);
((((((3,1),14),8),((5,10),(2,(9,15)))),((6,11),(12,(13,(4,7))))),16);
(((((2,(5,10)),(9,15)),((1,8),(3,14))),((6,11),(12,(13,(4,7))))),16);
((((((2,9),15),(5,10)),(3,(8,(1,14)))),((6,11),(13,(12,(4,7))))),16);
(((((((1,8),14),3),(2,(9,15))),(5,10)),((7,(6,11)),(4,(12,13)))),16);
(((((((9,15),2),10),5),(14,(3,(1,8)))),((6,11),(13,(12,(4,7))))),16);
(((((3,14),(1,8)),(10,(5,(2,(9,15))))),((6,(7,11)),(13,(4,12)))),16);
((((((3,(1,8)),14),5),(10,(9,(2,15)))),((7,(6,11)),(4,(12,13)))),16);
((((((2,9),15),(5,10)),((1,8),(3,14))),((6,(7,11)),(13,(4,12)))),16);
(((((15,((2,9),(5,10))),3),(14,(1,8))),((4,12),(13,(11,(6,7))))),16);
(((((5,(9,(2,15))),10),(3,(8,(1,14)))),((7,(6,11)),(4,(12,13)))),16);
((((((2,15),9),(5,10)),(14,(3,(1,8)))),((7,(6,11)),(4,(12,13)))),16);
((((((9,15),2),(5,10)),(3,(1,(8,14)))),((7,(6,11)),(13,(4,12)))),16);
(((((9,(2,15)),(5,10)),(3,(14,(1,8)))),((4,12),((6,(7,11)),13))),16);
(((((4,12),13),(7,(6,11))),((10,(9,(2,15))),(5,((1,8),(3,14))))),16);
(((((5,10),(9,(2,15))),(3,(1,(8,14)))),((6,11),(13,(12,(4,7))))),16);
(((((5,10),(15,(2,9))),(3,(14,(1,8)))),((12,13),((6,(7,11)),4))),16);
(((((7,(6,11)),(13,(4,12))),((1,8),(3,14))),((5,10),(2,(9,15)))),16);
(((((5,10),(2,(9,15))),((1,8),(3,14))),((6,11),(13,(12,(4,7))))),16);
((((14,(3,(1,8))),((2,(9,15)),(5,10))),((6,(7,11)),(13,(4,12)))),16);
((((6,11),(13,(12,(4,7)))),((2,15),((9,(5,10)),(3,(14,(1,8)))))),16);
(((((5,10),(9,(2,15))),(3,(14,(1,8)))),((6,11),(13,(12,(4,7))))),16);
(((((9,(2,15)),(5,10)),(14,(3,(1,8)))),((6,(7,11)),(13,(4,12)))),16);
((((((1,14),3),8),((5,10),(2,(9,15)))),((6,11),(13,(12,(4,7))))),16);
(((((5,10),((1,8),(9,(2,15)))),(3,14)),((11,(6,7)),(13,(4,12)))),16);
((((5,(10,(2,(9,15)))),((1,8),(3,14))),((7,(6,11)),(13,(4,12)))),16);
((((((10,(9,15)),2),5),(14,(3,(1,8)))),((6,11),(13,(12,(4,7))))),16);
(((((((2,9),15),5),10),(3,(14,(1,8)))),((6,(11,7)),(12,(4,13)))),16);
((((((9,(2,15)),(5,10)),(3,((8,14),1))),(13,(4,12))),(6,(7,11))),16);
(((((12,13),4),(11,(6,7))),((3,(14,(1,8))),((5,10),(2,(9,15))))),16);
(((((4,12),13),(7,(6,11))),(((2,(9,15)),(5,10)),((8,14),(3,1)))),16);
(((((15,(2,9)),(5,10)),(1,(3,(8,14)))),((6,(7,11)),(13,(4,12)))),16);
(((((8,(3,14)),1),((2,(9,15)),(5,10))),(13,((7,(6,11)),(4,12)))),16);
((((((14,3),8),1),((5,10),(2,(9,15)))),((6,(7,11)),(13,(4,12)))),16);
(((((4,13),12),(6,(7,11))),((3,(14,(1,8))),((2,15),(9,(5,10))))),16);
(((((14,(1,8)),3),((9,15),(2,(5,10)))),((7,(6,11)),(4,(12,13)))),16);
(((((8,14),(1,3)),((2,9),(15,(5,10)))),((11,(6,7)),(13,(4,12)))),16);
(((((5,10),(2,(9,15))),(3,(8,(1,14)))),((6,11),(13,(12,(4,7))))),16);
((((((1,3),8),14),(15,(10,(5,(2,9))))),((6,(7,11)),(12,(4,13)))),16);
((((((9,15),2),(5,10)),(3,(14,(1,8)))),((7,(6,11)),(13,(4,12)))),16);
((((5,10),((15,(2,9)),((1,8),(3,14)))),((6,(7,11)),(13,(4,12)))),16);
((((((2,9),15),(5,10)),((1,8),(3,14))),((11,(6,7)),(13,(4,12)))),16);
(((((3,14),(1,8)),((5,10),(2,(9,15)))),((11,(6,7)),(13,(4,12)))),16);
(((((1,3),(8,14)),((9,10),(5,(2,15)))),((6,(7,11)),(4,(12,13)))),16);
(((((((9,10),5),(2,15)),(3,(14,(1,8)))),13),((11,(6,7)),(4,12))),16);
((((((2,15),9),(5,10)),(8,(3,(1,14)))),((6,(7,11)),(13,(4,12)))),16);
((((((9,15),2),(5,10)),((1,8),(3,14))),((6,(7,11)),(13,(4,12)))),16);
(((((5,10),((2,15),9)),(14,(3,(1,8)))),((7,(6,11)),(13,(4,12)))),16);
((((((5,10),(2,9)),15),((1,14),(3,8))),((6,(7,11)),(13,(4,12)))),16);
((((((1,8),14),3),((2,15),(9,(5,10)))),((4,13),(12,(7,(6,11))))),16);
(((((5,10),(2,(9,15))),((3,8),(1,14))),(13,((11,(6,7)),(4,12)))),16);
((((((10,(9,15)),2),5),(3,(14,(1,8)))),((6,(7,11)),(4,(12,13)))),16);
((((((2,(9,15)),5),10),(3,(14,(1,8)))),((6,11),(13,(12,(4,7))))),16);
(((((2,(9,15)),(5,10)),(8,(3,(1,14)))),((11,(6,7)),(4,(12,13)))),16);
(((((2,(9,15)),(5,10)),((1,8),(3,14))),((11,(6,7)),(4,(12,13)))),16);
(((((4,12),(13,(7,(6,11)))),((1,8),(3,14))),((2,(9,15)),(5,10))),16);
(((((((9,15),2),5),10),(3,(14,(1,8)))),((6,11),(12,(13,(4,7))))),16);
(((((9,(5,10)),(2,15)),(3,(1,(8,14)))),((11,(6,7)),(13,(4,12)))),16);
((((((1,8),(14,3)),(5,(10,(2,9)))),15),((6,(7,11)),(13,(4,12)))),16);
(((((5,10),(15,(2,9))),(1,(8,(3,14)))),((6,11),(13,(12,(4,7))))),16);
(((((2,(9,15)),(5,10)),((6,(7,11)),(13,(4,12)))),(14,(3,(1,8)))),16);
((((((3,8),(1,14)),10),(15,(5,(2,9)))),((6,(7,11)),(13,(4,12)))),16);
((((((9,15),2),(5,10)),(1,(8,(3,14)))),((6,11),((4,7),(12,13)))),16);
((((((9,15),2),(5,10)),(14,(3,(1,8)))),((4,12),(13,(7,(6,11))))),16);
((((3,(1,(8,14))),((5,10),(15,(2,9)))),((6,11),(13,(7,(4,12))))),16);
((((3,(14,(1,8))),((9,(2,15)),(5,10))),((13,(4,12)),(11,(6,7)))),16);
((((((2,(9,15)),10),5),(3,(14,(1,8)))),((6,(7,11)),(13,(4,12)))),16);
((((14,(3,(1,8))),((5,10),(2,(9,15)))),((7,(6,11)),(13,(4,12)))),16);
(((((9,(5,10)),(2,15)),((8,14),(1,3))),((6,11),(12,(13,(4,7))))),16);
((((((1,3),(8,14)),((5,10),(9,(2,15)))),(4,(13,12))),(6,(7,11))),16);
((((((5,10),(2,15)),9),((1,14),(3,8))),((6,11),(13,(12,(4,7))))),16);
(((((((9,15),2),10),5),(14,(3,(1,8)))),((7,(6,11)),(13,(4,12)))),16);
((((14,(3,(1,8))),((9,15),(2,(5,10)))),((7,(6,11)),(13,(4,12)))),16);
((((13,(4,12)),((3,(14,(1,8))),((5,10),(2,(9,15))))),(7,(6,11))),16);
(((((2,(9,15)),(5,10)),((1,8),(3,14))),((11,(6,7)),(4,(12,13)))),16);
((((((5,10),(9,15)),2),(3,(14,(1,8)))),((7,(6,11)),(13,(4,12)))),16);
((((((1,8),(3,14)),(2,(9,15))),(5,10)),((11,(6,7)),(13,(4,12)))),16);
(((((8,(1,3)),14),((5,10),(2,(9,15)))),((6,11),(12,(13,(4,7))))),16);
((((4,12),(13,(11,(6,7)))),((15,(2,9)),((5,10),((8,14),(1,3))))),16);
((((((2,15),9),(5,10)),(3,(14,(1,8)))),((7,(6,11)),(13,(4,12)))),16);
(((((9,(2,15)),(5,10)),(14,(3,(1,8)))),((11,(6,7)),(13,(4,12)))),16);
(((((1,14),(3,8)),((9,(2,15)),(5,10))),((6,(7,11)),(13,(4,12)))),16);
((((((9,15),2),(5,10)),(1,(3,(8,14)))),((6,11),(13,(12,(4,7))))),16);
((((8,(14,(1,3))),((5,10),(2,(9,15)))),((6,(11,7)),(13,(4,12)))),16);
((((((8,14),1),3),((5,10),(2,(9,15)))),((6,11),(13,(12,(4,7))))),16);
((((((2,15),9),(5,10)),((1,8),(3,14))),((7,(6,11)),(13,(4,12)))),16);
(((((((9,15),2),(5,10)),(3,(14,(1,8)))),(13,(4,12))),(7,(6,11))),16);
(((((2,(9,15)),(5,10)),(1,((3,14),8))),(13,((6,(11,7)),(4,12)))),16);
(((((8,(3,(1,14))),(2,(5,10))),(9,15)),((11,(6,7)),(12,(4,13)))),16);
(((((9,(2,15)),(5,10)),(3,(14,(1,8)))),((11,(6,7)),(13,(4,12)))),16);
((((((1,8),14),3),((9,15),(2,(5,10)))),((6,11),((4,7),(12,13)))),16);
((((((8,14),3),1),((5,10),(2,(9,15)))),((11,(6,7)),(13,(4,12)))),16);
((((15,((5,10),(2,9))),(1,(3,(8,14)))),((13,(4,12)),(6,(7,11)))),16);
((((((2,(9,15)),(5,10)),((1,8),(3,14))),(7,(6,11))),(13,(4,12))),16);
((((((2,9),15),(5,10)),(3,(14,(1,8)))),((11,(6,7)),(13,(4,12)))),16);
(((((15,(2,9)),(5,10)),(14,(8,(1,3)))),((7,(6,11)),(13,(4,12)))),16);
(((((15,(2,9)),(5,10)),(1,(8,(3,14)))),((6,(7,11)),(13,(4,12)))),16);
((((1,(14,(3,8))),(2,((9,15),(5,10)))),((7,(6,11)),(13,(4,12)))),16);
((((1,(14,(3,8))),((5,10),(15,(2,9)))),((6,(7,11)),(13,(4,12)))),16);
((((((1,8),14),3),((5,10),(2,(9,15)))),((6,(7,11)),(4,(12,13)))),16);
((((((1,(3,14)),8),(9,10)),(5,(2,15))),((6,(7,11)),(13,(4,12)))),16);
(((((5,(9,(2,15))),10),(3,(14,(1,8)))),((7,(6,11)),(13,(4,12)))),16);
(((((2,(9,15)),(5,10)),((8,14),(1,3))),((7,(6,11)),(13,(12,4)))),16);
(((((2,(9,(5,10))),15),((3,8),(1,14))),((6,(7,11)),(13,(4,12)))),16);
(((((((1,3),8),14),(9,15)),(2,(5,10))),((11,(6,7)),(13,(4,12)))),16);
(((((8,(1,14)),3),((2,(9,15)),(5,10))),(13,((7,(6,11)),(4,12)))),16);
(((((9,(2,15)),(5,10)),(8,(14,(1,3)))),((7,(6,11)),(13,(4,12)))),16);
(((((2,15),(9,(5,10))),(1,(3,(14,8)))),((6,(7,11)),(13,(4,12)))),16);
((((((5,10),(9,15)),2),((1,8),(3,14))),((6,(7,11)),(13,(4,12)))),16);
(((((9,(5,10)),(2,15)),(3,(14,(1,8)))),((6,(7,11)),(4,(12,13)))),16);
(((((6,(7,11)),(4,12)),13),(((5,10),(2,(9,15))),(3,(8,(1,14))))),16);
((((3,(8,(1,14))),((2,(9,15)),(5,10))),((6,(7,11)),(12,(4,13)))),16);
(((((3,8),(1,14)),((5,10),(15,(2,9)))),((6,(7,11)),(13,(4,12)))),16);
((((((5,10),(9,15)),2),((8,14),(1,3))),((11,(6,7)),(13,(4,12)))),16);
(((((3,(14,(1,8))),(9,(15,2))),(5,10)),(12,((6,11),(13,(4,7))))),16);
(((((2,9),(15,(5,10))),((3,8),(1,14))),((7,(6,11)),(12,(4,13)))),16);
(((((3,(1,8)),14),((9,15),(2,(5,10)))),((7,(6,11)),(13,(4,12)))),16);
((((((5,10),(9,15)),2),(3,(14,(1,8)))),((11,(6,7)),(13,(4,12)))),16);
(((((((1,3),8),14),(5,10)),(9,(2,15))),((6,(7,11)),(12,(4,13)))),16);
(((((1,14),(3,8)),((5,10),(2,(9,15)))),((6,(7,11)),(13,(4,12)))),16);
(((((3,14),(1,8)),(10,(5,(9,(2,15))))),((4,12),(13,(7,(6,11))))),16);
(((((5,10),(2,(9,15))),((1,8),(3,14))),((12,(4,7)),(13,(6,11)))),16);
(((((10,(2,(9,15))),5),(3,(14,(1,8)))),((7,(6,11)),(4,(12,13)))),16);
(((((8,14),(1,3)),((5,10),(2,(9,15)))),((6,11),(13,(12,(4,7))))),16);
(((((5,10),(9,(2,15))),(3,(14,(1,8)))),((6,(7,11)),(13,(4,12)))),16);
(((((4,12),13),(6,(7,11))),((8,(3,(1,14))),((5,(9,15)),(2,10)))),16);
((((((2,9),15),(5,10)),(3,(14,(1,8)))),((6,11),((4,7),(13,12)))),16);
(((((5,10),(2,9)),(15,(3,(1,(8,14))))),((6,(7,11)),(13,(4,12)))),16);
(((((14,(1,8)),3),((5,10),(15,(2,9)))),((6,(7,11)),(13,(4,12)))),16);
(((((3,(14,(1,8))),((2,9),(5,10))),15),((11,(6,7)),(13,(4,12)))),16);
(((((5,(10,(9,15))),2),(14,(3,(1,8)))),((7,(11,6)),(13,(4,12)))),16);
(((((1,3),(14,8)),((5,10),(15,(2,9)))),((11,(6,7)),(13,(4,12)))),16);
(((((5,10),(2,(9,15))),((3,8),(1,14))),((6,(7,11)),(13,(4,12)))),16);
(((((2,(9,15)),(5,10)),((1,8),(3,14))),((6,(7,11)),(13,(4,12)))),16);
(((((3,(9,(5,10))),(2,15)),(14,(1,8))),((6,11),(13,(12,(4,7))))),16);
((((((1,8),14),3),((5,10),(15,(9,2)))),((12,13),(4,(7,(6,11))))),16);
(((((5,10),(15,(2,9))),(14,(3,(1,8)))),((11,(7,6)),(13,(4,12)))),16);
(((((9,15),(2,(5,10))),(3,(14,(1,8)))),((6,11),(13,(12,(4,7))))),16);
(((((1,(3,8)),14),((9,(2,15)),(5,10))),((11,(6,7)),(13,(4,12)))),16);
((((((5,10),(2,9)),15),((1,8),(3,14))),((11,(7,6)),(13,(4,12)))),16);
(((((2,(10,5)),(9,15)),(14,(3,(1,8)))),(13,((11,(6,7)),(4,12)))),16);
((((((2,9),15),5),(10,(3,(14,(1,8))))),((7,(6,11)),(13,(4,12)))),16);
(((((5,9),(10,(2,15))),(3,(14,(1,8)))),((12,(4,7)),(13,(6,11)))),16);
((((((2,9),15),(5,10)),(3,(1,(14,8)))),((11,(7,6)),(13,(4,12)))),16);
(((((((9,15),2),5),10),((1,8),(14,3))),(13,((4,12),(6,(7,11))))),16);
((((((9,15),2),(5,10)),(3,(14,(1,8)))),((12,(4,7)),(13,(6,11)))),16);
(((((5,10),(2,(9,15))),(8,(3,(1,14)))),(13,((6,11),(12,(4,7))))),16);
((((8,(3,(1,14))),((5,10),(2,(9,15)))),((11,(6,7)),(13,(4,12)))),16);
(((((1,8),(14,3)),((5,10),(2,(9,15)))),((6,(7,11)),(13,(4,12)))),16);
((((((2,15),5),(9,10)),(3,(14,(1,8)))),((6,(7,11)),(13,(4,12)))),16);
(((((10,(15,(2,9))),(3,(14,(1,8)))),5),((6,11),(13,(12,(4,7))))),16);
(((((1,8),(3,14)),((2,(9,15)),(5,10))),((11,(7,6)),(13,(4,12)))),16);
(((((9,(2,15)),(10,5)),(3,(14,(1,8)))),((6,(7,11)),(13,(4,12)))),16);
(((((5,10),(9,(2,15))),(14,(3,(1,8)))),((6,(11,7)),(13,(4,12)))),16);
((((((2,(9,15)),10),5),((1,14),(3,8))),((11,(6,7)),(13,(4,12)))),16);
(((((9,(2,15)),(5,10)),((1,14),(3,8))),((6,(7,11)),(13,(4,12)))),16);
((((((1,8),14),3),((2,15),(9,(5,10)))),(12,((6,(7,11)),(4,13)))),16);
(((((3,14),(1,8)),((5,10),(2,(9,15)))),((11,(6,7)),(4,(12,13)))),16);
((((((2,15),9),(5,10)),(3,(14,(1,8)))),((6,(7,11)),(12,(4,13)))),16);
((((((5,10),(2,(9,15))),(14,(3,(1,8)))),(13,(4,12))),(6,(7,11))),16);
(((((2,(9,15)),(5,10)),((1,14),(3,8))),((6,11),(13,(12,(4,7))))),16);
(((((14,(3,(1,8))),(2,9)),(15,(5,10))),((7,(6,11)),(13,(4,12)))),16);
((((((2,15),9),(5,10)),((8,14),(1,3))),((7,(6,11)),(13,(4,12)))),16);
(((((2,(9,15)),(5,10)),(3,(8,(1,14)))),((6,(7,11)),(13,(4,12)))),16);
(((((5,10),(15,(2,9))),(8,(1,(3,14)))),((11,(6,7)),(13,(4,12)))),16);
(((((9,15),(5,(2,10))),(3,(8,(1,14)))),(13,((6,(7,11)),(4,12)))),16);
(((((2,(9,15)),(5,10)),(3,(14,(1,8)))),((11,(6,7)),(13,(4,12)))),16);
(((((1,(8,14)),3),((5,10),(2,(9,15)))),((7,(6,11)),(13,(4,12)))),16);
((((((2,15),9),(5,10)),(3,(14,(1,8)))),((6,(7,11)),(13,(4,12)))),16);
(((((2,(9,15)),(5,10)),(3,(14,(1,8)))),((4,(13,12)),(11,(6,7)))),16);
(((((8,(1,14)),3),((2,(9,15)),(5,10))),((6,(7,11)),(13,(4,12)))),16);
((((((8,14),(3,1)),(5,10)),(15,(2,9))),((11,(6,7)),(13,(4,12)))),16);
(((((2,(5,10)),(9,15)),(3,(14,(1,8)))),((11,(6,7)),(12,(4,13)))),16);
(((((((1,3),14),8),(5,(10,(2,(9,15))))),(12,(13,4))),(6,(7,11))),16);
((((((8,3),14),1),(15,((5,10),(2,9)))),((7,(6,11)),(12,(4,13)))),16);
((((2,((9,15),(5,10))),((1,8),(3,14))),((6,(7,11)),(13,(4,12)))),16);
((((((1,8),3),14),((5,10),(2,(9,15)))),((6,11),(13,(12,(4,7))))),16);
((((((2,9),15),(5,10)),((1,14),(3,8))),((6,(7,11)),(13,(4,12)))),16);
(((((9,15),(2,(5,10))),(8,(3,(1,14)))),((11,(6,7)),(13,(4,12)))),16);
(((((5,10),(2,(9,15))),((1,14),(3,8))),((6,11),((4,7),(12,13)))),16);
(((((2,(9,15)),(5,10)),((1,14),(3,8))),((6,(7,11)),(12,(4,13)))),16);
(((((9,15),(10,(2,5))),(14,(3,(1,8)))),((12,(4,7)),(13,(6,11)))),16);
((((((5,10),(9,15)),2),(14,(3,(1,8)))),((11,(6,7)),(13,(12,4)))),16);
((((((9,15),(5,10)),2),(14,(3,(1,8)))),((11,(6,7)),(13,(4,12)))),16);
((((3,(14,(1,8))),((2,(9,15)),(5,10))),((6,(7,11)),(13,(4,12)))),16);
((((((15,2),9),(5,10)),(14,(8,(1,3)))),((7,(6,11)),(13,(4,12)))),16);
(((((1,3),(8,14)),((5,10),(2,(9,15)))),((11,(6,7)),(13,(4,12)))),16);
((((((9,15),2),(5,10)),(14,(3,(1,8)))),((7,(6,11)),(13,(4,12)))),16);
((((((1,3),8),14),((5,10),(9,(2,15)))),(12,(13,(4,(6,(7,11)))))),16);
(((((15,(2,9)),(5,10)),(1,(3,(8,14)))),((11,(6,7)),(13,(4,12)))),16);
((((((14,(8,1)),3),((9,(15,2)),(5,10))),(6,11)),(13,(12,(4,7)))),16);
((((9,((5,10),(2,15))),(3,(8,(1,14)))),((6,11),(13,(12,(4,7))))),16);
((((((5,10),(2,(9,15))),8),(3,(1,14))),((7,(6,11)),(4,(13,12)))),16);
((((((1,(8,14)),3),(5,10)),(2,(9,15))),((12,13),(4,(6,(7,11))))),16);
(((((1,(14,8)),3),((2,9),(15,(5,10)))),((11,(6,7)),(13,(4,12)))),16);
(((15,(((1,14),(3,8)),((2,9),(5,10)))),((6,(11,7)),(13,(4,12)))),16);
((((((9,15),(5,10)),2),(14,(3,(1,8)))),((6,(7,11)),(13,(4,12)))),16);
((((14,((5,10),(9,(2,15)))),(3,(1,8))),((6,(7,11)),(13,(4,12)))),16);
((((((3,(8,1)),14),(9,(2,15))),(5,10)),((4,12),(13,(11,(6,7))))),16);
(((((14,(3,8)),1),(15,((2,9),(5,10)))),((6,(7,11)),(13,(4,12)))),16);
((((((1,8),14),3),((2,(9,15)),(5,10))),((6,11),(12,(13,(4,7))))),16);
(((((5,(9,(2,15))),10),(1,(8,(14,3)))),((6,(7,11)),(13,(4,12)))),16);
(((((14,(3,(1,8))),((5,10),(2,9))),15),((7,(6,11)),(13,(4,12)))),16);
(((((5,10),(15,(2,9))),(3,(8,(1,14)))),((7,(11,6)),(13,(4,12)))),16);
(((((2,(9,15)),(10,5)),(14,(3,(1,8)))),((4,12),(13,(7,(6,11))))),16);
(((((((2,9),15),(5,10)),((8,14),(1,3))),(6,11)),((4,7),(12,13))),16);
(((((2,15),(9,(5,10))),(3,(14,(1,8)))),(13,((6,(7,11)),(4,12)))),16);
(((((5,10),(9,(2,15))),(3,(14,(1,8)))),((12,13),(4,(11,(7,6))))),16);
(((((2,(5,(9,15))),10),(3,(14,(1,8)))),((11,(6,7)),(13,(4,12)))),16);
((((((8,(1,14)),3),(15,(2,9))),(5,10)),((6,11),((4,7),(12,13)))),16);
((((((9,15),2),(5,10)),(1,(3,(8,14)))),((6,(7,11)),(13,(4,12)))),16);
(((((5,10),(15,(2,9))),(14,(3,(1,8)))),((6,(7,11)),(13,(4,12)))),16);
((((5,(10,(9,(2,15)))),((1,8),(3,14))),((11,(6,7)),(13,(4,12)))),16);
(((((2,(9,15)),(5,10)),((1,8),(3,14))),((4,12),(13,(6,(7,11))))),16);
((((3,(14,(1,8))),((5,10),(2,(9,15)))),((7,(6,11)),(13,(4,12)))),16);
(((((8,(1,14)),3),((5,10),(2,(9,15)))),((7,(6,11)),(13,(4,12)))),16);
(((((3,14),(1,8)),((5,10),(9,(2,15)))),((6,(7,11)),(13,(4,12)))),16);
((((((15,2),9),(5,10)),(14,(1,(8,3)))),((6,(7,11)),(13,(4,12)))),16);
((((((9,10),5),(2,15)),(14,(3,(1,8)))),((11,(6,7)),(13,(4,12)))),16);
(((((8,(3,14)),1),((5,10),(2,(9,15)))),((7,(6,11)),(13,(4,12)))),16);
(((((14,(3,(1,8))),5),(10,(2,(9,15)))),((4,12),(13,(6,(7,11))))),16);
((((10,(5,(15,(2,9)))),(3,(14,(1,8)))),((4,12),(13,(6,(7,11))))),16);
(((((15,(2,9)),(5,10)),(3,(14,(1,8)))),((6,(7,11)),(4,(13,12)))),16);
(((((5,10),(2,(9,15))),(3,(14,(1,8)))),((6,(7,11)),(13,(4,12)))),16);
(((((2,(9,15)),5),(10,(14,(3,(1,8))))),((11,(6,7)),(13,(4,12)))),16);
(((((1,3),(8,14)),((5,10),(2,(9,15)))),((7,(6,11)),(12,(4,13)))),16);
(((((5,10),(2,(9,15))),((8,14),(1,3))),((6,(7,11)),(4,(12,13)))),16);
(((((9,(2,15)),(5,10)),((8,14),(1,3))),((6,11),(13,(12,(4,7))))),16);
(((((2,(5,10)),(9,15)),((1,14),(3,8))),((7,(6,11)),(13,(4,12)))),16);
(((((((9,15),2),(5,10)),((1,8),(3,14))),(12,(4,13))),(7,(6,11))),16);
(((((5,10),(2,(9,15))),(3,(14,(1,8)))),((11,(6,7)),(13,(4,12)))),16);
(((((5,10),(9,(2,15))),(3,(14,(1,8)))),((7,(6,11)),(13,(4,12)))),16);
(((((3,(1,8)),14),((5,10),(9,(2,15)))),((6,(7,11)),(13,(4,12)))),16);
(((((1,(3,8)),14),((5,10),(2,(9,15)))),((7,(6,11)),(4,(13,12)))),16);
((((((15,(2,9)),10),5),(14,(3,(1,8)))),((11,(6,7)),(13,(4,12)))),16);
(((((1,(3,(8,14))),(2,((9,15),(5,10)))),(13,(4,12))),(7,(6,11))),16);
(((((((9,15),2),(5,10)),(14,(1,8))),3),((7,(6,11)),(13,(4,12)))),16);
(((((14,(3,(1,8))),(2,(9,15))),(5,10)),((6,11),(13,(12,(4,7))))),16);
((((((1,14),8),3),((5,10),(2,(9,15)))),((4,12),(13,(6,(7,11))))),16);
((((((1,8),14),3),((2,5),(10,(9,15)))),((6,(7,11)),(12,(4,13)))),16);
((((3,(14,(1,8))),(5,(10,(9,(2,15))))),((7,(6,11)),(4,(12,13)))),16);
(((((6,(7,11)),(4,12)),13),(((1,8),(3,14)),((9,(2,15)),(5,10)))),16);
((((14,(3,(1,8))),((5,10),(2,(9,15)))),((6,11),(13,(12,(4,7))))),16);
(((((5,10),(2,(9,15))),((1,8),(3,14))),((6,11),((4,7),(13,12)))),16);
((((3,(14,(1,8))),((9,15),(2,(5,10)))),((6,(7,11)),(4,(12,13)))),16);
((((12,(4,13)),(7,(6,11))),((14,(3,(1,8))),((5,10),(15,(2,9))))),16);
((((((5,10),2),(9,15)),(3,(14,(1,8)))),(13,((6,(7,11)),(4,12)))),16);
((((((2,9),(5,10)),15),(8,(3,(1,14)))),((4,12),(13,(6,(7,11))))),16);
(((((2,9),(15,(5,10))),(3,(14,(1,8)))),((11,(6,7)),(12,(4,13)))),16);
(((((3,(1,8)),14),((5,10),(2,(9,15)))),((6,(11,7)),(13,(4,12)))),16);
(((((14,(1,8)),3),((5,10),(2,(9,15)))),((6,(7,11)),(13,(4,12)))),16);
(((((5,10),(2,(9,15))),(14,(8,(1,3)))),((11,(6,7)),(13,(4,12)))),16);
(((((10,(5,(2,(9,15)))),(3,(14,(1,8)))),(13,(12,(4,7)))),(6,11)),16);
((((((1,14),3),8),((5,10),(9,(2,15)))),((4,12),(13,(7,(6,11))))),16);
((((((14,(1,8)),3),(2,(9,15))),(5,10)),((6,(7,11)),(13,(4,12)))),16);
((((((8,3),14),1),((2,(9,15)),(5,10))),((4,12),(13,(6,(7,11))))),16);
(((((3,8),(1,14)),((2,(9,15)),(5,10))),((6,11),(13,(12,(4,7))))),16);
(((((14,(3,8)),1),((5,10),(15,(2,9)))),((6,(7,11)),(13,(4,12)))),16);
(((((((2,15),(5,10)),9),14),(1,(3,8))),((6,(7,11)),(13,(4,12)))),16);
((((((2,15),9),(5,10)),(14,(8,(1,3)))),((7,(6,11)),(13,(4,12)))),16);
(((((1,(3,(8,14))),(5,10)),(9,(2,15))),((6,11),(13,(12,(4,7))))),16);
(((((2,(9,15)),(5,10)),((3,14),(1,8))),((6,(7,11)),(13,(4,12)))),16);
((((((2,15),9),(5,10)),(1,(3,(8,14)))),((6,11),(13,(12,(4,7))))),16);
((((((2,9),15),(5,10)),((1,8),(3,14))),((11,(6,7)),(13,(4,12)))),16);
(((((14,(8,(1,3))),((5,10),(9,(2,15)))),(13,(4,12))),(11,(6,7))),16);
((((((9,15),2),(5,10)),(14,(3,(1,8)))),((6,11),(13,(12,(4,7))))),16);
((((((1,8),14),3),((2,(9,15)),(5,10))),((11,(6,7)),(13,(4,12)))),16);
((((((9,15),(5,10)),2),(3,(14,(1,8)))),((6,11),(13,(12,(4,7))))),16);
(((((((2,9),15),(5,10)),(3,(14,(1,8)))),(6,11)),(13,(12,(4,7)))),16);
((((((1,8),14),3),((5,10),(9,(2,15)))),((7,(6,11)),(13,(4,12)))),16);
(((((5,10),(2,(9,15))),(3,(14,(1,8)))),((6,(7,11)),(13,(4,12)))),16);
(((((((5,15),10),2),9),(14,(3,(1,8)))),((7,(6,11)),(13,(4,12)))),16);
(((((5,10),(15,(2,9))),(3,(1,(8,14)))),((6,11),(13,(12,(4,7))))),16);
((((((8,14),3),1),((5,10),(2,(9,15)))),((6,(7,11)),(13,(4,12)))),16);
((((((2,9),15),(5,10)),((1,8),(3,14))),((6,(7,11)),(13,(4,12)))),16);
((((((1,14),(3,8)),2),((9,15),(5,10))),((6,(7,11)),(13,(4,12)))),16);
(((((((1,3),(8,14)),((9,15),(2,(5,10)))),(6,(7,11))),(12,13)),4),16);
(((((1,3),(8,14)),((9,(2,15)),(5,10))),((6,(11,7)),(4,(12,13)))),16);
((((((9,15),2),(5,10)),(14,(3,(1,8)))),((6,(11,7)),(13,(4,12)))),16);
(((((14,(1,8)),3),(9,((2,15),(5,10)))),((6,(11,7)),(13,(4,12)))),16);
((((((2,9),(10,15)),5),((8,14),(1,3))),((6,(7,11)),(13,(4,12)))),16);
((((((2,15),(9,(5,10))),(1,(8,(3,14)))),(13,(7,(6,11)))),(4,12)),16);
((((((14,(1,8)),3),(15,(2,9))),(5,10)),((6,(7,11)),(13,(4,12)))),16);
((((3,(14,(1,8))),((5,10),(15,(2,9)))),((6,(7,11)),(4,(13,12)))),16);
(((((5,(2,(9,15))),10),(3,(14,(1,8)))),((6,(7,11)),(13,(4,12)))),16);
(((((15,(2,9)),(5,10)),(3,(14,(1,8)))),((6,(7,11)),(13,(4,12)))),16);
(((((3,14),(1,8)),((2,(9,15)),(5,10))),((13,(4,12)),(11,(6,7)))),16);
(((((3,(8,14)),1),((5,10),(15,(2,9)))),(11,((6,7),(13,(4,12))))),16);
(((((2,(5,10)),(9,15)),(3,(14,(1,8)))),((7,(6,11)),(13,(4,12)))),16);
(((((5,10),(9,(2,15))),((1,14),(3,8))),((11,(6,7)),(13,(4,12)))),16);
(((((14,(1,8)),3),((5,10),(15,(2,9)))),((11,(6,7)),(4,(13,12)))),16);
((((((9,15),2),(5,10)),(14,(8,(1,3)))),((11,(6,7)),(13,(4,12)))),16);
(((((2,9),((5,10),15)),((1,8),(3,14))),((6,11),(13,(12,(4,7))))),16);
(((((4,12),13),(11,(6,7))),((10,(5,(2,(9,15)))),(8,(3,(1,14))))),16);
(((((5,10),(2,(9,15))),((1,8),(3,14))),((6,(7,11)),(4,(12,13)))),16);
((((5,(9,(2,15))),(10,(3,(14,(1,8))))),((6,11),(13,(12,(4,7))))),16);
(((((5,10),(15,(2,9))),(1,(3,(8,14)))),((6,11),(13,(12,(4,7))))),16);
(((((((14,8),1),3),(10,(5,9))),(2,15)),(12,((7,(6,11)),(4,13)))),16);
(((((((1,8),3),14),(2,15)),(9,(5,10))),((6,(7,11)),(13,(4,12)))),16);
(((((((2,15),9),(5,10)),(1,(14,(3,8)))),(12,(4,13))),(11,(6,7))),16);
((((((3,14),(1,8)),(2,(5,10))),(9,15)),((11,(6,7)),(13,(4,12)))),16);
(((((1,14),(3,8)),((5,10),(2,(9,15)))),((7,(6,11)),(4,(12,13)))),16);
(((((1,(3,8)),14),(10,(5,(2,(9,15))))),((11,(6,7)),(13,(4,12)))),16);
((((13,(4,12)),(11,(6,7))),((8,(3,(1,14))),((9,15),(2,(5,10))))),16);
((((((9,15),2),(5,10)),((1,14),(3,8))),((6,11),(13,(12,(4,7))))),16);
((((14,(3,(1,8))),(9,((2,15),(5,10)))),((6,11),(13,(12,(4,7))))),16);
(((((2,(9,15)),(5,10)),(14,(3,(1,8)))),((6,11),(13,(12,(4,7))))),16);
((((((15,(2,9)),5),10),(3,(14,(1,8)))),((6,11),(13,(12,(4,7))))),16);
((((((5,10),(9,(2,15))),(3,(14,(1,8)))),(7,(6,11))),(13,(4,12))),16);
(((((14,(3,(1,8))),((5,10),(2,(9,15)))),(6,11)),((4,7),(12,13))),16);
((((((1,14),8),3),((5,15),(10,(2,9)))),((4,12),(13,(6,(7,11))))),16);
(((((5,10),(9,(2,15))),((1,14),(3,8))),(13,((7,(6,11)),(4,12)))),16);
((((((14,(1,8)),3),(2,(9,15))),(5,10)),((6,11),(13,(12,(4,7))))),16);
((((((9,15),2),(5,10)),(14,(3,(1,8)))),(13,((4,12),(7,(6,11))))),16);
(((((((1,14),8),3),(9,((5,10),(2,15)))),(6,(7,11))),(4,(12,13))),16);
(((((15,(2,9)),(5,10)),(3,(1,(8,14)))),((7,(6,11)),(12,(4,13)))),16);
(((((3,(1,8)),14),((9,15),(2,(5,10)))),((6,(11,7)),(13,(4,12)))),16);
(((((2,(9,15)),(5,10)),((1,8),(3,14))),((11,(6,7)),(13,(4,12)))),16);
((((((9,15),2),(5,10)),(14,(3,(1,8)))),((6,(7,11)),(13,(4,12)))),16);
((((((5,10),(3,(14,(1,8)))),(2,(9,15))),(6,(7,11))),(13,(4,12))),16);
(((((2,(9,15)),(5,10)),((1,8),(3,14))),((7,(6,11)),(13,(4,12)))),16);
((((((1,8),14),3),((5,10),(9,(2,15)))),((11,(6,7)),(13,(4,12)))),16);
((((((2,15),(5,10)),9),(8,(3,(1,14)))),((4,13),(12,(6,(11,7))))),16);
((((((10,(2,9)),15),5),(14,(3,(1,8)))),((6,(7,11)),(4,(12,13)))),16);
(((((9,(2,15)),(5,10)),(3,(14,(1,8)))),((6,(7,11)),(13,(4,12)))),16);
(((((5,10),(15,(2,9))),(3,(14,(1,8)))),((6,11),(13,(12,(4,7))))),16);
(((((9,(2,15)),(5,10)),(3,(14,(1,8)))),((6,(7,11)),(13,(4,12)))),16);
(((((14,(3,(1,8))),(10,(15,(2,9)))),5),((6,11),(13,(12,(4,7))))),16);
(((((((2,(9,15)),10),5),(3,8)),(1,14)),((11,(6,7)),(13,(4,12)))),16);
(((((2,(9,15)),((1,8),(3,14))),(5,10)),((7,(6,11)),(13,(4,12)))),16);
((((((1,8),14),3),((5,10),(2,(9,15)))),((11,(6,7)),(4,(13,12)))),16);
((((5,(2,(9,15))),(10,(3,(14,(1,8))))),((11,(6,7)),(13,(4,12)))),16);
(((((9,(2,15)),(5,10)),(8,(3,(1,14)))),((4,12),(13,(6,(7,11))))),16);
((((((2,15),9),(5,10)),(3,(14,(1,8)))),((6,(7,11)),(4,(12,13)))),16);
((((((1,8),(14,3)),((5,10),((2,9),15))),(7,(6,11))),(13,(4,12))),16);
(((((2,(9,15)),(5,10)),(3,(14,(1,8)))),((6,11),(12,(13,(4,7))))),16);
((((((9,15),2),(5,10)),(14,(3,(1,8)))),((7,(6,11)),(13,(4,12)))),16);
((((((9,15),2),5),(10,((8,14),(1,3)))),((11,(6,7)),(13,(4,12)))),16);
(((((15,(2,9)),(5,10)),(14,(3,(1,8)))),((6,(7,11)),(13,(4,12)))),16);
((((12,13),(4,(7,(6,11)))),((5,10),((2,(9,15)),(3,(14,(1,8)))))),16);
(((((((2,9),15),10),5),(1,(3,(8,14)))),((7,(6,11)),(13,(4,12)))),16);
((((14,(8,(1,3))),((5,10),(15,(2,9)))),((6,(7,11)),(13,(4,12)))),16);
(((((13,4),12),(6,(7,11))),(((1,8),(3,14)),((2,9),(15,(5,10))))),16);
((((((15,(9,2)),10),5),(3,(14,(1,8)))),((6,11),(13,(12,(4,7))))),16);
(((((2,(9,15)),(5,10)),((8,14),(1,3))),((6,11),(13,(12,(4,7))))),16);
(((((2,(9,15)),(5,10)),((1,8),(3,14))),((7,(6,11)),(13,(4,12)))),16);
(((((2,(5,10)),(9,15)),(14,(3,(1,8)))),(13,((6,11),(12,(4,7))))),16);
(((((5,(9,15)),((1,14),(3,8))),(2,10)),((6,(7,11)),(13,(4,12)))),16);
((((((8,14),1),3),((2,9),(15,(5,10)))),((11,(6,7)),(13,(4,12)))),16);
((((((2,15),9),(5,10)),(14,(3,(1,8)))),((11,(6,7)),(13,(4,12)))),16);
(((((14,(1,8)),3),((5,10),(2,(9,15)))),((6,(7,11)),(13,(4,12)))),16);
(((((9,15),(2,(5,10))),(3,(14,(1,8)))),((11,(6,7)),(13,(4,12)))),16);
(((((9,(2,15)),((5,10),(14,(1,8)))),3),(13,((4,12),(6,(7,11))))),16);
(((((2,(9,15)),(5,10)),(3,(14,(1,8)))),((7,(6,11)),(13,(4,12)))),16);
(((((((2,(9,15)),10),5),(3,(14,(1,8)))),(6,11)),(12,(13,(4,7)))),16);
(((((9,(2,15)),(5,10)),(3,(1,(8,14)))),((6,(7,11)),(13,(4,12)))),16);
((((((2,9),15),(5,10)),(3,(1,(8,14)))),((4,12),(13,(7,(6,11))))),16);
((((13,(12,4)),(7,(6,11))),((14,(3,(1,8))),((5,10),(15,(2,9))))),16);
(((((9,(5,10)),(2,15)),(8,(3,(1,14)))),((13,(4,12)),(7,(6,11)))),16);
((((3,(14,(1,8))),((2,(9,15)),(5,10))),((7,(6,11)),(13,(4,12)))),16);
(((((1,3),(8,14)),((2,(9,15)),(5,10))),((6,(7,11)),(13,(4,12)))),16);
(((((5,(15,(2,9))),10),(14,(3,(1,8)))),((6,(7,11)),(13,(4,12)))),16);
(((((5,10),(2,(9,15))),(3,(1,(8,14)))),((6,(7,11)),(13,(4,12)))),16);
((((((9,15),2),(5,10)),((3,14),(1,8))),((6,(7,11)),(12,(4,13)))),16);
((((((10,(2,5)),(9,15)),(1,8)),(3,14)),((7,(6,11)),(12,(13,4)))),16);
((((((1,14),8),3),((9,15),(2,(5,10)))),((6,(7,11)),(13,(4,12)))),16);
(((((14,(1,8)),3),((2,(9,15)),(5,10))),((6,11),(13,(12,(4,7))))),16);
((((10,(5,(2,(9,15)))),((1,8),(3,14))),((7,(11,6)),(12,(4,13)))),16);
(((((15,(2,9)),(5,10)),((1,8),(14,3))),((11,(6,7)),(13,(4,12)))),16);
(((((2,(5,10)),(9,15)),(1,(3,(8,14)))),((6,(7,11)),(13,(4,12)))),16);
((((4,12),((7,(6,11)),13)),(((1,8),(3,14)),((5,10),(9,(2,15))))),16);
(((((9,15),(2,(5,10))),(3,(14,(1,8)))),((11,(6,7)),(13,(4,12)))),16);
(((((5,10),(2,(9,15))),(3,(14,(1,8)))),((7,(6,11)),(13,(4,12)))),16);
(((((((1,8),14),3),(9,(2,15))),(5,10)),((13,(4,12)),(6,(7,11)))),16);
(((((4,12),13),(6,(7,11))),((14,(3,(1,8))),((9,15),(2,(5,10))))),16);
((((3,(14,(1,8))),((5,10),(2,(9,15)))),((6,11),(13,(12,(4,7))))),16);
(((((15,(2,9)),(5,10)),(3,(8,(1,14)))),((12,(4,7)),(13,(6,11)))),16);
(((((5,(2,10)),(9,15)),((1,14),(3,8))),((12,13),(4,(6,(7,11))))),16);
(((((((2,15),9),(14,(3,(1,8)))),(5,10)),(13,(7,(6,11)))),(4,12)),16);
(((((1,(8,14)),3),((5,10),(15,(2,9)))),((7,(6,11)),(13,(4,12)))),16);
((((13,((4,7),12)),(6,11)),((14,(3,(1,8))),((5,10),(2,(9,15))))),16);
((((((3,8),(1,14)),((5,10),(2,(9,15)))),(11,(6,7))),(13,(4,12))),16);
(((((2,(9,15)),(5,10)),(3,(14,(1,8)))),(13,((4,12),(11,(6,7))))),16);
((((((1,8),(14,3)),((5,10),(2,9))),15),((6,(7,11)),(13,(4,12)))),16);
((((((5,10),2),(9,15)),(3,(14,(1,8)))),((11,(6,7)),(13,(4,12)))),16);
((((((5,10),(2,15)),9),(1,(3,(8,14)))),((6,11),((4,7),(12,13)))),16);
((((((9,15),2),(5,10)),(3,(8,(1,14)))),((6,(7,11)),(4,(12,13)))),16);
((((((14,1),8),3),((2,(9,15)),(5,10))),((6,11),(12,(13,(4,7))))),16);
((((((10,(2,9)),5),15),(3,(14,(1,8)))),((6,(7,11)),(13,(4,12)))),16);
((((1,(8,(3,14))),(2,((9,15),(5,10)))),((6,(7,11)),(13,(4,12)))),16);
((((((1,(8,14)),3),(2,9)),(15,(5,10))),((6,11),(13,(12,(4,7))))),16);
(((((14,(1,8)),3),((5,10),(15,(2,9)))),((11,(6,7)),(13,(4,12)))),16);
(((((((8,14),1),3),(10,(5,(2,(15,9))))),(13,(4,12))),(6,(7,11))),16);
(((((5,10),(2,(9,15))),(14,(3,(1,8)))),((7,(6,11)),(13,(4,12)))),16);
(((((5,10),(15,(2,9))),((1,8),(3,14))),((6,(7,11)),(13,(4,12)))),16);
((((((9,15),2),(5,10)),((1,8),(3,14))),((6,(7,11)),(13,(4,12)))),16);
((((((8,14),1),3),(5,(10,(2,(9,15))))),((6,(11,7)),(13,(4,12)))),16);
((((((5,(9,15)),(2,10)),(8,(1,14))),3),(13,((12,(4,7)),(6,11)))),16);
(((((8,14),(1,3)),((5,10),(2,(9,15)))),(13,((4,12),(6,(7,11))))),16);
(((((3,14),(1,8)),((5,10),(2,(9,15)))),((6,11),(13,(12,(4,7))))),16);
(((((4,7),(12,13)),(6,11)),((5,10),((2,(9,15)),(3,(1,(8,14)))))),16);
(((((14,(1,8)),3),((5,10),(2,(9,15)))),((11,(6,7)),(13,(4,12)))),16);
((((((1,8),14),3),((5,10),(9,(2,15)))),((4,13),(12,(7,(6,11))))),16);
(((((2,15),(5,10)),(9,(14,(3,(8,1))))),((6,(7,11)),(13,(4,12)))),16);
(((13,((6,(7,11)),(4,12))),((8,(3,(1,14))),((2,9),(5,(10,15))))),16);
((((((1,8),14),3),((5,10),(2,(9,15)))),((11,(6,7)),(4,(12,13)))),16);
((((((2,9),(5,10)),15),(3,(8,(1,14)))),((6,(7,11)),(13,(4,12)))),16);
((((((5,10),2),(9,15)),(8,(3,(1,14)))),((7,(6,11)),(13,(4,12)))),16);
((((((14,8),1),3),((9,(2,15)),(5,10))),((6,(7,11)),(13,(4,12)))),16);
((((10,(5,(9,(2,15)))),(1,(3,(8,14)))),((7,(11,6)),(13,(4,12)))),16);
(((((10,(9,(2,15))),5),(3,(8,(1,14)))),((11,(6,7)),(13,(4,12)))),16);
(((((5,10),(15,(2,9))),(3,(14,(1,8)))),((6,11),(13,(12,(4,7))))),16);
(((((4,12),13),(6,(7,11))),((3,(1,(8,14))),((5,10),(9,(2,15))))),16);
(((((9,(2,15)),(5,10)),((8,14),(1,3))),((11,(6,7)),(13,(4,12)))),16);
(((((2,(5,10)),(9,15)),(3,(1,(8,14)))),((7,(6,11)),(13,(4,12)))),16);
((((1,(3,(8,14))),((5,10),(15,(2,9)))),((4,13),(12,(6,(7,11))))),16);
(((((((9,15),2),(5,10)),((1,8),(3,14))),(13,(4,12))),(7,(6,11))),16);
(((((9,(2,15)),(5,10)),(1,(14,(3,8)))),((11,(6,7)),(13,(4,12)))),16);
((((14,(3,(1,8))),((5,10),(2,(9,15)))),((6,(7,11)),(13,(4,12)))),16);
((((((1,8),14),3),((5,10),(2,(9,15)))),((6,(7,11)),(13,(4,12)))),16);
(((((8,(14,(1,3))),((5,10),(2,(9,15)))),(6,11)),((4,7),(12,13))),16);
(((((5,10),(15,(2,9))),((8,14),(1,3))),((7,(6,11)),(13,(4,12)))),16);
(((((1,(8,14)),3),((5,10),(9,(2,15)))),((12,13),(4,(6,(7,11))))),16);
(((((5,10),(9,(2,15))),((1,8),(3,14))),((11,(6,7)),(13,(4,12)))),16);
((((((1,3),(8,14)),(10,(5,(2,(9,15))))),(6,11)),(13,(12,(4,7)))),16);
(((((14,(1,8)),((5,10),(2,(9,15)))),3),((11,(7,6)),(13,(4,12)))),16);
((((((9,(2,15)),(5,10)),(3,(1,14))),8),((7,(6,11)),(13,(4,12)))),16);
(((((10,(5,(15,(2,9)))),((1,14),(3,8))),(7,(6,11))),(13,(4,12))),16);
(((((8,14),(1,3)),(2,((9,15),(5,10)))),((6,(7,11)),(13,(4,12)))),16);
(((((5,10),(9,(2,15))),(3,(14,(1,8)))),((11,(6,7)),(13,(4,12)))),16);
(((((((2,9),15),5),10),((3,8),(1,14))),((6,11),(13,(12,(4,7))))),16);
((((((9,(2,15)),5),10),((3,8),(1,14))),((11,(6,7)),(13,(4,12)))),16);
(((((5,10),(2,(9,15))),(14,(3,(1,8)))),((6,(7,11)),(13,(4,12)))),16);
((((((8,14),1),3),((5,10),(9,(2,15)))),((11,(6,7)),(13,(4,12)))),16);
((((5,(10,(2,(9,15)))),(3,((1,14),8))),((6,(7,11)),(13,(4,12)))),16);
((((((1,8),(3,14)),(5,10)),(9,(2,15))),((6,11),(13,(4,(7,12))))),16);
(((((9,(2,15)),(5,10)),((1,8),(3,14))),((6,(11,7)),(13,(4,12)))),16);
(((((8,(1,14)),3),((5,10),(2,(9,15)))),((12,(4,7)),(13,(6,11)))),16);
(((((((9,(5,10)),15),2),(3,14)),(1,8)),(4,((6,(7,11)),(12,13)))),16);
((((((2,5),(9,15)),10),(3,(8,(1,14)))),((6,11),(13,(12,(4,7))))),16);
((((((2,15),9),(5,10)),(3,(1,(8,14)))),((6,(7,11)),(13,(4,12)))),16);
((((((2,(9,15)),(5,10)),(3,(14,(1,8)))),(6,(7,11))),(13,(4,12))),16);
(((((5,((2,9),15)),10),((1,8),(3,14))),((6,(7,11)),(13,(4,12)))),16);
(((((5,10),(2,(9,15))),(1,(3,(8,14)))),((6,11),(13,(12,(4,7))))),16);
((((((9,15),2),(5,10)),(3,(14,(1,8)))),((6,(7,11)),(13,(4,12)))),16);
((((((8,14),1),3),((2,9),(15,(5,10)))),((11,(6,7)),(13,(4,12)))),16);
((((((1,8),(3,14)),(5,(2,(9,15)))),10),((6,11),(13,(12,(4,7))))),16);
(((8,((3,(1,14)),(2,((9,15),(5,10))))),((12,(4,13)),(11,(6,7)))),16);
((((((3,8),14),1),((5,10),(2,(9,15)))),((6,(7,11)),(4,(12,13)))),16);
(((((3,(14,(1,8))),(15,(2,9))),(5,10)),((13,(4,7)),(12,(6,11)))),16);
(((((((9,15),2),10),5),(8,(3,(1,14)))),((6,(7,11)),(13,(4,12)))),16);
(((((2,(9,15)),(5,10)),(14,(3,(1,8)))),((6,11),((4,7),(12,13)))),16);
(((((((1,14),3),8),(5,(2,(9,15)))),10),((11,(6,7)),(13,(4,12)))),16);
(((((3,(1,8)),14),((5,10),(15,(2,9)))),((6,(7,11)),(13,(4,12)))),16);
(((((2,(5,(9,15))),10),(3,(8,(1,14)))),((6,11),(13,(12,(4,7))))),16);
((((((3,8),(1,14)),((9,15),(2,(5,10)))),(13,(4,12))),(6,(7,11))),16);
(((((14,(3,(1,8))),(5,10)),(9,(2,15))),((6,(7,11)),(13,(4,12)))),16);
(((((9,15),(2,(5,10))),(14,(3,(1,8)))),((6,(7,11)),(13,(4,12)))),16);
((((10,(5,(9,(2,15)))),((6,(7,11)),(13,(4,12)))),(3,(14,(1,8)))),16);
((((10,(5,(2,(9,15)))),((1,8),(3,14))),((7,(6,11)),(13,(4,12)))),16);
((((((2,9),15),(5,10)),(3,(14,(1,8)))),((6,(7,11)),(13,(4,12)))),16);
(((((9,(2,15)),(5,10)),(3,(14,(1,8)))),((6,(7,11)),(13,(4,12)))),16);
((((((9,15),2),(5,10)),(3,(14,(8,1)))),(12,((7,(6,11)),(4,13)))),16);
((((((1,8),14),3),((2,9),(15,(5,10)))),((6,(7,11)),(13,(4,12)))),16);
((((((2,9),15),(5,10)),(3,(8,(1,14)))),((4,12),(13,(6,(7,11))))),16);
((((((15,2),9),(5,10)),(8,(3,(1,14)))),((6,11),(13,(12,(4,7))))),16);
(((((2,(9,15)),(5,10)),(3,(14,(1,8)))),((11,(6,7)),(13,(4,12)))),16);
(((((1,3),(14,8)),((5,10),(9,(2,15)))),((7,(6,11)),(13,(4,12)))),16);
((((((14,8),1),3),((5,10),(2,(9,15)))),((6,11),(13,(12,(4,7))))),16);
((((1,(8,(14,3))),((5,10),(2,(9,15)))),(13,((6,11),(12,(4,7))))),16);
(((((5,10),(14,(3,(1,8)))),(15,(2,9))),((11,(6,7)),(13,(4,12)))),16);
(((((((8,14),1),3),(5,10)),(2,(9,15))),((6,(7,11)),(4,(13,12)))),16);
(((((15,(2,9)),(10,5)),(3,(14,(1,8)))),(13,((6,(7,11)),(4,12)))),16);
(((((2,(9,15)),(5,10)),(1,(14,(3,8)))),(6,(11,(13,(12,(4,7)))))),16);
(((((9,(2,15)),(5,10)),((1,14),(3,8))),((11,(6,7)),(13,(4,12)))),16);
(((((3,(1,8)),14),((2,15),(9,(5,10)))),((6,(7,11)),(4,(12,13)))),16);
((((((1,8),(15,((5,10),(2,9)))),(3,14)),(11,(6,7))),(13,(4,12))),16);
(((((2,(9,15)),(5,10)),(3,(8,(1,14)))),((11,(6,7)),(13,(12,4)))),16);
(((((4,13),12),(11,(6,7))),(((1,14),(3,8)),(2,(5,(10,(9,15)))))),16);
((((((9,15),2),(5,10)),(3,(14,(1,8)))),((6,11),((4,7),(12,13)))),16);
(((((15,(9,2)),(5,10)),(3,(14,(1,8)))),((6,(7,11)),(13,(4,12)))),16);
(((((5,(10,(9,15))),2),((1,8),(3,14))),((7,(6,11)),(13,(4,12)))),16);
(((((10,(9,(2,15))),5),((1,8),(3,14))),((11,(6,7)),(13,(4,12)))),16);
((((3,(14,(1,8))),((9,15),(2,(5,10)))),((11,(6,7)),(13,(4,12)))),16);
(((((2,9),(15,(5,10))),((1,8),(3,14))),(13,((11,(7,6)),(4,12)))),16);
(((((9,(2,15)),(5,10)),(3,(14,(1,8)))),((6,11),(13,(12,(4,7))))),16);
(((((15,(2,9)),(5,10)),(3,(14,(1,8)))),((6,(7,11)),(13,(4,12)))),16);
(((((2,(9,15)),(5,10)),(3,(14,(1,8)))),((7,(6,11)),(13,(4,12)))),16);
((((3,(1,(8,14))),((2,9),(15,(5,10)))),((6,(7,11)),(12,(4,13)))),16);
((((((2,15),9),(5,10)),(14,(3,(1,8)))),((11,(6,7)),(12,(4,13)))),16);
(((((2,(9,15)),(5,10)),(3,(14,(1,8)))),((6,11),(13,(12,(4,7))))),16);
(((((((5,10),15),(2,9)),(14,(1,8))),3),((7,(11,6)),(13,(4,12)))),16);
((((11,(6,7)),(13,(4,12))),((3,(14,(1,8))),((5,10),(2,(9,15))))),16);
((((((3,8),(1,14)),((2,(9,15)),(5,10))),13),((4,12),(7,(6,11)))),16);
(((((2,9),(5,10)),(15,(1,(3,(8,14))))),((7,(6,11)),(13,(4,12)))),16);
(((((((9,15),2),(5,10)),(3,(14,(1,8)))),(6,(7,11))),(13,(4,12))),16);
(((((15,(5,10)),(2,9)),(14,(3,(1,8)))),((6,(7,11)),(4,(12,13)))),16);
(((((5,10),(9,(2,15))),(3,(14,(1,8)))),((11,(6,7)),(13,(4,12)))),16);
(((((10,(15,(2,9))),5),(3,(14,(1,8)))),((7,(6,11)),(13,(4,12)))),16);
(((((5,10),(2,(9,15))),(3,(14,(1,8)))),((7,(6,11)),(13,(4,12)))),16);
((((((15,(2,9)),(5,10)),(14,(3,(1,8)))),(6,(7,11))),(13,(4,12))),16);
(((((1,8),(3,14)),((2,(9,15)),(5,10))),((6,(7,11)),(13,(4,12)))),16);
(((((5,10),(2,(9,15))),(1,(8,(3,14)))),((11,(6,7)),(13,(4,12)))),16);
((((3,(8,(1,14))),((5,10),(15,(2,9)))),(13,((4,12),(7,(6,11))))),16);
(((((5,10),(15,(2,9))),((8,14),(1,3))),((7,(6,11)),(13,(4,12)))),16);
((((13,(4,12)),(7,(6,11))),((1,(3,(8,14))),((5,10),(9,(2,15))))),16);
(((((((2,15),9),5),10),(3,(14,(1,8)))),((11,(6,7)),(13,(4,12)))),16);
(((((2,(9,15)),(5,10)),(3,(14,(1,8)))),((6,(7,11)),(13,(4,12)))),16);
(((((5,(2,(9,15))),10),((8,14),(1,3))),((7,(6,11)),(13,(4,12)))),16);
(((((2,(5,10)),(9,15)),(3,(14,(1,8)))),((6,11),(13,(12,(4,7))))),16);
(((((2,(5,10)),(9,15)),(3,(14,(1,8)))),((6,11),(13,(12,(4,7))))),16);
((((14,(3,(1,8))),((5,10),(15,(2,9)))),((6,11),((4,7),(12,13)))),16);
((((((9,15),2),(5,10)),(3,(14,(1,8)))),((6,(7,11)),(13,(4,12)))),16);
((((3,(8,(1,14))),((5,10),(2,(9,15)))),((4,12),(13,(6,(7,11))))),16);
((((((5,10),(9,(2,15))),(14,(3,(1,8)))),(6,11)),(13,(12,(4,7)))),16);
((((((15,(2,9)),(5,10)),8),(3,(1,14))),(6,((7,11),(13,(4,12))))),16);
(((((((2,15),9),(5,10)),(3,(1,8))),14),((13,(4,12)),(7,(6,11)))),16);
(((((1,8),(3,14)),((9,15),(10,(2,5)))),((6,11),(13,(12,(4,7))))),16);
(((((14,(1,8)),3),((5,10),(2,(9,15)))),((6,11),(13,(12,(4,7))))),16);
(((((((1,14),8),3),(5,10)),(2,(9,15))),((11,(6,7)),(13,(4,12)))),16);
(((((2,(9,15)),(5,10)),((8,14),(1,3))),((11,(6,7)),(4,(12,13)))),16);
(((((10,(2,(9,15))),5),((1,8),(3,14))),(4,((6,(7,11)),(12,13)))),16);
(((((5,(2,(9,15))),10),(1,(8,(3,14)))),((11,(6,7)),(13,(4,12)))),16);
((((((2,9),15),(5,10)),((1,8),(3,14))),((6,11),(13,(12,(4,7))))),16);
(((((5,10),(15,(2,9))),((1,8),(3,14))),((6,(7,11)),(13,(4,12)))),16);
(((1,((3,(8,14)),(9,((2,15),(5,10))))),((6,(7,11)),(13,(4,12)))),16);
(((((3,(1,14)),((9,(2,15)),(5,10))),8),((7,(6,11)),(13,(4,12)))),16);
(((((8,14),(1,3)),((5,10),(2,(9,15)))),((6,(11,7)),(13,(4,12)))),16);
((((((8,14),3),1),((5,10),(2,(9,15)))),((6,(7,11)),(13,(4,12)))),16);
((((((1,14),8),3),((5,(9,15)),(2,10))),((6,(7,11)),(13,(4,12)))),16);
(((((5,10),(2,(9,15))),((1,8),(3,14))),((7,(6,11)),(4,(12,13)))),16);
((((((1,14),8),3),((5,10),(2,(9,15)))),((6,(7,11)),(13,(4,12)))),16);
((((((5,10),(2,15)),9),(3,(8,(1,14)))),((6,11),(13,(12,(4,7))))),16);
((((13,(4,12)),(11,(6,7))),((15,(2,9)),((5,10),(3,(14,(1,8)))))),16);
(((((2,(9,15)),(5,10)),(3,(1,(8,14)))),((11,(6,7)),(13,(4,12)))),16);
(((((1,8),(3,14)),(15,((5,10),(2,9)))),((6,(7,11)),(13,(4,12)))),16);
(((((3,(1,8)),14),((5,10),(15,(2,9)))),((4,12),(13,(6,(7,11))))),16);
((((2,(9,15)),((5,10),(1,(3,(8,14))))),((11,(6,7)),(4,(13,12)))),16);
(((((3,(1,8)),14),((9,(2,15)),(5,10))),((7,(6,11)),(13,(4,12)))),16);
(((((5,(9,(2,15))),10),(14,(3,(1,8)))),((11,(6,7)),(12,(4,13)))),16);
((((((2,15),(5,10)),((1,8),(3,14))),9),((7,(6,11)),(12,(4,13)))),16);
(((((5,10),(15,(2,9))),((8,14),(1,3))),((6,11),(13,(12,(4,7))))),16);
((((((10,(2,(9,15))),5),(3,(14,(1,8)))),(13,(4,12))),(6,(7,11))),16);
(((((14,(1,8)),3),((2,(9,15)),(5,10))),((6,11),(13,(12,(4,7))))),16);
(((((2,(9,15)),(5,10)),(14,(3,(1,8)))),((11,(6,7)),(13,(4,12)))),16);
((((4,(13,12)),(7,(6,11))),(((5,10),(2,(9,15))),((3,14),(1,8)))),16);
(((((1,8),(3,14)),(10,(5,(2,(9,15))))),((4,12),(13,(7,(6,11))))),16);
(((((15,(2,9)),(5,10)),(3,(14,(1,8)))),((6,11),(13,(12,(4,7))))),16);
(((((2,(9,15)),(5,10)),(14,(3,(1,8)))),((6,(7,11)),(13,(4,12)))),16);
((((3,(14,(1,8))),(5,(10,((9,15),2)))),((6,(7,11)),(13,(4,12)))),16);
((((((4,7),12),13),(6,11)),(((5,10),(9,(2,15))),(3,(1,(8,14))))),16);
(((((2,9),(10,15)),(5,(3,(14,(1,8))))),((6,(7,11)),(13,(12,4)))),16);
(((((5,10),(15,(2,9))),((1,8),(3,14))),((11,(6,7)),(13,(4,12)))),16);
((((((2,(9,15)),(5,10)),((3,8),(1,14))),(4,(13,12))),(7,(6,11))),16);
(((((((2,9),15),(5,10)),(14,(3,(1,8)))),(7,(6,11))),(13,(4,12))),16);
(((((10,(2,(9,15))),5),(3,(14,(1,8)))),((7,(6,11)),(13,(4,12)))),16);
((((6,(7,11)),(13,(4,12))),((2,(9,15)),((5,10),((1,8),(3,14))))),16);
(((((15,(2,9)),(5,10)),(3,(14,(1,8)))),((11,(6,7)),(4,(12,13)))),16);
((((((9,15),2),(5,10)),(3,(14,(1,8)))),(12,((7,(6,11)),(4,13)))),16);
(((((5,10),(15,(2,9))),(3,(14,(1,8)))),((6,(7,11)),(13,(4,12)))),16);
(((((2,(9,15)),(5,10)),((1,14),(3,8))),((11,(6,7)),(13,(4,12)))),16);
((((((14,3),1),8),((5,10),(2,(9,15)))),((6,(7,11)),(4,(12,13)))),16);
((((13,(12,(4,7))),(6,11)),(((1,8),(3,14)),((5,10),(2,(9,15))))),16);
(((((14,(1,8)),3),((2,(9,15)),(5,10))),((6,11),(13,(12,(4,7))))),16);
((((((8,14),1),3),(2,((9,15),(5,10)))),((4,12),(13,(11,(6,7))))),16);
((((((8,14),(1,3)),9),((5,10),(2,15))),((11,(6,7)),(13,(4,12)))),16);
(((((1,3),((5,10),(2,(9,15)))),(8,14)),(13,((4,12),(11,(6,7))))),16);
(((((3,(14,(1,8))),(5,10)),(2,(9,15))),((7,(6,11)),(13,(4,12)))),16);
((((3,(8,(1,14))),((9,15),(2,(5,10)))),((6,(7,11)),(13,(4,12)))),16);
((((((3,8),14),1),(2,((9,15),(5,10)))),((6,(7,11)),(13,(4,12)))),16);
(((((5,10),(9,(2,15))),(3,(14,(1,8)))),((6,(7,11)),(13,(4,12)))),16);
((((((14,(3,8)),1),(9,15)),(2,(5,10))),(4,((11,(6,7)),(12,13)))),16);
(((((15,(2,9)),(5,10)),(14,(3,(1,8)))),((6,(7,11)),(4,(12,13)))),16);
(((((3,(8,(1,14))),(5,10)),(2,(9,15))),((6,11),(13,(12,(4,7))))),16);
(((((9,(2,15)),(5,10)),(3,(8,(1,14)))),((13,(4,12)),(6,(7,11)))),16);
((((((1,8),14),3),((5,10),(2,(9,15)))),(13,((6,(7,11)),(4,12)))),16);
((((((3,(1,14)),8),(2,(9,15))),(5,10)),((7,(6,11)),(13,(4,12)))),16);
(((((5,10),(2,(9,15))),((1,8),(3,14))),((11,(6,7)),(13,(4,12)))),16);
(((((3,(1,8)),14),(2,((5,10),(9,15)))),((11,(6,7)),(13,(4,12)))),16);
((((((5,10),(15,(2,9))),(8,(3,(1,14)))),(6,11)),(12,(13,(4,7)))),16);
((((((1,14),3),8),((5,10),(2,(9,15)))),((12,(4,7)),((6,11),13))),16);
(((((((1,8),14),3),((9,15),(2,(5,10)))),(6,(7,11))),(13,(4,12))),16);
(((((5,(2,9)),(3,(14,(1,8)))),(10,15)),((7,(6,11)),(13,(4,12)))),16);
((((((8,3),1),14),((9,15),(2,(5,10)))),((6,(7,11)),(13,(4,12)))),16);
((((((2,15),(5,10)),9),(8,(3,(1,14)))),((7,(6,11)),(13,(4,12)))),16);
((((((14,3),1),8),((2,10),(5,(9,15)))),((4,12),((7,(6,11)),13))),16);
(((((10,(2,5)),(9,15)),(3,(14,(1,8)))),((11,(6,7)),(13,(4,12)))),16);
((((((2,(9,15)),5),10),((1,8),(14,3))),((4,13),(12,(6,(7,11))))),16);
(((((2,(9,15)),(5,10)),(14,(3,(1,8)))),((7,(6,11)),(13,(4,12)))),16);
(((((14,(1,3)),8),((5,10),(2,(9,15)))),((7,(6,11)),(13,(4,12)))),16);
((((((3,14),((5,10),(2,(9,15)))),(1,8)),(6,(7,11))),(12,(4,13))),16);
(((((((9,15),2),10),5),(3,(1,(14,8)))),((6,11),(13,(12,(4,7))))),16);
((((10,(5,(2,(9,15)))),(1,(14,(3,8)))),((11,(6,7)),(13,(4,12)))),16);
(((((5,10),(2,(9,15))),(3,(14,(1,8)))),((11,(6,7)),(13,(4,12)))),16);
((((((2,15),9),(5,10)),((1,8),(14,3))),((13,(12,(4,7))),(6,11))),16);
((((((2,15),9),(5,10)),(3,(14,(1,8)))),((6,(7,11)),(13,(4,12)))),16);
(((((5,(15,(2,9))),10),(1,(8,(3,14)))),((6,(7,11)),(13,(4,12)))),16);
(((((15,(2,9)),(5,10)),((1,8),(14,3))),((6,(7,11)),(13,(4,12)))),16);
((((((9,15),2),(5,10)),(14,(3,(1,8)))),((6,11),(7,(13,(4,12))))),16);
((((((1,14),3),8),((5,10),(9,(2,15)))),((6,11),(13,(12,(4,7))))),16);
(((((5,10),(2,(9,15))),(3,(14,(1,8)))),((6,(7,11)),(13,(4,12)))),16);
((((((9,15),2),(5,10)),((1,8),(3,14))),(13,((11,(6,7)),(4,12)))),16);
(((((5,(2,(9,15))),10),((8,14),(1,3))),((6,(7,11)),(13,(4,12)))),16);
(((((2,(9,15)),(5,10)),(3,(14,(1,8)))),((6,(7,11)),(13,(4,12)))),16);
((((((9,15),(5,10)),2),(3,(14,(1,8)))),((6,11),(13,(12,(4,7))))),16);
(((((1,(8,(3,14))),((5,10),(2,(9,15)))),(11,(6,7))),(12,(4,13))),16);
(((((1,3),((15,(2,9)),(5,10))),(8,14)),(13,((4,12),(11,(6,7))))),16);
((((((2,9),15),(5,10)),((1,8),(3,14))),((7,(6,11)),(13,(4,12)))),16);
((((((2,15),9),(5,10)),((1,3),(8,14))),((6,(7,11)),(13,(4,12)))),16);
((((((3,8),(1,14)),((9,(2,15)),(5,10))),(12,(13,4))),(7,(6,11))),16);
(((((1,8),(3,14)),(10,(5,(2,(9,15))))),((6,11),(13,(12,(4,7))))),16);
(((((4,13),12),(11,(6,7))),((5,10),((2,(9,15)),(14,(3,(1,8)))))),16);
(((((8,14),(1,3)),(9,((2,15),(5,10)))),((11,(6,7)),(4,(12,13)))),16);
(((((2,(9,15)),(5,10)),(3,(14,(1,8)))),((6,11),(13,(12,(4,7))))),16);
(((((2,9),(15,(5,10))),(8,(3,(1,14)))),((7,(6,11)),(13,(4,12)))),16);
((((((2,10),5),(9,15)),(1,(8,(3,14)))),((6,(7,11)),(13,(4,12)))),16);
((((7,(13,(4,12))),(6,11)),((14,(3,(1,8))),(2,((9,15),(5,10))))),16);
(((((5,10),(2,(9,15))),(3,(14,(1,8)))),((6,(7,11)),(12,(4,13)))),16);
((((((2,15),(5,10)),9),(3,(14,(1,8)))),((6,(7,11)),(13,(4,12)))),16);
((((10,(5,(9,15))),(2,(3,(8,(1,14))))),((7,(6,11)),(13,(4,12)))),16);
((((((2,10),(9,15)),5),(8,(3,(14,1)))),(12,((11,(6,7)),(4,13)))),16);
((((((9,15),2),(5,10)),(3,(14,(1,8)))),((6,(7,11)),(4,(12,13)))),16);
((((14,(3,(1,8))),((2,(9,15)),(5,10))),(12,((11,(6,7)),(4,13)))),16);
((((5,(10,(15,(2,9)))),(14,(8,(1,3)))),((7,(6,11)),(13,(4,12)))),16);
((((((2,(9,15)),(5,10)),(3,(14,(1,8)))),(6,11)),(12,(13,(4,7)))),16);
(((((14,(1,8)),3),((5,10),(2,(9,15)))),((4,12),(13,(11,(6,7))))),16);
(((((((5,10),(2,9)),15),((3,8),(1,14))),(6,(7,11))),(13,(4,12))),16);
((((((15,(2,9)),10),(3,(14,(1,8)))),5),((6,(7,11)),(13,(4,12)))),16);
(((((2,(9,15)),(5,10)),(3,(14,(1,8)))),((6,(7,11)),(12,(13,4)))),16);
((((((1,14),3),8),((5,10),(9,(2,15)))),((7,(6,11)),(13,(4,12)))),16);
((((((15,(2,9)),5),10),(3,(14,(1,8)))),((7,(6,11)),(13,(4,12)))),16);
((((((14,(1,8)),3),(15,(5,10))),(2,9)),((6,(7,11)),(13,(4,12)))),16);
(((((3,14),((5,10),(9,(2,15)))),(1,8)),((11,(6,7)),(13,(4,12)))),16);
((((((1,14),(3,8)),(2,(9,15))),(5,10)),((6,(7,11)),(12,(4,13)))),16);
(((((2,15),(9,(5,10))),(14,(3,(1,8)))),((6,(7,11)),(12,(4,13)))),16);
((((((9,15),2),(5,10)),(3,(14,(1,8)))),((6,11),(13,(12,(4,7))))),16);
(((((5,(9,(2,15))),10),(3,(8,(1,14)))),((6,11),(13,(12,(4,7))))),16);
((((((9,15),2),(5,10)),(1,(8,(3,14)))),((6,(7,11)),(13,(4,12)))),16);
((((((2,9),15),(5,10)),(14,(1,(3,8)))),((4,12),(13,(6,(7,11))))),16);
((((((8,14),(1,3)),((5,10),(9,(2,15)))),(4,7)),((6,11),(12,13))),16);
(((((3,(14,(1,8))),2),((9,15),(5,10))),((6,(7,11)),(13,(4,12)))),16);
((((7,(6,11)),(13,(4,12))),(((2,(9,15)),(5,10)),((1,14),(3,8)))),16);
(((((5,(15,(2,(9,10)))),(3,(14,(1,8)))),(13,(12,(4,7)))),(6,11)),16);
((((((2,15),9),(5,10)),(3,(1,(8,14)))),((7,(6,11)),(12,(4,13)))),16);
((((((9,15),2),(5,10)),(1,(3,(8,14)))),((11,(6,7)),(13,(4,12)))),16);
((((((((15,2),9),10),5),(3,(1,14))),8),((6,(7,11)),(4,(12,13)))),16);
(((((14,(1,8)),3),(9,((2,15),(5,10)))),((6,(7,11)),(12,(13,4)))),16);
((((((9,15),2),(5,10)),(3,(14,(1,8)))),((6,(7,11)),(4,(12,13)))),16);
((((((2,15),(5,10)),9),((1,8),(3,14))),((6,11),(13,(12,(4,7))))),16);
(((((5,(9,(2,15))),10),(3,(8,(1,14)))),((6,(7,11)),(13,(4,12)))),16);
(((((14,(1,8)),3),((5,10),(2,(15,9)))),((6,(7,11)),(13,(4,12)))),16);
((((5,((1,8),(3,14))),(10,(2,(9,15)))),((11,(6,7)),(12,(13,4)))),16);
(((((9,(2,15)),(5,10)),((3,14),(1,8))),((11,(6,7)),(12,(4,13)))),16);
((((((2,9),(10,15)),5),(8,(3,(1,14)))),((6,(11,7)),(13,(4,12)))),16);
((((((1,8),14),3),((2,9),(15,(5,10)))),((7,(6,11)),(13,(4,12)))),16);
((((((2,(9,15)),10),5),(14,(3,(1,8)))),((6,11),(13,(12,(4,7))))),16);
((((2,(9,15)),((5,10),(3,(14,(1,8))))),((7,(6,11)),(13,(4,12)))),16);
((((((2,9),(5,10)),15),(3,(14,(1,8)))),((6,(7,11)),(13,(4,12)))),16);
((((((15,9),2),(5,10)),(14,(3,(1,8)))),((6,(11,7)),(13,(4,12)))),16);
(((((((9,15),2),5),((1,8),(3,14))),10),((6,11),(13,(12,(4,7))))),16);
(((((2,(9,15)),(5,10)),(8,(14,(1,3)))),((4,12),(13,(6,(7,11))))),16);
(((((5,10),(15,(2,9))),((1,8),(3,14))),((7,(6,11)),(13,(4,12)))),16);
(((((8,14),(1,3)),((2,9),(15,(5,10)))),((7,(6,11)),(13,(4,12)))),16);
((((((2,10),(9,15)),5),(14,(8,(3,1)))),((6,(7,11)),(13,(4,12)))),16);
((((((2,(9,15)),(5,10)),(3,(8,14))),1),((6,(7,11)),(13,(4,12)))),16);
((((1,(14,(3,8))),((5,10),(15,(2,9)))),((7,(6,11)),(13,(4,12)))),16);
(((((15,(2,9)),(5,10)),((1,8),(3,14))),((6,11),(13,(12,(4,7))))),16);
(((((5,10),(9,(2,15))),(3,(14,(1,8)))),((11,(6,7)),(13,(4,12)))),16);
((((3,(14,(1,8))),((5,10),(9,(2,15)))),((6,(7,11)),(12,(4,13)))),16);
(((((5,10),(15,(2,9))),((1,8),(3,14))),((6,11),(13,(12,(4,7))))),16);
((((((3,14),1),8),((5,10),(15,(2,9)))),((6,11),(13,(12,(4,7))))),16);
(((((2,(9,15)),(5,10)),(3,(14,(1,8)))),((6,11),(13,(12,(4,7))))),16);
(((((14,(3,8)),((5,10),(2,(9,15)))),1),((6,11),(13,(12,(4,7))))),16);
(((((3,8),((9,(2,15)),(5,10))),(1,14)),((6,(7,11)),(13,(4,12)))),16);
((((((3,8),1),14),((5,10),(2,(9,15)))),((6,11),(13,(12,(4,7))))),16);
((((1,(3,(8,14))),((5,10),(15,(2,9)))),((6,(7,11)),(4,(12,13)))),16);
((((((5,10),(2,15)),(14,(3,(1,8)))),9),((6,(7,11)),(13,(4,12)))),16);
(((((2,(9,15)),(5,10)),(3,(14,(1,8)))),((4,12),(13,(7,(6,11))))),16);
((((((5,9),(2,15)),10),((3,8),(14,1))),((11,(6,7)),(4,(13,12)))),16);
((((((14,(1,3)),8),(5,(10,(2,(9,15))))),(11,(6,7))),(13,(4,12))),16);
(((((5,10),(2,(9,15))),(3,(14,(1,8)))),(13,((6,(7,11)),(4,12)))),16);
(((((5,10),(9,(2,15))),(3,(14,(1,8)))),((6,(7,11)),(13,(4,12)))),16);
(((((((2,9),15),(5,10)),(3,(14,(1,8)))),13),((11,(6,7)),(4,12))),16);
((((((9,15),2),(5,10)),(3,(14,(1,8)))),((7,(6,11)),(13,(4,12)))),16);
(((((1,14),(3,8)),((5,10),(2,(9,15)))),((6,(11,7)),(12,(4,13)))),16);
(((((5,10),(9,(2,15))),(3,(1,(8,14)))),((7,(6,11)),(13,(4,12)))),16);
(((((10,(9,(2,15))),5),((8,14),(1,3))),((7,(6,11)),(4,(12,13)))),16);
(((((9,(2,15)),(5,10)),(1,((8,14),3))),((4,7),(13,((6,11),12)))),16);
(((((10,(2,(9,15))),5),(3,(14,(1,8)))),((6,(7,11)),(13,(4,12)))),16);
(((((5,10),(2,(9,15))),(8,(3,(1,14)))),((4,12),(13,(6,(7,11))))),16);
(((((3,8),(1,14)),((5,10),(2,(9,15)))),((6,(7,11)),(13,(4,12)))),16);
(((((3,(1,8)),14),((5,10),(2,(9,15)))),((6,(11,7)),(13,(4,12)))),16);
(((((8,14),(1,3)),((2,(9,15)),(5,10))),(13,((11,(6,7)),(4,12)))),16);
(((((10,(5,(2,15))),9),(3,(14,(1,8)))),((7,(6,11)),(13,(4,12)))),16);
((((8,(14,(1,3))),((5,10),(2,(9,15)))),((11,(6,7)),(4,(13,12)))),16);
(((((2,(5,10)),(9,15)),((8,14),(3,1))),((6,(7,11)),(13,(4,12)))),16);
(((((9,(2,15)),(5,10)),(3,(14,(1,8)))),((6,(7,11)),(12,(13,4)))),16);
((((((2,9),(5,10)),15),(8,(1,(3,14)))),((6,(7,11)),(13,(4,12)))),16);
(((((9,(2,15)),(5,10)),(3,(8,(1,14)))),((11,(6,7)),(13,(4,12)))),16);
(((((5,10),(15,(2,9))),(3,(1,(8,14)))),((11,(6,7)),(4,(12,13)))),16);
((((((2,15),9),(5,10)),(3,(14,(1,8)))),((11,(7,6)),(13,(4,12)))),16);
((((((8,14),3),1),(2,((9,15),(5,10)))),((6,11),(13,(12,(4,7))))),16);
((((((8,14),3),1),((9,15),(2,(5,10)))),((6,(7,11)),(13,(4,12)))),16);
((((((10,(5,15)),(2,9)),8),(3,(1,14))),((7,(6,11)),(13,(4,12)))),16);
(((((10,(9,15)),(2,5)),(3,(1,(8,14)))),((13,(4,12)),(11,(6,7)))),16);
(((((8,(1,14)),3),((5,10),(2,(9,15)))),((6,(7,11)),(12,(4,13)))),16);
(((((8,(1,14)),3),((2,(9,15)),(5,10))),((6,(7,11)),(13,(4,12)))),16);
(((((2,(9,15)),(5,10)),(14,(3,(1,8)))),((7,(6,11)),(4,(12,13)))),16);
(((((9,(2,15)),(5,10)),((1,14),(3,8))),((6,11),(12,(13,(4,7))))),16);
((((((8,1),3),14),((5,10),(15,(2,9)))),((4,13),(12,(6,(7,11))))),16);
(((((9,(15,2)),(5,10)),((1,8),(3,14))),((6,11),(13,(12,(4,7))))),16);
(((((15,(9,2)),(5,10)),((3,8),(1,14))),((11,(6,7)),(13,(4,12)))),16);
((((((3,14),8),1),(15,((5,10),(2,9)))),((7,(6,11)),(13,(4,12)))),16);
((((((15,(2,9)),(5,10)),((1,8),(3,14))),(11,(6,7))),(13,(4,12))),16);
(((((2,(9,15)),(5,10)),(3,(1,(8,14)))),((6,(7,11)),(12,(4,13)))),16);
(((((2,(9,15)),(5,10)),(3,(14,(1,8)))),((6,(7,11)),(12,(4,13)))),16);
((((((8,14),1),3),((5,10),(2,(9,15)))),((13,(4,12)),(11,(6,7)))),16);
(((((((9,15),2),(5,10)),(3,8)),(1,14)),((6,(7,11)),(13,(4,12)))),16);
(((((5,10),(15,(2,9))),(3,(14,(1,8)))),((11,(6,7)),(13,(4,12)))),16);
(((((((8,(1,3)),14),(2,(9,15))),(5,10)),(6,11)),(13,(12,(4,7)))),16);
((((((9,15),(2,(5,10))),(3,(1,(8,14)))),(4,(12,13))),(7,(6,11))),16);
((((((9,15),2),(5,10)),(1,(3,(8,14)))),((4,12),(13,(6,(7,11))))),16);
(((((5,10),(15,(2,9))),(1,(3,(8,14)))),((4,12),(13,(11,(6,7))))),16);
((((((3,14),(1,8)),(2,((9,15),(5,10)))),(6,(7,11))),(13,(4,12))),16);
((((((5,10),(2,(9,15))),(1,(3,(8,14)))),(6,(7,11))),(13,(4,12))),16);
(((((2,(9,15)),(5,10)),(3,(14,(1,8)))),((7,(6,11)),(13,(4,12)))),16);
((((((1,8),(3,14)),(2,(9,15))),(5,10)),((11,(6,7)),(13,(4,12)))),16);
((((((2,(9,15)),10),5),((1,8),(3,14))),(13,((6,11),(12,(4,7))))),16);
(((((5,10),(2,(9,15))),((1,8),(3,14))),((12,(4,13)),(11,(6,7)))),16);
((((4,13),(12,(11,(6,7)))),((3,(1,(8,14))),((5,10),(15,(2,9))))),16);
(((((10,(2,15)),(5,9)),(3,(14,(1,8)))),((7,(11,6)),(4,(12,13)))),16);
((((3,(14,(1,8))),((5,10),(2,(9,15)))),(13,((6,(7,11)),(4,12)))),16);
(((((2,(9,15)),(5,10)),(3,(1,(8,14)))),((7,(6,11)),(12,(13,4)))),16);
(((((9,(2,15)),(5,10)),(14,(1,(3,8)))),((6,(7,11)),(4,(12,13)))),16);
((((8,(14,(1,3))),((9,(2,15)),(5,10))),(12,((6,(7,11)),(4,13)))),16);
(((((1,14),(8,3)),((5,10),(2,(9,15)))),((4,12),(13,(11,(6,7))))),16);
((((((((9,15),2),(5,10)),(1,8)),(3,14)),(13,(4,12))),(7,(6,11))),16);
(((((5,10),(2,(9,15))),((1,14),(3,8))),((6,(7,11)),(13,(4,12)))),16);
(((((9,(2,15)),(5,10)),(14,(1,(3,8)))),((6,11),(13,(12,(4,7))))),16);
((((8,(3,(1,14))),((5,10),(2,(9,15)))),((7,(6,11)),(13,(4,12)))),16);
((((12,(4,13)),(6,(7,11))),((3,(14,(1,8))),((9,15),(2,(5,10))))),16);
((((8,(3,(1,14))),((2,15),(9,(5,10)))),((6,(7,11)),(13,(4,12)))),16);
((((13,((7,(6,11)),(4,12))),(15,((5,10),(2,9)))),(8,(3,(1,14)))),16);
((((((5,10),(9,(2,15))),(3,(1,(8,14)))),(4,(13,12))),(7,(6,11))),16);
(((((1,(8,3)),14),((5,10),(15,(2,9)))),((11,(6,7)),(13,(4,12)))),16);
(((((8,14),(1,3)),(10,(5,(2,(9,15))))),((7,(6,11)),(12,(4,13)))),16);
((((((1,(3,8)),14),10),(5,(9,(2,15)))),((6,(7,11)),(13,(4,12)))),16);
((((((1,8),14),3),((5,10),(2,(9,15)))),((6,(7,11)),(13,(4,12)))),16);
(((((9,(2,15)),(5,10)),((1,14),(3,8))),((6,11),(13,(12,(4,7))))),16);
(((((2,(9,15)),(5,10)),((1,8),(3,14))),((7,(6,11)),(13,(4,12)))),16);
(((((9,15),(2,(5,10))),(3,(1,(8,14)))),((6,(7,11)),(13,(4,12)))),16);
(((((3,(14,(1,8))),(2,(9,15))),(5,10)),((11,(6,7)),(13,(4,12)))),16);
((((((9,15),2),(5,10)),(3,(14,(1,8)))),((6,(7,11)),(12,(4,13)))),16);
((((((9,15),2),(5,10)),(3,(14,(1,8)))),((11,(6,7)),(13,(4,12)))),16);
((((((1,14),8),3),((5,10),(9,(2,15)))),((13,(4,12)),(6,(7,11)))),16);
(((((8,(1,14)),3),((5,10),(15,(2,9)))),((6,(11,7)),(4,(12,13)))),16);
(((((2,9),(15,(5,10))),(14,(3,(1,8)))),((6,(7,11)),(12,(4,13)))),16);
((((3,(14,(1,8))),((2,15),(9,(5,10)))),((7,(6,11)),(13,(4,12)))),16);
((((11,(6,7)),(12,(4,13))),((10,(3,(14,(1,8)))),(5,(15,(2,9))))),16);
(((((5,10),(2,(9,15))),((1,8),(3,14))),((7,(6,11)),(13,(4,12)))),16);
((((((9,15),2),(5,10)),(3,(14,(1,8)))),((6,(7,11)),(13,(4,12)))),16);
(((((9,(2,15)),(5,10)),(3,(1,(8,14)))),((6,(7,11)),(13,(4,12)))),16);
((((((9,10),(2,15)),5),(3,(1,(14,8)))),((6,11),(13,(12,(4,7))))),16);
((((9,((5,10),(2,15))),((1,14),(8,3))),((6,11),(13,(12,(4,7))))),16);
((((2,((9,15),(5,10))),(3,(14,(1,8)))),((6,(7,11)),(12,(4,13)))),16);
(((((3,(1,14)),8),((5,10),(2,(9,15)))),((11,(6,7)),(13,(4,12)))),16);
(((((1,(8,14)),3),(10,((9,15),(2,5)))),((6,(7,11)),(13,(4,12)))),16);
((((((2,9),15),(5,10)),(3,(14,(1,8)))),((11,(6,7)),(13,(4,12)))),16);
((((14,(3,(1,8))),((5,10),(9,(2,15)))),(12,((6,11),(13,(4,7))))),16);
((((((9,15),2),(5,10)),((1,8),(3,14))),((6,(7,11)),(13,(4,12)))),16);
(((((((9,15),2),(5,10)),3),(14,(1,8))),(13,((4,12),(7,(6,11))))),16);
((((8,(3,(1,14))),((5,10),(15,(2,9)))),((11,(6,7)),(4,(12,13)))),16);
(((((((9,15),2),5),10),((8,14),(1,3))),((6,(7,11)),(13,(12,4)))),16);
((((((9,15),(5,10)),2),(14,(3,(1,8)))),((11,(6,7)),(13,(4,12)))),16);
((((5,((2,15),(9,10))),((1,8),(3,14))),((11,(6,7)),(12,(4,13)))),16);
(((((((9,15),2),(5,10)),((1,8),(3,14))),(6,11)),(13,(12,(4,7)))),16);
(((((2,9),(3,(14,(1,8)))),(15,(5,10))),((11,(6,7)),(13,(4,12)))),16);
((((((14,8),1),3),((5,10),(15,(2,9)))),((11,(6,7)),(12,(13,4)))),16);
((((((9,15),2),(5,10)),(14,(3,(1,8)))),((6,(7,11)),(13,(4,12)))),16);
((((((((1,8),3),14),(5,10)),(2,(9,15))),(7,(6,11))),(13,(4,12))),16);
((((14,(3,(1,8))),((5,10),(9,(2,15)))),((7,(6,11)),(13,(4,12)))),16);
(((((1,8),(3,14)),((5,10),(9,(2,15)))),((6,(7,11)),(4,(12,13)))),16);
(((((((9,15),2),(5,10)),(3,(14,(1,8)))),(13,(4,12))),(11,(6,7))),16);
(((((((9,15),2),5),10),(8,(3,(1,14)))),((6,(7,11)),(13,(4,12)))),16);
(((((2,(9,15)),(5,10)),(14,(3,(1,8)))),((11,(6,7)),(13,(4,12)))),16);
(((((5,10),(9,(2,15))),(14,(3,(1,8)))),((4,12),(13,(6,(7,11))))),16);
(((((14,(1,(3,8))),(9,(2,15))),(5,10)),((6,11),(13,(12,(4,7))))),16);
(((((15,(2,9)),(5,10)),(3,(14,(1,8)))),((7,(6,11)),(13,(4,12)))),16);
(((((9,(2,15)),(5,10)),((1,8),(3,14))),((7,(6,11)),(13,(4,12)))),16);
(((((((1,8),14),3),(2,(5,10))),(9,15)),((7,(6,11)),(13,(4,12)))),16);
(((((15,(2,9)),(5,10)),((1,14),(3,8))),((6,(7,11)),(13,(4,12)))),16);
(((((1,3),(14,8)),(15,((2,9),(5,10)))),((6,11),(13,(12,(4,7))))),16);
(((((5,10),(9,(2,15))),(3,(1,(8,14)))),((6,(11,7)),(4,(12,13)))),16);
((((((2,10),(5,(15,9))),(14,(3,(1,8)))),(7,(6,11))),(13,(4,12))),16);
((((((2,9),15),(5,10)),((1,8),(3,14))),((6,(7,11)),(13,(4,12)))),16);
((((((9,15),2),(5,10)),(3,(14,(1,8)))),((11,(6,7)),(13,(4,12)))),16);
(((((5,10),(2,15)),(9,(14,(3,(1,8))))),((6,(7,11)),(13,(4,12)))),16);
((((3,(14,(1,8))),((5,10),(2,(9,15)))),((6,(7,11)),(13,(4,12)))),16);
(((((2,9),(15,(5,10))),(3,(1,(8,14)))),((11,(6,7)),(13,(4,12)))),16);
((((((9,2),15),(5,10)),(14,(3,(1,8)))),((7,(6,11)),(13,(4,12)))),16);
(((((8,(3,(1,14))),(2,15)),(9,(5,10))),((7,(11,6)),(12,(4,13)))),16);
((((5,(10,(15,(2,9)))),(3,(14,(1,8)))),((11,(6,7)),(13,(4,12)))),16);
(((((5,(2,(9,15))),10),(8,(1,(3,14)))),((6,(11,7)),(13,(4,12)))),16);
((((((5,10),(9,15)),2),(3,(14,(1,8)))),((7,(6,11)),(13,(4,12)))),16);
(((((1,8),(3,14)),((5,10),(2,(9,15)))),((7,(6,11)),(13,(4,12)))),16);
((((((9,15),2),(5,10)),((1,8),(3,14))),((7,(6,11)),(12,(4,13)))),16);
(((((3,(1,(8,14))),(2,(9,15))),(5,10)),((7,(6,11)),(13,(4,12)))),16);
(((((9,(2,15)),(5,10)),(1,(3,(8,14)))),((6,(7,11)),(13,(4,12)))),16);
(((((14,(1,8)),3),((5,10),(2,(9,15)))),((7,(6,11)),(13,(4,12)))),16);
(((((((14,8),1),3),(10,(2,(9,15)))),5),((6,(7,11)),(12,(4,13)))),16);
(((((((1,8),14),3),((5,10),(2,(9,15)))),(13,(7,(11,6)))),(4,12)),16);
(((((8,(1,14)),3),((5,10),(2,(9,15)))),((6,11),(13,(12,(4,7))))),16);
(((((9,(2,15)),(5,10)),(3,(1,(8,14)))),((6,(7,11)),(13,(4,12)))),16);
(((((10,(5,(2,(9,15)))),(8,(3,14))),1),((7,(6,11)),(13,(4,12)))),16);
((((((3,14),(1,8)),((2,15),(5,10))),9),((6,11),(13,(12,(4,7))))),16);
(((((12,13),4),(11,(6,7))),(((3,8),(1,14)),(2,((9,15),(5,10))))),16);
((((3,(8,(1,14))),((5,10),(2,(9,15)))),((11,(7,6)),(12,(4,13)))),16);
(((((5,(2,(9,15))),10),(8,(3,(1,14)))),((6,(7,11)),(13,(4,12)))),16);
(((((((1,8),14),3),(9,(2,15))),(5,10)),((7,(6,11)),(13,(4,12)))),16);
((((((5,(2,(9,15))),10),(1,(3,(8,14)))),13),((6,11),(12,(4,7)))),16);
((((((9,15),2),(5,10)),((1,8),(3,14))),(4,((11,(6,7)),(12,13)))),16);
(((((10,(9,15)),(2,5)),((3,8),(1,14))),((7,(6,11)),(13,(4,12)))),16);
(((((5,10),(2,(9,15))),((1,14),(3,8))),((6,11),(13,(12,(4,7))))),16);
((((((2,9),15),(5,10)),(14,(3,(1,8)))),((7,(6,11)),(13,(4,12)))),16);
(((((3,(8,14)),1),((5,10),(15,(2,9)))),((11,(6,7)),(13,(4,12)))),16);
((((11,(6,7)),(13,(4,12))),(((1,8),(3,14)),((2,(9,15)),(5,10)))),16);
(((((3,(1,8)),14),((5,10),(15,(2,9)))),((6,11),(13,(12,(4,7))))),16);
(((((1,3),(8,14)),((5,10),(15,(2,9)))),((12,(4,7)),(13,(6,11)))),16);
((((((14,(1,8)),3),(15,(2,9))),(5,10)),(13,((6,11),(12,(4,7))))),16);
((((((9,15),2),(5,10)),(1,(3,(8,14)))),((11,(6,7)),(13,(4,12)))),16);
((((((9,15),2),(5,10)),((8,14),(1,3))),((6,(7,11)),(4,(13,12)))),16);
((((3,(1,(8,14))),((5,10),(15,(2,9)))),((11,(6,7)),(13,(4,12)))),16);
((((((9,15),2),(5,10)),(3,(14,(1,8)))),((7,(6,11)),(13,(4,12)))),16);
(((((5,(10,(2,15))),9),((1,8),(3,14))),((7,(6,11)),(13,(4,12)))),16);
((((((9,15),2),(5,10)),(3,(14,(1,8)))),((11,(6,7)),(13,(4,12)))),16);
(((((5,10),(3,(14,(1,8)))),(2,(9,15))),((11,(6,7)),(13,(4,12)))),16);
(((((1,14),(3,8)),((5,10),(2,(9,15)))),((11,(6,7)),(13,(4,12)))),16);
((((((2,5),(9,15)),10),(3,(14,(1,8)))),((6,11),(13,(12,(4,7))))),16);
((((((5,10),(15,(2,9))),(14,(8,(1,3)))),(11,(6,7))),(13,(4,12))),16);
(((((9,(2,15)),(5,10)),((1,8),(3,14))),((6,(7,11)),(13,(4,12)))),16);
((((((2,9),15),(5,10)),((3,14),(1,8))),((11,(6,7)),(13,(4,12)))),16);
((((((2,(9,15)),10),5),(3,(14,(1,8)))),((6,11),(13,(12,(4,7))))),16);
((((((8,14),1),3),((5,10),(2,(9,15)))),((11,(6,7)),(13,(4,12)))),16);
((((((2,(5,10)),(9,15)),14),(3,(1,8))),((11,(6,7)),(13,(4,12)))),16);
((((((1,8),14),3),((5,10),(2,(9,15)))),((7,(6,11)),(13,(4,12)))),16);
(((((1,3),(8,14)),((9,(2,15)),(5,10))),((11,(6,7)),(13,(4,12)))),16);
((((((2,15),9),(5,10)),((1,14),(3,8))),((11,(7,6)),(13,(4,12)))),16);
(((((5,10),(2,(9,15))),(14,(3,(1,8)))),((6,(7,11)),(4,(13,12)))),16);
((((((8,14),1),3),(2,((5,10),(9,15)))),((4,12),((6,(7,11)),13))),16);
(((((15,(5,10)),(2,9)),(3,(1,(8,14)))),((6,(7,11)),(12,(4,13)))),16);
(((((8,(1,14)),3),((2,(9,15)),(5,10))),((6,(7,11)),(13,(4,12)))),16);
((((((1,8),14),3),((15,(9,2)),(5,10))),((6,11),(13,(12,(4,7))))),16);
((((((1,8),14),3),((5,10),(2,(9,15)))),((11,(6,7)),(13,(4,12)))),16);
(((((5,(15,(2,9))),10),((8,14),(1,3))),((6,(7,11)),(13,(4,12)))),16);
((((((1,8),14),3),(15,((5,10),(2,9)))),((6,11),(13,(12,(4,7))))),16);
((((((9,15),(5,10)),2),(3,(1,(8,14)))),((6,(7,11)),(13,(4,12)))),16);
(((((((9,15),2),(5,10)),(1,8)),(3,14)),((6,(7,11)),(13,(4,12)))),16);
((((3,(14,(1,8))),((5,10),(9,(2,15)))),(13,((7,(6,11)),(4,12)))),16);
((((((2,9),15),(5,10)),(3,(1,(8,14)))),((11,(6,7)),(13,(4,12)))),16);
((((((8,14),1),3),((5,10),(2,(9,15)))),((7,(6,11)),(4,(12,13)))),16);
((((2,((5,10),(9,15))),((3,14),(1,8))),((7,(6,11)),(12,(4,13)))),16);
(((((((2,9),15),10),5),(3,(14,(1,8)))),((6,11),((4,7),(12,13)))),16);
(((((9,15),(2,(5,10))),(3,(8,(1,14)))),((7,(11,6)),(13,(4,12)))),16);
((((4,12),((7,(6,11)),13)),((14,(3,(1,8))),((9,(2,15)),(5,10)))),16);
((((((1,8),3),14),((2,(9,15)),(5,10))),(13,((11,(6,7)),(4,12)))),16);
((((((14,(1,8)),3),5),(10,(2,(9,15)))),((4,12),(13,(11,(6,7))))),16);
(((((5,10),(15,(2,9))),((3,8),(1,14))),((7,(6,11)),(13,(4,12)))),16);
(((((2,(9,15)),(5,10)),((1,8),(3,14))),((11,(6,7)),(4,(12,13)))),16);
(((((8,(1,14)),3),((15,(9,2)),(5,10))),(13,((4,12),(7,(6,11))))),16);
((((((8,(14,1)),3),(15,(2,9))),(5,10)),(13,((6,(7,11)),(4,12)))),16);
((((3,(14,(1,8))),((5,10),(2,(15,9)))),((7,(6,11)),(13,(4,12)))),16);
((((((1,14),(3,8)),((5,10),(2,(9,15)))),((4,7),(6,11))),(12,13)),16);
(((((3,8),(1,14)),((9,15),(2,(5,10)))),((11,(6,7)),(12,(4,13)))),16);
((((((5,10),(15,(2,9))),(3,(1,8))),14),((6,11),(13,(12,(4,7))))),16);
(((((5,10),(9,(2,15))),(3,(14,(1,8)))),((6,(7,11)),(13,(4,12)))),16);
(((((9,(5,10)),(2,15)),(3,(14,(8,1)))),((6,(7,11)),(13,(4,12)))),16);
(((((2,(9,15)),(5,10)),(14,(3,(1,8)))),(4,((11,(6,7)),(12,13)))),16);
((((9,((2,15),(5,10))),(3,(14,(1,8)))),((6,(7,11)),(13,(4,12)))),16);
((((3,(1,(8,14))),((9,(2,15)),(5,10))),((11,(7,6)),(13,(4,12)))),16);
((((((2,15),9),(3,(14,(1,8)))),(5,10)),((6,11),(13,(12,(4,7))))),16);
(((((14,(1,8)),3),(2,((9,15),(5,10)))),((7,(6,11)),(13,(4,12)))),16);
(((((15,(2,9)),(5,10)),((1,8),(3,14))),((11,(6,7)),(13,(4,12)))),16);
((((((9,15),2),(5,10)),(3,(1,(8,14)))),((11,(6,7)),(13,(4,12)))),16);
(((((2,(9,15)),(5,10)),(3,(14,(1,8)))),((6,(7,11)),(12,(4,13)))),16);
(((((((1,8),14),3),(5,10)),(15,(2,9))),((4,12),(13,(6,(7,11))))),16);
(((((8,14),(1,3)),((9,15),(2,(5,10)))),((11,(6,7)),(13,(4,12)))),16);
((((((5,10),(2,9)),15),(14,(3,(1,8)))),((4,(12,13)),(6,(7,11)))),16);
((((3,14),((1,8),(2,((5,10),(9,15))))),((7,(6,11)),(13,(4,12)))),16);
((((13,(4,12)),(6,(7,11))),(((8,14),(1,3)),(5,(10,(2,(9,15)))))),16);
(((((9,15),(2,(5,10))),(1,(3,(8,14)))),((6,(7,11)),(13,(4,12)))),16);
(((((5,(2,(9,15))),10),((1,14),(3,8))),((6,11),(13,(12,(4,7))))),16);
