(((((5)#H1,10),(12,((13,#H1),6))),4),(8,((3,1),(9,((2,11),(14,(7,15)))))));
((((9)#H1,12),(((5,#H1),6),(4,(7,2)))),((14,15),(((8,11),(3,10)),(13,1))));
(((((((7)#H1,14),15),((((1,#H1),13),(2,5)),(6,(9,8)))),4),(12,(3,11))),10);
(((1,((5)#H1,12)),((7,#H1),8)),((((10,3),(9,14)),((13,4),(11,2))),(15,6)));
((((8,(((4)#H1,7),14)),((3,((2,#H1),5)),(1,6))),(13,11)),((10,9),(12,15)));
(((15)#H1,5),((((13,#H1),10),(12,((7,4),9))),((8,(((2,14),6),11)),(1,3))));
(((6,((7)#H1,11)),(13,((4,#H1),12))),((((1,8),14),3),(((9,15),2),(5,10))));
(((((10)#H1,5),((14,#H1),8)),(6,12)),((9,(3,(7,4))),((15,2),((1,11),13))));
((((((9)#H1,10),1),4),((((7,#H1),6),14),(12,3))),((5,(15,(13,8))),(11,2)));
(((8,(((5)#H1,11),3)),((14,#H1),9)),(2,(((10,(7,4)),(15,6)),((13,1),12))));
(((((7,(6,(13,(8,((10)#H1,1))))),((9,((2,#H1),4)),11)),15),(12,3)),(14,5));
(((15,(((2)#H1,1),((4,#H1),11))),(12,(((5,14),3),(13,7)))),(((10,6),9),8));
(5,((15,(((2)#H1,13),(((7,#H1),8),12))),(4,((9,(3,1)),(((11,14),10),6)))));
((((9,((10)#H1,13)),(((12,#H1),15),6)),(5,((11,1),7))),((3,8),(2,(4,14))));
((((((11)#H1,12),10),14),(((6,#H1),8),9)),((((7,4),15),(2,(13,(5,1)))),3));
((((((14)#H1,1),(((15,#H1),9),4)),((6,5),(((8,3),(10,(2,7))),12))),13),11);
((((13,((5)#H1,1)),(((15,#H1),6),((2,4),7))),8),(11,((9,(10,12)),(14,3))));
((((14,(9,((10)#H1,1))),5),(((11,#H1),3),(2,4))),((7,(((8,6),15),12)),13));
((6,((14,(((12)#H1,8),11)),(((((5,#H1),9),13),15),4))),((3,2),((7,10),1)));
(((((1)#H1,5),((12,(((11,#H1),15),((14,9),2))),13)),3),((6,10),((4,7),8)));
