((((4,(15,(13,(5,9)))),(14,(11,(8,12)))),(6,((10,(1,7)),(2,3)))),16);
(((((((12,(8,11)),14),15),(4,(13,(5,9)))),6),((2,3),(7,(1,10)))),16);
(((((15,(13,(5,9))),(4,(14,(11,(8,12))))),(7,((1,10),(2,3)))),6),16);
((((((8,(14,12)),11),(4,(15,(5,(9,13))))),((7,10),(1,(2,3)))),6),16);
((((4,14),((15,(9,(5,13))),(11,(8,12)))),(6,((2,3),(7,(1,10))))),16);
(((((4,(15,(13,(5,9)))),(11,(8,12))),14),(6,((2,3),(1,(7,10))))),16);
(((((((12,(5,9)),13),15),4),(14,(8,11))),(6,((2,3),(7,(1,10))))),16);
(((((2,3),(10,(1,7))),((4,(15,(9,(5,13)))),(14,(11,(8,12))))),6),16);
(((((((((9,12),5),13),15),4),(14,(8,11))),(7,((1,10),(2,3)))),6),16);
((((4,(15,(9,(5,13)))),((8,12),(11,14))),(6,((2,3),(1,(7,10))))),16);
(((((((15,(9,(5,12))),13),4),14),(8,11)),(6,(3,(2,(7,(1,10)))))),16);
(((((4,(15,(13,(5,9)))),((8,12),(11,14))),6),((2,3),(1,(7,10)))),16);
(((((4,(15,(13,(5,9)))),(12,(14,(8,11)))),(2,((1,(7,10)),3))),6),16);
(((((11,(8,12)),(4,(9,(15,(5,13))))),14),(((7,(1,10)),(2,3)),6)),16);
((((((14,(8,12)),11),(4,(15,(13,(5,9))))),6),((2,3),(7,(1,10)))),16);
((((1,(7,10)),(2,3)),(6,((15,(4,(9,(5,13)))),(14,(11,(8,12)))))),16);
(((((11,(8,14)),(4,(15,((12,13),(5,9))))),6),((10,(1,7)),(2,3))),16);
(((((((8,12),11),14),(4,(15,(5,(9,13))))),6),((2,3),(1,(7,10)))),16);
(((((((9,13),(5,15)),4),(14,(11,(8,12)))),((2,3),(1,(7,10)))),6),16);
((((((14,(8,12)),11),(4,(15,(13,(5,9))))),6),(2,(3,(1,(7,10))))),16);
((((11,(8,12)),((4,(15,(13,(5,9)))),14)),(6,((2,3),(10,(1,7))))),16);
(((((14,(8,11)),(4,(15,(12,(13,(5,9)))))),(2,(3,(1,(7,10))))),6),16);
((((14,(8,11)),(4,((12,13),(15,(5,9))))),(6,((2,3),(10,(1,7))))),16);
(((((12,(11,8)),14),(4,((5,(9,13)),15))),((2,(3,(10,(1,7)))),6)),16);
(((((4,(15,(9,(5,13)))),(14,(11,(8,12)))),6),((1,10),(7,(2,3)))),16);
((((((14,(11,(8,12))),(15,(13,(5,9)))),4),6),(3,(2,(10,(1,7))))),16);
(((6,(14,((8,11),(4,(13,(15,(12,(5,9)))))))),((7,(10,1)),(2,3))),16);
(((((15,(13,(9,(5,12)))),(14,(8,11))),4),(((2,3),(1,(10,7))),6)),16);
(((6,(14,((11,(8,12)),(4,(15,(13,(5,9))))))),(2,(3,(1,(7,10))))),16);
((((((11,(8,12)),(4,(15,(13,(5,9))))),14),((2,3),(1,(7,10)))),6),16);
((((((8,(11,12)),14),(4,(15,(13,(5,9))))),6),((1,7),(10,(2,3)))),16);
(((6,((4,(15,(5,(9,13)))),(14,(11,(8,12))))),((7,(1,10)),(2,3))),16);
(((((11,(8,12)),14),(4,(15,(13,(5,9))))),((1,((7,10),(2,3))),6)),16);
(((((11,(8,12)),14),(4,(15,(13,(5,9))))),(6,((2,3),(1,(7,10))))),16);
((((14,(11,(8,12))),(4,(15,(9,(5,13))))),(6,(1,((2,3),(7,10))))),16);
(((((4,(15,(13,(5,9)))),(14,(11,(8,12)))),6),((2,3),(1,(7,10)))),16);
((((((2,3),(10,(1,7))),(4,14)),6),((15,(9,(5,13))),(11,(8,12)))),16);
(((((14,(15,(13,(5,(9,12))))),4),(8,11)),(6,((2,3),(1,(7,10))))),16);
((((15,(4,(13,(5,9)))),(14,(8,(11,12)))),(((2,3),(7,(1,10))),6)),16);
((((((8,12),(11,14)),(4,(15,(13,(5,9))))),6),(7,((2,3),(1,10)))),16);
(((((((13,(5,9)),(4,15)),(14,(11,12))),8),6),(3,(2,(1,(7,10))))),16);
(((((15,(9,(5,13))),4),(14,(11,(8,12)))),(6,((2,3),(10,(1,7))))),16);
((((((9,15),(5,13)),4),(14,(11,(8,12)))),(6,(2,(3,(1,(7,10)))))),16);
((((4,(15,(13,(9,(5,12))))),(8,(11,14))),((3,(2,(1,(7,10)))),6)),16);
(((6,((2,3),(7,(1,10)))),((4,(15,(13,(5,9)))),(14,(11,(8,12))))),16);
(((6,((2,3),(7,(1,10)))),((14,(11,(8,12))),((13,(5,9)),(4,15)))),16);
(((6,((8,11),(14,((13,(9,(5,12))),(4,15))))),((2,3),(7,(1,10)))),16);
((((14,(11,(12,8))),(4,(15,(13,(5,9))))),(6,((1,(10,7)),(2,3)))),16);
((((((8,12),(11,14)),(15,(4,(13,(5,9))))),((2,3),(7,(1,10)))),6),16);
((((4,(15,(13,(5,9)))),(14,(11,(8,12)))),(6,((2,3),(1,(7,10))))),16);
((((((4,(5,12)),(15,(9,13))),(14,(8,11))),((2,3),(7,(1,10)))),6),16);
(((6,((1,7),(10,(2,3)))),((4,(15,(9,(5,13)))),(14,(11,(8,12))))),16);
(((((11,(14,(8,12))),15),(((1,(7,10)),(2,3)),(4,(9,(5,13))))),6),16);
((((14,(11,(8,12))),(4,(15,(13,(5,9))))),(6,((2,3),(1,(7,10))))),16);
(((6,((14,(11,(8,12))),(4,(15,(13,(5,9)))))),((7,10),(1,(2,3)))),16);
(((6,((2,3),(1,(7,10)))),((4,(15,(13,((5,9),12)))),(14,(8,11)))),16);
((((((11,(8,12)),14),((13,(5,9)),(4,15))),6),((2,3),(10,(1,7)))),16);
((((11,(4,(15,(13,(5,9))))),(14,(8,12))),(6,((2,3),(7,(1,10))))),16);
((((14,(11,8)),(4,(15,((5,12),(9,13))))),(6,((2,3),(7,(1,10))))),16);
((((((15,(13,(5,9))),4),14),(11,(8,12))),(6,((2,3),(1,(7,10))))),16);
(((((11,(8,12)),(14,(15,(4,(9,(5,13)))))),((2,3),(7,(1,10)))),6),16);
(((((8,11),(4,(15,(13,(9,(5,12)))))),14),(6,((7,(1,10)),(2,3)))),16);
(((((11,(8,12)),14),(4,(15,(5,(9,13))))),(6,((2,3),(1,(7,10))))),16);
((((14,(8,12)),(11,(4,(13,(15,(5,9)))))),(6,(3,(7,(2,(1,10)))))),16);
(((((4,(13,(15,(5,9)))),(14,(11,(8,12)))),6),((2,3),(1,(7,10)))),16);
(((((14,(11,(8,12))),(4,(15,(13,(5,9))))),6),((2,3),(10,(1,7)))),16);
(((((14,((5,(9,13)),(4,15))),(11,(8,12))),6),((2,3),(1,(7,10)))),16);
(((((15,(13,(9,(5,12)))),(4,(14,(8,11)))),(2,(3,(10,(1,7))))),6),16);
(((((((8,12),11),14),(4,(15,(9,(5,13))))),((7,(1,10)),(2,3))),6),16);
((((((8,11),14),(4,(15,(13,(9,(5,12)))))),6),(3,(2,(10,(1,7))))),16);
((((11,(4,(15,(5,(9,13))))),(14,(8,12))),(6,((7,10),(1,(2,3))))),16);
(((((14,(4,((9,12),(15,(5,13))))),(8,11)),6),((7,(1,10)),(2,3))),16);
((((8,(14,11)),((13,(5,(9,12))),(4,15))),(6,((1,2),((7,10),3)))),16);
(((((14,(11,(8,12))),(4,(15,(5,(9,13))))),6),((2,3),(7,(1,10)))),16);
((((11,(14,(8,12))),(4,(15,(5,(9,13))))),(6,((2,3),(10,(1,7))))),16);
(((((11,(8,12)),14),(4,(13,(15,(5,9))))),(6,(1,((7,10),(2,3))))),16);
(((6,((2,3),(10,(1,7)))),((4,(15,(9,(5,13)))),(14,(11,(8,12))))),16);
((((4,((13,(5,9)),15)),(11,(14,(8,12)))),(6,((2,3),(10,(1,7))))),16);
((((4,(15,(13,(5,9)))),(11,(14,(8,12)))),(6,((2,3),(1,(7,10))))),16);
((((((11,(8,12)),14),(4,(15,(5,(9,13))))),((2,3),(10,(1,7)))),6),16);
(((((11,(8,12)),14),(4,(15,(13,(5,9))))),(6,((1,(7,10)),(2,3)))),16);
((((14,(11,(8,12))),((5,(9,13)),(4,15))),(((2,3),(1,(7,10))),6)),16);
(((6,((2,3),(7,(1,10)))),(14,((4,(15,(13,(5,9)))),(12,(11,8))))),16);
((((2,(10,(3,(1,7)))),((4,(15,(13,(5,9)))),(14,(11,(8,12))))),6),16);
(((((15,(4,(5,(9,13)))),(14,(11,(8,12)))),6),((2,3),(10,(1,7)))),16);
(((((14,(11,(8,12))),(4,(15,(13,(5,9))))),6),(1,((7,10),(2,3)))),16);
(((((14,(8,12)),(11,(4,(15,(5,(9,13)))))),6),((1,7),(10,(2,3)))),16);
((((((11,(8,12)),14),(4,(15,(13,(5,9))))),((1,(7,10)),(2,3))),6),16);
(((6,((4,(15,(13,(5,9)))),(11,(14,(8,12))))),(1,((7,10),(2,3)))),16);
(((6,((1,10),(3,(7,2)))),((14,(8,11)),(15,(4,(13,(12,(5,9))))))),16);
(((((11,(8,12)),14),(4,(15,(5,(9,13))))),(6,((7,(1,10)),(2,3)))),16);
((((((4,(15,(13,(5,9)))),(14,(8,12))),11),6),(7,((1,10),(2,3)))),16);
((((((15,(13,(5,9))),4),(14,(11,(8,12)))),((2,3),((7,10),1))),6),16);
((((10,(1,7)),(2,3)),(6,(((9,(5,13)),(4,15)),((8,12),(11,14))))),16);
((((6,(14,(11,(8,12)))),((1,(7,10)),(2,3))),(4,(15,(13,(5,9))))),16);
(((((4,(15,(13,(5,9)))),(14,(11,(8,12)))),((7,(1,10)),(2,3))),6),16);
((((((9,(5,13)),(4,15)),(11,(14,(8,12)))),((2,3),(7,(1,10)))),6),16);
(((((4,(15,(13,(5,9)))),(11,14)),(8,12)),(((2,3),(1,(7,10))),6)),16);
((((14,(4,(15,(13,(5,(9,12)))))),(8,11)),(6,((10,(1,7)),(2,3)))),16);
((((((12,(8,11)),14),(4,(15,(5,(9,13))))),6),((1,7),(10,(2,3)))),16);
((((((11,(8,12)),14),(4,(15,(9,(5,13))))),((2,3),(10,(1,7)))),6),16);
((((4,(15,(5,(9,13)))),(14,(11,(8,12)))),(6,((2,3),(10,(1,7))))),16);
(((((14,(11,(8,12))),(4,(15,(13,(5,9))))),6),((10,(1,7)),(2,3))),16);
((((4,(13,(5,9))),(15,(14,(11,(8,12))))),(6,((10,(1,7)),(2,3)))),16);
((((1,(7,10)),(2,3)),(6,((4,(15,(13,(5,9)))),(14,(11,(8,12)))))),16);
(((((12,(14,(8,11))),4),(15,(13,(5,9)))),(6,((2,3),(7,(1,10))))),16);
(((((4,(15,(13,(5,9)))),(14,(11,(8,12)))),((2,3),(7,(1,10)))),6),16);
(((((((((9,13),(5,12)),15),4),14),(8,11)),6),((2,3),(7,(1,10)))),16);
(((((4,(13,(15,(5,9)))),(14,(11,(8,12)))),6),((2,3),(1,(7,10)))),16);
((((((11,14),(8,12)),(4,(15,(13,(5,9))))),6),((2,3),(1,(7,10)))),16);
(((6,((14,(11,(8,12))),(15,(4,(13,(5,9)))))),((2,3),(7,(1,10)))),16);
((((((8,12),(11,14)),(4,(15,(9,(5,13))))),((2,3),(1,(7,10)))),6),16);
(((((14,(13,(5,9))),((11,(8,12)),(4,15))),6),((7,(1,10)),(2,3))),16);
((((14,(11,(8,12))),(4,(15,(9,(5,13))))),(((2,3),(10,(1,7))),6)),16);
(((((((11,12),8),14),(4,(15,(13,(5,9))))),6),((2,3),(1,(7,10)))),16);
(((((14,(4,(15,(13,(5,9))))),(11,(8,12))),((1,7),(10,(2,3)))),6),16);
(((((8,11),(14,(4,(15,(9,(5,(12,13))))))),((2,3),(1,(7,10)))),6),16);
(((((14,(11,(8,12))),(4,(15,(13,(5,9))))),6),(3,(2,(7,(1,10))))),16);
(((((11,(8,12)),(14,(4,(15,(13,(5,9)))))),(3,((7,10),(1,2)))),6),16);
((((2,3),(7,(1,10))),(6,((11,(8,12)),(14,((13,(5,9)),(4,15)))))),16);
((((14,(11,(8,12))),(4,(15,(13,(5,9))))),(6,((10,(1,7)),(2,3)))),16);
(((((11,(8,12)),14),(15,(4,(13,(5,9))))),(((2,3),(10,(1,7))),6)),16);
(((((((8,12),11),14),(4,(15,(13,(5,9))))),6),((2,3),(10,(1,7)))),16);
(((((15,(4,(5,(9,13)))),(14,(11,(8,12)))),6),((1,(7,10)),(2,3))),16);
((((((11,(8,12)),14),(4,(15,(13,(5,9))))),((2,3),(1,(7,10)))),6),16);
(((6,((4,(15,(13,(5,9)))),(14,(11,(8,12))))),((2,3),(7,(1,10)))),16);
(((((15,(4,(13,(12,(5,9))))),(14,(8,11))),6),(10,((2,3),(1,7)))),16);
(((6,((7,10),(1,(2,3)))),((4,(15,(13,(5,9)))),(14,(11,(8,12))))),16);
((((((12,(8,11)),14),(4,(15,(5,(9,13))))),((1,(7,10)),(2,3))),6),16);
(((((2,3),(1,(7,10))),(14,((4,(15,(5,(9,13)))),(11,(8,12))))),6),16);
((((((4,(9,(13,5))),(15,(8,14))),(11,12)),6),((2,3),(10,(1,7)))),16);
((((((11,12),8),14),(4,(15,(13,(5,9))))),(6,((2,3),(7,(1,10))))),16);
((((2,3),(7,(1,10))),(6,((11,(8,12)),(14,(4,((5,9),(13,15))))))),16);
(((((5,(15,(9,13))),4),(14,(11,(8,12)))),(6,((1,10),(7,(2,3))))),16);
(((6,((4,(15,(13,(5,(9,12))))),(8,(11,14)))),((2,3),(1,(7,10)))),16);
(((((7,(1,10)),(2,3)),((4,(15,(9,(5,13)))),(14,(11,(8,12))))),6),16);
((((14,(11,(8,12))),(4,(15,(13,(5,9))))),(6,((2,3),(10,(1,7))))),16);
(((((((5,(12,9)),(13,15)),4),(14,(8,11))),((2,3),(1,(7,10)))),6),16);
((((((12,(8,11)),14),((13,(5,9)),(4,15))),((7,(1,10)),(2,3))),6),16);
(((((4,(15,(13,(5,9)))),(14,(11,(8,12)))),6),((7,(1,10)),(2,3))),16);
((((((11,(8,12)),14),(4,(15,(9,(5,13))))),((2,3),(1,(7,10)))),6),16);
((((((8,12),11),(15,(4,(5,(9,13))))),14),(6,((7,10),(2,(3,1))))),16);
(((((((5,(12,13)),(9,15)),4),(14,(8,11))),6),((2,3),(7,(1,10)))),16);
((((((2,7),(1,10)),3),6),((4,(15,(13,(5,9)))),(14,(11,(8,12))))),16);
(((((14,(11,(8,12))),(4,(15,(9,(5,13))))),6),(7,((1,10),(2,3)))),16);
((((10,(1,7)),(2,3)),(6,(((13,(5,(9,12))),(4,15)),(14,(8,11))))),16);
((((((8,12),(14,11)),(4,(15,(9,(5,13))))),((2,3),(7,(1,10)))),6),16);
(((((4,(15,(13,(5,9)))),((8,12),(11,14))),6),((2,3),(10,(1,7)))),16);
((((((((5,9),13),15),4),(11,(8,12))),14),(6,((2,3),((7,10),1)))),16);
(((((((8,12),11),14),(15,(4,(9,(5,13))))),((1,(7,10)),(2,3))),6),16);
((((4,(9,(15,(5,13)))),(14,(11,(8,12)))),(6,((2,3),(7,(1,10))))),16);
(((((14,(11,(8,12))),(4,(15,(13,(5,9))))),6),((2,3),(7,(1,10)))),16);
(((((((8,11),14),12),(4,(15,(13,(5,9))))),6),((2,3),(10,(7,1)))),16);
(((((14,((13,(5,9)),(4,15))),(11,(8,12))),6),((2,3),(7,(1,10)))),16);
(((((4,14),((15,(5,(9,13))),(11,(8,12)))),6),(10,((2,3),(1,7)))),16);
(((((14,(11,(8,12))),(4,(15,(13,(5,9))))),((2,3),(1,(7,10)))),6),16);
(((6,((11,12),(4,(15,(13,(5,9)))))),(((2,3),(1,(7,10))),(8,14))),16);
((((((5,9),(4,(13,15))),(14,(11,(8,12)))),((2,3),(10,(1,7)))),6),16);
(((((11,(8,12)),14),(4,(15,(13,(5,9))))),(((7,10),(1,(2,3))),6)),16);
(((((15,(4,(9,(5,13)))),(14,(11,(8,12)))),6),((1,(7,10)),(2,3))),16);
(((((14,(8,12)),(4,(15,(9,(5,13))))),11),(6,((1,10),(7,(2,3))))),16);
(((((14,(8,(11,12))),(4,(15,(13,(5,9))))),6),((2,3),(7,(1,10)))),16);
(((((13,(5,9)),(4,15)),(14,(11,(8,12)))),(6,(1,((2,3),(7,10))))),16);
(((((14,(11,(8,12))),(4,(15,(9,(5,13))))),((2,3),(1,(7,10)))),6),16);
((((4,(15,(13,(5,9)))),(14,(11,(8,12)))),(6,((2,3),(7,(1,10))))),16);
(((((8,11),14),(4,(15,((5,12),(13,9))))),(6,((2,3),(1,(7,10))))),16);
((((((11,(8,12)),14),(4,(15,(13,(5,9))))),((2,3),(1,(7,10)))),6),16);
(((6,((2,3),(10,(1,7)))),(((9,(5,13)),(15,4)),((8,12),(11,14)))),16);
(((((((8,12),14),11),(4,((5,9),(13,15)))),(3,(2,(1,(7,10))))),6),16);
((((14,(4,(15,(13,(5,9))))),(6,(11,(8,12)))),((1,(7,10)),(2,3))),16);
(((((14,(8,12)),11),(4,(15,(13,(5,9))))),(6,((1,(10,7)),(2,3)))),16);
((((15,(4,(13,(5,(9,12))))),(8,(11,14))),(6,((1,(7,10)),(2,3)))),16);
((((((11,(8,12)),14),(4,((13,(5,9)),15))),6),(2,(3,(7,(1,10))))),16);
(((((4,(15,(13,(9,5)))),(11,(14,(8,12)))),6),((2,3),(10,(1,7)))),16);
(((((8,12),((4,(15,(13,(5,9)))),(11,14))),6),((1,(7,10)),(2,3))),16);
((((((15,(13,(5,9))),4),(14,(11,(8,12)))),6),((7,10),(1,(2,3)))),16);
(((6,((2,3),(7,(1,10)))),((11,(8,12)),(14,((13,(5,9)),(4,15))))),16);
(((((((13,15),(5,9)),4),(14,(11,(8,12)))),6),((7,(1,10)),(2,3))),16);
((((4,(15,((5,9),(12,13)))),(14,(8,11))),(6,((1,(7,10)),(2,3)))),16);
((((4,(15,(13,(5,9)))),(11,(14,(8,12)))),(6,((7,(1,10)),(2,3)))),16);
((((((14,(8,12)),11),(4,(15,(5,(9,13))))),(2,(3,(1,(7,10))))),6),16);
(((((11,(8,12)),(14,(4,(15,(9,(5,13)))))),6),((7,(1,10)),(2,3))),16);
(((((11,(8,14)),(4,(13,(15,(12,(5,9)))))),6),((2,3),(7,(1,10)))),16);
(((((4,(15,(13,(5,9)))),(14,(11,(8,12)))),6),((2,3),(1,(7,10)))),16);
((((8,(11,14)),(4,(15,(13,(9,(5,12)))))),(6,((1,7),(10,(2,3))))),16);
(((((4,(15,(5,(9,13)))),((8,12),(11,14))),6),((2,3),(1,(7,10)))),16);
((((((15,((9,12),(5,13))),(8,11)),(4,14)),(7,((1,10),(2,3)))),6),16);
((((((8,12),11),14),(4,(15,(5,(9,13))))),(6,((7,(1,10)),(2,3)))),16);
((((((4,14),(13,(15,(5,9)))),(12,(8,11))),((1,10),(7,(2,3)))),6),16);
((((((((9,13),5),15),4),(14,(11,(8,12)))),((1,(7,10)),(2,3))),6),16);
((((11,14),((4,(15,(13,(5,9)))),(8,12))),(6,((2,3),(1,(7,10))))),16);
((((((4,((5,13),(9,15))),14),(11,(8,12))),((10,(1,7)),(2,3))),6),16);
((((((13,(5,9)),(4,15)),(14,(11,(8,12)))),6),((2,3),(1,(7,10)))),16);
(((((4,(15,(13,(5,9)))),(14,(11,(8,12)))),((2,3),(1,(7,10)))),6),16);
((((14,(11,(8,12))),((9,(5,13)),(4,15))),(6,((7,(1,10)),(2,3)))),16);
(((((11,14),((8,12),((13,(5,9)),(4,15)))),6),((2,3),(7,(1,10)))),16);
((((((4,(5,(9,13))),15),(14,(11,(8,12)))),6),((2,3),(10,(1,7)))),16);
(((6,((2,3),(7,(1,10)))),((4,(15,(13,(5,9)))),(11,(14,(8,12))))),16);
((((4,(15,(13,(5,9)))),(14,(12,(8,11)))),(((2,3),(1,(7,10))),6)),16);
(((((14,(15,(13,(5,9)))),(4,(11,(8,12)))),6),((2,3),(10,(1,7)))),16);
(((6,((2,10),(3,(1,7)))),((4,(15,(13,(5,9)))),(14,(11,(8,12))))),16);
((((11,(14,8)),(4,(15,(13,(12,(5,9)))))),(6,((1,(7,10)),(2,3)))),16);
(((((14,(11,(8,12))),(4,(13,(15,(5,9))))),6),((1,7),(10,(2,3)))),16);
(((((2,3),(10,(1,7))),((11,(8,12)),(14,(4,(15,(9,(5,13))))))),6),16);
((((((9,(5,13)),(4,15)),(14,(11,(8,12)))),(1,((7,10),(2,3)))),6),16);
((((((((9,(5,13)),12),15),4),(14,(8,11))),6),((1,(7,10)),(2,3))),16);
(((6,((14,(11,(8,12))),(4,((5,9),(13,15))))),((7,(1,10)),(2,3))),16);
((((4,(15,(13,(5,9)))),(14,(11,(8,12)))),(6,((1,(7,10)),(2,3)))),16);
((((((4,15),(13,(5,9))),(11,(8,12))),14),(6,((7,10),(1,(2,3))))),16);
(((6,((2,3),(1,(7,10)))),((11,(8,12)),(14,(4,(15,(5,(9,13))))))),16);
((((((8,(11,12)),14),(15,(4,(13,(5,9))))),6),((1,(7,10)),(2,3))),16);
((((14,(11,(8,12))),(4,(15,(13,(5,9))))),(6,((2,3),(10,(1,7))))),16);
((((11,(8,12)),(14,(4,(15,(5,(9,13)))))),(6,((2,3),(7,(1,10))))),16);
(((6,((1,7),(10,(2,3)))),((11,(8,12)),(14,(4,(15,(5,(9,13))))))),16);
(((15,(4,(13,(5,9)))),(((14,(11,(8,12))),6),((2,3),(7,(1,10))))),16);
((((((14,(8,12)),11),(4,(15,(13,(5,9))))),((2,3),(1,(7,10)))),6),16);
((((((4,(15,(13,(5,9)))),11),(14,(8,12))),6),((2,3),(1,(7,10)))),16);
(((((13,(5,9)),(4,15)),((8,12),(11,14))),(6,(7,((2,3),(1,10))))),16);
((((((14,(11,(8,12))),(15,(13,(5,9)))),4),6),((2,3),(10,(1,7)))),16);
(((((2,3),(1,(10,7))),(6,(4,(15,(5,(9,13)))))),(14,(11,(8,12)))),16);
(((((14,(8,(11,12))),(4,(13,(5,9)))),15),(6,((1,(7,10)),(2,3)))),16);
(((6,((15,(4,(13,(5,9)))),(14,(11,(8,12))))),((2,3),(1,(7,10)))),16);
((((15,(4,(9,(5,13)))),(14,(11,(8,12)))),(6,((2,3),(7,(1,10))))),16);
(((((8,12),(11,14)),(4,(15,(13,(5,9))))),(6,((2,3),(1,(7,10))))),16);
((((15,(14,(8,11))),(6,((2,3),(10,(1,7))))),(4,(13,(9,(5,12))))),16);
(((((14,(11,(8,12))),(4,(15,(9,(5,13))))),6),((2,3),(1,(7,10)))),16);
(((((14,(8,12)),11),(4,(15,(13,(5,9))))),(6,((7,10),(1,(2,3))))),16);
((((((11,(8,12)),14),(4,(13,(15,(5,9))))),6),(1,((7,10),(2,3)))),16);
(((((((12,(5,9)),13),15),4),(14,(8,11))),(6,((1,(7,10)),(2,3)))),16);
((((((13,(5,9)),(4,15)),((8,(11,12)),14)),((1,(7,10)),(2,3))),6),16);
(((((15,(4,(5,(9,13)))),(11,(14,(8,12)))),6),((2,3),(7,(1,10)))),16);
((((2,3),(10,(1,7))),(6,((14,(8,11)),(4,(15,(13,(9,(5,12)))))))),16);
(((11,((14,(8,12)),(4,(15,(9,(5,13)))))),(6,(2,(3,(10,(1,7)))))),16);
(((((4,(15,(13,(5,9)))),(14,(11,(8,12)))),6),((1,(7,10)),(2,3))),16);
(((((9,(15,(5,13))),4),(14,(11,(8,12)))),(6,((10,(7,1)),(2,3)))),16);
((((((11,(8,12)),14),(4,(15,(13,(5,9))))),6),((7,(1,10)),(2,3))),16);
(((((4,(15,(13,(5,9)))),(14,(11,(8,12)))),((2,3),(7,(1,10)))),6),16);
((((((12,(8,11)),14),(4,(15,(13,(5,9))))),(2,(3,(1,(7,10))))),6),16);
(((6,(14,((4,(15,(5,(9,13)))),(11,(8,12))))),(7,((2,3),(1,10)))),16);
(((((14,(11,(8,12))),(4,(15,(5,(9,13))))),((1,(7,10)),(2,3))),6),16);
(((((14,(11,(8,12))),(4,(15,(9,(5,13))))),6),((2,3),(7,(1,10)))),16);
(((6,((10,(1,7)),(2,3))),((11,14),((8,12),(4,(15,(13,(5,9))))))),16);
((((((11,(8,12)),(4,(15,(5,(9,13))))),14),((2,3),(1,(7,10)))),6),16);
((((((((((9,12),13),5),15),4),14),(8,11)),6),((2,3),(10,(1,7)))),16);
((((4,(15,(13,(5,9)))),(14,(11,(8,12)))),(6,((1,(7,10)),(2,3)))),16);
(((6,((7,(1,10)),(2,3))),((14,(11,(8,12))),(4,(15,(13,(5,9)))))),16);
((((14,(11,(8,12))),(4,(15,(5,(9,13))))),(6,((2,3),(10,(7,1))))),16);
(((((11,(8,12)),14),(4,(15,(9,(5,13))))),(6,(3,(2,(1,(7,10)))))),16);
((((((8,11),14),(4,(15,(13,(9,(5,12)))))),((2,3),(1,(7,10)))),6),16);
(((((4,(15,(13,(12,(5,9))))),(8,(11,14))),6),((2,3),(1,(7,10)))),16);
(((6,((10,(1,7)),(2,3))),((14,(11,(8,12))),(4,(15,(13,(5,9)))))),16);
(((6,((14,(11,(8,12))),(4,(15,(13,(5,9)))))),((2,3),(7,(1,10)))),16);
((((((15,(5,9)),13),4),(14,(11,(8,12)))),((1,((2,3),(7,10))),6)),16);
(((((4,(15,(13,(5,9)))),(14,(11,(8,12)))),((7,(1,10)),(2,3))),6),16);
(((((4,(15,(5,(9,13)))),(8,(14,(11,12)))),6),((2,3),(1,(7,10)))),16);
(((6,((11,(8,12)),(14,(4,(15,(13,(5,9))))))),((10,(1,7)),(2,3))),16);
(((((4,((13,(9,12)),(5,15))),(8,(11,14))),6),((2,3),(7,(1,10)))),16);
(((((13,(5,9)),(4,15)),(11,(14,(8,12)))),(6,((1,7),(10,(2,3))))),16);
(((14,(11,(8,12))),(((5,(9,13)),(4,15)),(6,(3,(2,(10,(1,7))))))),16);
((((6,(14,(4,(15,((5,12),(9,13)))))),(8,11)),((2,3),(10,(1,7)))),16);
((((2,(3,(10,(1,7)))),((4,(15,(13,(5,9)))),(14,(11,(8,12))))),6),16);
(((6,((4,(15,(9,(5,13)))),(14,(11,(8,12))))),((2,3),(7,(1,10)))),16);
(((((2,3),(7,(1,10))),((4,(15,(5,(9,13)))),(14,(11,(8,12))))),6),16);
((((((14,(11,(8,12))),4),(5,(15,(9,13)))),6),((2,3),(10,(1,7)))),16);
(((((14,((15,(9,(5,13))),(11,(8,12)))),4),6),((7,(1,10)),(2,3))),16);
((((((5,(9,13)),(4,15)),(14,(12,(8,11)))),6),(2,(3,(7,(1,10))))),16);
(((((2,3),(1,(7,10))),(((9,(5,13)),(4,15)),(14,(11,(8,12))))),6),16);
(((((4,(13,(5,(9,12)))),15),(14,(8,11))),(6,((10,(1,7)),(2,3)))),16);
((((((((12,(5,9)),13),15),4),(14,(8,11))),6),((1,10),(7,(2,3)))),16);
((((14,(8,11)),(4,(15,(13,(9,(5,12)))))),(6,((2,3),(7,(1,10))))),16);
((((2,3),(10,(1,7))),(6,((8,14),((4,((5,9),(13,15))),(11,12))))),16);
(((((2,3),(1,(7,10))),((4,(15,(13,(5,9)))),(14,(11,(8,12))))),6),16);
((((4,((5,12),(15,(9,13)))),(8,(14,11))),(6,((1,(7,10)),(2,3)))),16);
(((6,(14,((11,(8,12)),(4,(15,(5,(9,13))))))),((7,(1,10)),(2,3))),16);
((((((4,(15,((5,9),(12,13)))),(8,11)),14),(3,(2,(10,(1,7))))),6),16);
(((((4,(15,(5,(13,(9,12))))),(8,(11,14))),6),(1,((7,10),(2,3)))),16);
((((15,(4,(13,(5,9)))),(11,(14,(8,12)))),(6,((2,3),(7,(1,10))))),16);
((((((8,(11,12)),14),(4,(15,(13,(5,9))))),((2,3),(7,(1,10)))),6),16);
(((6,((1,(7,10)),(2,3))),((4,(15,(13,(5,9)))),(14,(11,(8,12))))),16);
(((((14,(11,(8,12))),((13,(5,9)),(4,15))),(10,((1,7),(2,3)))),6),16);
(((6,((2,3),(10,(1,7)))),(4,((15,(13,(5,9))),(14,(11,(8,12)))))),16);
(((((11,(8,12)),14),(4,(15,(13,(5,9))))),(((2,3),(10,(1,7))),6)),16);
(((((7,10),(1,(2,3))),((4,(15,(13,(5,9)))),(14,(11,(8,12))))),6),16);
(((((8,(14,11)),(4,(15,(13,(5,(9,12)))))),6),((2,3),(7,(1,10)))),16);
((((((11,(8,12)),14),(15,(4,(13,(5,9))))),((7,10),(1,(2,3)))),6),16);
((((((9,(5,12)),13),15),4),(((1,10),(7,(2,3))),(6,(11,(14,8))))),16);
(((((8,12),((4,(15,(13,(5,9)))),(11,14))),((2,3),(7,(1,10)))),6),16);
(((((((5,(9,12)),13),15),4),(14,(8,11))),(6,((2,3),(10,(1,7))))),16);
(((((14,(11,(8,12))),((13,(5,9)),(4,15))),((2,3),(10,(1,7)))),6),16);
(((((15,(14,(11,(8,12)))),(4,(13,(5,9)))),((7,(1,10)),(2,3))),6),16);
(((((11,(8,12)),(14,(4,(15,(9,(5,13)))))),6),((1,(7,10)),(2,3))),16);
((((((15,4),(13,(5,9))),(14,(11,(8,12)))),6),((7,10),(1,(2,3)))),16);
((((4,(15,(13,(5,9)))),(14,(11,(8,12)))),(6,((2,3),(1,(7,10))))),16);
((((((12,(8,11)),14),(4,(15,(13,(5,9))))),6),(7,((1,10),(2,3)))),16);
((((4,(15,(13,(5,9)))),(14,(12,(8,11)))),(6,((2,3),(7,(1,10))))),16);
(((6,(11,((15,(4,(13,(5,9)))),(14,(8,12))))),((2,3),(10,(1,7)))),16);
((((15,(5,(9,13))),(4,(14,(11,(8,12))))),(6,(1,((2,3),(7,10))))),16);
(((((2,3),(1,(7,10))),((4,(15,(13,(5,9)))),(14,(11,(8,12))))),6),16);
((((2,3),(10,(1,7))),(6,((4,(15,(13,(5,9)))),(14,(11,(8,12)))))),16);
((((4,(15,(13,(5,9)))),(14,(11,(8,12)))),(6,((2,3),(7,(1,10))))),16);
(((((14,(11,(8,12))),(13,(4,(15,(5,9))))),6),(10,((1,7),(2,3)))),16);
((6,(((1,10),(7,(2,3))),((4,(15,(13,(5,9)))),(14,(11,(8,12)))))),16);
(((6,((4,(15,(13,(5,9)))),(14,(11,(8,12))))),(3,(2,(1,(7,10))))),16);
(((6,(14,((4,(15,(9,(5,13)))),(11,(8,12))))),(10,((1,7),(2,3)))),16);
(((((10,(1,7)),(2,3)),((11,(8,12)),(14,(4,(15,(13,(5,9))))))),6),16);
((((4,(15,(13,(5,9)))),(14,(11,(8,12)))),(6,((2,3),(7,(10,1))))),16);
(((((2,3),(1,(7,10))),(((13,(12,(5,9))),(4,15)),(14,(8,11)))),6),16);
(((4,((11,(8,12)),(14,(15,(13,(5,9)))))),(6,((2,3),(7,(1,10))))),16);
(((((10,(1,7)),(2,3)),(4,(15,(13,(5,9))))),(6,(14,(11,(8,12))))),16);
(((((4,(15,(13,(5,9)))),(14,(11,(8,12)))),((10,(1,7)),(2,3))),6),16);
(((((7,(1,10)),(2,3)),((4,(15,(13,(9,(5,12))))),(14,(8,11)))),6),16);
(((6,((2,3),(1,(7,10)))),((11,(8,12)),(14,(4,(15,(9,(5,13))))))),16);
(((((4,(15,(13,(9,(5,12))))),(14,(8,11))),(3,(2,(7,(1,10))))),6),16);
(((((((8,12),(11,14)),(15,(13,(5,9)))),4),6),((1,(7,10)),(2,3))),16);
((((((11,(8,12)),14),(4,(15,(13,(5,9))))),6),((2,3),(1,(7,10)))),16);
((((((11,(8,12)),((13,(5,9)),(4,15))),14),6),((2,3),(1,(7,10)))),16);
((((14,(8,11)),(4,((5,9),(15,(12,13))))),(6,((1,7),(10,(2,3))))),16);
((((((11,(8,12)),14),(4,(15,(13,(5,9))))),6),((7,(1,10)),(2,3))),16);
(((6,((4,(9,(15,(5,13)))),(14,(11,(8,12))))),((10,(1,7)),(2,3))),16);
((((((11,(8,12)),14),(4,(15,(13,(5,9))))),6),(3,(2,(7,(1,10))))),16);
((((4,(15,(13,(5,9)))),((11,(8,12)),14)),(6,(10,((2,3),(1,7))))),16);
((((((13,(5,9)),(4,15)),(14,(8,(11,12)))),((10,(1,7)),(2,3))),6),16);
((((14,(4,(15,(13,(5,9))))),(11,(8,12))),(6,((2,3),(1,(7,10))))),16);
(((6,((4,(15,(13,(9,(5,12))))),(14,(8,11)))),((2,3),(7,(1,10)))),16);
((((((11,(8,12)),14),(4,(15,(5,(9,13))))),6),(2,(3,(7,(1,10))))),16);
((((((14,(11,(8,12))),4),(15,(9,(5,13)))),(3,((1,10),(2,7)))),6),16);
((((((13,(5,9)),(11,(8,12))),(14,(4,15))),6),((2,3),(7,(1,10)))),16);
((((4,(14,(11,(8,12)))),(15,(13,(5,9)))),(6,((1,(7,10)),(2,3)))),16);
(((((8,11),(14,(4,(15,(13,(9,(5,12))))))),((2,3),(7,(1,10)))),6),16);
(((6,((4,(15,(13,(5,9)))),(14,(11,(8,12))))),((2,3),(1,(7,10)))),16);
(((((14,(11,(8,12))),((9,13),(4,(5,15)))),6),((10,(1,7)),(2,3))),16);
((((((8,11),(4,(15,(13,(5,(9,12)))))),14),6),((2,3),(1,(7,10)))),16);
(((((4,(15,(13,(5,(9,12))))),(14,(8,11))),6),((2,3),(1,(7,10)))),16);
(((((15,(4,(13,(5,9)))),((8,12),(11,14))),6),((1,(7,10)),(2,3))),16);
(((((4,15),(14,(5,(9,13)))),(11,(8,12))),(6,((2,3),(10,(1,7))))),16);
(((((4,(((5,9),(13,15)),(11,(8,12)))),14),((2,3),(1,(7,10)))),6),16);
((((((9,(5,12)),(13,15)),4),(14,(8,11))),(6,((1,(7,10)),(2,3)))),16);
(((((4,(15,(13,(5,9)))),(14,(11,(8,12)))),6),((7,(1,10)),(2,3))),16);
((((((13,(5,9)),(4,15)),((8,12),(11,14))),((10,(1,7)),(2,3))),6),16);
((((2,3),(7,(1,10))),(6,((4,(9,(15,(5,13)))),(14,(11,(8,12)))))),16);
((((2,3),(7,(1,10))),(6,((4,(15,(13,(5,(9,12))))),(14,(8,11))))),16);
(((((13,(5,9)),(15,4)),(14,(11,(8,12)))),(6,((1,7),(10,(2,3))))),16);
(((((12,(8,11)),14),(15,(4,(13,(5,9))))),(6,((1,(7,10)),(2,3)))),16);
(((((14,(12,(11,8))),(4,(15,(5,(9,13))))),6),((2,3),(10,(1,7)))),16);
((((((4,(15,(13,(5,9)))),(14,(8,12))),11),((1,(7,10)),(2,3))),6),16);
(((6,((4,(15,(5,(9,13)))),(14,(11,(8,12))))),((1,(7,10)),(2,3))),16);
(((((4,(15,(13,(9,(5,12))))),(14,(8,11))),6),((1,7),(10,(2,3)))),16);
(((((4,(15,(13,(5,9)))),(14,(11,(8,12)))),6),((2,3),(7,(1,10)))),16);
(((((10,(1,7)),(2,3)),(11,((8,12),(14,(4,(15,(13,(5,9)))))))),6),16);
((((14,(12,(11,8))),((2,3),(7,(1,10)))),(6,(4,(15,(5,(9,13)))))),16);
(((((14,(11,(8,12))),(4,(15,(13,(5,9))))),6),((2,3),(10,(1,7)))),16);
(((((4,(13,15)),((5,9),(14,(8,(11,12))))),((7,(1,10)),(2,3))),6),16);
(((6,((4,(15,(13,(5,9)))),(14,(11,(8,12))))),((2,3),(1,(7,10)))),16);
(((((14,(8,11)),(4,(15,((9,12),(5,13))))),6),((1,(7,10)),(2,3))),16);
(((6,((4,((5,9),(13,15))),(14,(11,(8,12))))),((2,3),(10,(1,7)))),16);
((((((13,(15,(5,9))),4),(14,(11,(8,12)))),6),((1,(10,7)),(2,3))),16);
(((((15,(5,(9,13))),(4,(14,(11,(8,12))))),(2,(3,(1,(7,10))))),6),16);
((((11,(8,12)),(14,(4,(13,(15,(5,9)))))),(6,((2,3),(7,(1,10))))),16);
(((((4,(15,(5,(9,13)))),(11,14)),(8,12)),(6,((2,3),(10,(1,7))))),16);
(((((((5,15),(9,13)),4),(11,(14,(8,12)))),((1,(7,10)),(2,3))),6),16);
((((((8,12),(11,14)),(4,(15,(5,(9,13))))),6),((2,3),(1,(7,10)))),16);
(((((13,(5,9)),(4,15)),((8,12),(11,14))),(6,((1,(7,10)),(2,3)))),16);
(((6,((4,(15,(13,(5,9)))),(14,(12,(8,11))))),((2,3),(10,(1,7)))),16);
(((6,((14,(8,12)),(11,(4,(15,(13,(5,9))))))),((1,(7,10)),(2,3))),16);
(((((14,(11,(8,12))),(4,(15,(5,(9,13))))),6),((2,3),(1,(7,10)))),16);
(((((((4,15),(5,12)),(9,13)),(8,11)),14),(6,(1,((7,10),(2,3))))),16);
((((((8,14),(11,12)),((13,(5,9)),(4,15))),6),((2,3),(10,(1,7)))),16);
(((((8,11),(14,(4,(15,(13,(12,(5,9))))))),6),((1,(7,10)),(2,3))),16);
(((((8,12),(14,(11,(4,(15,(9,(13,5))))))),6),((2,3),(10,(1,7)))),16);
((((14,(11,(8,12))),(4,(15,(13,(5,9))))),((10,((1,7),(2,3))),6)),16);
(((((14,(11,(8,12))),(15,(4,(13,(5,9))))),6),((2,3),(7,(1,10)))),16);
((((11,(8,(12,14))),(4,(15,(13,(5,9))))),(6,((2,3),(7,(1,10))))),16);
((6,(((10,(1,7)),(2,3)),((4,(15,(9,(5,13)))),(11,(14,(8,12)))))),16);
((((4,(15,(9,(5,13)))),(14,(11,(8,12)))),(6,((1,10),(7,(2,3))))),16);
((((((11,(8,12)),14),(15,(4,(9,(5,13))))),((2,3),(1,(7,10)))),6),16);
(((6,((2,3),(7,(1,10)))),((15,(4,(5,(9,13)))),(14,(11,(8,12))))),16);
(((((4,(15,(13,(5,9)))),(14,(11,(8,12)))),6),((2,3),(7,(1,10)))),16);
((((11,(14,(8,12))),((13,(5,9)),(4,15))),(6,((2,3),(7,(1,10))))),16);
((((2,3),(1,(7,10))),(6,((4,(15,(9,(5,13)))),(14,(11,(8,12)))))),16);
(((((1,(7,10)),(2,3)),((4,(15,((5,9),(12,13)))),(14,(8,11)))),6),16);
(((6,((2,3),(7,(1,10)))),((4,(15,(13,(5,9)))),(14,(11,(8,12))))),16);
(((((14,(11,(8,12))),(4,(15,(13,(5,9))))),((10,(1,7)),(2,3))),6),16);
((((((9,(12,(5,13))),15),4),(6,(14,(8,11)))),((2,3),(10,(1,7)))),16);
(((((8,11),14),(4,(15,((9,12),(5,13))))),(6,((1,10),(7,(2,3))))),16);
(((((((1,10),7),(2,3)),(4,(15,(5,(9,13))))),6),(14,(11,(8,12)))),16);
(((((1,(7,10)),(2,3)),((14,(11,(8,12))),(4,(15,(13,(5,9)))))),6),16);
((((((((9,(5,12)),13),15),4),(14,(8,11))),6),((7,10),(1,(2,3)))),16);
(((6,(3,(2,(10,(1,7))))),((11,(8,12)),(14,(4,(15,(5,(9,13))))))),16);
((((((11,(8,12)),14),(4,(15,(13,(5,9))))),((1,(7,10)),(2,3))),6),16);
(((((4,(15,(12,(13,(5,9))))),(14,(8,11))),6),((1,7),(10,(2,3)))),16);
(((((((11,12),8),14),(4,(15,(13,(5,9))))),((2,3),(10,(1,7)))),6),16);
(((((14,(11,(8,12))),(4,(15,(13,(5,9))))),6),(3,(2,(1,(7,10))))),16);
(((((7,10),(1,(2,3))),((14,((9,12),(15,(5,13)))),(4,(8,11)))),6),16);
(((((14,(8,11)),(15,(4,(9,(13,(5,12)))))),6),((2,3),(1,(7,10)))),16);
((((14,(11,(8,12))),(4,(15,(13,(5,9))))),(6,((10,(1,7)),(2,3)))),16);
((((((14,(8,12)),11),(4,(15,(13,(5,9))))),6),((1,(7,10)),(2,3))),16);
((((4,(15,(13,(12,(5,9))))),(14,(8,11))),(6,((2,3),(7,(1,10))))),16);
(((((((8,12),11),14),(4,(15,(13,(5,9))))),6),((2,3),(1,(7,10)))),16);
(((((11,(8,12)),14),((5,(9,13)),(4,15))),(((7,(1,10)),(2,3)),6)),16);
((((11,(14,(8,12))),(4,(15,(13,(5,9))))),(6,((7,(1,10)),(2,3)))),16);
(((((4,15),(5,(9,13))),(14,(11,(8,12)))),(6,((2,3),(10,(1,7))))),16);
((((((8,12),(11,14)),(4,(15,(13,(9,5))))),6),((2,3),(7,(1,10)))),16);
(((6,((7,(1,10)),(2,3))),((8,12),((11,14),(4,(15,(13,(5,9))))))),16);
(((((4,(9,(5,13))),(11,(8,12))),(14,15)),(((2,3),(10,(7,1))),6)),16);
(((6,((2,3),(1,(7,10)))),((8,12),((4,(15,(13,(5,9)))),(11,14)))),16);
(((((14,(8,(11,12))),(4,(15,(13,(5,9))))),6),((2,3),(1,(7,10)))),16);
((((((4,15),(11,(8,12))),(14,(13,(5,9)))),6),((2,3),(10,(1,7)))),16);
((((14,(4,(15,(13,(5,9))))),(11,(8,12))),(6,((2,3),(1,(7,10))))),16);
(((((8,12),(11,14)),((5,(9,13)),(4,15))),(6,((2,7),(3,(1,10))))),16);
((((4,(15,(5,(13,(9,12))))),(11,(8,14))),(6,((2,3),(1,(7,10))))),16);
(((((4,(15,(13,(5,9)))),(14,(11,(8,12)))),((2,3),(10,(1,7)))),6),16);
(((((14,(11,(8,12))),(4,(15,(13,(5,9))))),(7,((2,3),(1,10)))),6),16);
((((6,(4,(15,(13,(5,9))))),((7,(1,10)),(2,3))),(14,(11,(8,12)))),16);
((((4,(15,(5,(9,13)))),(14,(11,(8,12)))),(6,((1,(7,10)),(2,3)))),16);
((((((8,(11,12)),14),(4,(15,(13,(5,9))))),((2,3),(10,(1,7)))),6),16);
(((14,(4,(15,(13,(5,9))))),(6,((11,(8,12)),(3,(2,(7,(1,10))))))),16);
((((10,(7,1)),(2,3)),(6,((4,(15,(13,(5,9)))),(11,(14,(8,12)))))),16);
((((4,(15,(5,(9,13)))),(14,(11,(8,12)))),(6,((2,3),(7,(1,10))))),16);
(((((11,14),8),(4,(15,(9,(13,(5,12)))))),(6,((2,3),(10,(1,7))))),16);
(((4,(6,((1,(7,10)),(2,3)))),((15,((5,12),(9,13))),(14,(8,11)))),16);
(((6,((15,(4,(13,(5,(9,12))))),(11,(8,14)))),((2,3),(1,(7,10)))),16);
((((((13,(5,9)),(15,4)),(14,(11,(8,12)))),6),((2,3),(7,(10,1)))),16);
((((((15,(13,(5,9))),4),(11,(8,12))),14),(6,((1,(7,10)),(2,3)))),16);
((((((15,(9,13)),(4,5)),(14,(11,(8,12)))),6),((2,3),(1,(7,10)))),16);
((((14,(11,(8,12))),((13,(5,9)),(4,15))),(6,((2,3),(1,(7,10))))),16);
((6,(((1,(7,10)),(2,3)),((4,(15,(13,(5,9)))),(14,(11,(8,12)))))),16);
(((((((5,13),(9,15)),4),(14,(11,(8,12)))),6),((10,(1,7)),(2,3))),16);
(((((((8,12),11),14),(4,(15,(13,(5,9))))),6),((2,3),(1,(7,10)))),16);
(((((12,(14,(8,11))),(15,(9,(5,13)))),4),(6,(3,(2,(1,(7,10)))))),16);
(((((((8,12),11),14),((13,(5,9)),(4,15))),6),((2,3),(7,(1,10)))),16);
(((((4,(15,(13,(5,9)))),(14,(11,(8,12)))),6),(3,(2,(10,(1,7))))),16);
((((4,(15,((9,12),(5,13)))),(8,(14,11))),(6,((2,3),(7,(1,10))))),16);
(((((14,(11,(8,12))),(4,(15,(5,(13,9))))),6),((7,10),(1,(2,3)))),16);
(((((4,(15,(13,(5,9)))),(11,(8,12))),14),(6,((10,(1,7)),(2,3)))),16);
(((6,((2,3),(7,(1,10)))),((4,(15,(13,(12,(5,9))))),(8,(11,14)))),16);
(((((4,15),((9,(13,5)),(14,(11,(8,12))))),6),((2,3),(1,(10,7)))),16);
(((((1,7),(10,(2,3))),((14,(11,(8,12))),(15,(4,(5,(9,13)))))),6),16);
((((((13,(5,9)),(11,(8,12))),(14,(4,15))),((1,7),(10,(2,3)))),6),16);
(((6,((4,(12,(13,(5,9)))),((8,11),(14,15)))),((2,3),(7,(1,10)))),16);
(((((4,(15,(13,(5,9)))),((8,12),(11,14))),((2,3),(1,(7,10)))),6),16);
((((10,(1,7)),(2,3)),(6,((4,(15,(9,(5,13)))),(14,(11,(8,12)))))),16);
(((((4,(15,(13,(5,9)))),(8,((11,12),14))),((1,10),(7,(2,3)))),6),16);
((((14,(11,(8,12))),(4,(15,(13,(5,9))))),(6,((2,3),(7,(1,10))))),16);
((((((15,(13,(5,9))),4),(14,(11,(8,12)))),6),((2,3),(10,(1,7)))),16);
((((((11,(8,12)),14),(4,(15,(9,(5,13))))),6),((2,3),(10,(1,7)))),16);
(((((15,(4,(9,(13,(5,12))))),(11,(8,14))),((1,(7,10)),(2,3))),6),16);
((((((11,(8,12)),14),(15,(4,(13,(5,9))))),6),(10,((1,7),(2,3)))),16);
(((((4,(15,(5,(9,13)))),(14,(11,(8,12)))),((2,3),(10,(1,7)))),6),16);
((((((11,(8,12)),14),(4,(15,(13,(5,9))))),6),((1,7),(10,(2,3)))),16);
(((((((((5,(9,12)),13),15),4),(8,14)),11),((1,(7,10)),(2,3))),6),16);
(((6,(14,((8,11),(4,(15,(13,(5,(9,12)))))))),((2,3),(1,(7,10)))),16);
(((((14,(11,(8,12))),(4,(15,(13,(5,9))))),((7,(1,10)),(2,3))),6),16);
(((((8,(11,14)),((9,(13,(5,12))),(4,15))),((7,(1,10)),(2,3))),6),16);
(((((12,(8,11)),14),(4,(15,(13,(5,9))))),(6,((2,3),(10,(1,7))))),16);
(((((14,(4,(15,(13,(5,9))))),(11,(8,12))),6),(2,(3,(7,(1,10))))),16);
((((((8,12),(14,11)),(4,(15,(9,(5,13))))),6),((7,(1,10)),(2,3))),16);
(((6,(4,(15,(13,(5,9))))),(((2,3),(1,(7,10))),(14,((8,12),11)))),16);
(((((14,(11,(8,12))),((13,(5,9)),(4,15))),6),((2,3),(1,(7,10)))),16);
((((4,(13,(15,(5,9)))),((8,12),(11,14))),(6,(1,((2,3),(7,10))))),16);
(((((((8,(12,11)),14),4),(13,(15,(5,9)))),((2,3),(7,(1,10)))),6),16);
((((((9,(5,13)),15),4),((14,(11,(8,12))),((7,(1,10)),(2,3)))),6),16);
(((((8,(11,14)),(4,(15,(12,(13,(5,9)))))),((2,3),(7,(1,10)))),6),16);
((((((13,(5,9)),(15,4)),(14,(11,(8,12)))),6),((2,3),(7,(1,10)))),16);
(((((4,(15,((9,12),(5,13)))),(11,14)),8),(6,((2,3),(1,(7,10))))),16);
(((((11,12),((4,(15,(9,(5,13)))),(8,14))),6),((1,10),(7,(2,3)))),16);
(((6,((7,(1,10)),(2,3))),((14,(11,(8,12))),(4,(15,(13,(5,9)))))),16);
(((((8,12),(14,11)),(4,(15,(13,(5,9))))),(6,((10,(1,7)),(2,3)))),16);
((((((12,(8,11)),14),(15,(4,(5,(13,9))))),(3,(2,(1,(7,10))))),6),16);
((((14,((4,(15,(13,(12,(5,9))))),(8,11))),6),((2,3),(7,(1,10)))),16);
(((((14,(4,(15,(13,(5,9))))),(11,(8,12))),((2,3),(7,(10,1)))),6),16);
(((((((11,(8,12)),14),4),(15,(13,(5,9)))),6),((3,(1,10)),(2,7))),16);
(((((4,(15,(13,(5,9)))),(14,(11,(8,12)))),((7,(1,10)),(2,3))),6),16);
(((6,((4,((13,(5,9)),(12,15))),(11,(8,14)))),((7,(1,10)),(2,3))),16);
((((((11,(8,12)),14),(4,(15,(5,(9,13))))),(3,(2,(7,(1,10))))),6),16);
(((((((12,11),8),14),((5,(9,13)),(4,15))),(3,(2,(1,(7,10))))),6),16);
((((((11,14),(4,(15,(13,(5,9))))),(8,12)),6),((7,(1,10)),(2,3))),16);
(((((((12,(5,9)),13),15),4),(6,(14,(8,11)))),((2,3),(7,(1,10)))),16);
(((6,((2,3),(10,(1,7)))),((4,(15,(9,(5,13)))),(14,(11,(8,12))))),16);
((((14,(11,(8,12))),(4,(15,(13,(5,9))))),(6,((1,10),(7,(2,3))))),16);
(((((4,(15,(12,(13,(5,9))))),(14,(8,11))),((1,(7,10)),(2,3))),6),16);
(((((11,(8,12)),14),(4,(15,(13,(5,9))))),(6,((2,3),(10,(1,7))))),16);
((((14,(11,(8,12))),(4,(15,(13,(5,9))))),(((2,3),(7,(1,10))),6)),16);
(((((8,12),(4,(15,(9,(5,13))))),(11,14)),(6,((10,(1,7)),(2,3)))),16);
((((((((12,13),(5,9)),15),4),(11,(8,14))),6),((2,3),(1,(7,10)))),16);
((((4,(((5,13),(15,9)),(14,(11,(8,12))))),6),((2,3),(7,(1,10)))),16);
((((((11,(12,8)),14),(4,(15,(13,(5,9))))),((2,3),(1,(10,7)))),6),16);
((((((8,12),(11,14)),4),(15,(13,(5,9)))),(6,((1,7),(2,(3,10))))),16);
(((((4,((5,13),(9,15))),(14,(11,(8,12)))),6),((2,3),(7,(1,10)))),16);
(((((12,(11,8)),(4,(15,(5,(9,13))))),14),(6,(7,((2,3),(1,10))))),16);
((((4,(15,(9,(5,13)))),(6,((8,11),(12,14)))),((10,(1,7)),(2,3))),16);
((((4,(15,(9,(5,13)))),(11,((8,12),14))),(((2,3),(1,(7,10))),6)),16);
((((7,10),(1,(2,3))),(6,(((5,(9,13)),(4,15)),(14,(11,(8,12)))))),16);
((((((4,(15,(13,(5,9)))),(11,(8,12))),14),6),((1,(7,10)),(2,3))),16);
(((((15,(13,(5,9))),(14,(11,(8,12)))),4),(6,((10,(1,7)),(2,3)))),16);
(((((4,(9,(15,(5,13)))),(14,(11,(8,12)))),6),((2,3),(1,(10,7)))),16);
((((2,3),(1,(7,10))),(6,((14,(8,11)),(15,(4,(9,(13,(5,12)))))))),16);
(((((1,7),(10,(2,3))),((4,(15,(5,(9,13)))),(14,(11,(8,12))))),6),16);
(((((11,14),8),(4,((12,(5,9)),(13,15)))),(6,((1,(7,10)),(2,3)))),16);
((((14,(11,(8,12))),((13,(5,9)),(4,15))),((3,(2,(1,(7,10)))),6)),16);
((((((13,(5,9)),(14,(11,(8,12)))),(4,15)),6),((2,3),(1,(7,10)))),16);
(((((2,3),(1,(7,10))),((4,(15,(12,((5,9),13)))),(14,(8,11)))),6),16);
(((((((8,12),11),14),(4,(15,(13,(5,9))))),6),((2,3),(10,(1,7)))),16);
((((((11,(8,12)),14),(4,(15,(5,(9,13))))),6),((2,3),(7,(1,10)))),16);
(((((4,(15,(13,(5,9)))),((8,12),(11,14))),((2,3),(1,(7,10)))),6),16);
((((((11,(12,8)),14),(4,(15,(13,(5,9))))),6),((2,3),(1,(7,10)))),16);
(((((4,(15,(5,(9,13)))),(11,(14,(8,12)))),6),(3,(2,(7,(1,10))))),16);
((((4,(15,(13,(5,9)))),(11,(14,(8,12)))),(6,((2,3),(1,(7,10))))),16);
(((6,((2,3),(10,(1,7)))),((4,(15,(13,(5,9)))),(14,(11,(8,12))))),16);
((((((((9,(5,12)),13),4),15),(14,(8,11))),((2,3),(7,(1,10)))),6),16);
((((4,(15,(5,(9,13)))),(14,(11,(8,12)))),(6,((2,3),(1,(7,10))))),16);
((((14,(11,(8,12))),(4,(15,(13,(5,9))))),(6,((10,(1,7)),(2,3)))),16);
((((4,(15,(13,(5,9)))),(14,(11,(8,12)))),(6,((7,(1,10)),(2,3)))),16);
(((14,((4,(15,(5,(9,13)))),(11,(8,12)))),(((2,3),(7,(1,10))),6)),16);
((((((9,(5,12)),(13,15)),(4,(14,(8,11)))),((2,3),(7,(1,10)))),6),16);
((((((11,14),(8,12)),(4,(15,(5,(9,13))))),((2,3),(1,(7,10)))),6),16);
((((4,((15,(13,(5,9))),(11,(14,(8,12))))),6),((7,(1,10)),(2,3))),16);
((((14,(8,(11,12))),(4,(15,(13,(5,9))))),(((2,3),(1,(7,10))),6)),16);
((((((8,12),(4,(15,(13,(5,9))))),(11,14)),6),((2,3),(1,(7,10)))),16);
(((6,((4,(15,(9,(5,13)))),(11,(14,(8,12))))),(10,((2,3),(1,7)))),16);
(((((((11,12),8),14),(4,(15,(5,(9,13))))),((1,7),(10,(2,3)))),6),16);
((((((((15,(5,9)),13),4),(11,(8,12))),14),6),((2,3),(7,(1,10)))),16);
(((((2,3),(10,(1,7))),((4,(15,(13,(5,9)))),(14,(11,(8,12))))),6),16);
((((4,(15,(5,(9,13)))),(14,(11,(8,12)))),(6,((1,(7,10)),(2,3)))),16);
(((((9,(13,(5,12))),(4,15)),(14,(8,11))),(6,((2,3),(1,(7,10))))),16);
(((6,((8,14),((11,12),(4,(15,(13,(5,9))))))),((1,(7,10)),(2,3))),16);
((((11,(8,12)),(14,(4,(15,(13,(5,9)))))),(6,((2,3),(10,(1,7))))),16);
((((((((13,(5,9)),15),4),14),(11,(8,12))),((2,3),(1,(7,10)))),6),16);
(((((11,14),((8,12),(4,(15,(13,(5,9)))))),((2,3),(10,(1,7)))),6),16);
((((2,3),(10,(1,7))),(6,((11,(8,12)),(14,(4,((5,9),(13,15))))))),16);
((((4,(15,(13,(5,9)))),(14,(11,(8,12)))),(6,((10,(1,7)),(2,3)))),16);
(((6,((2,3),(7,(1,10)))),((4,(15,(5,(9,13)))),(14,(11,(8,12))))),16);
(((((11,14),((8,12),(4,(15,(13,(5,9)))))),6),((2,3),(1,(7,10)))),16);
((6,(((2,3),(1,(7,10))),((4,(15,(13,(5,9)))),((8,12),(11,14))))),16);
(((6,((7,(1,10)),(2,3))),(((13,(5,9)),(4,15)),(14,(11,(8,12))))),16);
((((8,(11,12)),(14,(4,(15,(13,(5,9)))))),(6,((7,(1,10)),(2,3)))),16);
((((((14,(8,12)),11),(4,(15,(9,(5,13))))),(2,(3,(1,(7,10))))),6),16);
(((((11,(14,(8,12))),(4,(15,(13,(5,9))))),((2,3),(1,(7,10)))),6),16);
(((((4,(15,(13,(5,9)))),(14,(11,(8,12)))),6),((1,7),(10,(2,3)))),16);
(((((2,3),(1,(10,7))),((4,(15,(9,(5,13)))),(14,(11,(8,12))))),6),16);
(((6,(14,((4,(15,(13,(12,(5,9))))),(8,11)))),((2,3),(7,(10,1)))),16);
(((((15,(13,(5,9))),(4,(14,(11,(8,12))))),((10,(1,7)),(2,3))),6),16);
(((((2,3),(10,(1,7))),((4,(15,(13,(5,9)))),(14,(11,(8,12))))),6),16);
((((((13,(5,9)),(4,15)),(14,(11,(8,12)))),((2,3),(1,(7,10)))),6),16);
((((((15,((5,12),(9,13))),4),(14,(8,11))),6),((2,3),(7,(1,10)))),16);
(((((((5,13),15),9),(4,(14,(11,(8,12))))),((2,3),(10,(1,7)))),6),16);
(((6,(14,((11,(8,12)),(4,(15,(13,(5,9))))))),((1,10),(7,(2,3)))),16);
((((((11,(8,12)),14),(4,(15,(13,(5,9))))),6),(1,((2,3),(7,10)))),16);
((((((12,11),8),14),(4,(15,(13,(5,9))))),(6,((10,(7,1)),(2,3)))),16);
(((6,((4,(13,(15,(5,9)))),(14,(11,(8,12))))),((10,(1,7)),(3,2))),16);
((((14,(4,(15,(13,(5,9))))),((11,(8,12)),(3,(2,(10,(7,1)))))),6),16);
((((((8,12),(11,14)),(15,(4,(13,(5,9))))),6),((2,3),(7,(1,10)))),16);
(((((((4,15),(5,(9,13))),(11,(8,12))),14),6),((1,(10,7)),(2,3))),16);
((((((11,(8,12)),14),(4,(15,(13,(5,9))))),6),((1,(7,10)),(2,3))),16);
((((((8,12),11),14),(4,(15,(13,(5,9))))),(6,((7,10),(3,(1,2))))),16);
(((((4,(15,(5,(9,13)))),(14,(11,(8,12)))),((2,3),(7,(1,10)))),6),16);
((((((8,(11,12)),14),(4,(15,(13,(5,9))))),6),((7,(1,10)),(2,3))),16);
(((((4,(15,(13,(12,(5,9))))),(14,(8,11))),(1,((2,3),(7,10)))),6),16);
(((((4,(15,(5,(9,13)))),(8,(11,(12,14)))),((2,3),(10,(1,7)))),6),16);
(((6,((13,(4,(15,(5,9)))),(14,(11,(8,12))))),((1,(7,10)),(2,3))),16);
((((((14,(11,(8,12))),4),(15,(5,(9,13)))),((2,3),(10,(1,7)))),6),16);
(((((2,3),(7,(1,10))),((4,(15,((5,9),(12,13)))),(14,(8,11)))),6),16);
((((11,(14,(8,12))),((13,(5,9)),(4,15))),(6,((2,3),(1,(7,10))))),16);
(((((((11,12),8),14),(15,(4,(13,(5,9))))),6),((2,3),(10,(1,7)))),16);
((((((11,12),(8,14)),(4,(15,(13,(5,9))))),(1,((7,10),(2,3)))),6),16);
(((((4,(15,((5,13),(9,12)))),(14,(8,11))),((2,3),(7,(1,10)))),6),16);
((((4,(15,(13,(5,9)))),(14,(11,(8,12)))),(6,((1,(7,10)),(2,3)))),16);
(((6,((2,3),(10,(1,7)))),((4,(15,(13,(9,(5,12))))),(14,(8,11)))),16);
(((((((((12,9),5),13),15),4),(14,(8,11))),6),((2,3),(1,(7,10)))),16);
(((((14,(8,(11,12))),(4,(15,(9,(5,13))))),6),((1,(7,10)),(2,3))),16);
((((((11,(8,12)),14),(4,(15,(13,(5,9))))),(3,(2,(7,(1,10))))),6),16);
(((6,((10,(1,7)),(2,3))),((4,(15,(9,(5,13)))),(14,(11,(8,12))))),16);
(((((((9,13),5),15),4),(14,(11,(8,12)))),(6,((2,3),(1,(7,10))))),16);
(((((4,(15,(13,(5,9)))),14),(8,(11,12))),(6,((1,(7,10)),(2,3)))),16);
(((6,((4,((5,9),(13,15))),(14,((8,12),11)))),((2,3),(1,(7,10)))),16);
((((14,((4,(15,(9,(5,13)))),(11,(8,12)))),((2,3),(7,(1,10)))),6),16);
(((((11,(8,12)),(4,(15,(13,(5,9))))),14),(6,((2,3),(7,(1,10))))),16);
(((((((13,(5,9)),15),4),(14,(8,12))),11),(6,((10,(1,7)),(2,3)))),16);
((((((9,15),(4,(5,13))),14),(11,(8,12))),(6,(7,((2,3),(1,10))))),16);
((((((15,(4,(13,(5,9)))),(8,(11,12))),14),((2,3),(7,(1,10)))),6),16);
((((((15,4),(13,(5,9))),(14,(11,(8,12)))),((2,3),(10,(1,7)))),6),16);
(((((14,(12,(8,11))),((13,(5,9)),(4,15))),6),(1,(2,(3,(7,10))))),16);
((((8,12),((4,(15,(13,(5,9)))),(11,14))),(6,((1,2),(3,(7,10))))),16);
(((6,((2,3),(1,(7,10)))),(11,((4,(15,(13,(5,9)))),(14,(8,12))))),16);
(((((4,(15,(9,(5,13)))),(14,(11,(8,12)))),((2,3),(7,(1,10)))),6),16);
((((6,((7,(1,10)),(2,3))),((8,(11,12)),(4,(15,(13,(5,9)))))),14),16);
(((((14,(8,12)),(11,(4,(15,(13,(5,9)))))),((7,10),(1,(2,3)))),6),16);
(((((15,(13,(5,9))),(4,(14,(11,(8,12))))),((1,(7,10)),(2,3))),6),16);
(((((3,(7,10)),(1,2)),(14,((4,(15,(13,(5,9)))),(11,(8,12))))),6),16);
((((2,3),(10,(1,7))),(6,((14,(11,(8,12))),((9,(5,13)),(4,15))))),16);
((((((8,12),(15,(13,(5,9)))),(4,(11,14))),((2,3),(1,(7,10)))),6),16);
((((2,3),(1,(7,10))),(6,(14,((4,(15,(9,(5,13)))),(11,(8,12)))))),16);
(((((4,(15,(13,(5,9)))),(14,(8,12))),11),(6,((10,(1,7)),(2,3)))),16);
((6,(((2,3),(7,(1,10))),((11,(8,12)),(14,(4,((9,13),(5,15))))))),16);
((((4,(15,(13,(5,9)))),(14,(8,(11,12)))),(6,(3,(2,(1,(7,10)))))),16);
((((14,(8,11)),(((5,12),(9,13)),(4,15))),(6,((2,3),(7,(1,10))))),16);
((((2,3),(7,(1,10))),(6,((8,14),(11,(4,(15,((5,12),(9,13)))))))),16);
((((((5,(9,13)),(4,15)),(14,(11,(8,12)))),6),((2,3),(1,(7,10)))),16);
((((15,(4,(13,(5,9)))),(14,(11,(8,12)))),(((2,3),(10,(1,7))),6)),16);
((((((8,11),(4,(15,(13,(5,9))))),(12,14)),((7,(1,10)),(2,3))),6),16);
((((11,(14,(8,12))),((5,(15,(9,13))),4)),(6,((2,3),(7,(1,10))))),16);
((((11,(4,(15,(9,(5,13))))),(14,(8,12))),(6,((7,10),(1,(2,3))))),16);
(((6,((2,3),(1,(7,10)))),(((13,(5,9)),(4,15)),(14,(11,(8,12))))),16);
(((((4,(15,(5,(9,13)))),11),(14,(8,12))),(6,((2,3),(1,(7,10))))),16);
(((((14,(11,(8,12))),(4,(15,(13,(5,9))))),6),((10,(1,7)),(2,3))),16);
(((((13,(5,9)),(4,15)),(14,(11,(8,12)))),(6,(2,(3,(7,(1,10)))))),16);
((((((11,14),(8,12)),(4,(9,(15,(5,13))))),6),((2,3),(7,(1,10)))),16);
((((((13,(4,(15,(5,(9,12))))),(8,11)),14),6),((2,3),(10,(1,7)))),16);
((((14,(11,(8,12))),(4,(15,(5,(9,13))))),(6,((2,3),(7,(1,10))))),16);
(((6,((2,3),(10,(1,7)))),((4,(15,(5,(13,9)))),(14,(11,(8,12))))),16);
(((((15,(13,(5,9))),(14,(11,(8,12)))),4),(6,((2,3),(1,(7,10))))),16);
(((6,((8,11),(14,(4,(15,(13,(12,(5,9)))))))),((1,(7,10)),(2,3))),16);
(((6,((14,(11,(8,12))),(4,(15,(13,(5,9)))))),((2,3),(7,(1,10)))),16);
(((6,((4,(15,(13,(5,9)))),(11,(14,(8,12))))),((2,3),(7,(1,10)))),16);
(((((4,(13,(5,9))),15),(14,(11,(8,12)))),(6,((2,3),(10,(1,7))))),16);
(((((14,(8,(11,12))),(4,(15,(9,(5,13))))),((2,3),(1,(7,10)))),6),16);
(((((12,(5,(9,13))),(15,4)),(14,(8,11))),(6,((2,3),(1,(7,10))))),16);
(((((4,(15,(13,(12,(5,9))))),(14,(8,11))),6),((2,3),(10,(1,7)))),16);
(((((2,3),(1,(7,10))),((4,(15,(13,(5,9)))),((8,12),(11,14)))),6),16);
((((((4,(15,(13,(5,9)))),(11,(8,12))),14),((2,3),(7,(1,10)))),6),16);
(((((8,12),(15,(4,(13,(5,9))))),(11,14)),(6,((7,10),(1,(2,3))))),16);
(((((11,(8,12)),(14,(15,(4,(13,(5,9)))))),6),((2,3),(1,(7,10)))),16);
(((((13,(5,9)),(4,15)),(14,(11,(8,12)))),(6,(3,(2,(1,(7,10)))))),16);
((((((11,(8,12)),14),(4,(15,(5,(9,13))))),6),((2,3),(7,(1,10)))),16);
(((((14,(8,11)),(4,(15,(9,(13,(5,12)))))),6),((2,3),(1,(7,10)))),16);
(((6,((2,3),(1,(7,10)))),((4,(15,(9,(5,13)))),(14,(11,(8,12))))),16);
(((6,((4,(15,(13,(5,9)))),(14,(11,(8,12))))),((2,3),(7,(1,10)))),16);
((((4,(15,(9,(5,13)))),(6,((2,3),(10,(1,7))))),((8,12),(11,14))),16);
((((14,(4,(13,(15,(5,9))))),(11,(8,12))),(6,((2,3),(1,(7,10))))),16);
((((((15,(5,(9,12))),(4,13)),(14,(8,11))),((7,(1,10)),(2,3))),6),16);
((((((12,(8,11)),14),(4,(15,(13,(5,9))))),6),((2,3),(1,(7,10)))),16);
(((((4,(15,(13,(5,9)))),(14,(11,(8,12)))),6),((2,3),(1,(7,10)))),16);
(((6,(3,(2,(7,(1,10))))),((11,(8,12)),(14,(4,(15,(5,(9,13))))))),16);
(((((7,(1,10)),(2,3)),6),((4,(15,(9,(5,13)))),(14,(11,(8,12))))),16);
(((((4,(13,(15,(5,9)))),(14,(8,(11,12)))),((7,10),(1,(2,3)))),6),16);
(((((4,(15,(13,(5,9)))),(14,(11,(8,12)))),(2,((1,7),(3,10)))),6),16);
(((((4,(15,(9,(5,13)))),(14,(11,(8,12)))),((2,3),(10,(1,7)))),6),16);
(((6,((4,((9,(5,12)),(13,15))),(14,(8,11)))),((10,(1,7)),(2,3))),16);
(((6,((15,(4,(13,(5,9)))),(14,(11,(8,12))))),((2,3),(7,(1,10)))),16);
((((15,(4,(13,(5,(9,12))))),(8,(11,14))),(((2,3),(1,(10,7))),6)),16);
((((14,(11,(8,12))),(4,(15,(5,(9,13))))),(6,((2,3),(1,(7,10))))),16);
(((((13,(12,(5,9))),(4,15)),(14,(8,11))),(((10,(1,7)),(2,3)),6)),16);
((((14,(8,11)),(6,(15,(4,(5,(13,(9,12))))))),((2,3),(10,(1,7)))),16);
(((((1,(7,10)),(2,3)),((14,(11,(8,12))),(4,(15,(13,(5,9)))))),6),16);
(((6,((11,(8,12)),(14,(4,(15,(13,(5,9))))))),((2,3),(7,(1,10)))),16);
(((((2,3),(10,(1,7))),((15,(13,(5,(9,12)))),(4,(14,(8,11))))),6),16);
(((((4,(15,(5,(9,13)))),(14,(11,(8,12)))),6),((2,10),(3,(1,7)))),16);
(((((8,(4,(15,(9,(5,13))))),(14,(11,12))),6),((7,10),(1,(2,3)))),16);
((((11,(14,(8,12))),(4,(9,(15,(5,13))))),(6,((2,3),((7,10),1)))),16);
((((14,(11,(8,12))),((9,(5,13)),(4,15))),(6,((2,3),(1,(10,7))))),16);
(((6,((2,3),(10,(1,7)))),((8,11),(14,(4,(15,(9,(13,(5,12)))))))),16);
(((((4,(15,(13,(5,9)))),(12,(14,(8,11)))),6),((1,7),(10,(2,3)))),16);
(((((11,(8,12)),(14,(4,(15,(13,(5,9)))))),((7,(1,10)),(2,3))),6),16);
((((((15,13),(4,(5,9))),(8,12)),(11,14)),(6,((2,3),(10,(1,7))))),16);
(((((4,(15,(5,(9,13)))),((8,11),(14,12))),6),((2,3),(1,(7,10)))),16);
(((((15,(4,(13,(5,9)))),(14,(11,(8,12)))),6),((2,3),(10,(1,7)))),16);
((((14,(11,(8,12))),(4,(15,(13,(5,9))))),(((10,(7,1)),(2,3)),6)),16);
((((((8,11),14),(4,(15,(13,(9,(5,12)))))),6),((2,3),(7,(1,10)))),16);
(((((4,(15,(13,(5,9)))),(14,(11,(8,12)))),6),(1,((7,10),(2,3)))),16);
((6,((10,((2,3),(1,7))),((15,(4,(13,(5,9)))),(14,(11,(8,12)))))),16);
((((((8,12),11),14),(4,(15,(9,(5,13))))),(6,((7,10),(1,(2,3))))),16);
(((6,((2,(3,(1,(7,10)))),(14,(11,(8,12))))),(4,(5,(15,(9,13))))),16);
((((((13,(5,9)),(4,15)),(14,(11,(8,12)))),6),((2,3),(7,(1,10)))),16);
(((((8,12),(11,14)),(15,(4,(5,(9,13))))),(6,((2,3),(1,(7,10))))),16);
(((((8,12),(14,11)),(4,(15,(9,(5,13))))),(6,((10,(1,7)),(2,3)))),16);
((((((8,12),(11,14)),(4,(15,(13,(5,9))))),(3,(2,(10,(1,7))))),6),16);
(((6,((8,12),((4,(15,(13,(5,9)))),(11,14)))),((1,7),(10,(2,3)))),16);
((((14,(11,(8,12))),(4,(15,(13,(5,9))))),(6,((2,3),(1,(7,10))))),16);
(((14,(4,(15,(13,(5,9))))),((11,(8,12)),(((7,(1,10)),(2,3)),6))),16);
(((((14,(8,11)),(4,(15,(13,(5,(9,12)))))),6),((1,(7,10)),(2,3))),16);
(((((4,(15,(13,(5,9)))),(11,((8,12),14))),((2,3),(10,(1,7)))),6),16);
((((((13,(5,9)),(15,4)),(14,(11,(8,12)))),((2,3),(1,(7,10)))),6),16);
(((6,((2,3),(10,(1,7)))),((4,(15,(5,(9,13)))),(14,(11,(8,12))))),16);
(((((14,(11,(8,12))),(4,(15,(13,(5,9))))),((2,3),(7,(1,10)))),6),16);
((((((11,(8,12)),14),((13,(5,9)),(4,15))),((1,(7,10)),(2,3))),6),16);
((((((11,(8,12)),14),(4,(15,(13,(5,9))))),(1,((2,3),(7,10)))),6),16);
(((((11,(8,12)),14),(4,(15,(13,(5,9))))),(((1,(7,10)),(2,3)),6)),16);
((((4,((13,15),(5,9))),(14,(11,(8,12)))),(6,((10,(1,7)),(2,3)))),16);
(((6,((11,(8,12)),(14,(4,(15,(13,(5,9))))))),((2,3),(1,(7,10)))),16);
(((((4,(15,(13,(5,9)))),(14,(11,(8,12)))),((2,3),(10,(1,7)))),6),16);
(((((11,14),((8,12),(4,(15,(9,(5,13)))))),6),((7,(1,10)),(2,3))),16);
((((4,(15,(13,(5,9)))),(14,(11,(8,12)))),(6,((2,3),(10,(1,7))))),16);
(((6,((1,(7,10)),(2,3))),((4,(15,(5,(9,13)))),(14,(11,(8,12))))),16);
(((6,((2,3),(10,(1,7)))),((4,(15,(9,(5,13)))),(14,(11,(8,12))))),16);
(((((4,(5,(15,(9,13)))),((8,11),(12,14))),6),((1,10),(7,(3,2)))),16);
(((((8,12),(11,14)),(15,(4,(13,(9,5))))),(6,((2,3),(1,(7,10))))),16);
(((((8,12),(11,14)),(4,(15,(13,(5,9))))),(6,((2,3),(7,(1,10))))),16);
((((6,((2,3),(1,(7,10)))),(4,(15,(13,(5,9))))),(14,(11,(8,12)))),16);
(((((2,3),(1,(7,10))),((8,12),(11,14))),(6,(4,(15,(5,(9,13)))))),16);
(((((((((13,9),5),15),4),(11,(8,12))),14),((1,(7,10)),(2,3))),6),16);
((((4,(15,(13,(5,9)))),(14,(8,(11,12)))),(6,((1,(7,10)),(2,3)))),16);
(((6,((2,3),(1,(7,10)))),((4,(15,(13,(5,9)))),(14,(12,(11,8))))),16);
(((((15,(5,(9,13))),(14,(11,(8,12)))),4),(6,((1,(7,10)),(2,3)))),16);
((((((11,(8,12)),14),(4,(15,(5,(9,13))))),((1,10),(7,(2,3)))),6),16);
((((((11,(8,12)),14),(4,(15,(13,(5,9))))),((1,(7,10)),(2,3))),6),16);
(((((15,(4,(13,(5,9)))),(14,(11,(8,12)))),6),(2,(3,(7,(10,1))))),16);
(((((8,11),(14,(15,(4,((5,12),(9,13)))))),((1,(7,10)),(2,3))),6),16);
(((((4,(8,11)),(14,(15,((5,9),(12,13))))),6),((1,(7,10)),(2,3))),16);
(((6,((11,(8,12)),((2,3),(7,(1,10))))),(14,(4,(15,(9,(5,13)))))),16);
(((((11,(8,12)),14),(4,(15,(13,(5,9))))),(6,((2,3),(7,(1,10))))),16);
(((((2,3),(10,(1,7))),((4,(15,(5,(9,13)))),(11,(14,(8,12))))),6),16);
(((((10,(1,7)),(2,3)),(((13,(5,9)),(4,15)),(12,(14,(8,11))))),6),16);
(((((((12,13),(15,(5,9))),4),(8,11)),14),(6,((1,(7,10)),(2,3)))),16);
((((((11,8),14),(4,(15,(13,(12,(5,9)))))),6),((1,(7,10)),(2,3))),16);
((((14,(8,11)),(4,(15,(9,(13,(5,12)))))),(6,((7,10),(1,(2,3))))),16);
(((((15,(4,(5,(9,13)))),(11,(8,12))),14),(((2,3),(1,(7,10))),6)),16);
((((((4,12),(15,(9,(5,13)))),(14,(8,11))),((7,(1,10)),(2,3))),6),16);
(((((11,(8,12)),14),(4,(15,(9,(5,13))))),(6,((2,3),(7,(1,10))))),16);
(((((1,(7,10)),(2,3)),((4,(15,(13,(5,9)))),(14,(11,(8,12))))),6),16);
((((((8,(11,12)),14),(4,(15,(13,(5,9))))),6),((1,(7,10)),(2,3))),16);
(((((4,((13,(5,12)),(9,15))),(11,(8,14))),6),(10,((2,3),(1,7)))),16);
(((((4,(15,(13,(5,(9,12))))),(14,(8,11))),6),((2,3),((1,7),10))),16);
(((((14,(11,(8,12))),(4,(15,(5,(9,13))))),((2,3),(10,(1,7)))),6),16);
(((((14,(11,(8,12))),(4,(15,(13,(5,9))))),((2,3),(1,(7,10)))),6),16);
(((((2,3),(1,(7,10))),(((13,(5,9)),(4,15)),(14,(11,(8,12))))),6),16);
(((((4,(15,(13,(5,9)))),(14,(11,(8,12)))),6),(7,((1,10),(2,3)))),16);
((((((8,12),11),14),(4,(15,(13,(5,9))))),(6,((7,(1,10)),(2,3)))),16);
(((6,((8,14),((11,12),(4,(15,(13,(5,9))))))),((2,3),(7,(1,10)))),16);
((((((4,(15,(13,(5,9)))),12),(8,(14,11))),6),((7,(1,10)),(2,3))),16);
((((4,(15,(13,(5,9)))),((8,12),(14,11))),(6,((2,3),(1,(7,10))))),16);
(((((4,(15,(9,(5,13)))),((8,12),(11,14))),(10,((1,7),(2,3)))),6),16);
((((1,7),(10,(2,3))),(6,((4,(15,(13,(5,9)))),(14,(11,(8,12)))))),16);
(((((4,(11,(8,12))),(14,((5,9),(13,15)))),((2,3),(7,(1,10)))),6),16);
(((((11,(8,12)),(14,(4,(13,(15,(5,9)))))),6),((2,3),(1,(7,10)))),16);
((((14,((8,11),(4,(15,(13,(5,(9,12))))))),((2,3),(1,(7,10)))),6),16);
((((((13,(5,9)),15),4),(11,((8,12),14))),(6,(2,(3,(7,(1,10)))))),16);
(((((11,(8,12)),14),(4,(15,(13,(5,9))))),(6,((2,3),(1,(7,10))))),16);
(((((8,11),14),(((9,12),(5,13)),(4,15))),(6,((2,3),(10,(1,7))))),16);
(((((((13,(5,9)),12),15),4),(14,(8,11))),(6,((2,3),(1,(7,10))))),16);
((((((4,(15,(13,(5,9)))),(11,(8,12))),14),6),((1,3),(2,(7,10)))),16);
(((6,((2,3),(1,(7,10)))),((4,(15,(9,(13,5)))),(14,(8,(11,12))))),16);
(((((11,14),8),(4,(9,(15,(13,(5,12)))))),(6,(10,((1,7),(2,3))))),16);
(((6,((4,(15,(13,(5,9)))),(14,(8,(11,12))))),(3,(2,(1,(7,10))))),16);
(((((((13,(9,12)),5),15),4),(14,(8,11))),(6,((2,3),(10,(7,1))))),16);
((((((8,11),14),(4,(15,(13,(9,(5,12)))))),6),((10,(1,7)),(2,3))),16);
((((4,(15,(5,(9,13)))),(14,(11,(8,12)))),(6,((1,(7,10)),(2,3)))),16);
(((((14,(11,(8,12))),(4,(15,(5,(9,13))))),6),((2,3),(10,(1,7)))),16);
(((((((8,12),11),14),(4,(15,(5,(9,13))))),((7,(1,10)),(2,3))),6),16);
(((((8,12),(14,11)),(4,(15,(5,(9,13))))),(6,((2,3),(10,(1,7))))),16);
((((3,(2,(1,(7,10)))),((4,(15,(13,(5,9)))),(14,(11,(8,12))))),6),16);
(((6,((4,(15,(13,(5,9)))),(14,(11,(8,12))))),((2,3),(1,(7,10)))),16);
(((6,((7,(1,10)),(2,3))),((4,(15,(13,(5,9)))),(14,(11,(8,12))))),16);
(((6,((2,3),(7,(1,10)))),((4,(13,(15,(5,9)))),(14,(11,(8,12))))),16);
(((((2,3),(10,(1,7))),(6,(4,(15,(13,(5,9)))))),(14,(11,(8,12)))),16);
((((4,(15,(13,(5,9)))),(14,(11,(8,12)))),(6,((2,3),(1,(7,10))))),16);
(((((14,(11,(8,12))),(4,(13,(15,(5,9))))),6),(3,(2,(10,(7,1))))),16);
(((((8,(11,12)),(14,(4,(15,(9,(5,13)))))),6),((2,3),(1,(7,10)))),16);
((((4,(15,(5,(9,13)))),(14,(11,(8,12)))),(((10,(1,7)),(2,3)),6)),16);
(((((11,(8,12)),14),((15,(5,9)),(4,13))),(6,((1,(7,10)),(2,3)))),16);
(((((11,(8,12)),(15,(4,(13,(5,9))))),14),(6,((2,3),(7,(1,10))))),16);
(((6,((2,3),(7,(1,10)))),((4,(15,(13,(12,(5,9))))),(14,(8,11)))),16);
(((((((5,12),(9,13)),(4,15)),(14,(8,11))),(3,(2,(1,(10,7))))),6),16);
(((((4,(15,(13,(5,9)))),(14,(11,(8,12)))),(2,(3,(7,(1,10))))),6),16);
(((((2,3),(7,(1,10))),((4,(15,(13,(12,(9,5))))),(14,(8,11)))),6),16);
(((((2,3),(1,(10,7))),((4,(15,(13,(5,9)))),(14,(11,(8,12))))),6),16);
(((((4,(15,(13,(5,9)))),(14,(11,(8,12)))),6),((2,3),(10,(1,7)))),16);
((((((11,(8,12)),14),(4,(15,(5,(9,13))))),6),(3,((1,(7,10)),2))),16);
(((((4,(15,(5,(13,(9,12))))),(8,(14,11))),((2,3),(10,(1,7)))),6),16);
(((((((8,12),11),14),(4,(15,(9,(5,13))))),6),(3,(2,(7,(1,10))))),16);
(((((4,(14,(11,(8,12)))),(13,(15,(5,9)))),((7,(1,10)),(2,3))),6),16);
(((((15,(9,(5,13))),(4,(14,(11,(8,12))))),6),(1,((2,3),(7,10)))),16);
(((((14,(4,(15,(13,(5,9))))),(12,(11,8))),((1,(7,10)),(2,3))),6),16);
(((((4,(15,(13,(5,9)))),(14,(11,(8,12)))),6),((1,(7,10)),(2,3))),16);
(((((4,(15,((5,12),(9,13)))),(14,(8,11))),6),(7,((1,10),(2,3)))),16);
(((11,((4,(15,(9,(5,13)))),(14,(8,12)))),(6,(10,((1,7),(2,3))))),16);
((((14,(11,(8,12))),((9,(5,13)),(4,15))),(6,((2,3),(7,(1,10))))),16);
((((2,(3,(7,(10,1)))),((11,(8,12)),(14,(4,(15,(13,(5,9))))))),6),16);
(((((2,3),(10,(1,7))),((11,(8,12)),(14,((13,(5,9)),(4,15))))),6),16);
(((((11,(4,((5,9),(15,13)))),(8,12)),14),(6,(7,((1,10),(2,3))))),16);
((((14,((4,(15,(13,(5,9)))),(11,(8,12)))),6),((2,3),(1,(7,10)))),16);
(((((((13,(15,(5,9))),4),(11,(8,12))),14),((2,3),(1,(7,10)))),6),16);
(((2,(3,(1,(7,10)))),(6,((4,(15,(13,(5,9)))),(14,(11,(8,12)))))),16);
(((((14,(11,12)),(8,((13,(5,9)),(4,15)))),((2,3),(1,(7,10)))),6),16);
(((((14,(8,12)),(11,(4,(15,(13,(5,9)))))),((1,(7,10)),(2,3))),6),16);
((((4,(15,(13,(5,9)))),(14,(11,(8,12)))),(6,((7,(1,10)),(2,3)))),16);
((((14,(11,(8,12))),(((2,3),(10,(1,7))),6)),(4,(15,(13,(5,9))))),16);
(((((((((12,(5,9)),13),15),4),11),(8,14)),6),((2,3),(1,(7,10)))),16);
(((((4,(15,(13,(5,9)))),(14,(12,(8,11)))),((2,3),(1,(7,10)))),6),16);
(((((11,14),(8,12)),(15,(4,(13,(5,9))))),(((1,(7,10)),(2,3)),6)),16);
((((4,((15,(5,(9,13))),((11,14),(8,12)))),6),((2,3),(7,(1,10)))),16);
(((6,((14,(8,11)),(4,(15,(12,(9,(5,13))))))),(10,((1,7),(2,3)))),16);
((((2,(3,(1,(7,10)))),(14,(11,(8,12)))),(6,(4,(15,(13,(5,9)))))),16);
((((((4,(13,(9,(5,12)))),15),(14,(8,11))),6),(2,(3,(10,(1,7))))),16);
((((4,(15,(5,(9,13)))),(14,(11,(8,12)))),(6,((2,3),(10,(1,7))))),16);
(((((14,(4,(15,(13,(5,9))))),(11,(8,12))),6),((2,3),(7,(1,10)))),16);
(((((14,(12,(8,11))),(4,(15,(13,(5,9))))),6),((7,(1,10)),(2,3))),16);
((((((14,(8,12)),11),(4,(15,(5,(9,13))))),6),((2,3),(1,(7,10)))),16);
((((14,(11,(8,12))),(4,(15,(5,(9,13))))),(6,((2,3),(10,(1,7))))),16);
(((((4,(15,(9,(5,13)))),(14,(8,12))),11),(6,((1,(7,10)),(2,3)))),16);
(((((4,(15,(5,(9,13)))),(14,(11,(8,12)))),((1,(7,10)),(2,3))),6),16);
((((((7,3),(1,10)),2),((11,(8,12)),(14,(4,(15,(13,(5,9))))))),6),16);
((((4,(14,((15,(12,(5,(9,13)))),(8,11)))),6),((2,3),(1,(7,10)))),16);
(((((15,((13,(12,(5,9))),4)),(14,(8,11))),6),((10,(1,7)),(2,3))),16);
((((1,2),(3,(7,10))),(6,((4,(15,(13,(5,9)))),(14,(11,(8,12)))))),16);
(((((4,(15,(5,(9,13)))),(14,(11,(8,12)))),6),((1,(7,10)),(2,3))),16);
(((((4,(15,(13,(5,9)))),(8,14)),(11,12)),(6,(1,((7,10),(2,3))))),16);
((((4,(15,(13,(5,9)))),((8,12),(11,14))),(6,((7,(1,10)),(2,3)))),16);
((((((11,14),(4,(15,(13,(5,9))))),(8,12)),((10,(1,7)),(2,3))),6),16);
(((((4,(15,(13,(5,9)))),(14,(11,(8,12)))),(10,((2,3),(1,7)))),6),16);
(((((8,(11,12)),14),(4,(15,(13,(5,9))))),(6,((2,3),(10,(1,7))))),16);
(((((15,(9,(5,13))),4),(14,(11,(8,12)))),(((2,3),(7,(1,10))),6)),16);
((((((11,14),(8,12)),(4,(15,(13,(5,9))))),((2,3),(1,(7,10)))),6),16);
(((((11,(8,12)),(14,(4,(15,(9,(5,13)))))),((2,3),(7,(1,10)))),6),16);
(((((1,(7,10)),(2,3)),((4,(15,((9,12),(5,13)))),(14,(8,11)))),6),16);
(((((4,(15,(13,(5,9)))),(11,(14,(8,12)))),6),((2,3),(1,(7,10)))),16);
(((((14,(11,(8,12))),(4,(15,(13,(5,9))))),((2,3),(10,(1,7)))),6),16);
((((14,((11,(8,12)),(4,(15,(9,(5,13)))))),6),((2,3),(1,(7,10)))),16);
(((((4,((15,(13,(5,(9,12)))),(8,11))),14),((2,3),(7,(1,10)))),6),16);
(((((11,(8,12)),(4,(15,(5,(9,13))))),14),(6,((2,3),(10,(1,7))))),16);
(((((8,(12,(11,14))),(4,((5,13),(9,15)))),6),((2,3),(10,(1,7)))),16);
(((6,((2,3),(1,(7,10)))),((15,(4,(13,(5,9)))),(14,(11,(8,12))))),16);
((6,(((1,(7,10)),(2,3)),((11,(8,12)),(14,(4,(15,(9,(5,13)))))))),16);
(((6,((1,(7,10)),(2,3))),((14,(11,(8,12))),(4,(15,(13,(5,9)))))),16);
(((((14,(8,12)),(11,(15,(4,(5,(9,13)))))),6),((2,3),(7,(1,10)))),16);
(((((13,(5,9)),(15,4)),(8,(14,(11,12)))),(6,((2,3),(1,(7,10))))),16);
(((((15,(4,(13,(5,9)))),(14,(11,(8,12)))),(10,((2,3),(1,7)))),6),16);
((((6,(2,(3,(7,(1,10))))),(14,(12,(8,11)))),(4,(15,(13,(5,9))))),16);
((((14,(11,(8,12))),(((2,3),(1,(7,10))),6)),((13,(5,9)),(4,15))),16);
((6,(((2,3),(7,(1,10))),(((13,(5,9)),(4,15)),(14,(11,(8,12)))))),16);
((((1,(10,7)),(2,3)),(6,(14,((8,11),(4,(15,(13,(9,(5,12))))))))),16);
((((2,3),(1,(7,10))),(6,((4,(15,(13,(5,9)))),(14,(11,(8,12)))))),16);
((((14,(11,(8,12))),(4,(15,(13,(5,9))))),(6,((2,3),(7,(1,10))))),16);
((((((8,(4,(15,(13,(5,9))))),14),(11,12)),6),((2,3),(7,(1,10)))),16);
((((4,(15,(13,(12,(5,9))))),(14,(8,11))),(6,((7,(1,10)),(2,3)))),16);
((((14,(8,11)),(15,(4,(12,(13,(5,9)))))),(6,((2,3),(1,(7,10))))),16);
((((2,7),(3,(1,10))),((14,(11,(8,12))),((4,(15,(13,(5,9)))),6))),16);
((((((11,(14,8)),12),((5,(9,13)),(4,15))),6),((1,10),(7,(2,3)))),16);
((((14,(4,(15,(5,(9,13))))),(11,(8,12))),(6,((2,3),(10,(7,1))))),16);
((((((4,(15,(5,(9,13)))),(11,(8,12))),14),6),((1,(7,10)),(2,3))),16);
(((((8,12),(11,14)),(4,(15,(13,(5,9))))),(6,(3,(2,(7,(1,10)))))),16);
(((6,((1,(7,10)),(2,3))),((4,(13,(15,(5,9)))),(14,(11,(8,12))))),16);
((((14,(11,(8,12))),(4,(15,(9,(5,13))))),(6,((2,3),(7,(1,10))))),16);
((((15,(4,(13,(5,9)))),(14,(11,(8,12)))),(6,((7,(1,10)),(2,3)))),16);
((((((4,(15,(12,(13,(5,9))))),(11,14)),8),((2,3),(1,(7,10)))),6),16);
((((4,(15,(5,(9,13)))),(14,(11,(8,12)))),(6,((2,3),(7,(1,10))))),16);
(((((4,(13,(15,(5,9)))),(14,(11,(8,12)))),6),((2,3),(10,(1,7)))),16);
(((((4,(15,(13,(5,9)))),(14,(11,(8,12)))),6),((2,3),(7,(1,10)))),16);
(((6,((2,3),(1,(7,10)))),((4,15),((13,(5,9)),(14,(11,(8,12)))))),16);
((((((8,12),(11,14)),(4,(15,(13,(5,9))))),6),((2,3),(10,(1,7)))),16);
(((((4,(15,(13,(5,(9,12))))),(14,(8,11))),((2,3),(1,(7,10)))),6),16);
(((((4,(15,(13,(5,9)))),(14,(12,(8,11)))),6),((1,10),(7,(2,3)))),16);
(((((((15,(5,(9,12))),13),4),(14,(8,11))),6),((2,3),(10,(7,1)))),16);
(((6,((4,(15,(13,(5,9)))),(11,(14,(8,12))))),((2,3),(1,(7,10)))),16);
((((14,((4,(15,(13,(5,9)))),(11,(8,12)))),((1,(7,10)),(2,3))),6),16);
((((14,(11,(8,12))),((5,(9,13)),(4,15))),(6,(3,(2,(10,(1,7)))))),16);
(((6,((2,3),(10,(1,7)))),((4,(15,(9,(5,13)))),(14,(11,(8,12))))),16);
((((((9,(5,13)),(4,15)),(14,(12,(8,11)))),6),((2,3),(1,(7,10)))),16);
(((6,((4,(15,(5,(9,13)))),(14,(11,(8,12))))),((7,(1,10)),(2,3))),16);
((((4,(15,(13,(5,9)))),((8,12),(11,14))),(6,((1,10),(7,(2,3))))),16);
(((14,((8,11),(4,(15,(12,(13,(5,9))))))),(6,(10,((1,7),(2,3))))),16);
(((((7,(1,10)),(2,3)),((11,14),((8,12),(4,(15,(5,(9,13))))))),6),16);
((((11,(14,(8,12))),(4,(15,(13,(5,9))))),(6,((1,(7,10)),(2,3)))),16);
((((((13,(5,9)),(4,15)),(14,(11,(8,12)))),6),((2,3),(10,(1,7)))),16);
(((6,(3,(2,(7,(1,10))))),((4,((5,9),(13,15))),(14,(11,(8,12))))),16);
((((((13,15),(4,(9,(5,12)))),(14,(8,11))),6),((2,3),(10,(1,7)))),16);
(((((((11,8),12),14),((2,3),(7,(1,10)))),(4,(15,(9,(5,13))))),6),16);
(((((11,(8,12)),(14,(4,(15,(13,(5,9)))))),((1,(7,10)),(2,3))),6),16);
(((((14,(11,(8,12))),(4,((13,(5,9)),15))),6),((10,(1,7)),(2,3))),16);
((((14,((8,12),(15,((13,(5,9)),4)))),11),(6,((1,7),(10,(2,3))))),16);
((((1,10),(7,(2,3))),(6,(((13,(5,9)),(4,15)),(14,(11,(8,12)))))),16);
(((((((8,12),11),14),(4,(15,(13,(5,9))))),6),((2,3),(7,(1,10)))),16);
(((6,((4,(15,(9,(5,13)))),(14,(11,(8,12))))),((2,3),(7,(1,10)))),16);
((((4,(15,(13,(5,9)))),(14,(8,(11,12)))),(6,((2,3),(1,(7,10))))),16);
(((((14,(11,(8,12))),(4,(15,(9,(5,13))))),((7,(1,10)),(2,3))),6),16);
(((((13,(12,(5,9))),(4,15)),(14,(8,11))),(((2,3),(10,(1,7))),6)),16);
((((4,(15,(5,(9,13)))),(11,(14,(8,12)))),(6,((1,(7,10)),(2,3)))),16);
((((1,10),(7,(2,3))),(6,((4,(15,(13,(5,9)))),(14,(11,(8,12)))))),16);
(((((4,(15,(9,(5,13)))),(11,14)),(8,12)),(6,((2,3),(1,(7,10))))),16);
((((((2,3),(7,(1,10))),(4,(15,(13,(5,9))))),6),(11,(14,(8,12)))),16);
((((2,3),(1,(7,10))),(6,((12,(8,11)),(14,(4,(15,(13,(5,9)))))))),16);
(((((8,(11,14)),12),(4,(15,(13,(5,9))))),(6,(3,(2,(10,(1,7)))))),16);
((((((15,(12,(13,(5,9)))),4),(8,(11,14))),6),(1,((2,3),(7,10)))),16);
(((((4,(15,(13,(5,9)))),(11,(14,(8,12)))),6),((7,(1,10)),(2,3))),16);
((((14,(11,(12,8))),((5,(9,13)),(4,15))),(6,((1,(7,10)),(2,3)))),16);
((((((5,13),(9,15)),(14,(11,(8,12)))),4),(6,((2,3),(1,(7,10))))),16);
((((((((12,(5,13)),9),15),4),(14,(8,11))),(3,(2,(1,(7,10))))),6),16);
(((((4,(15,(13,(5,9)))),(14,(8,(11,12)))),((1,(7,10)),(2,3))),6),16);
(((((4,(15,(13,(5,9)))),(11,(14,(8,12)))),6),((2,3),(10,(1,7)))),16);
(((((11,8),14),(4,(15,(9,(12,(5,13)))))),(6,((7,10),(1,(2,3))))),16);
(((((((8,(11,12)),14),(9,(5,13))),(4,15)),((2,3),(1,(7,10)))),6),16);
(((((11,(15,(13,(5,9)))),(4,(14,(8,12)))),6),((1,10),(7,(2,3)))),16);
((((((4,(15,(5,(9,13)))),(11,(8,12))),14),6),((2,3),(10,(1,7)))),16);
((((((4,(15,(5,(9,13)))),(14,(8,12))),11),((2,3),(7,(1,10)))),6),16);
((((((8,11),14),(4,((5,12),(15,(9,13))))),6),((1,(7,10)),(2,3))),16);
(((((12,(8,11)),(14,(4,(15,(9,(5,13)))))),((2,3),(1,(7,10)))),6),16);
(((((2,3),(7,(1,10))),((4,(15,(5,(9,13)))),(14,(11,(8,12))))),6),16);
(((((11,(8,12)),(14,(4,(15,(13,(5,9)))))),((2,3),(1,(7,10)))),6),16);
(((((11,(8,12)),(14,(4,((9,(5,13)),15)))),6),((2,3),(7,(1,10)))),16);
(((((2,3),(7,(1,10))),((4,(15,(13,(12,(5,9))))),(14,(8,11)))),6),16);
((((((8,(11,14)),(4,15)),(5,(13,(9,12)))),6),((1,10),(7,(2,3)))),16);
(((((11,(8,12)),(((13,(5,9)),(4,15)),14)),6),((10,(1,7)),(2,3))),16);
(((6,((2,3),(7,(1,10)))),((4,(15,(13,(5,9)))),(14,(11,(8,12))))),16);
(((((8,(11,14)),(4,(15,(13,(12,(5,9)))))),((2,3),(1,(7,10)))),6),16);
(((((2,3),(1,(7,10))),((8,(11,12)),(14,(4,(15,(13,(5,9))))))),6),16);
((((((11,12),(8,14)),((13,15),(4,(5,9)))),((2,3),(1,(7,10)))),6),16);
(((((4,(15,(9,(5,13)))),((11,(8,12)),14)),6),((1,(7,10)),(2,3))),16);
((((11,((8,12),(4,(15,(13,(5,9)))))),14),(6,((2,3),(7,(1,10))))),16);
((((4,((15,(9,(13,(5,12)))),(8,14))),11),(6,((2,3),(1,(10,7))))),16);
(((((2,3),(10,(1,7))),(((13,(5,9)),(4,15)),(14,(11,(8,12))))),6),16);
((((((15,(5,(9,13))),4),(14,(11,(8,12)))),((2,3),(1,(7,10)))),6),16);
((((((2,3),(7,(1,10))),(4,(15,(9,(5,13))))),6),(14,(11,(8,12)))),16);
((((4,(15,((9,12),(5,13)))),(14,(8,11))),(((1,10),(7,(2,3))),6)),16);
(((((4,(15,(13,(5,9)))),(14,(8,(11,12)))),6),((7,(1,10)),(2,3))),16);
(((((2,3),(10,(1,7))),((4,(15,(13,(5,9)))),(14,(12,(8,11))))),6),16);
(((((11,(8,12)),14),(4,(15,(13,(5,9))))),(6,((7,(1,10)),(2,3)))),16);
(((((14,(11,(8,12))),(4,(15,(13,(5,9))))),6),((2,3),(7,(1,10)))),16);
((((14,(11,8)),(4,(15,(13,((9,12),5))))),(6,((1,10),(7,(2,3))))),16);
(((((4,(15,(13,(5,9)))),(14,(11,(8,12)))),6),((1,(7,10)),(2,3))),16);
((((((8,12),(11,14)),(15,(13,(5,9)))),4),(6,((2,3),(10,(1,7))))),16);
(((((4,(13,(5,9))),15),(11,(14,(8,12)))),(((1,7),(10,(2,3))),6)),16);
((((((14,(11,(8,12))),15),(4,(13,(5,9)))),6),((2,3),(1,(7,10)))),16);
(((((14,(8,11)),(4,((12,(5,9)),(13,15)))),6),((2,3),(1,(7,10)))),16);
(((((4,(13,(5,9))),(11,(14,(8,12)))),15),(6,((2,3),(10,(1,7))))),16);
((((14,(11,(8,12))),(4,(15,(9,(5,13))))),(((2,3),(1,(7,10))),6)),16);
((((1,7),(10,(2,3))),(6,((11,(4,(13,(15,(5,9))))),(14,(8,12))))),16);
(((((11,(8,12)),14),((13,(5,9)),(4,15))),(6,((1,10),(7,(2,3))))),16);
(((((14,(11,(8,12))),(4,(15,(13,(5,9))))),6),((2,3),(1,(7,10)))),16);
((((14,(8,12)),(11,(15,(4,(9,(13,5)))))),(6,((2,3),(7,(1,10))))),16);
((((4,(15,(9,(5,13)))),(11,(14,(8,12)))),(6,((7,10),(1,(2,3))))),16);
(((((14,(11,(8,12))),((13,(5,9)),(4,15))),6),((1,(7,10)),(2,3))),16);
(((((11,(8,12)),14),(4,(15,(13,(5,9))))),(6,((2,3),(10,(1,7))))),16);
((((((15,(5,9)),(4,13)),(14,(11,(8,12)))),6),((2,3),(1,(7,10)))),16);
((((((15,(5,9)),13),4),((8,12),(11,14))),(6,((10,(1,7)),(2,3)))),16);
((((((((8,12),11),14),(15,(13,(5,9)))),4),((2,3),(7,(1,10)))),6),16);
((((14,(11,(8,12))),((13,(5,9)),(4,15))),(6,((1,(7,10)),(2,3)))),16);
(((((11,(8,12)),((4,(15,(13,(5,9)))),14)),6),((2,3),(7,(1,10)))),16);
(((((2,3),(1,(7,10))),((4,(15,(9,(5,13)))),(14,(11,(8,12))))),6),16);
(((((8,11),(4,(13,(15,(5,9))))),(12,14)),(6,((2,3),(1,(7,10))))),16);
(((((((8,12),11),14),(4,(15,(13,(5,9))))),(2,(1,(3,(7,10))))),6),16);
(((((((8,11),12),14),(4,(15,(13,(5,9))))),((2,3),(1,(7,10)))),6),16);
(((6,((4,(15,(9,(13,(5,12))))),(14,(8,11)))),(3,(2,(1,(7,10))))),16);
(((((11,((13,(5,9)),(15,4))),(14,(8,12))),((7,(1,10)),(2,3))),6),16);
(((((4,(15,(13,(5,9)))),(14,(11,(8,12)))),((2,3),(10,(1,7)))),6),16);
(((6,((4,(15,(5,(9,13)))),(14,(11,(8,12))))),((2,3),(10,(1,7)))),16);
((((((11,(8,12)),(4,(15,(5,(9,13))))),14),(1,(2,(3,(7,10))))),6),16);
((((14,(8,11)),(4,(15,(13,(5,(9,12)))))),(6,((2,3),(1,(7,10))))),16);
((((((8,(11,12)),14),((13,(5,9)),(4,15))),6),((1,(7,10)),(2,3))),16);
((((((11,(8,12)),14),(4,(15,(13,(5,9))))),(3,(2,(1,(10,7))))),6),16);
((((((9,(15,(5,13))),4),((11,12),(8,14))),((2,3),(7,(1,10)))),6),16);
(((((14,(11,(8,12))),(4,(15,(9,(5,13))))),((2,3),(10,(1,7)))),6),16);
((((8,11),(14,(4,(15,((9,13),(5,12)))))),(6,((2,3),(1,(7,10))))),16);
((((4,(15,(13,(5,9)))),((8,12),(11,14))),(6,((2,3),(10,(1,7))))),16);
(((6,((4,(15,(5,(9,13)))),(14,(11,(8,12))))),((10,(1,7)),(2,3))),16);
((((14,(12,(8,11))),(4,(15,(5,(9,13))))),(6,((10,(1,7)),(2,3)))),16);
((((((13,(5,9)),4),15),(14,(11,(8,12)))),(6,((2,3),(10,(1,7))))),16);
(((((13,(5,9)),(4,15)),((8,11),(12,14))),(6,((7,(1,10)),(2,3)))),16);
((((4,(15,(13,(5,9)))),((8,12),(11,14))),(6,((2,3),(1,(7,10))))),16);
((((4,(15,(13,(5,9)))),((8,12),(11,14))),(((2,3),(1,(7,10))),6)),16);
(((((((13,(5,12)),9),(4,15)),(14,(8,11))),6),(10,((2,3),(1,7)))),16);
(((((14,(11,(8,12))),((13,(5,9)),(4,15))),6),((1,(7,10)),(2,3))),16);
((((((8,12),((4,(15,(13,(5,9)))),11)),14),((1,7),((2,3),10))),6),16);
(((6,(((9,15),(4,(5,13))),(14,(12,(8,11))))),((2,3),(7,(1,10)))),16);
((((4,(15,(13,(9,5)))),(14,(11,(8,12)))),(6,((10,(1,7)),(2,3)))),16);
(((((8,(14,(11,12))),(4,(15,(13,(5,9))))),((10,(1,7)),(2,3))),6),16);
(((((14,(4,(15,(13,(5,9))))),(11,(8,12))),6),(2,(3,(1,(7,10))))),16);
(((6,((2,3),(10,(1,7)))),(15,((4,(13,(5,9))),(14,(11,(8,12)))))),16);
(((((2,3),(7,(1,10))),((11,(8,12)),(14,(4,(15,(5,(9,13))))))),6),16);
((((4,(15,(9,(5,13)))),(14,(11,(8,12)))),(6,((2,3),(7,(1,10))))),16);
((((11,(14,(8,12))),(15,(4,(13,(5,9))))),(6,((2,3),(10,(1,7))))),16);
(((((((15,(4,13)),(5,9)),14),(11,(8,12))),((2,3),((7,10),1))),6),16);
(((6,((4,(15,(13,(5,9)))),(14,(11,(8,12))))),((2,3),(10,(1,7)))),16);
(((((14,(11,(12,8))),(4,(15,(5,(9,13))))),((2,3),(1,(7,10)))),6),16);
(((((4,(15,(13,(5,9)))),(14,(11,(8,12)))),6),((10,(1,7)),(2,3))),16);
(((((11,(8,12)),(14,(4,(15,(13,(5,9)))))),6),((1,(7,10)),(2,3))),16);
(((((2,3),(7,(1,10))),(14,((11,(8,12)),(4,(15,(13,(5,9))))))),6),16);
(((10,((2,3),(1,7))),(6,(14,((11,(8,12)),(4,(15,(13,(5,9)))))))),16);
(((((11,(14,(8,12))),(4,(15,(13,(5,9))))),6),((2,3),(1,(7,10)))),16);
(((((((8,12),11),14),(4,(15,(13,(5,9))))),6),((2,3),(1,(7,10)))),16);
(((((((15,(13,(5,9))),(11,(8,12))),4),14),((2,3),(1,(7,10)))),6),16);
((((((11,(8,12)),(4,(15,(13,(5,9))))),14),6),((2,3),(1,(7,10)))),16);
((((4,(15,(5,(9,13)))),(14,(11,(8,12)))),(((7,(1,10)),(2,3)),6)),16);
((((4,(15,(13,(5,9)))),(((2,3),(7,(1,10))),(14,(11,(8,12))))),6),16);
((((11,(8,12)),(14,(4,(15,(13,(5,9)))))),(6,((2,3),(10,(1,7))))),16);
(((((14,(11,(8,12))),(4,(15,(5,(9,13))))),6),((7,(1,10)),(2,3))),16);
(((((11,(12,8)),14),(4,(15,(13,(5,9))))),(6,(2,(3,(10,(1,7)))))),16);
(((((((13,15),(9,(5,12))),4),14),(8,11)),(6,((2,3),(10,(1,7))))),16);
((((((4,(15,(13,(9,(5,12))))),(8,14)),11),((2,3),(7,(1,10)))),6),16);
((((2,3),(10,(1,7))),(6,(8,((4,(15,(13,(5,9)))),(14,(11,12)))))),16);
((((1,((2,3),(7,10))),6),((11,12),((4,(15,(9,(5,13)))),(8,14)))),16);
((((((11,(8,12)),14),(4,(15,(13,(5,9))))),(1,(3,(2,(7,10))))),6),16);
(((((((9,12),(15,(5,13))),4),(14,(8,11))),((10,(1,7)),(2,3))),6),16);
((((14,(4,(15,((9,12),(13,5))))),(8,11)),(6,((1,(10,7)),(2,3)))),16);
(((((8,12),(11,14)),((9,(5,13)),(4,15))),(((1,(7,10)),(2,3)),6)),16);
((((14,(8,11)),(4,(15,(13,(5,(9,12)))))),(((7,10),(1,(2,3))),6)),16);
(((((14,(11,(8,12))),(4,(15,(13,(5,9))))),6),((2,3),(1,(7,10)))),16);
((((((11,(8,12)),14),(4,(15,(13,(5,9))))),6),(3,(2,(1,(10,7))))),16);
((((((11,14),8),(4,(15,(13,(12,(5,9)))))),((2,3),(7,(1,10)))),6),16);
((((((4,(15,(13,(5,9)))),(11,(8,12))),14),((2,3),(10,(1,7)))),6),16);
((((4,(15,(13,(5,9)))),(12,(11,(14,8)))),(6,((2,3),(7,(1,10))))),16);
(((((11,(8,12)),14),(4,(15,(13,(5,9))))),(((2,3),(1,(7,10))),6)),16);
((((((8,11),(4,(15,(13,(5,9))))),(12,14)),((2,3),(10,(1,7)))),6),16);
((((((11,(8,12)),(14,(5,(9,13)))),(4,15)),6),(3,(2,(1,(7,10))))),16);
(((((14,(11,(8,12))),(4,(15,(9,(5,13))))),6),((1,(7,10)),(2,3))),16);
(((((((((5,9),13),12),15),4),(8,(11,14))),((2,3),(7,(1,10)))),6),16);
(((((8,11),((4,(15,(5,((9,12),13)))),14)),((2,3),(7,(1,10)))),6),16);
(((((((4,(13,(5,9))),15),(11,(8,12))),14),((2,3),(10,(1,7)))),6),16);
((((4,(15,(9,(5,13)))),(14,(11,(8,12)))),(6,(7,((1,10),(2,3))))),16);
(((((14,(5,(9,13))),(8,(11,12))),(4,15)),(6,((2,3),(7,(1,10))))),16);
(((6,((2,3),(1,(7,10)))),((4,(15,(13,(5,(9,12))))),(14,(8,11)))),16);
(((((14,(11,(8,12))),(15,(4,(13,(5,9))))),6),((1,(7,10)),(2,3))),16);
(((6,((2,3),(10,(1,7)))),((4,(15,(13,(5,9)))),(14,(11,(8,12))))),16);
