(((((4,(7,14)),(8,(6,(1,(3,(2,5)))))),(11,13)),((9,10),(12,15))),16);
((((((14,(4,7)),(8,(1,6))),(3,(2,5))),(11,13)),((12,15),(9,10))),16);
(((((((3,(2,5)),(1,6)),(14,(4,7))),(8,(11,13))),(9,10)),(12,15)),16);
(((((((14,(4,7)),(3,(2,5))),(1,6)),8),(11,13)),((9,10),(12,15))),16);
(((((3,(2,5)),(8,((14,(4,7)),(1,6)))),(11,13)),((12,15),(9,10))),16);
((((12,15),(9,10)),((8,(14,(4,7))),((11,13),((3,(2,5)),(1,6))))),16);
(((((((3,(2,5)),(14,(1,6))),(8,(4,7))),(11,13)),(9,10)),(12,15)),16);
(((((3,(2,5)),(8,((14,(4,7)),(1,6)))),(11,13)),((9,10),(12,15))),16);
(((((((6,(3,(2,5))),1),(14,(4,7))),8),(11,13)),((12,15),(9,10))),16);
((((((14,8),7),((3,(2,(4,5))),(1,6))),(11,13)),((12,15),(9,10))),16);
(((((((1,6),(2,5)),3),(14,(4,7))),((12,15),(9,10))),(8,(11,13))),16);
(((((8,(3,(1,6))),(14,((5,(2,4)),7))),(11,13)),((12,15),(9,10))),16);
(((((8,(6,(1,(3,(2,5))))),(14,(4,7))),(11,13)),((12,15),(9,10))),16);
(((((8,(14,(4,7))),((3,(2,5)),(1,6))),(11,13)),((12,15),(9,10))),16);
((((((3,(2,5)),(1,6)),(8,(14,(4,7)))),(11,13)),((12,15),(9,10))),16);
(((((8,(3,(2,5))),((14,(4,7)),(1,6))),(11,13)),((9,10),(12,15))),16);
(((((14,(4,7)),((8,(3,(2,5))),(1,6))),(11,13)),((9,10),(12,15))),16);
(((((8,14),((1,6),((4,7),(3,(2,5))))),(11,13)),((12,15),(9,10))),16);
(((((((14,(4,7)),(3,(2,5))),8),(1,6)),(11,13)),((9,10),(12,15))),16);
((((((3,(4,(2,5))),(1,6)),8),((11,13),(7,14))),((9,10),(12,15))),16);
((((((((1,6),(3,(2,5))),(14,(4,7))),8),(11,13)),(9,10)),(12,15)),16);
(((((8,(7,14)),(11,13)),((3,(5,(2,4))),(1,6))),((9,10),(12,15))),16);
((((((7,14),(5,(3,(2,4)))),(8,(1,6))),(11,13)),((12,15),(9,10))),16);
((((((3,(2,5)),(1,(6,(14,(4,7))))),((11,13),8)),(12,15)),(9,10)),16);
(((((6,((3,(2,5)),1)),8),(4,(7,14))),((11,13),((12,15),(9,10)))),16);
((((((((14,(4,7)),(3,(1,6))),(2,5)),8),(9,10)),(11,13)),(12,15)),16);
(((((11,13),((8,(14,(4,7))),((3,(2,5)),(1,6)))),(9,10)),(12,15)),16);
((((3,((8,(14,(4,7))),(1,(6,(2,5))))),(11,13)),((9,10),(12,15))),16);
(((((((1,6),(3,(2,5))),8),(14,(4,7))),((9,10),(12,15))),(11,13)),16);
((((((6,(3,(2,5))),(14,(4,7))),(1,8)),(11,13)),((12,15),(9,10))),16);
(((((1,(3,(2,5))),(6,(8,(14,(4,7))))),(11,13)),((12,15),(9,10))),16);
(((((14,(4,7)),(1,8)),(6,(3,(2,5)))),((11,13),((9,10),(12,15)))),16);
(((((8,(1,(6,(3,(2,5))))),(14,(4,7))),(11,13)),((12,15),(9,10))),16);
((((8,(1,(14,(4,7)))),(6,(3,(2,5)))),((11,13),((12,15),(9,10)))),16);
((((((14,(4,7)),((3,(2,5)),(1,6))),8),(11,13)),((12,15),(9,10))),16);
((((((14,(4,7)),(3,((6,(2,5)),1))),8),(11,13)),((9,10),(12,15))),16);
((((((3,(2,5)),(8,((14,(4,7)),(1,6)))),(11,13)),(12,15)),(9,10)),16);
(((((7,((1,6),(8,(4,14)))),(11,13)),(3,(2,5))),((12,15),(9,10))),16);
(((((11,13),(3,(((2,5),(1,6)),(8,(14,(4,7)))))),(9,10)),(12,15)),16);
(((((((1,(3,(2,5))),6),8),(14,(4,7))),(11,13)),((12,15),(9,10))),16);
(((((1,((6,(4,7)),(8,14))),(3,(2,5))),(11,13)),((9,10),(12,15))),16);
((((((7,14),((3,(5,(4,2))),8)),(1,6)),(11,13)),((9,10),(12,15))),16);
(((((8,(14,(4,7))),(1,(6,(3,(2,5))))),(11,13)),((9,10),(12,15))),16);
(((((((14,(4,7)),(8,(1,6))),(3,(2,5))),13),11),((9,10),(12,15))),16);
(((((8,(14,((3,(2,5)),(1,6)))),(4,7)),(11,13)),((9,10),(12,15))),16);
(((((((14,(4,7)),((1,6),(3,(2,5)))),8),(11,13)),(9,10)),(12,15)),16);
((((((((3,(2,5)),(1,6)),(14,(4,7))),8),(11,13)),(12,15)),(9,10)),16);
((((((1,6),((3,(2,5)),8)),(14,(4,7))),(11,13)),((12,15),(9,10))),16);
((((((((14,(4,7)),(3,(2,5))),8),(1,6)),(11,13)),(12,15)),(9,10)),16);
(((((((1,6),(3,(2,5))),(14,(4,7))),(11,13)),8),((9,10),(12,15))),16);
(((((8,(14,(4,7))),((3,(2,5)),(1,6))),(11,13)),((12,15),(9,10))),16);
((((((6,(1,(3,(2,5)))),(8,(14,(4,7)))),(11,13)),(12,15)),(9,10)),16);
((((((8,(14,(4,7))),(1,(3,(2,5)))),(11,13)),6),((12,15),(9,10))),16);
((((((((3,(2,5)),(1,6)),8),(14,(4,7))),(11,13)),(12,15)),(9,10)),16);
((((((1,(3,(2,5))),6),(8,(14,(4,7)))),(11,13)),((12,15),(9,10))),16);
((((((8,(6,(3,(2,5)))),1),(14,(4,7))),(11,13)),((9,10),(12,15))),16);
((((((7,(4,14)),(6,(1,(2,5)))),(3,8)),(11,13)),((9,10),(12,15))),16);
((((((3,(2,5)),(1,6)),(8,(14,(4,7)))),(11,13)),((9,10),(12,15))),16);
((((((8,(3,6)),(14,(4,7))),(1,(2,5))),(11,13)),((9,10),(12,15))),16);
((((((((1,6),(3,(5,(2,4)))),(7,14)),8),(11,13)),(12,15)),(9,10)),16);
((((((((4,7),(14,(3,(2,5)))),8),(1,6)),(11,13)),(9,10)),(12,15)),16);
(((((1,6),(8,((14,(3,(4,7))),(2,5)))),(11,13)),((12,15),(9,10))),16);
(((((8,(6,(7,14))),(11,13)),(1,(3,(5,(2,4))))),((9,10),(12,15))),16);
((((((3,(2,5)),(8,(14,(4,7)))),(1,6)),(11,13)),((9,10),(12,15))),16);
((((((3,(2,5)),(1,6)),(8,(14,(4,7)))),(11,13)),((9,10),(12,15))),16);
((((((((3,(2,5)),(1,6)),8),(14,(4,7))),(11,13)),(12,15)),(9,10)),16);
((((((1,6),(8,14)),((4,7),(3,(2,5)))),(11,13)),((12,15),(9,10))),16);
(((((3,(4,(2,5))),((1,6),(8,(7,14)))),(11,13)),((12,15),(9,10))),16);
(((((14,((3,(2,5)),(4,7))),(8,(1,6))),(11,13)),((12,15),(9,10))),16);
(((((((2,5),(8,(4,(7,14)))),(1,6)),(11,13)),3),((9,10),(12,15))),16);
(((((((4,7),14),8),(6,(1,(3,(2,5))))),(11,13)),((12,15),(9,10))),16);
((((((((3,(2,5)),(6,1)),(14,(4,7))),8),(11,13)),(9,10)),(12,15)),16);
((((((1,(14,(4,7))),(6,(3,(2,5)))),(8,(11,13))),(9,10)),(12,15)),16);
((((((7,14),(3,(2,(4,5)))),(8,(1,6))),(11,13)),((12,15),(9,10))),16);
((((((1,(8,(14,(4,7)))),(6,(3,(2,5)))),(11,13)),(9,10)),(12,15)),16);
(((((11,13),((14,(4,7)),(8,((3,(2,5)),(1,6))))),(9,10)),(12,15)),16);
((((((8,(1,6)),(14,(4,7))),(3,(2,5))),(11,13)),((12,15),(9,10))),16);
(((((((14,(4,7)),(1,(3,(2,5)))),8),6),(11,13)),((9,10),(12,15))),16);
((((((1,6),14),((3,(2,5)),(8,(4,7)))),(11,13)),((12,15),(9,10))),16);
((((((7,(4,14)),(8,(1,6))),(11,13)),(3,(2,5))),((12,15),(9,10))),16);
((((((((2,5),(1,6)),3),(14,(4,7))),8),(11,13)),((9,10),(12,15))),16);
(((((3,(1,6)),(8,((2,5),(14,(4,7))))),(11,13)),((12,15),(9,10))),16);
(((((((3,(5,(2,4))),(1,6)),(14,7)),(11,13)),8),((12,15),(9,10))),16);
((((((8,(3,(1,6))),((5,(2,4)),(7,14))),(11,13)),(9,10)),(12,15)),16);
(((((((1,6),(3,(2,5))),(14,(4,7))),(11,13)),8),((9,10),(12,15))),16);
((((((3,(2,5)),(8,(14,(4,7)))),(1,6)),(11,13)),((9,10),(12,15))),16);
((((((8,(6,(3,(2,5)))),1),(14,(4,7))),(11,13)),((12,15),(9,10))),16);
((((((14,(4,7)),(8,(1,6))),(3,(2,5))),((9,10),(12,15))),(11,13)),16);
(((((8,(14,(4,7))),((3,(2,5)),(1,6))),(11,13)),((9,10),(12,15))),16);
((((((8,(14,(4,7))),(1,(6,(3,(2,5))))),(11,13)),(12,15)),(9,10)),16);
((((((3,((2,(4,5)),(1,6))),(8,(7,14))),(11,13)),(9,10)),(12,15)),16);
(((((((7,14),(1,6)),(8,(3,(5,(2,4))))),(11,13)),(12,15)),(9,10)),16);
(((((8,(7,14)),(3,(1,(4,(2,5))))),(6,(11,13))),((12,15),(9,10))),16);
((((((3,(2,5)),(1,6)),(8,(14,(4,7)))),(11,13)),((12,15),(9,10))),16);
(((((7,14),(8,((1,6),(3,(4,(2,5)))))),(11,13)),((9,10),(12,15))),16);
(((((((3,(2,5)),(1,6)),8),(14,(4,7))),(11,13)),((12,15),(9,10))),16);
((((((3,(2,5)),(1,6)),(8,(14,(4,7)))),(11,13)),((12,15),(9,10))),16);
((((((14,(4,7)),(8,(1,6))),(3,(2,5))),(11,13)),((12,15),(9,10))),16);
((((((1,6),(8,(3,(2,5)))),(14,(4,7))),(11,13)),((12,15),(9,10))),16);
((((((1,6),(3,(2,5))),((14,(4,7)),8)),(11,13)),((12,15),(9,10))),16);
(((((((1,6),(3,(2,5))),(14,(4,7))),8),(11,13)),((9,10),(12,15))),16);
((((((3,(2,5)),(8,(14,(4,7)))),(1,6)),(11,13)),((12,15),(9,10))),16);
(((((3,(2,5)),((1,6),(8,(14,(4,7))))),(11,13)),((12,15),(9,10))),16);
(((((((6,(3,(5,(2,4)))),(7,14)),1),8),(11,13)),((9,10),(12,15))),16);
(((((((4,(7,14)),8),(3,(2,5))),(1,6)),(11,13)),((12,15),(9,10))),16);
((((((7,14),((3,(4,(2,5))),(1,6))),8),(11,13)),((12,15),(9,10))),16);
(((((3,(2,5)),(1,6)),((11,13),(8,(14,(4,7))))),((12,15),(9,10))),16);
((((((((1,(2,5)),3),6),(14,(4,7))),8),(11,13)),((12,15),(9,10))),16);
(((((((14,(4,7)),(6,(3,(2,5)))),1),(11,13)),8),((12,15),(9,10))),16);
(((((8,((14,(4,7)),(1,6))),((3,(2,5)),(11,13))),(12,15)),(9,10)),16);
((((((8,(4,(7,14))),((2,5),(3,6))),(1,(11,13))),(12,15)),(9,10)),16);
((((((((1,(6,(2,(4,5)))),3),8),(7,14)),(11,13)),(12,15)),(9,10)),16);
(((((((3,((2,5),(1,6))),8),(14,(4,7))),(11,13)),(12,15)),(9,10)),16);
((((12,15),(9,10)),((8,((3,(2,5)),(1,6))),((11,13),(14,(4,7))))),16);
(((((((1,6),(3,(2,5))),8),(14,(4,7))),(11,13)),((9,10),(12,15))),16);
(((((((3,(1,6)),(2,5)),8),(11,13)),(14,(4,7))),((9,10),(12,15))),16);
(((((8,(1,6)),((14,(4,7)),(3,(2,5)))),(11,13)),((12,15),(9,10))),16);
((((((14,(4,7)),(8,(3,((2,5),(1,6))))),(11,13)),(12,15)),(9,10)),16);
(((((((8,(14,(4,7))),(3,(2,5))),(1,6)),(11,13)),(12,15)),(9,10)),16);
((((((8,((3,(2,5)),(1,6))),(14,(4,7))),(11,13)),(12,15)),(9,10)),16);
((((((8,((1,6),(3,(2,5)))),(14,(4,7))),(11,13)),(12,15)),(9,10)),16);
((((((8,(14,(4,7))),(6,(3,(2,5)))),1),(11,13)),((12,15),(9,10))),16);
((((((3,(14,(4,7))),6),(11,13)),(8,(1,(2,5)))),((9,10),(12,15))),16);
((((((14,(4,7)),(8,(6,(3,(2,5))))),1),(11,13)),((12,15),(9,10))),16);
((((((4,(2,5)),(6,(1,3))),(8,(7,14))),(11,13)),((12,15),(9,10))),16);
(((((11,13),(14,((4,7),((3,(2,5)),(1,6))))),8),((12,15),(9,10))),16);
((((((1,6),(3,(2,(4,5)))),(8,(7,14))),(11,13)),((12,15),(9,10))),16);
((((((11,13),(8,(1,(6,(3,(2,5)))))),(14,(4,7))),(12,15)),(9,10)),16);
(((((8,((3,(2,5)),(14,(4,7)))),(1,6)),(11,13)),((12,15),(9,10))),16);
(((((11,13),(8,(3,(2,5)))),(1,(6,(14,(4,7))))),((12,15),(9,10))),16);
(((((((1,(3,(5,(4,2)))),6),(7,14)),8),(11,13)),((9,10),(12,15))),16);
(((((((3,(2,5)),(1,6)),8),(14,(4,7))),(11,13)),((12,15),(9,10))),16);
(((((((1,6),(8,(14,(4,7)))),(3,(2,5))),(11,13)),(9,10)),(12,15)),16);
(((9,10),((12,15),((8,(1,6)),((11,13),((3,(2,5)),(14,(4,7))))))),16);
(((((8,(14,(4,7))),(11,13)),((3,(2,5)),(1,6))),((12,15),(9,10))),16);
(((((((2,5),(1,6)),(8,(3,(14,(4,7))))),(11,13)),(9,10)),(12,15)),16);
(((((14,(4,7)),(1,(6,(3,(2,5))))),(8,(11,13))),((12,15),(9,10))),16);
((((((1,(6,(3,(2,5)))),(8,(4,(7,14)))),(11,13)),(12,15)),(9,10)),16);
(((((((3,(2,5)),(1,6)),(14,(4,7))),8),(11,13)),((9,10),(12,15))),16);
((((((14,(4,7)),((3,(2,5)),(1,6))),8),(11,13)),((12,15),(9,10))),16);
((((11,13),((14,(4,7)),(8,((1,6),(3,(2,5)))))),((12,15),(9,10))),16);
((((12,15),(9,10)),((11,13),((8,(1,(3,(5,(2,4))))),(6,(7,14))))),16);
(((((14,((3,(2,5)),(1,6))),(8,(4,7))),(11,13)),((12,15),(9,10))),16);
((((((14,(4,7)),(8,(2,(3,5)))),(1,6)),(11,13)),((12,15),(9,10))),16);
(((((6,(1,(3,(2,5)))),((11,13),(8,(14,(4,7))))),(9,10)),(12,15)),16);
(((((((3,(4,(2,5))),(1,6)),(7,14)),8),(11,13)),((12,15),(9,10))),16);
((((((11,13),(8,((2,5),(3,(1,6))))),(14,(4,7))),(9,10)),(12,15)),16);
(((((((1,6),((4,(7,14)),8)),(3,(2,5))),(11,13)),(12,15)),(9,10)),16);
((((((((3,(2,5)),(1,6)),(14,(4,7))),8),(11,13)),(12,15)),(9,10)),16);
((((((8,(14,(4,7))),((3,(2,5)),(1,6))),(11,13)),(12,15)),(9,10)),16);
(((((((1,(3,(2,5))),6),(14,(4,7))),8),(11,13)),((12,15),(9,10))),16);
(((((1,6),(3,(2,5))),((11,13),(8,(14,(4,7))))),((12,15),(9,10))),16);
((((11,13),(((3,(2,5)),(1,6)),(8,(14,(4,7))))),((12,15),(9,10))),16);
(((((((7,14),(1,6)),(3,(4,(2,5)))),8),(11,13)),((12,15),(9,10))),16);
(((((1,(6,(3,(2,5)))),(8,(14,(4,7)))),((9,10),(12,15))),(11,13)),16);
(((((((((2,5),3),6),1),(14,(4,7))),8),(11,13)),((12,15),(10,9))),16);
((((((8,(1,6)),((3,(2,5)),(14,(4,7)))),(11,13)),(12,15)),(9,10)),16);
((((((1,(6,(3,(5,(2,4))))),8),(7,14)),(11,13)),((12,15),(9,10))),16);
((((((8,(14,(4,7))),(1,6)),(3,(2,5))),(11,13)),((12,15),(9,10))),16);
(((((((3,(2,5)),(1,6)),(8,(14,(4,7)))),(11,13)),(9,10)),(12,15)),16);
((((((1,(6,(2,(3,5)))),(7,(4,14))),(11,13)),8),((12,15),(9,10))),16);
((((((3,(2,5)),1),(8,(14,(4,7)))),(6,(11,13))),((12,15),(9,10))),16);
((((((7,14),((3,(2,(4,5))),(1,6))),8),(11,13)),((12,15),(9,10))),16);
(((((((4,7),(8,(1,6))),14),(3,(2,5))),(11,13)),((12,15),(9,10))),16);
((((((8,(14,(4,7))),(3,(2,5))),(1,6)),(11,13)),((9,10),(12,15))),16);
(((((((1,6),(3,(2,5))),(8,(14,(4,7)))),(11,13)),(9,10)),(12,15)),16);
(((((1,(3,(5,(2,4)))),(8,(7,14))),(11,13)),(((12,15),(9,10)),6)),16);
((((((((2,3),5),6),1),(8,(14,(4,7)))),(11,13)),((9,10),(12,15))),16);
(((((((3,(2,5)),(1,6)),(4,(7,14))),(11,13)),8),((12,15),(9,10))),16);
((((((14,(4,7)),(8,(1,(3,(2,5))))),6),(11,13)),((12,15),(9,10))),16);
((((((6,(2,5)),(1,3)),(8,(7,(4,14)))),(11,13)),((12,15),(9,10))),16);
((((((14,(4,7)),(8,(3,(2,5)))),(1,6)),(11,13)),((9,10),(12,15))),16);
((((((1,6),((14,(4,7)),(3,(2,5)))),(11,13)),8),((9,10),(12,15))),16);
((((((6,(1,(3,(2,5)))),8),(14,(4,7))),(11,13)),((9,10),(12,15))),16);
((((9,10),((8,((3,(2,5)),(1,6))),((11,13),(14,(4,7))))),(12,15)),16);
((((((1,6),(14,(4,7))),(8,(2,(3,5)))),(11,13)),((12,15),(9,10))),16);
((((((1,6),(3,(2,5))),(8,(14,(4,7)))),(11,13)),((9,10),(12,15))),16);
((((((3,(2,5)),((1,6),(14,(4,7)))),8),(11,13)),((9,10),(12,15))),16);
(((((1,(6,(3,(2,5)))),(11,13)),(8,(14,(4,7)))),((12,15),(9,10))),16);
((((((3,(2,5)),6),1),((11,13),(14,(8,(4,7))))),((12,15),(9,10))),16);
(((((((3,(2,5)),(1,6)),(14,(4,7))),8),(11,13)),((9,10),(12,15))),16);
(((((((1,6),3),(2,5)),(8,(14,(4,7)))),(11,13)),((12,15),(9,10))),16);
((((6,((14,(4,7)),(1,(3,(2,5))))),(8,(11,13))),((12,15),(9,10))),16);
(((((((14,(4,7)),(8,(1,6))),(3,(2,5))),(11,13)),(12,15)),(9,10)),16);
((((((6,(8,(7,14))),1),(3,(5,(2,4)))),(11,13)),((9,10),(12,15))),16);
(((((1,(3,(2,5))),(6,(8,(7,(4,14))))),(11,13)),((12,15),(9,10))),16);
(((((((1,(3,(5,(2,4)))),8),6),(7,14)),(11,13)),((12,15),(9,10))),16);
((((14,(4,7)),((11,13),(8,((3,(2,5)),(1,6))))),((12,15),(9,10))),16);
((((((14,(4,7)),(8,(1,6))),(3,(2,5))),(11,13)),((12,15),(9,10))),16);
(((((((2,5),(3,(1,6))),8),(14,(4,7))),(11,13)),((9,10),(12,15))),16);
(((((8,(14,(4,7))),((3,(2,5)),(1,6))),(11,13)),((9,10),(12,15))),16);
((((((1,(6,(3,(2,5)))),8),(7,(4,14))),(11,13)),((12,15),(9,10))),16);
(((((((1,6),(3,(2,5))),(11,13)),(8,(14,(4,7)))),(9,10)),(12,15)),16);
((((((14,(4,7)),(1,6)),(8,(3,(2,5)))),(11,13)),((9,10),(12,15))),16);
(((((((14,(4,7)),(1,(6,(5,(2,3))))),8),(11,13)),(12,15)),(9,10)),16);
((((((6,(3,(2,5))),(8,(14,(4,7)))),1),(11,13)),((12,15),(9,10))),16);
(((((((3,6),1),(2,5)),((4,7),(8,14))),(11,13)),((12,15),(9,10))),16);
((((11,13),((8,(14,(4,7))),(6,((2,3),(1,5))))),((12,15),(9,10))),16);
(((((6,(14,(4,7))),(1,(8,(3,(2,5))))),(11,13)),((12,15),(9,10))),16);
(((12,15),((9,10),((11,13),(((3,(2,5)),(1,6)),(8,(14,(4,7))))))),16);
(((((((3,(2,5)),1),6),(8,(14,(4,7)))),(11,13)),((9,10),(12,15))),16);
(((((1,6),(14,(4,7))),(3,(2,5))),((8,(11,13)),((12,15),(9,10)))),16);
(((((6,8),((14,(4,7)),(1,(3,(2,5))))),(11,13)),((12,15),(9,10))),16);
((((((1,(3,(2,5))),(8,(6,(14,(4,7))))),(11,13)),(12,15)),(9,10)),16);
(((((8,(14,(4,7))),(6,(1,(3,(2,5))))),((9,10),(12,15))),(11,13)),16);
(((((3,((2,5),(8,(14,(4,7))))),(1,6)),(11,13)),((9,10),(12,15))),16);
(((((((1,(3,(5,(2,4)))),6),8),(7,14)),(11,13)),((9,10),(12,15))),16);
(((((((3,(2,5)),(1,6)),(8,(14,(4,7)))),(11,13)),(12,15)),(9,10)),16);
((((((((1,6),(14,(4,7))),(3,(2,5))),8),(9,10)),(12,15)),(11,13)),16);
((((8,((3,(2,5)),((14,(4,7)),(1,6)))),(11,13)),((9,10),(12,15))),16);
((((((7,14),(6,((2,(4,5)),(1,3)))),8),(11,13)),((12,15),(9,10))),16);
(((9,10),((12,15),((11,13),(((3,(2,(4,5))),(1,6)),(14,(7,8)))))),16);
(((((((6,1),(3,(2,5))),8),(14,(4,7))),(11,13)),((12,15),(9,10))),16);
((((((8,(7,14)),1),(6,(3,(5,(2,4))))),(11,13)),((12,15),(9,10))),16);
(((((((3,(2,5)),(1,6)),8),(14,(4,7))),(11,13)),((9,10),(12,15))),16);
(((((((6,(2,5)),3),1),(11,13)),(8,(14,(4,7)))),((9,10),(12,15))),16);
((((11,13),(((3,(2,5)),(1,6)),(8,(14,(4,7))))),((12,15),(9,10))),16);
(((((((1,(5,(2,4))),3),6),(8,(7,14))),(11,13)),((12,15),(9,10))),16);
((((((14,(4,7)),(1,6)),(8,(3,(2,5)))),(11,13)),((9,10),(12,15))),16);
((((((6,(1,(3,(2,5)))),(8,(14,(4,7)))),(11,13)),(12,15)),(9,10)),16);
(((((8,(1,6)),((11,13),((3,(5,(2,4))),(7,14)))),(12,15)),(9,10)),16);
(((((((1,6),(14,(4,7))),(8,(3,(2,5)))),(11,13)),(12,15)),(9,10)),16);
(((((11,13),(3,(2,5))),((1,6),(8,(14,(4,7))))),((9,10),(12,15))),16);
(((((((3,(2,5)),(1,6)),8),(14,(4,7))),(11,13)),((12,15),(9,10))),16);
(((((8,(7,(4,14))),((3,(2,5)),(1,6))),(11,13)),((12,15),(9,10))),16);
((((((3,(2,5)),(1,6)),(8,(14,(4,7)))),((9,10),(12,15))),(11,13)),16);
(((((1,(6,(2,5))),(14,(4,7))),((11,13),(3,8))),((9,10),(12,15))),16);
((((((3,(1,6)),(2,5)),(11,13)),(8,(14,(4,7)))),((12,15),(9,10))),16);
((((((6,(5,(2,4))),(1,3)),(11,13)),(8,(7,14))),((9,10),(12,15))),16);
((((11,13),((1,6),((3,(2,5)),(8,(14,(4,7)))))),((12,15),(9,10))),16);
(((((8,(14,(4,7))),(3,((2,5),(1,6)))),(11,13)),((9,10),(12,15))),16);
((((((8,(14,(4,7))),1),3),((11,13),(6,(2,5)))),((12,15),(9,10))),16);
((((7,(14,((3,(2,(4,5))),(8,(1,6))))),(11,13)),((9,10),(12,15))),16);
((((((1,((14,(4,7)),8)),(3,(6,(2,5)))),(11,13)),(9,10)),(12,15)),16);
(((((7,(1,6)),((3,(5,(2,4))),(14,8))),(11,13)),((12,15),(9,10))),16);
(((((8,((3,(2,5)),(1,6))),(14,(4,7))),(11,13)),((12,15),(9,10))),16);
((((((14,(4,7)),(8,((3,(2,5)),(1,6)))),(11,13)),(12,15)),(9,10)),16);
((((((8,(14,(4,7))),(1,(3,(2,5)))),6),((12,15),(9,10))),(11,13)),16);
((((((3,5),(1,6)),(2,(8,(14,(4,7))))),(11,13)),((12,15),(9,10))),16);
((((((((14,(4,7)),(1,6)),(3,(2,5))),8),(11,13)),(9,10)),(12,15)),16);
((((11,13),((12,15),(9,10))),((1,6),(8,((3,(2,5)),(14,(4,7)))))),16);
(((((1,(2,5)),((14,(3,6)),((4,7),8))),(11,13)),((12,15),(9,10))),16);
(((((8,(14,(4,7))),(11,13)),((1,6),(3,(2,5)))),((9,10),(12,15))),16);
((((((1,6),(3,(2,5))),(8,(14,(4,7)))),(11,13)),((12,15),(9,10))),16);
(((((8,(14,(4,7))),((1,6),(3,(2,5)))),(11,13)),((9,10),(12,15))),16);
((((((3,6),(1,(2,5))),(8,(14,(4,7)))),(11,13)),((12,15),(9,10))),16);
((((((((1,6),(8,3)),(2,5)),(14,(4,7))),(11,13)),(9,10)),(12,15)),16);
((((((((14,4),7),8),(3,(2,5))),(1,6)),(11,13)),((12,15),(9,10))),16);
(((12,15),((9,10),((11,13),((1,6),((3,(2,5)),(8,(14,(4,7)))))))),16);
((((((1,(3,(2,5))),6),(14,(4,7))),(8,(11,13))),((12,15),(9,10))),16);
((((((2,5),(1,6)),((14,(4,7)),(3,8))),(11,13)),((12,15),(9,10))),16);
((((((1,(7,14)),8),(6,(3,(2,(4,5))))),(11,13)),((12,15),(9,10))),16);
((((((6,(1,8)),((14,(4,7)),(2,(3,5)))),(11,13)),(12,15)),(9,10)),16);
((((((6,(3,(2,5))),(8,1)),(14,(4,7))),(11,13)),((12,15),(9,10))),16);
((((9,10),((7,14),((11,13),(8,((1,6),(3,(5,(2,4)))))))),(12,15)),16);
((((((3,(2,5)),(1,6)),(8,(14,(4,7)))),(11,13)),((9,10),(12,15))),16);
(((((((1,6),(14,(4,7))),(3,(2,5))),8),(11,13)),((9,10),(12,15))),16);
((((11,13),(((3,(2,5)),(1,6)),(8,(14,(4,7))))),((9,10),(12,15))),16);
(((((((4,7),(8,(1,6))),(3,(2,5))),14),(11,13)),((12,15),(9,10))),16);
(((((8,(14,(4,7))),(1,(6,(3,(2,5))))),(11,13)),((12,15),(9,10))),16);
((((11,13),((12,15),(9,10))),(((1,6),(3,(5,(2,4)))),(8,(7,14)))),16);
((((((6,(1,(3,(2,5)))),8),(11,13)),(14,(4,7))),((12,15),(9,10))),16);
((((((((1,6),(3,(5,(2,4)))),8),(11,13)),(7,14)),(9,10)),(12,15)),16);
((((((3,(2,5)),(8,(14,(4,7)))),(1,6)),(11,13)),((12,15),(9,10))),16);
((((((1,6),(14,(8,(4,7)))),((11,13),(5,(2,3)))),(9,10)),(12,15)),16);
((((((((1,6),(3,(2,5))),8),(7,(4,14))),(11,13)),(12,15)),(9,10)),16);
(((((8,(6,1)),(14,(4,7))),((11,13),(3,(2,5)))),((12,15),(9,10))),16);
(((((8,(14,(4,7))),(1,((2,5),(6,3)))),(11,13)),((9,10),(12,15))),16);
(((((((1,6),(3,(2,5))),(14,(4,7))),8),(11,13)),((9,10),(12,15))),16);
((((((8,(14,(4,7))),(3,(2,5))),(1,6)),(11,13)),((12,15),(9,10))),16);
((((1,((6,(3,(5,(2,4)))),(8,(7,14)))),(11,13)),((12,15),(9,10))),16);
(((((((1,3),(2,5)),6),(8,(14,(4,7)))),(11,13)),((12,15),(9,10))),16);
(((((((3,(2,4)),5),(1,6)),(8,(7,14))),(11,13)),((9,10),(12,15))),16);
((((((7,14),(1,6)),(8,(3,(5,(2,4))))),(11,13)),((12,15),(9,10))),16);
(((((6,(3,(2,5))),1),((11,13),(8,(4,(14,7))))),((12,15),(9,10))),16);
(((((((1,6),(3,(2,5))),8),(14,(4,7))),(11,13)),((12,15),(9,10))),16);
((((1,6),((12,15),(9,10))),((8,(14,(4,7))),((11,13),(3,(2,5))))),16);
((((1,6),((11,13),((3,(2,5)),(8,(14,(4,7)))))),((9,10),(12,15))),16);
(((((3,(2,5)),(1,6)),((11,13),(8,(14,(4,7))))),((12,15),(9,10))),16);
((((((8,(14,(4,7))),(3,(1,6))),(2,5)),(11,13)),((12,15),(9,10))),16);
((((11,13),(((12,15),(9,10)),(6,(1,(3,(2,5)))))),(8,(14,(4,7)))),16);
((((12,15),(9,10)),((11,13),((1,(6,(2,5))),(3,(8,(14,(4,7))))))),16);
((((((3,(6,(2,(4,5)))),(8,(7,14))),1),(11,13)),((12,15),(9,10))),16);
((((7,((14,(8,(1,6))),(3,(5,(2,4))))),(11,13)),((9,10),(12,15))),16);
(((((((3,(2,5)),(1,6)),(14,(4,7))),8),(11,13)),((12,15),(9,10))),16);
(((((11,13),(8,(14,(4,7)))),(1,(6,(3,(2,5))))),((12,15),(9,10))),16);
((((((8,(4,7)),(14,(3,(2,5)))),(1,6)),(11,13)),((9,10),(12,15))),16);
(((((8,((3,(1,6)),(4,7))),(14,(2,5))),(11,13)),((9,10),(12,15))),16);
(((((((3,(2,5)),(1,6)),8),(14,(4,7))),(11,13)),((12,15),(9,10))),16);
((((((1,(3,5)),(6,(8,(14,(4,7))))),2),(11,13)),((12,15),(9,10))),16);
((((8,((3,(2,5)),((14,(4,7)),(1,6)))),(11,13)),((12,15),(9,10))),16);
((((((2,5),(8,(14,(4,7)))),(3,(1,6))),(11,13)),((12,15),(9,10))),16);
(((((8,(3,(2,5))),(1,6)),((11,13),(14,(4,7)))),((12,15),(9,10))),16);
((((((6,(3,(2,5))),1),(14,(4,7))),(8,(11,13))),((12,15),(9,10))),16);
((((((3,(2,5)),(1,(8,(7,14)))),(4,6)),(11,13)),((9,10),(12,15))),16);
((((((1,6),(3,(2,5))),8),((11,13),(14,(4,7)))),((12,15),(9,10))),16);
(((((((14,(4,7)),8),((3,(2,5)),(1,6))),(11,13)),(9,10)),(12,15)),16);
((((((8,(4,7)),(14,(1,6))),(3,(2,5))),(11,13)),((9,10),(12,15))),16);
((((((8,(14,(4,7))),(1,(6,(3,(2,5))))),(11,13)),(9,10)),(12,15)),16);
(((((8,(14,(4,7))),(6,(3,(1,(2,5))))),(11,13)),((9,10),(12,15))),16);
(((((1,(7,14)),(8,(6,(3,(5,(2,4)))))),(11,13)),((12,15),(9,10))),16);
(((((8,((3,(2,(4,5))),(1,6))),(7,14)),(11,13)),((12,15),(9,10))),16);
((((((14,((1,6),(3,(2,5)))),(8,(4,7))),(11,13)),(12,15)),(9,10)),16);
((((8,(6,(1,(3,(2,5))))),((11,13),(14,(4,7)))),((9,10),(12,15))),16);
((((((8,(1,6)),(4,7)),(14,(3,(2,5)))),(11,13)),((9,10),(12,15))),16);
((((8,((3,(2,5)),(1,6))),((11,13),(14,(4,7)))),((12,15),(9,10))),16);
(((((((8,(3,(2,5))),(14,(4,7))),(1,6)),(11,13)),(9,10)),(12,15)),16);
(((((8,(14,(4,7))),(1,(6,(3,(2,5))))),(11,13)),((9,10),(12,15))),16);
(((((1,6),(3,(2,5))),(8,(14,(4,7)))),((11,13),((12,15),(9,10)))),16);
(((((((4,7),(3,(2,5))),(1,6)),(8,14)),(11,13)),((12,15),(9,10))),16);
(((((14,(4,7)),(8,((3,(2,5)),(6,1)))),(11,13)),((12,15),(9,10))),16);
(((((8,((1,6),(3,(4,(2,5))))),(7,14)),(11,13)),((9,10),(12,15))),16);
(((((((7,14),(1,6)),(8,(3,(5,(2,4))))),(11,13)),(9,10)),(12,15)),16);
((((((6,(3,(2,5))),1),(8,(14,(4,7)))),(11,13)),((12,15),(9,10))),16);
(((((((1,6),(3,(5,(2,4)))),(8,(7,14))),(11,13)),(12,15)),(9,10)),16);
(((((((2,5),(1,6)),(8,(14,(4,7)))),(11,13)),3),((12,15),(9,10))),16);
((((((1,6),(5,(2,3))),(8,(14,(4,7)))),(11,13)),((12,15),(9,10))),16);
((((((1,6),(3,(2,5))),(8,(14,(4,7)))),(11,13)),((12,15),(9,10))),16);
((((((1,6),((2,5),3)),(8,(14,(4,7)))),(11,13)),((12,15),(9,10))),16);
((((((((3,(2,5)),(1,6)),(14,(4,7))),8),(11,13)),(9,10)),(12,15)),16);
((((((3,((1,(2,5)),6)),(14,(4,7))),8),(11,13)),((9,10),(12,15))),16);
(((((3,(2,5)),(6,(1,(14,(4,7))))),(8,(11,13))),((12,15),(9,10))),16);
(((((((1,6),(3,(2,5))),8),(14,(4,7))),(11,13)),((12,15),(9,10))),16);
((((((14,(4,7)),((3,(2,5)),(1,6))),8),(11,13)),((12,15),(9,10))),16);
(((((((3,(2,5)),6),1),(8,(14,(4,7)))),(11,13)),((12,15),(9,10))),16);
((((((8,(3,(2,5))),(1,6)),(14,(4,7))),(11,13)),((12,15),(9,10))),16);
(((((8,(14,(4,7))),((3,(2,5)),(1,6))),(11,13)),((9,10),(12,15))),16);
((((((8,(1,6)),((3,(2,5)),(14,(4,7)))),(11,13)),(12,15)),(9,10)),16);
(((((((1,6),(2,3)),5),(8,(14,(4,7)))),(11,13)),((12,15),(9,10))),16);
(((((8,((1,6),(14,(4,7)))),(3,(2,5))),(11,13)),((9,10),(12,15))),16);
((((((((1,6),(3,(2,5))),8),(14,(4,7))),(11,13)),(9,10)),(12,15)),16);
((((((3,(4,(2,5))),(8,(7,14))),(1,6)),(11,13)),((12,15),(9,10))),16);
(((((((2,5),(3,(1,6))),8),(14,(4,7))),(11,13)),((12,15),(9,10))),16);
((((((3,6),(1,(2,(4,5)))),(8,(7,14))),(11,13)),((12,15),(9,10))),16);
((((((1,6),(3,(2,5))),(8,(14,(4,7)))),(11,13)),((12,15),(9,10))),16);
((((((3,(1,6)),(2,5)),(11,13)),(8,(14,(4,7)))),((12,15),(9,10))),16);
(((((((2,3),(5,(1,6))),8),(14,(4,7))),(11,13)),((12,15),(9,10))),16);
(((((8,(14,(4,7))),((3,(2,5)),(1,6))),(11,13)),((9,10),(12,15))),16);
((((8,((14,(4,7)),((3,(2,5)),(1,6)))),(11,13)),((12,15),(9,10))),16);
(((((8,((3,(2,5)),(1,6))),(14,(4,7))),(11,13)),((12,15),(9,10))),16);
(((((8,(14,(4,7))),(3,((2,5),(1,6)))),(11,13)),((9,10),(12,15))),16);
(((((1,(6,(3,(2,5)))),(8,(14,(4,7)))),(11,13)),((12,15),(9,10))),16);
(((((((5,(2,3)),(6,1)),(14,(4,7))),8),(11,13)),((12,15),(9,10))),16);
((((((1,(3,(2,5))),6),7),(8,(4,14))),((11,13),((9,10),(12,15)))),16);
((((((8,(7,14)),(1,6)),(3,(2,(4,5)))),(11,13)),((12,15),(9,10))),16);
(((((1,6),(3,(2,5))),((14,(4,7)),8)),((11,13),((12,15),(9,10)))),16);
(((((8,(3,(2,5))),((14,(4,7)),(1,6))),(11,13)),((12,15),(9,10))),16);
((((((3,((2,5),(1,6))),14),(8,(4,7))),(11,13)),((12,15),(9,10))),16);
((((((3,(2,5)),(1,6)),8),((11,13),(14,(4,7)))),((12,15),(9,10))),16);
((((((14,(4,7)),((2,5),(3,6))),8),1),(((12,15),(11,13)),(9,10))),16);
(((((4,(7,14)),(8,((1,6),(3,(2,5))))),(11,13)),((12,15),(9,10))),16);
(((((8,((3,(2,5)),(1,6))),(14,(4,7))),(11,13)),((9,10),(12,15))),16);
(((((((8,(4,7)),14),3),(11,13)),((2,5),(1,6))),((12,15),(9,10))),16);
(((((((3,(1,(2,5))),(8,(4,7))),(6,14)),(11,13)),(9,10)),(12,15)),16);
((((((8,((4,7),(1,6))),(3,(2,5))),14),(11,13)),((12,15),(9,10))),16);
((((((8,(14,(4,7))),1),(6,(3,(2,5)))),(11,13)),((9,10),(12,15))),16);
(((((1,(3,(2,5))),(6,(8,(14,(4,7))))),(11,13)),((12,15),(9,10))),16);
(((((((3,(2,5)),(1,6)),8),(14,(4,7))),(11,13)),((12,15),(9,10))),16);
(((((((1,(4,(2,5))),(3,6)),8),(7,14)),((12,15),(9,10))),(11,13)),16);
((((((1,6),(5,(2,3))),(8,(14,(4,7)))),(11,13)),((12,15),(9,10))),16);
(((((8,((1,6),(14,(4,7)))),(3,(2,5))),(11,13)),((12,15),(9,10))),16);
(((((6,(1,(3,(2,5)))),(8,(14,(4,7)))),(11,13)),((12,15),(9,10))),16);
(((((8,(14,(4,7))),((6,(3,(2,5))),1)),(11,13)),((12,15),(9,10))),16);
(((((8,(14,(4,7))),((3,(2,5)),(1,6))),(11,13)),((12,15),(9,10))),16);
(((((((1,(3,(2,5))),(14,(4,7))),(6,8)),(11,13)),(12,15)),(9,10)),16);
(((((8,((1,(5,(2,4))),(3,6))),(7,14)),(11,13)),((12,15),(9,10))),16);
(((((8,((14,(4,7)),(1,6))),(3,(2,5))),(11,13)),((12,15),(9,10))),16);
(((((1,(8,(14,(4,7)))),(6,(3,(2,5)))),(11,13)),((9,10),(12,15))),16);
((((8,((7,14),((3,(5,(2,4))),(1,6)))),(11,13)),((12,15),(9,10))),16);
((((((((1,3),(6,(2,5))),(14,(4,7))),8),(11,13)),(9,10)),(12,15)),16);
((((((4,8),(3,((2,5),(1,6)))),(7,14)),(11,13)),((12,15),(9,10))),16);
((((((1,(6,(2,3))),8),(5,(14,(4,7)))),(11,13)),((9,10),(12,15))),16);
(((((((1,6),(3,(2,5))),(8,(14,(4,7)))),(11,13)),(12,15)),(9,10)),16);
(((((((8,(14,(4,7))),(3,6)),(11,13)),(1,(2,5))),(9,10)),(12,15)),16);
((((((((6,5),2),3),(1,((4,7),(8,14)))),(11,13)),(12,15)),(9,10)),16);
((((((((3,(2,5)),(14,(4,7))),(1,6)),8),(11,13)),(9,10)),(12,15)),16);
((((((1,(3,(2,5))),6),(11,13)),(8,(14,(4,7)))),((12,15),(9,10))),16);
((((((2,(4,5)),((3,6),1)),(8,(7,14))),(11,13)),((9,10),(12,15))),16);
((((((4,7),((3,(2,5)),(1,6))),(8,14)),(11,13)),((12,15),(9,10))),16);
((((11,13),((8,(7,14)),((3,(4,(2,5))),(1,6)))),((9,10),(12,15))),16);
((((((((3,(5,(2,4))),(1,6)),8),(7,14)),(11,13)),(9,10)),(12,15)),16);
((((((1,(6,3)),((2,5),(8,(14,(4,7))))),(11,13)),(9,10)),(12,15)),16);
(((((8,(14,(4,7))),((1,6),(5,(2,3)))),(11,13)),((12,15),(9,10))),16);
((((((14,((2,5),(3,(1,6)))),(4,7)),8),(11,13)),((12,15),(9,10))),16);
((((((14,(4,7)),(8,(2,5))),(3,(1,6))),(11,13)),((9,10),(12,15))),16);
(((((8,(1,6)),((3,(4,(2,5))),(7,14))),(11,13)),((12,15),(9,10))),16);
((((8,((3,(2,5)),((14,(4,7)),(1,6)))),(11,13)),((9,10),(12,15))),16);
(((((((6,(3,(2,5))),(14,(4,7))),1),8),(11,13)),((12,15),(9,10))),16);
(((((3,(2,(4,5))),(8,(7,14))),((11,13),(1,6))),((12,15),(9,10))),16);
(((((((1,6),(3,(2,5))),(14,(4,7))),8),(11,13)),((9,10),(12,15))),16);
(((((8,(6,(3,(2,5)))),(1,(14,(4,7)))),(11,13)),((9,10),(12,15))),16);
(((((((14,(4,7)),8),(3,(2,(1,6)))),5),((9,10),(12,15))),(11,13)),16);
((((((1,6),((14,(4,7)),8)),(3,(2,5))),(11,13)),((9,10),(12,15))),16);
((((((5,(2,4)),(7,14)),(8,(3,(1,6)))),(11,13)),((12,15),(9,10))),16);
(((((((3,(2,5)),(8,(14,(4,7)))),(1,6)),(11,13)),(12,15)),(9,10)),16);
(((((((1,(3,(2,5))),(6,(14,(4,7)))),8),(11,13)),(12,15)),(9,10)),16);
((((((1,(3,(2,(4,5)))),((7,14),8)),6),(11,13)),((12,15),(9,10))),16);
(((((((6,(2,5)),(1,3)),8),(14,(4,7))),(11,13)),((12,15),(9,10))),16);
((((((14,(4,7)),(8,(3,(2,5)))),(1,6)),(11,13)),((12,15),(9,10))),16);
((((((7,8),14),((1,6),(3,(5,(2,4))))),(11,13)),((9,10),(12,15))),16);
((((12,15),((8,14),((11,13),((4,7),((3,(2,5)),(1,6)))))),(9,10)),16);
(((((14,(4,7)),(1,8)),((11,13),(6,(2,(3,5))))),((12,15),(9,10))),16);
((((((2,(3,5)),(8,6)),1),((11,13),(14,(4,7)))),((9,10),(12,15))),16);
(((((8,(14,(4,7))),((3,(2,5)),(1,6))),(11,13)),((9,10),(12,15))),16);
(((((((1,6),(3,(5,(2,4)))),8),(7,14)),(11,13)),((12,15),(9,10))),16);
(((((14,(4,7)),(8,((3,(2,5)),(1,6)))),(11,13)),((12,15),(9,10))),16);
(((((((6,(3,(2,5))),1),8),(14,(4,7))),(11,13)),((12,15),(9,10))),16);
((((((((14,(4,7)),(3,(2,5))),8),(1,6)),(11,13)),(12,15)),(9,10)),16);
(((((((3,(2,5)),(14,(4,7))),(11,13)),(8,(1,6))),(9,10)),(12,15)),16);
((((((14,(6,(3,(2,5)))),(8,(1,(4,7)))),(11,13)),(12,15)),(9,10)),16);
((((((4,(3,(2,5))),(1,6)),(11,13)),(8,(7,14))),((12,15),(9,10))),16);
((((((2,5),(14,(4,7))),((3,6),(8,1))),(11,13)),((9,10),(12,15))),16);
((((((6,(1,(2,5))),(3,(8,(14,(4,7))))),(11,13)),(9,10)),(12,15)),16);
((((((8,(14,(4,7))),(6,(3,(2,5)))),1),(11,13)),((9,10),(12,15))),16);
((((((((3,6),(2,5)),1),(14,(4,7))),8),(11,13)),((9,10),(12,15))),16);
(((((11,13),((6,(1,(3,(2,5)))),(8,(14,(4,7))))),(12,15)),(9,10)),16);
((((((((3,(2,5)),(1,6)),(14,(4,7))),8),(11,13)),(12,15)),(9,10)),16);
((((((5,(14,(4,7))),((2,3),(1,6))),(11,13)),8),((12,15),(9,10))),16);
(((((14,(8,(4,7))),((3,(2,5)),(1,6))),(11,13)),((12,15),(9,10))),16);
((((((3,(2,5)),(1,6)),(8,(14,(4,7)))),(11,13)),((9,10),(12,15))),16);
((((((4,7),(8,14)),((3,(2,5)),(1,6))),(11,13)),((9,10),(12,15))),16);
(((((((2,5),(4,3)),(1,6)),(8,(7,14))),(11,13)),((9,10),(12,15))),16);
(((((((6,(3,(2,5))),1),(8,(14,(4,7)))),(11,13)),(12,15)),(9,10)),16);
((((14,(3,(2,5))),((8,(4,7)),(1,6))),(((12,15),(9,10)),(11,13))),16);
(((((((1,(3,(2,5))),(6,(14,(4,7)))),8),(11,13)),(12,15)),(9,10)),16);
((((((6,(1,(3,(2,5)))),(8,(14,(4,7)))),(11,13)),(9,10)),(12,15)),16);
(((((14,(4,7)),((3,(2,5)),(1,6))),(8,(11,13))),((12,15),(9,10))),16);
(((((8,((14,(4,7)),((2,3),(5,6)))),1),(11,13)),((12,15),(9,10))),16);
((((((14,(4,7)),(8,(3,(2,5)))),(11,13)),(1,6)),((12,15),(9,10))),16);
(((((11,13),(8,(14,(4,7)))),(6,(1,(2,(3,5))))),((12,15),(9,10))),16);
(((((((6,(3,(2,5))),1),(7,(8,(4,14)))),(11,13)),(9,10)),(12,15)),16);
(((((((3,(2,5)),(1,6)),((14,(4,7)),8)),(11,13)),(9,10)),(12,15)),16);
((((((3,((2,5),(1,6))),((14,(4,7)),8)),(11,13)),(12,15)),(9,10)),16);
(((((((14,(4,7)),(1,6)),(3,(2,5))),(11,13)),8),((12,15),(9,10))),16);
((((((3,(2,5)),(14,(4,7))),(8,(1,6))),(11,13)),((12,15),(9,10))),16);
(((((((3,(2,(4,5))),6),1),(11,13)),(8,(7,14))),((12,15),(9,10))),16);
((((((3,(2,5)),(1,6)),(8,(14,(4,7)))),(11,13)),((12,15),(9,10))),16);
((((((2,5),(3,(1,6))),(14,(8,(4,7)))),(11,13)),((12,15),(9,10))),16);
((((((6,(1,(3,(2,5)))),8),(14,(4,7))),(11,13)),((12,15),(9,10))),16);
(((((((1,6),(14,(3,(2,5)))),(4,7)),8),(11,13)),((9,10),(12,15))),16);
(((((11,13),((1,6),((3,(2,5)),(8,(14,(4,7)))))),(12,15)),(9,10)),16);
((((((6,(3,(2,5))),(1,(8,(14,(4,7))))),(11,13)),(12,15)),(9,10)),16);
(((((6,(14,(4,7))),(8,((2,5),(1,3)))),(11,13)),((12,15),(9,10))),16);
((((((6,(1,3)),(2,5)),(8,(14,(4,7)))),(11,13)),((9,10),(12,15))),16);
((((((14,(4,7)),((3,(2,5)),(1,6))),8),((9,10),(12,15))),(11,13)),16);
((((((8,((4,7),(3,14))),(2,5)),(1,6)),(11,13)),((12,15),(9,10))),16);
((((((1,6),(3,(2,5))),8),(14,(4,7))),((11,13),((12,15),(9,10)))),16);
((((((2,5),(14,(4,7))),((3,(1,6)),8)),(11,13)),((9,10),(12,15))),16);
(((((((1,6),(14,(4,7))),(3,(2,5))),8),(11,13)),((12,15),(9,10))),16);
(((((14,(4,7)),(1,(3,(2,5)))),((11,13),(6,8))),((12,15),(9,10))),16);
((((((8,(14,(4,7))),(1,6)),(3,(2,5))),((12,15),(9,10))),(11,13)),16);
(((((((3,(2,5)),(1,6)),(8,(14,(4,7)))),(11,13)),(12,15)),(9,10)),16);
((((((3,(2,5)),(8,(14,(4,7)))),(1,6)),(11,13)),((9,10),(12,15))),16);
(((((((3,(2,5)),(1,6)),(14,(4,7))),8),(11,13)),((12,15),(9,10))),16);
((((((((3,(2,(5,4))),(1,6)),(8,14)),7),(11,13)),(12,15)),(9,10)),16);
(((((8,(6,(3,(2,5)))),(1,(14,(4,7)))),(11,13)),((9,10),(12,15))),16);
((((((8,(7,14)),(4,(1,6))),(3,(2,5))),(11,13)),((12,15),(9,10))),16);
((((((8,(4,7)),((2,5),(1,6))),14),(3,(11,13))),((12,15),(9,10))),16);
((((((6,(3,(2,5))),(1,8)),(14,(4,7))),(11,13)),((12,15),(9,10))),16);
(((((3,((2,(4,5)),(1,6))),(8,(7,14))),(11,13)),((12,15),(9,10))),16);
(((((((3,(2,5)),(1,6)),14),(8,(4,7))),(11,13)),((12,15),(9,10))),16);
(((((((6,(1,(3,(2,5)))),8),(14,(4,7))),(11,13)),(12,15)),(9,10)),16);
((((((1,(3,(2,5))),(14,(4,7))),(6,8)),(11,13)),((12,15),(9,10))),16);
(((((1,6),(3,((2,5),(14,(8,(4,7)))))),(11,13)),((9,10),(12,15))),16);
(((((3,((14,(4,7)),((2,5),(1,6)))),8),(11,13)),((12,15),(9,10))),16);
((((((3,(2,5)),(1,6)),(8,(14,(4,7)))),(11,13)),((12,15),(9,10))),16);
((((((1,6),(3,(2,5))),(14,(4,7))),(8,(11,13))),((12,15),(9,10))),16);
((((((((1,6),5),(14,(4,7))),(8,(2,3))),(11,13)),(12,15)),(9,10)),16);
(((((8,(5,(2,3))),((14,(4,7)),(1,6))),(11,13)),((12,15),(9,10))),16);
(((((((1,6),(3,(5,(2,4)))),8),(7,14)),(9,10)),((11,13),(12,15))),16);
((((11,13),((3,(2,5)),((14,(4,7)),(8,(1,6))))),((12,15),(9,10))),16);
((((((6,(3,(4,(2,5)))),(1,(8,(7,14)))),(11,13)),(12,15)),(9,10)),16);
(((((((1,6),(5,(2,3))),(14,(4,7))),(11,13)),8),((12,15),(9,10))),16);
((((12,15),((11,13),((8,(3,(2,5))),((14,(4,7)),(1,6))))),(9,10)),16);
(((((8,(3,(2,5))),((14,(4,7)),(1,6))),(11,13)),((12,15),(9,10))),16);
((((((6,(1,(3,(4,(2,5))))),(7,14)),8),(11,13)),((12,15),(9,10))),16);
((((((14,(4,7)),(1,(6,(3,(2,5))))),8),(11,13)),((9,10),(12,15))),16);
((((((3,(1,6)),(8,(14,(4,7)))),(2,5)),(11,13)),((9,10),(12,15))),16);
((((((((1,6),(14,(4,7))),(3,(2,5))),8),(11,13)),(12,15)),(9,10)),16);
((((((14,(4,7)),(6,(3,(2,5)))),(1,8)),(11,13)),((12,15),(9,10))),16);
((((11,13),((3,(2,5)),((1,6),(8,(14,(4,7)))))),((12,15),(9,10))),16);
((((((3,(2,5)),(1,6)),(8,(14,(4,7)))),(11,13)),((12,15),(9,10))),16);
(((((((8,(1,6)),(3,(2,5))),(14,(4,7))),(11,13)),(12,15)),(9,10)),16);
(((((1,(6,(3,(2,5)))),(8,(14,(4,7)))),(11,13)),((12,15),(9,10))),16);
((((11,13),(((3,(2,5)),(1,6)),(8,(14,(4,7))))),((12,15),(9,10))),16);
(((((1,(6,8)),((14,(4,7)),(3,(2,5)))),(11,13)),((12,15),(9,10))),16);
(((((((8,14),((3,(2,5)),(1,6))),(4,7)),(11,13)),(9,10)),(12,15)),16);
((((((((2,5),(1,6)),3),(14,(4,7))),8),(11,13)),((12,15),(9,10))),16);
((((((3,(2,5)),((14,(4,7)),(8,(1,6)))),(11,13)),(12,15)),(9,10)),16);
((((((3,(2,5)),(1,6)),(8,(14,(4,7)))),(11,13)),((12,15),(9,10))),16);
((((11,13),((8,(1,3)),((14,(4,7)),(6,(2,5))))),((12,15),(9,10))),16);
(((((((((2,5),3),1),6),(8,(14,(4,7)))),(11,13)),(9,10)),(12,15)),16);
(((((11,13),((1,6),(8,(7,14)))),(3,(2,(4,5)))),((12,15),(9,10))),16);
(((((8,(7,14)),(6,(1,(3,(4,(2,5)))))),(11,13)),((12,15),(9,10))),16);
(((((((1,6),(8,(14,(4,7)))),(3,(2,5))),(11,13)),(12,15)),(9,10)),16);
((((((1,(6,(3,(5,(2,4))))),(8,(7,14))),(11,13)),(12,15)),(9,10)),16);
(((((((1,6),(3,(2,5))),(8,(14,(4,7)))),(11,13)),(9,10)),(12,15)),16);
((((((8,(14,(4,7))),(3,(1,6))),(2,5)),(11,13)),((12,15),(9,10))),16);
(((((((14,(4,7)),8),((3,(2,5)),(1,6))),(11,13)),(12,15)),(9,10)),16);
((((((8,(4,7)),14),((6,(2,5)),(1,3))),(11,13)),((12,15),(9,10))),16);
((((12,15),((11,13),(((3,(2,5)),(1,6)),(8,(14,(4,7)))))),(9,10)),16);
(((((8,(6,(3,(2,5)))),(1,(14,(4,7)))),(11,13)),((9,10),(12,15))),16);
(((((8,((3,(2,5)),(1,6))),(14,(4,7))),(11,13)),((9,10),(12,15))),16);
((((((((2,5),(1,6)),3),(8,(14,(4,7)))),(11,13)),(9,10)),(12,15)),16);
((((((3,(2,5)),(1,6)),(8,(14,(4,7)))),(11,13)),((12,15),(9,10))),16);
((((((8,(14,(4,7))),(6,(3,(2,5)))),1),(11,13)),((12,15),(9,10))),16);
((((((((1,(3,(2,5))),6),8),(14,(4,7))),(11,13)),(9,10)),(12,15)),16);
(((((((1,6),(3,(5,(2,4)))),8),(7,14)),(11,13)),((9,10),(12,15))),16);
((((((1,(6,(3,(4,(2,5))))),(8,(7,14))),(11,13)),(12,15)),(9,10)),16);
((((((3,(2,5)),(1,6)),(14,(4,7))),(8,(11,13))),((12,15),(9,10))),16);
(((((1,6),(2,(3,5))),(8,(14,(4,7)))),((9,10),((11,13),(12,15)))),16);
((((9,10),((1,6),((11,13),((8,(2,5)),(3,(14,(4,7))))))),(12,15)),16);
(((((6,(14,(4,7))),((8,(3,(2,5))),1)),((11,13),(12,15))),(9,10)),16);
(((((1,(8,(6,(3,(5,(2,4)))))),(7,14)),(11,13)),((12,15),(9,10))),16);
(((((6,8),((14,(4,7)),(1,(3,(2,5))))),(11,13)),((12,15),(9,10))),16);
(((((1,6),(8,(4,7))),((11,13),(14,(3,(2,5))))),((12,15),(9,10))),16);
(((((3,(5,(2,4))),((1,6),(8,(7,14)))),(11,13)),((9,10),(12,15))),16);
((((8,(1,(3,(5,(2,4))))),((6,(7,14)),(11,13))),((12,15),(9,10))),16);
((((((3,(4,(2,5))),(8,(7,14))),(1,6)),(11,13)),((9,10),(12,15))),16);
(((((((6,(1,(3,(2,5)))),(14,(4,7))),8),(11,13)),(12,15)),(9,10)),16);
(((((((3,(2,5)),(14,(4,7))),(1,6)),8),(11,13)),((12,15),(9,10))),16);
(((((((6,(2,5)),((4,7),(1,3))),(8,14)),(11,13)),(9,10)),(12,15)),16);
((((((((1,6),(3,(4,(2,5)))),8),(7,14)),(11,13)),(12,15)),(9,10)),16);
((((((1,6),(3,(5,(2,4)))),(8,(7,14))),(11,13)),((12,15),(9,10))),16);
((((((2,5),(3,(1,6))),(8,(4,(7,14)))),(11,13)),((12,15),(9,10))),16);
(((((((3,(2,5)),(1,6)),8),(4,(7,14))),(11,13)),((12,15),(9,10))),16);
((((8,(11,13)),((12,15),(9,10))),((3,(2,5)),((14,(4,7)),(1,6)))),16);
((((((14,(4,7)),(((2,5),(3,6)),8)),1),(11,13)),((12,15),(9,10))),16);
((((((6,(3,(2,5))),1),(8,(14,(4,7)))),(11,13)),((9,10),(12,15))),16);
((((((8,(7,14)),(6,(1,(5,(2,4))))),3),(11,13)),((9,10),(12,15))),16);
((((((14,(4,7)),(3,((2,5),(1,6)))),8),(11,13)),((9,10),(12,15))),16);
(((((((1,(5,(2,3))),6),((4,7),(8,14))),(11,13)),(12,15)),(9,10)),16);
((((((8,(1,(3,6))),(14,(4,7))),(2,5)),(11,13)),((12,15),(9,10))),16);
(((((6,(1,(3,(2,5)))),(11,13)),(8,(14,(4,7)))),((12,15),(9,10))),16);
(((((1,(6,(3,(2,5)))),(8,(14,(4,7)))),(11,13)),((12,15),(9,10))),16);
(((((((3,(2,5)),(1,6)),(8,(4,7))),14),((11,13),(12,15))),(9,10)),16);
((((((3,(2,5)),(1,6)),(8,(14,(4,7)))),(11,13)),((12,15),(9,10))),16);
(((((((3,(2,5)),(1,6)),(8,(14,(4,7)))),(11,13)),(12,15)),(9,10)),16);
((((11,13),(((1,6),(8,(4,7))),(14,(3,(2,5))))),((12,15),(9,10))),16);
((((((14,(8,(4,7))),(3,((2,5),(1,6)))),(11,13)),(12,15)),(9,10)),16);
(((((((4,(2,5)),(3,(1,6))),(11,13)),(8,(7,14))),(12,15)),(9,10)),16);
(((((((3,(4,(2,5))),(6,1)),8),(11,13)),(7,14)),((12,15),(9,10))),16);
(((((6,(3,(4,(2,5)))),(1,(8,(7,14)))),(11,13)),((12,15),(9,10))),16);
(((((1,8),((14,(4,7)),(6,(3,(2,5))))),(11,13)),((12,15),(9,10))),16);
(((((1,(6,(3,(2,5)))),(11,13)),(8,(14,(4,7)))),((9,10),(12,15))),16);
((((((3,(2,5)),(1,6)),(8,(14,(4,7)))),(11,13)),((9,10),(12,15))),16);
(((((((1,(2,5)),(3,6)),(8,(14,(4,7)))),(11,13)),(12,15)),(9,10)),16);
(((((((14,(4,7)),(6,(1,(3,(2,5))))),8),(11,13)),(12,15)),(9,10)),16);
((((((1,6),(3,(2,5))),8),(14,(4,7))),((11,13),((12,15),(9,10)))),16);
((((((3,(2,5)),(1,6)),(8,(14,(4,7)))),(11,13)),((12,15),(9,10))),16);
((((((8,(3,(2,5))),(1,6)),(14,(4,7))),(11,13)),((9,10),(12,15))),16);
(((((((14,(4,7)),((2,5),(1,6))),8),3),(11,13)),((9,10),(12,15))),16);
(((((3,(1,6)),(2,5)),(8,(14,(4,7)))),((12,15),((11,13),(9,10)))),16);
(((((6,(3,(1,(2,5)))),(11,13)),(8,(14,(4,7)))),((12,15),(9,10))),16);
((((((8,(14,(4,7))),(1,(3,(2,5)))),6),(11,13)),((9,10),(12,15))),16);
(((((1,(8,(3,(6,(2,5))))),(14,(4,7))),(11,13)),((9,10),(12,15))),16);
((((12,15),((11,13),((8,(14,(4,7))),((3,(2,5)),(1,6))))),(9,10)),16);
((((((14,(4,7)),8),((1,6),(3,(2,5)))),(11,13)),((12,15),(9,10))),16);
((((((14,(4,7)),(3,((1,6),(2,5)))),8),(11,13)),((12,15),(9,10))),16);
((((((6,(3,(2,5))),1),(8,(14,(4,7)))),(11,13)),((12,15),(9,10))),16);
((((8,(14,(4,7))),((11,13),((3,(2,5)),(1,6)))),((12,15),(9,10))),16);
((((12,15),(9,10)),((11,13),((8,(14,(4,7))),(3,((2,5),(1,6)))))),16);
((((((8,(14,(4,7))),(6,(1,(3,(2,5))))),(11,13)),(12,15)),(9,10)),16);
(((((((8,(6,(3,(2,(4,5))))),1),(7,14)),(11,13)),(9,10)),(12,15)),16);
(((((3,(1,(2,5))),(14,(4,7))),8),((6,(11,13)),((9,10),(12,15)))),16);
((((11,13),(8,((14,(4,7)),((3,(2,5)),(1,6))))),((12,15),(9,10))),16);
(((((((14,(4,7)),(1,(3,(2,5)))),8),6),(11,13)),((12,15),(9,10))),16);
(((((8,((1,6),(3,(2,5)))),(14,(4,7))),(11,13)),((9,10),(12,15))),16);
(((((7,(3,(2,5))),(6,(8,(1,(4,14))))),(11,13)),((12,15),(9,10))),16);
(((((9,10),((14,(4,7)),(8,((3,(2,5)),(1,6))))),(12,15)),(11,13)),16);
((((((1,6),(3,(2,5))),(8,(14,(4,7)))),(11,13)),((12,15),(9,10))),16);
((((((8,(14,(4,7))),(6,(3,(2,5)))),1),(11,13)),((12,15),(9,10))),16);
(((((6,(14,(4,7))),(8,(1,(3,(2,5))))),(11,13)),((12,15),(9,10))),16);
(((((1,(8,(7,14))),(6,(3,(4,(2,5))))),(11,13)),((9,10),(12,15))),16);
((((((11,13),((2,5),(3,(1,6)))),(8,(14,(4,7)))),(12,15)),(9,10)),16);
((((((1,(6,(3,(2,5)))),8),(14,(4,7))),(11,13)),((12,15),(9,10))),16);
((((((6,1),(3,(2,5))),(8,(14,(4,7)))),(11,13)),((12,15),(9,10))),16);
((((((((3,(2,5)),6),1),8),(14,(4,7))),(11,13)),((12,15),(9,10))),16);
(((((((1,6),(3,(2,5))),(8,(14,(4,7)))),(11,13)),(9,10)),(12,15)),16);
((((((6,(2,5)),(1,3)),(8,(14,(4,7)))),(11,13)),((12,15),(9,10))),16);
((((((1,6),(8,(14,(4,7)))),(3,(2,5))),(11,13)),((12,15),(9,10))),16);
(((((3,(2,5)),(8,((1,6),(14,(4,7))))),(11,13)),((9,10),(12,15))),16);
((((((8,(2,5)),(3,(1,6))),(14,(4,7))),((9,10),(12,15))),(11,13)),16);
(((((((1,(3,(2,5))),(6,(14,(4,7)))),8),(11,13)),(12,15)),(9,10)),16);
(((((11,13),((7,14),(3,(5,(2,4))))),(1,(6,8))),((9,10),(12,15))),16);
((((11,13),((14,(4,7)),((1,3),(8,(6,(2,5)))))),((12,15),(9,10))),16);
((((((8,14),(3,(2,5))),((4,7),(1,6))),(11,13)),((12,15),(9,10))),16);
((((((1,6),(3,(2,5))),(11,13)),(8,(14,(4,7)))),((12,15),(9,10))),16);
(((((8,((3,(2,5)),(1,6))),(14,(4,7))),(11,13)),((9,10),(12,15))),16);
((((((14,(6,(1,(3,(2,5))))),(4,7)),(11,13)),8),((12,15),(9,10))),16);
(((((((7,14),(1,6)),8),(4,(3,(2,5)))),(11,13)),((12,15),(9,10))),16);
((((((2,5),((1,6),3)),(8,(14,(4,7)))),(11,13)),((9,10),(12,15))),16);
((((((8,(1,(3,(2,(4,5))))),(7,14)),6),(11,13)),((9,10),(12,15))),16);
(((((((1,6),(3,(2,5))),(14,(4,7))),(11,13)),8),((12,15),(9,10))),16);
((((12,15),(14,(4,7))),((9,10),((11,13),(8,((3,(2,5)),(1,6)))))),16);
((((((((1,6),(3,(2,5))),(4,7)),(8,14)),(11,13)),(12,15)),(9,10)),16);
(((((((6,(1,(3,(2,5)))),(14,(4,7))),8),(11,13)),(9,10)),(12,15)),16);
(((((11,13),((1,(6,(3,(2,5)))),(8,(14,(7,4))))),(9,10)),(12,15)),16);
(((((11,13),(8,((3,(2,5)),(1,6)))),(14,(4,7))),((12,15),(9,10))),16);
(((((((3,(2,5)),(1,6)),(14,(4,7))),(11,13)),8),((9,10),(12,15))),16);
(((((8,(14,(4,7))),((1,6),(3,(2,5)))),(11,13)),((12,15),(9,10))),16);
((((((1,6),(3,(4,(2,5)))),(8,(7,14))),(11,13)),((12,15),(9,10))),16);
((((((3,(2,5)),(1,6)),((14,(4,7)),8)),(11,13)),((12,15),(9,10))),16);
(((((((((2,5),3),(1,6)),8),(11,13)),(14,(4,7))),(9,10)),(12,15)),16);
((((((1,6),((4,(7,14)),(3,(2,5)))),8),(11,13)),((9,10),(12,15))),16);
((((((2,5),(1,6)),(3,(8,(14,(4,7))))),(11,13)),((12,15),(9,10))),16);
(((((1,6),8),((3,(2,5)),(14,(4,7)))),((11,13),((12,15),(9,10)))),16);
((((((3,(2,5)),(1,6)),(8,(14,(4,7)))),(11,13)),((9,10),(12,15))),16);
((((((5,(1,6)),(2,3)),(8,(14,(4,7)))),(11,13)),((9,10),(12,15))),16);
(((((7,14),(8,((3,(5,(2,4))),(1,6)))),(11,13)),((12,15),(9,10))),16);
(((((((2,5),3),(1,6)),(8,(14,(4,7)))),(11,13)),((9,10),(12,15))),16);
(((((8,(6,(7,14))),(1,(3,(5,(2,4))))),((12,15),(9,10))),(11,13)),16);
(((((3,(2,5)),(8,(11,13))),((14,(4,7)),(1,6))),((12,15),(9,10))),16);
(((((((1,(6,(2,3))),5),8),(14,(4,7))),(11,13)),((12,15),(9,10))),16);
((((((6,(1,((4,5),(2,3)))),(7,14)),(11,13)),8),((12,15),(9,10))),16);
((((((8,((3,(2,5)),(1,6))),(14,(4,7))),(11,13)),(12,15)),(9,10)),16);
(((((((1,6),(8,(2,5))),3),(14,(4,7))),(11,13)),((12,15),(9,10))),16);
(((((1,(8,(14,(4,7)))),(6,(3,(2,5)))),(11,13)),((12,15),(9,10))),16);
(((((((1,6),(2,5)),3),(8,(14,(4,7)))),(11,13)),((12,15),(9,10))),16);
((((((8,(14,(4,7))),(1,6)),(3,(2,5))),(11,13)),((12,15),(9,10))),16);
(((((14,(4,7)),(8,((3,(2,5)),(6,1)))),(11,13)),((12,15),(9,10))),16);
((((8,((14,(4,7)),(1,6))),((11,13),(5,(2,3)))),((9,10),(12,15))),16);
((((((14,(4,7)),(8,(3,(2,5)))),(1,6)),(11,13)),((9,10),(12,15))),16);
(((((2,5),(3,(1,6))),((11,13),(8,(14,(4,7))))),((12,15),(9,10))),16);
((((((1,6),(3,(2,5))),(8,(14,(4,7)))),(11,13)),((12,15),(9,10))),16);
(((((6,8),((14,(4,7)),(1,3))),((11,13),(2,5))),((12,15),(9,10))),16);
((((((14,(4,7)),((3,(2,5)),(1,6))),8),(11,13)),((12,15),(9,10))),16);
(((((8,(6,((2,5),(1,3)))),(7,(4,14))),(11,13)),((9,10),(12,15))),16);
(((((6,(1,(8,(7,14)))),(3,(4,(2,5)))),(11,13)),((12,15),(9,10))),16);
(((((1,(5,(2,3))),(6,(8,(14,(4,7))))),(11,13)),((12,15),(9,10))),16);
((((((1,((3,(2,5)),6)),(8,(14,(4,7)))),(11,13)),(9,10)),(12,15)),16);
(((((((3,(2,5)),(1,6)),(8,(14,(4,7)))),(11,13)),(9,10)),(12,15)),16);
(((((((6,(5,(2,3))),1),(11,13)),(8,(14,(4,7)))),(9,10)),(12,15)),16);
((((((8,((3,(4,(2,5))),(1,6))),(7,14)),(11,13)),(9,10)),(12,15)),16);
((((((14,(4,7)),(8,(3,(2,5)))),(1,6)),(11,13)),((12,15),(9,10))),16);
((((((8,(14,(4,7))),((3,(2,5)),(1,6))),(11,13)),(12,15)),(9,10)),16);
((((((14,(4,7)),((3,(2,5)),(1,6))),8),(11,13)),((9,10),(12,15))),16);
(((((((2,5),(1,6)),3),(8,(14,(4,7)))),(11,13)),((12,15),(9,10))),16);
(((((2,5),(3,(1,6))),(8,(14,(4,7)))),((11,13),((12,15),(9,10)))),16);
((((((14,(4,7)),(8,((2,5),(1,6)))),3),(11,13)),((9,10),(12,15))),16);
(((((8,(3,(2,5))),((14,(4,7)),(1,6))),(11,13)),((12,15),(9,10))),16);
(((((((8,(14,(4,7))),(1,(3,(2,5)))),6),(11,13)),(12,15)),(9,10)),16);
(((((3,(2,5)),(1,6)),((11,13),(8,(14,(4,7))))),((12,15),(9,10))),16);
(((((((3,(2,5)),(1,6)),8),(14,(4,7))),(11,13)),((12,15),(9,10))),16);
(((((14,(8,7)),((3,(2,(4,5))),(1,6))),(11,13)),((12,15),(9,10))),16);
((((((1,(6,(3,(2,5)))),8),(4,7)),(14,(11,13))),((12,15),(9,10))),16);
(((((((3,(2,5)),(1,6)),(8,(14,(4,7)))),(12,15)),(11,13)),(9,10)),16);
((((((1,(6,(3,(2,5)))),(8,14)),(4,7)),(11,13)),((12,15),(9,10))),16);
(((((((1,6),(3,(2,5))),(8,(14,(4,7)))),(11,13)),(12,15)),(9,10)),16);
(((((((8,(14,(4,7))),(1,6)),(3,(2,5))),(11,13)),(9,10)),(12,15)),16);
((((((1,6),(3,(2,4))),(5,(7,14))),(8,(11,13))),((9,10),(12,15))),16);
(((((8,((1,6),(3,(2,5)))),(4,(7,14))),(11,13)),((12,15),(9,10))),16);
((((((8,(14,(4,7))),((3,(2,5)),(1,6))),(11,13)),(12,15)),(9,10)),16);
(((((((14,(4,7)),(1,6)),(3,(2,5))),8),(11,13)),((12,15),(9,10))),16);
(((((((3,5),(1,6)),(8,2)),(14,(4,7))),(11,13)),((9,10),(12,15))),16);
(((8,(14,(4,7))),(((1,((3,(2,5)),6)),((12,15),(9,10))),(11,13))),16);
((((((4,7),(8,14)),((2,5),(3,(1,6)))),(11,13)),((9,10),(12,15))),16);
((((8,(14,(4,7))),((11,13),((1,6),(3,(2,5))))),((12,15),(9,10))),16);
((((((1,6),(3,(2,5))),(8,(14,(4,7)))),(11,13)),((9,10),(12,15))),16);
(((((3,(2,5)),(1,6)),((11,13),(8,(14,(4,7))))),((12,15),(9,10))),16);
(((((((3,(2,5)),(6,1)),(8,(14,(4,7)))),(11,13)),(12,15)),(9,10)),16);
(((((14,(4,7)),(8,((3,(2,5)),(1,6)))),(11,13)),((12,15),(9,10))),16);
((((((1,(14,(4,7))),(8,(6,(3,(2,5))))),(11,13)),(12,15)),(9,10)),16);
((((((3,(2,5)),(1,6)),(8,(14,(4,7)))),(11,13)),((12,15),(9,10))),16);
(((((11,13),(8,((3,(2,5)),(1,6)))),(14,(4,7))),((12,15),(9,10))),16);
((((((14,(4,7)),(1,6)),(8,(3,(2,5)))),(11,13)),((9,10),(12,15))),16);
((((((1,6),(3,(4,(2,5)))),(8,(7,14))),(11,13)),((9,10),(12,15))),16);
((((((7,14),(1,8)),(6,(3,(5,(2,4))))),(11,13)),((12,15),(9,10))),16);
((((((3,5),(2,(8,(14,(4,7))))),(1,6)),(11,13)),((9,10),(12,15))),16);
((((9,10),(12,15)),(((14,(4,7)),((3,(2,5)),(1,6))),(8,(11,13)))),16);
((((((11,13),(6,(3,(2,5)))),(1,(8,(14,(4,7))))),(9,10)),(12,15)),16);
(((((1,6),((14,(4,7)),(5,(2,3)))),(8,(11,13))),((9,10),(12,15))),16);
(((((8,((3,(2,5)),(1,6))),(14,(4,7))),(11,13)),((12,15),(9,10))),16);
(((((1,(6,(3,(2,5)))),(14,(8,(4,7)))),(11,13)),((12,15),(9,10))),16);
((((((1,6),(3,(2,5))),(8,(14,(4,7)))),(11,13)),((9,10),(12,15))),16);
((((((8,(14,(4,7))),((1,6),(3,(2,5)))),(11,13)),(12,15)),(9,10)),16);
((((((1,(6,(3,(2,5)))),(14,(4,7))),8),(11,13)),((9,10),(12,15))),16);
((((((14,(4,7)),(8,(1,6))),(3,(2,5))),(11,13)),((12,15),(9,10))),16);
((((((1,(3,(2,5))),6),(8,(14,(4,7)))),(11,13)),((12,15),(9,10))),16);
(((((8,(14,(4,7))),((1,6),(3,(2,5)))),(11,13)),((12,15),(9,10))),16);
((((((14,(4,7)),(6,(1,(3,(2,5))))),8),(11,13)),((12,15),(9,10))),16);
(((9,10),((12,15),((11,13),((1,6),(8,((14,(4,7)),(3,(2,5)))))))),16);
((((((((2,5),(1,6)),3),8),(14,(4,7))),(11,13)),((12,15),(9,10))),16);
(((((8,((1,(3,(2,5))),(4,7))),(6,14)),(11,13)),((12,15),(9,10))),16);
((((((4,7),(8,(14,(3,(2,5))))),(1,6)),(11,13)),((9,10),(12,15))),16);
((((((((3,(2,5)),(6,1)),(14,(4,7))),8),(11,13)),(12,15)),(9,10)),16);
((((((4,(7,14)),(2,5)),(8,(1,(3,6)))),(11,13)),((12,15),(9,10))),16);
(((((11,13),(1,6)),(8,((3,(2,5)),(14,(4,7))))),((12,15),(9,10))),16);
(((((8,(3,(14,(4,7)))),((2,5),(1,6))),(11,13)),((12,15),(9,10))),16);
((((((3,(2,5)),(1,6)),(8,(14,(4,7)))),(11,13)),((12,15),(9,10))),16);
((((((((2,5),(1,3)),6),8),(14,(4,7))),(11,13)),((12,15),(9,10))),16);
(((((8,(1,6)),((5,(2,3)),(14,(4,7)))),(11,13)),((12,15),(9,10))),16);
(((((((3,(2,5)),(1,6)),(14,(4,7))),8),(11,13)),((12,15),(9,10))),16);
(((((((3,(2,5)),(1,6)),8),(14,(4,7))),(11,13)),((9,10),(12,15))),16);
((((12,15),((11,13),(((3,(2,5)),(1,6)),(8,(14,(4,7)))))),(9,10)),16);
(((((6,(1,(3,(2,5)))),((11,13),(8,(14,(4,7))))),(12,15)),(9,10)),16);
(((((1,6),(3,(5,(2,4)))),((11,13),(8,(7,14)))),((12,15),(9,10))),16);
(((((8,(1,(14,(4,7)))),(6,(3,(2,5)))),(11,13)),((12,15),(9,10))),16);
((((((((8,(3,(2,5))),7),(1,6)),(4,14)),(11,13)),(9,10)),(12,15)),16);
(((((((14,(4,7)),((1,6),(3,(2,5)))),8),(11,13)),(12,15)),(9,10)),16);
((((1,8),((11,13),((4,(7,14)),(6,(3,(2,5)))))),((12,15),(9,10))),16);
((((((1,6),((8,(14,(4,7))),(3,(2,5)))),(11,13)),(9,10)),(12,15)),16);
((((((11,13),(7,(8,14))),((1,6),((2,4),(3,5)))),(12,15)),(9,10)),16);
((((((7,14),(1,6)),(8,(3,(5,(2,4))))),(11,13)),((12,15),(9,10))),16);
((((((6,(5,(2,3))),1),(8,(14,(4,7)))),(11,13)),((12,15),(9,10))),16);
((((((1,(4,(2,5))),((3,(7,14)),8)),6),(11,13)),((12,15),(9,10))),16);
(((((((1,6),(3,(4,(2,5)))),(8,(7,14))),(11,13)),(9,10)),(12,15)),16);
((((((8,(14,(4,7))),(3,(2,5))),(11,13)),(1,6)),((12,15),(9,10))),16);
((((((3,(2,5)),(1,6)),(8,(14,(4,7)))),(11,13)),((9,10),(12,15))),16);
((((1,((6,((8,14),7)),(3,(5,(2,4))))),(11,13)),((12,15),(9,10))),16);
(((((((3,(2,5)),(4,14)),((1,6),(7,8))),(11,13)),(12,15)),(9,10)),16);
(((((((6,(1,(3,(2,5)))),(14,(4,7))),8),(11,13)),(9,10)),(12,15)),16);
((((((7,14),(3,(2,(4,5)))),(8,(1,6))),(11,13)),((9,10),(12,15))),16);
((((((1,(3,(2,5))),6),(8,(14,(4,7)))),(11,13)),((12,15),(9,10))),16);
(((((((3,(2,5)),(1,6)),(8,(14,(4,7)))),(11,13)),(9,10)),(12,15)),16);
((((((8,(14,(4,7))),6),(1,(3,(2,5)))),(11,13)),((9,10),(12,15))),16);
(((((((6,(2,3)),(1,5)),(8,(14,(4,7)))),(11,13)),(9,10)),(12,15)),16);
(((((1,(6,(3,(2,5)))),(8,(14,(4,7)))),(11,13)),((12,15),(9,10))),16);
((((((3,(2,5)),(1,6)),(8,(14,(4,7)))),(11,13)),((12,15),(9,10))),16);
((((11,13),(1,((6,(3,(2,5))),((14,(4,7)),8)))),((12,15),(9,10))),16);
((((((3,(2,5)),(1,6)),(8,(14,(4,7)))),(11,13)),((12,15),(9,10))),16);
(((((11,13),(8,((3,(5,(2,4))),(1,6)))),(7,14)),((9,10),(12,15))),16);
((((((1,(2,(4,5))),(3,6)),(8,(7,14))),(11,13)),((9,10),(12,15))),16);
((((((14,(4,7)),(1,(6,(3,(2,5))))),8),(11,13)),((12,15),(9,10))),16);
(((((((7,8),(14,((3,5),(1,6)))),(2,4)),(11,13)),(12,15)),(9,10)),16);
((((((1,6),(8,(14,(4,7)))),((11,13),(3,(2,5)))),(9,10)),(12,15)),16);
(((((4,7),(8,(14,((1,6),(3,(2,5)))))),(11,13)),((9,10),(12,15))),16);
((((6,((3,4),(1,(2,5)))),((11,13),(8,(7,14)))),((9,10),(12,15))),16);
((((((8,(14,(4,7))),(3,(2,5))),(1,6)),(11,13)),((12,15),(9,10))),16);
((((((14,(4,7)),(3,(1,6))),(8,(2,5))),(11,13)),((9,10),(12,15))),16);
((((((1,((2,5),3)),(6,(14,(4,7)))),(11,13)),8),((12,15),(9,10))),16);
((((((14,(4,7)),((2,5),(1,6))),3),(8,(11,13))),((9,10),(12,15))),16);
((((((8,(14,(4,7))),((1,6),(3,(2,5)))),(11,13)),(9,10)),(12,15)),16);
(((((6,(1,(3,(2,5)))),(8,(14,(4,7)))),(11,13)),((12,15),(9,10))),16);
((((6,(1,(3,(2,5)))),((11,13),(8,(14,(4,7))))),((12,15),(9,10))),16);
((((((14,(4,7)),(8,(1,6))),(3,(2,5))),(11,13)),((9,10),(12,15))),16);
(((((((8,(14,(4,7))),1),(6,(3,(2,5)))),(11,13)),(12,15)),(9,10)),16);
((((8,((11,13),((3,(5,(2,4))),(1,6)))),(7,14)),((12,15),(9,10))),16);
(((((14,(8,7)),((1,6),(3,(5,(2,4))))),(11,13)),((12,15),(9,10))),16);
(((((((1,6),(3,(2,5))),8),(11,13)),(14,(4,7))),((12,15),(9,10))),16);
((((((1,((4,7),(3,(2,5)))),14),(6,8)),(11,13)),((12,15),(9,10))),16);
((((11,13),((12,15),((1,(3,(2,5))),(6,(8,(14,(4,7))))))),(9,10)),16);
(((((((1,(3,(2,5))),8),6),(14,(4,7))),(11,13)),((9,10),(12,15))),16);
(((((((((2,5),(6,3)),1),(14,(4,7))),8),(11,13)),(12,15)),(9,10)),16);
(((((((3,(5,(2,4))),(1,6)),8),(7,14)),(11,13)),((12,15),(9,10))),16);
(((((12,15),(9,10)),((3,(1,6)),(8,((2,5),(14,(4,7)))))),(11,13)),16);
(((((((1,6),(3,(2,5))),8),(14,(4,7))),(11,13)),((9,10),(12,15))),16);
(((((((6,(3,(2,5))),1),8),(14,(4,7))),(11,13)),((12,15),(9,10))),16);
(((((6,(3,(2,5))),(8,(4,7))),((11,13),(1,14))),((9,10),(12,15))),16);
((((((1,6),(7,14)),(8,(3,(5,(2,4))))),(11,13)),((9,10),(12,15))),16);
(((((8,((11,13),(14,(4,7)))),((1,6),(3,(2,5)))),(9,10)),(12,15)),16);
((((((1,6),(14,(4,7))),(8,(3,(2,5)))),(11,13)),((12,15),(9,10))),16);
(((((((1,6),3),8),((2,5),(14,(4,7)))),(11,13)),((9,10),(12,15))),16);
((((((8,(14,(4,7))),(1,3)),(6,(2,5))),(11,13)),((12,15),(9,10))),16);
((((((3,((1,(4,(2,5))),6)),(8,(7,14))),(11,13)),(9,10)),(12,15)),16);
((((((3,(5,(2,4))),((7,14),(1,6))),(11,13)),8),((12,15),(9,10))),16);
((((((14,(4,7)),8),((3,(2,5)),(1,6))),((12,15),(9,10))),(11,13)),16);
((((((3,((5,(2,4)),(1,6))),((7,14),8)),(11,13)),(9,10)),(12,15)),16);
((((11,13),((1,6),(8,((3,(2,5)),(14,(4,7)))))),((9,10),(12,15))),16);
((((((14,(4,7)),((1,(3,(2,5))),6)),8),(11,13)),((9,10),(12,15))),16);
((((12,15),((11,13),((8,(3,(5,(2,4)))),((1,6),(7,14))))),(9,10)),16);
((((((8,(1,6)),((14,(4,7)),(3,(2,5)))),(11,13)),(12,15)),(9,10)),16);
((((11,13),(((1,6),(3,(2,5))),(8,(14,(4,7))))),((12,15),(9,10))),16);
(((((1,6),((8,(3,(14,(4,7)))),(2,5))),(11,13)),((12,15),(9,10))),16);
(((((1,6),(3,(2,5))),((11,13),(8,(14,(4,7))))),((12,15),(9,10))),16);
((((((8,(5,(3,(2,4)))),(1,6)),(7,14)),(11,13)),((12,15),(9,10))),16);
((((6,(((8,(3,(2,5))),(14,(4,7))),1)),(11,13)),((12,15),(9,10))),16);
((((((3,(2,5)),(1,6)),(14,(8,(4,7)))),(11,13)),((12,15),(9,10))),16);
(((((8,(14,(4,7))),(3,(1,(6,(2,5))))),(11,13)),((12,15),(9,10))),16);
((((((3,(5,(2,4))),(1,6)),(8,(7,14))),(11,13)),((9,10),(12,15))),16);
(((((8,(1,(6,(3,(2,5))))),(14,(4,7))),(11,13)),((9,10),(12,15))),16);
((((((3,(2,5)),(6,1)),(14,(4,7))),((11,13),8)),((12,15),(9,10))),16);
(((((1,(8,(6,(3,(2,5))))),(14,(4,7))),(11,13)),((12,15),(9,10))),16);
((((12,15),(9,10)),((11,13),((7,14),((3,(5,(2,4))),(8,(1,6)))))),16);
((((((14,(4,7)),(8,(1,6))),(3,(2,5))),(11,13)),((9,10),(12,15))),16);
((((((1,(14,(4,7))),8),(6,(3,(2,5)))),(11,13)),((12,15),(9,10))),16);
((((((14,(4,7)),(8,(6,(1,(2,5))))),3),(11,13)),((12,15),(9,10))),16);
((((((3,(2,5)),(8,(1,6))),(7,(4,14))),(11,13)),((9,10),(12,15))),16);
((((((14,(4,7)),((1,6),(3,(2,5)))),8),(11,13)),((9,10),(12,15))),16);
(((((11,13),((14,(4,7)),(8,(1,6)))),(3,(2,5))),((12,15),(9,10))),16);
((((((3,(14,(4,7))),8),((2,5),(1,6))),(11,13)),((12,15),(9,10))),16);
((((9,10),((14,(4,7)),((11,13),((3,(2,5)),(8,(1,6)))))),(12,15)),16);
(((((((1,6),(3,(2,5))),(11,13)),(8,(14,(4,7)))),(12,15)),(9,10)),16);
(((((1,(6,(3,(2,5)))),(8,(14,(4,7)))),(11,13)),((12,15),(9,10))),16);
((((((3,(2,5)),(8,(6,1))),(14,(4,7))),(11,13)),((12,15),(9,10))),16);
((((((14,(4,7)),((3,(2,5)),(1,6))),8),(11,13)),((12,15),(9,10))),16);
(((((((14,(4,7)),8),(6,((2,5),(1,3)))),(11,13)),(9,10)),(12,15)),16);
((((((14,(4,7)),((3,(2,5)),(1,6))),(11,13)),8),((12,15),(9,10))),16);
((((((14,(4,7)),(6,(1,(3,(2,5))))),8),(11,13)),((9,10),(12,15))),16);
(((((11,13),(8,((5,(2,4)),(3,(1,6))))),(7,14)),((9,10),(12,15))),16);
((((((3,(2,5)),(1,6)),(8,(14,(4,7)))),(11,13)),((12,15),(9,10))),16);
((((((8,((1,6),(3,(2,5)))),(14,(4,7))),(11,13)),(12,15)),(9,10)),16);
(((((1,(6,(3,(2,5)))),(8,(14,(4,7)))),(11,13)),((12,15),(9,10))),16);
((((((8,((3,(2,5)),(1,6))),(14,(4,7))),(11,13)),(9,10)),(12,15)),16);
(((((((3,(2,5)),(1,6)),(14,(4,7))),(11,13)),8),((12,15),(9,10))),16);
(((((((1,3),6),(5,(2,4))),(11,13)),(8,(7,14))),((12,15),(9,10))),16);
((((((3,(2,5)),(1,6)),(11,13)),(8,(14,(4,7)))),((12,15),(9,10))),16);
((((((14,(4,7)),(8,(6,(3,(2,5))))),1),(11,13)),((12,15),(9,10))),16);
(((9,10),((12,15),(((14,(4,7)),(6,(3,(2,5)))),((11,13),(1,8))))),16);
((((((8,((14,(4,7)),(3,(2,5)))),(1,6)),(11,13)),(12,15)),(9,10)),16);
((((((3,(2,5)),(1,6)),(14,(4,7))),(8,(11,13))),((9,10),(12,15))),16);
((((((((1,(3,(2,(4,5)))),6),(7,14)),8),(11,13)),(9,10)),(12,15)),16);
((((((3,((2,5),1)),6),(11,13)),(8,(14,(4,7)))),((9,10),(12,15))),16);
((((((3,8),(14,(4,7))),(11,13)),(6,(1,(2,5)))),((12,15),(9,10))),16);
((((((14,(4,7)),(1,(6,(3,(2,5))))),8),(11,13)),((9,10),(12,15))),16);
(((((1,(3,(2,5))),6),((11,13),(8,(14,(4,7))))),((12,15),(9,10))),16);
((((((1,(7,14)),(8,(3,(2,(4,5))))),6),(11,13)),((9,10),(12,15))),16);
(((((8,(14,(4,7))),(1,(6,(3,(2,5))))),(11,13)),((12,15),(9,10))),16);
((((8,((4,7),14)),((11,13),((3,(2,5)),(1,6)))),((12,15),(9,10))),16);
((((((14,(4,7)),((1,6),(3,(2,5)))),8),(11,13)),((9,10),(12,15))),16);
(((((2,5),(((3,6),(14,(4,7))),(8,1))),(11,13)),((12,15),(9,10))),16);
((((((((3,(2,5)),6),1),8),(14,(4,7))),(11,13)),((12,15),(9,10))),16);
(((((((3,5),2),(1,6)),(8,(14,(4,7)))),(11,13)),((12,15),(9,10))),16);
((((((14,(8,(4,7))),(3,(1,6))),(2,5)),(11,13)),((12,15),(9,10))),16);
((((((((14,(4,7)),(3,(2,5))),8),(1,6)),(11,13)),(9,10)),(12,15)),16);
((((8,(((2,5),(3,6)),(1,(14,(4,7))))),(11,13)),((12,15),(9,10))),16);
(((((6,(3,(5,(2,4)))),(1,(8,(7,14)))),(11,13)),((12,15),(9,10))),16);
((((((3,(2,5)),(1,6)),(8,(14,(4,7)))),(11,13)),((12,15),(9,10))),16);
((((((3,((2,5),(1,6))),(14,(4,7))),8),(11,13)),((12,15),(9,10))),16);
(((((8,(3,(5,(2,4)))),((1,6),(7,14))),(11,13)),((12,15),(9,10))),16);
(((((11,13),((8,(14,(4,7))),((3,(2,5)),(1,6)))),(9,10)),(12,15)),16);
(((((6,(1,(3,(5,(2,4))))),(8,(7,14))),(11,13)),((12,15),(9,10))),16);
(((((((6,(3,(2,5))),(8,(14,(4,7)))),1),(9,10)),(12,15)),(11,13)),16);
(((((((8,(14,(4,7))),3),(1,6)),(2,5)),(11,13)),((12,15),(9,10))),16);
((((9,10),(12,15)),((11,13),((14,(4,7)),((3,6),(8,(1,(2,5))))))),16);
((((((1,6),(3,(2,5))),(8,(14,(4,7)))),(11,13)),((12,15),(9,10))),16);
(((((8,((3,(2,5)),(1,6))),14),((4,7),(11,13))),((12,15),(9,10))),16);
((((((8,(14,(4,7))),(1,6)),(3,(2,5))),(11,13)),((12,15),(9,10))),16);
(((((3,(2,5)),((14,(4,7)),(8,(1,6)))),(11,13)),((9,10),(12,15))),16);
(((((7,14),(8,((3,(2,(4,5))),(1,6)))),(11,13)),((9,10),(12,15))),16);
((((((6,(1,(3,(5,(2,4))))),8),(7,14)),(11,13)),((12,15),(9,10))),16);
(((((((4,(2,5)),(1,6)),(7,14)),(11,13)),(3,8)),((12,15),(9,10))),16);
(((((((8,14),(1,6)),(4,7)),(3,(2,5))),(11,13)),((12,15),(9,10))),16);
(((((((3,((2,5),(1,6))),(8,14)),(4,7)),(11,13)),(12,15)),(9,10)),16);
((((3,((4,7),((2,5),(1,6)))),((11,13),(8,14))),((12,15),(9,10))),16);
(((((6,8),((14,(4,7)),(1,(3,(2,5))))),(11,13)),((9,10),(12,15))),16);
(((((11,13),((1,6),((14,(4,7)),(8,(3,(2,5)))))),(12,15)),(9,10)),16);
(((((((8,(4,7)),(3,(2,5))),14),(1,6)),(11,13)),((12,15),(9,10))),16);
(((((1,6),((3,(2,5)),(8,(14,(4,7))))),(11,13)),((12,15),(9,10))),16);
(((((8,(14,(4,7))),((3,(2,5)),(1,6))),(11,13)),((9,10),(12,15))),16);
(((((8,(1,6)),((3,(2,5)),(14,(4,7)))),(11,13)),((12,15),(9,10))),16);
((((12,15),(9,10)),((11,13),(((3,(5,(2,4))),(1,6)),(8,(7,14))))),16);
((((((1,(3,(2,5))),6),(8,(14,(4,7)))),(11,13)),((12,15),(9,10))),16);
((((((14,(4,7)),(1,8)),(6,(3,(2,5)))),(11,13)),((12,15),(9,10))),16);
(((13,(11,((14,(4,7)),(8,((3,(2,5)),(1,6)))))),((12,15),(9,10))),16);
((((((6,(3,(2,5))),((14,(4,7)),(1,8))),(11,13)),(9,10)),(12,15)),16);
(((((((3,(2,5)),(1,6)),8),(14,(4,7))),(11,13)),((12,15),(9,10))),16);
((((((6,1),(3,(2,5))),(8,(14,(4,7)))),(11,13)),((12,15),(9,10))),16);
(((((8,(3,(2,5))),((1,6),(14,(4,7)))),(11,13)),((9,10),(12,15))),16);
(((((((3,(2,5)),(6,(14,(4,7)))),(1,8)),(11,13)),(9,10)),(12,15)),16);
((((((((3,6),1),(2,5)),(8,(14,(4,7)))),(11,13)),(12,15)),(9,10)),16);
(((((8,(1,(6,(3,(4,(2,5)))))),(7,14)),(11,13)),((12,15),(9,10))),16);
(((((12,15),(9,10)),((11,13),(6,(1,(3,(2,5)))))),(14,(8,(4,7)))),16);
((((((3,(2,5)),(1,6)),(8,(14,(4,7)))),(11,13)),((12,15),(9,10))),16);
((((((((2,3),(1,6)),5),8),(14,(4,7))),(11,13)),((12,15),(9,10))),16);
((((((8,(14,(4,7))),(1,6)),(11,13)),((12,15),(9,10))),(3,(2,5))),16);
(((((((14,(4,7)),(3,(2,5))),8),(1,6)),(11,13)),((9,10),(12,15))),16);
((((((1,6),(3,(2,5))),((4,7),(8,14))),(11,13)),((12,15),(9,10))),16);
((((((3,(2,5)),(1,6)),(8,(14,(4,7)))),(11,13)),((12,15),(9,10))),16);
((((((7,14),(4,(6,(1,(3,(2,5)))))),8),(11,13)),((12,15),(9,10))),16);
(((((((3,(2,5)),(1,6)),(7,(4,14))),8),(11,13)),((12,15),(9,10))),16);
((((((3,(4,5)),((7,14),(2,(1,6)))),8),(11,13)),((12,15),(9,10))),16);
((((((1,((14,(4,7)),(3,(2,5)))),8),6),(11,13)),((12,15),(9,10))),16);
(((((((2,5),(1,6)),3),(8,(14,(4,7)))),(11,13)),((12,15),(9,10))),16);
((((((((4,(3,(2,5))),(1,6)),(7,14)),8),(11,13)),(9,10)),(12,15)),16);
(((((8,(7,14)),(1,(6,(3,(5,(2,4)))))),(11,13)),((12,15),(9,10))),16);
((((((14,(7,8)),((2,4),(5,3))),(1,6)),(11,13)),((9,10),(12,15))),16);
(((((2,5),((14,(4,7)),(3,(1,6)))),8),(((12,15),(9,10)),(11,13))),16);
(((((((1,(3,(2,5))),6),(7,(4,14))),8),(11,13)),((12,15),(9,10))),16);
(((((((1,6),((3,(2,(4,5))),(8,14))),7),(11,13)),(12,15)),(9,10)),16);
(((((1,(6,(3,(5,(2,4))))),(8,(7,14))),(11,13)),((12,15),(9,10))),16);
(((((8,(6,(1,(3,(2,5))))),(14,(4,7))),((12,15),(9,10))),(11,13)),16);
((((9,10),((1,6),((11,13),((3,(4,(2,5))),(8,(7,14)))))),(12,15)),16);
(((((8,(14,(4,7))),((1,6),(3,(2,5)))),(11,13)),((12,15),(9,10))),16);
((((((7,14),((3,(5,(2,4))),(1,6))),8),(11,13)),((9,10),(12,15))),16);
((((((3,(2,5)),(1,6)),(8,(14,(4,7)))),(11,13)),((12,15),(9,10))),16);
(((((3,((2,5),(6,1))),(8,(14,(4,7)))),(11,13)),((12,15),(9,10))),16);
(((((((14,(4,7)),(3,(2,5))),(1,6)),(11,13)),8),((9,10),(12,15))),16);
(((((14,(4,7)),((2,5),(3,(1,6)))),(8,(11,13))),((9,10),(12,15))),16);
((((((1,(6,(3,(2,5)))),(14,(4,7))),8),(11,13)),((12,15),(9,10))),16);
(((((1,6),((3,(2,5)),(8,(14,(7,4))))),(11,13)),((9,10),(12,15))),16);
((((((14,(4,7)),((2,5),(3,(1,6)))),8),(11,13)),((12,15),(9,10))),16);
((((((((1,(3,(5,(2,4)))),6),(7,14)),8),(11,13)),(9,10)),(12,15)),16);
((((((1,(2,(3,5))),(8,(14,(4,7)))),6),(11,13)),((9,10),(12,15))),16);
(((((((14,(7,4)),8),1),(6,(3,(2,5)))),(11,13)),((12,15),(9,10))),16);
(((((1,6),((3,(2,5)),(8,(14,(4,7))))),(11,13)),((9,10),(12,15))),16);
(((((11,13),(8,((3,(2,5)),(1,6)))),(14,(4,7))),((9,10),(12,15))),16);
(((((((4,(2,5)),3),(1,6)),(8,(7,14))),(11,13)),((12,15),(9,10))),16);
(((1,((11,13),((6,(3,(2,5))),((14,(4,7)),8)))),((12,15),(9,10))),16);
(((((14,(4,7)),((2,(3,5)),(1,6))),(8,(11,13))),((12,15),(9,10))),16);
((((((1,6),(3,(2,5))),(11,13)),(8,(14,(4,7)))),((9,10),(12,15))),16);
(((((((14,(4,7)),(3,(2,5))),6),1),(8,(11,13))),((12,15),(9,10))),16);
(((((((1,8),(14,(4,7))),(6,(3,(2,5)))),(11,13)),(12,15)),(9,10)),16);
((((((1,6),(3,(2,(4,5)))),(8,(7,14))),(11,13)),((12,15),(9,10))),16);
((((((1,6),(3,(2,5))),(11,13)),(8,(14,(4,7)))),((9,10),(12,15))),16);
(((((14,(4,7)),(8,(6,(1,(3,(2,5)))))),(11,13)),((12,15),(9,10))),16);
(((((((14,(4,7)),(1,6)),8),(2,(3,5))),((12,15),(9,10))),(11,13)),16);
(((((2,5),(1,6)),(3,(14,(4,7)))),((8,(11,13)),((12,15),(9,10)))),16);
((((((5,(2,3)),(1,6)),(8,(14,(4,7)))),(11,13)),((9,10),(12,15))),16);
(((((((5,3),2),(1,6)),(8,(14,(4,7)))),(11,13)),((12,15),(9,10))),16);
(((((((4,14),((3,(2,5)),(1,6))),7),8),(11,13)),((12,15),(9,10))),16);
((((((14,(4,7)),(6,(3,(2,5)))),1),(8,(11,13))),((12,15),(9,10))),16);
(((((6,(1,(3,(2,5)))),(8,(14,(4,7)))),(11,13)),((12,15),(9,10))),16);
(((((((3,(2,(4,5))),1),7),(6,(8,14))),(11,13)),((12,15),(9,10))),16);
((((((6,(1,(3,(2,5)))),8),(4,(7,14))),(11,13)),((9,10),(12,15))),16);
((((((1,(14,(4,7))),(8,(2,5))),(3,6)),(11,13)),((12,15),(9,10))),16);
((((((8,(3,(2,5))),((4,7),(1,6))),14),(11,13)),((12,15),(9,10))),16);
((((((8,(1,(6,(3,(2,5))))),(14,(4,7))),(11,13)),(12,15)),(9,10)),16);
(((((1,8),((14,(4,7)),(6,(3,(2,5))))),(11,13)),((12,15),(9,10))),16);
((((((14,(4,7)),(8,((3,(2,5)),(1,6)))),(11,13)),(12,15)),(9,10)),16);
((((((3,(2,5)),(8,(14,(4,7)))),(1,6)),(11,13)),((12,15),(9,10))),16);
(((((11,13),(1,((14,(4,7)),(3,(2,5))))),(6,8)),((12,15),(9,10))),16);
((((((14,(2,(4,7))),((3,5),(1,6))),8),(11,13)),((12,15),(9,10))),16);
(((((((6,(2,5)),(1,3)),(8,(4,7))),14),(11,13)),((12,15),(9,10))),16);
((((((14,((4,7),8)),((1,6),(3,(2,5)))),(11,13)),(12,15)),(9,10)),16);
(((((14,(8,(6,(3,(4,(2,5)))))),(1,7)),(11,13)),((12,15),(9,10))),16);
((((((((3,(6,(2,5))),1),14),8),(11,13)),(4,7)),((12,15),(9,10))),16);
((((((((1,6),(3,(2,5))),(4,7)),8),14),(11,13)),((12,15),(9,10))),16);
(((((1,(3,(2,5))),(8,(6,(14,(4,7))))),(11,13)),((12,15),(9,10))),16);
((((1,((8,(14,(4,7))),(6,(3,(2,5))))),(11,13)),((12,15),(9,10))),16);
((((((((3,(2,5)),(1,6)),(14,8)),(4,7)),(11,13)),(9,10)),(12,15)),16);
((((((8,(14,(4,7))),(6,(1,(3,(2,5))))),(11,13)),(9,10)),(12,15)),16);
(((((11,13),(14,(4,7))),((3,(2,5)),(8,(1,6)))),((12,15),(9,10))),16);
((((((1,6),(8,(14,(4,7)))),(3,(2,5))),(11,13)),((9,10),(12,15))),16);
((((((5,(2,4)),(1,6)),(3,(8,(7,14)))),(11,13)),((9,10),(12,15))),16);
(((((14,6),(1,(3,(2,5)))),((11,13),(8,(4,7)))),((9,10),(12,15))),16);
(((((8,(14,(4,7))),((1,6),(3,(2,5)))),(11,13)),((9,10),(12,15))),16);
((((((1,6),(3,(2,5))),(8,(14,(4,7)))),(11,13)),((12,15),(9,10))),16);
((((((3,(6,(2,5))),(8,(14,(4,7)))),1),(11,13)),((9,10),(12,15))),16);
(((((6,((3,(2,5)),(8,(14,(4,7))))),(11,13)),1),((9,10),(12,15))),16);
(((((6,(8,14)),((4,7),(1,(3,(2,5))))),(11,13)),((12,15),(9,10))),16);
((((((8,(14,(4,7))),(1,(6,(3,(2,5))))),(11,13)),(9,10)),(12,15)),16);
((((((8,14),6),(11,13)),((4,7),(1,(3,(2,5))))),((12,15),(9,10))),16);
((((6,(2,(14,(4,7)))),(8,(1,(3,5)))),((11,13),((9,10),(12,15)))),16);
((((((6,(1,(3,(2,5)))),(14,(4,7))),8),(11,13)),((12,15),(9,10))),16);
((((((4,7),(8,14)),(11,13)),((3,(2,5)),(1,6))),((12,15),(9,10))),16);
(((((((14,(4,7)),(3,(2,5))),(1,6)),8),(11,13)),((12,15),(9,10))),16);
((((((3,((1,6),(2,5))),8),(14,(4,7))),(11,13)),((9,10),(12,15))),16);
(((((((((3,5),2),6),1),8),(14,(4,7))),(11,13)),((12,15),(9,10))),16);
((((((7,(8,14)),(1,6)),(11,13)),(3,(2,(4,5)))),((12,15),(9,10))),16);
(((((1,(6,(3,(2,5)))),(8,(14,(4,7)))),(11,13)),((9,10),(12,15))),16);
((((((14,(4,7)),(8,(1,3))),(6,(2,5))),(11,13)),((9,10),(12,15))),16);
(((((8,((14,(4,7)),((3,(2,5)),(1,6)))),(11,13)),(12,15)),(9,10)),16);
((((((3,(2,5)),((1,6),(14,(4,7)))),8),(11,13)),((12,15),(9,10))),16);
((((((6,(3,(5,(4,2)))),(1,8)),(7,14)),(11,13)),((12,15),(9,10))),16);
((((((4,7),((1,6),(3,(2,5)))),(8,14)),(11,13)),((12,15),(9,10))),16);
(((((8,((4,7),14)),((3,(2,5)),(1,6))),(11,13)),((12,15),(9,10))),16);
(((((((3,(2,5)),(1,6)),(8,(14,(4,7)))),(9,10)),(11,13)),(12,15)),16);
(((((6,(1,(3,(5,(2,4))))),(8,(7,14))),(11,13)),((12,15),(9,10))),16);
(((((14,(4,7)),(8,((1,6),(3,(2,5))))),(11,13)),((12,15),(9,10))),16);
(((((((2,5),(3,6)),(8,(14,(4,7)))),1),(11,13)),((12,15),(9,10))),16);
(((((((1,6),(5,(2,3))),((8,(4,7)),(11,13))),14),(9,10)),(12,15)),16);
(((((8,((3,(2,5)),(1,6))),(14,(4,7))),(11,13)),((9,10),(12,15))),16);
((((8,(((2,5),(14,(4,7))),(6,(1,3)))),(11,13)),((12,15),(9,10))),16);
(((((((3,(2,5)),(1,6)),(14,(4,7))),(11,13)),((12,15),(9,10))),8),16);
(((((1,6),(8,((3,(2,5)),(14,(4,7))))),(11,13)),((12,15),(9,10))),16);
((((((((2,5),(1,6)),3),(8,(14,(4,7)))),(11,13)),(9,10)),(12,15)),16);
((((((7,14),((3,(5,(2,4))),(1,6))),8),(11,13)),((12,15),(9,10))),16);
((((((11,13),(8,(14,(4,7)))),((3,(2,5)),(1,6))),(12,15)),(9,10)),16);
((((((4,7),(3,(2,5))),((1,6),(8,14))),(11,13)),((9,10),(12,15))),16);
((((11,13),((6,(1,(3,(2,5)))),(8,(14,(4,7))))),((12,15),(9,10))),16);
(((((8,((3,(2,5)),(1,6))),(14,(4,7))),(11,13)),((12,15),(9,10))),16);
(((((((3,(2,5)),((8,(14,(4,7))),1)),6),(11,13)),(12,15)),(9,10)),16);
((((((6,(3,(2,5))),1),(8,(14,(4,7)))),(11,13)),((12,15),(9,10))),16);
((((((6,(3,(2,5))),(14,(4,7))),(1,8)),(11,13)),((12,15),(9,10))),16);
((((((8,((4,7),14)),(3,(2,5))),(1,6)),(11,13)),((12,15),(9,10))),16);
(((((((3,(2,5)),(1,6)),(14,(4,7))),8),(11,13)),((12,15),(9,10))),16);
(((((6,(1,(3,(2,5)))),(8,(14,(4,7)))),(11,13)),((9,10),(12,15))),16);
(((((((3,(2,5)),(1,6)),8),(14,(4,7))),(11,13)),((12,15),(9,10))),16);
((((((3,(2,5)),(1,(14,6))),(8,(4,7))),(11,13)),((12,15),(9,10))),16);
((((((((3,(2,5)),(1,6)),(14,(4,7))),8),(11,13)),(9,10)),(12,15)),16);
((((((3,(4,(2,5))),((8,(1,6)),(7,14))),(11,13)),(9,10)),(12,15)),16);
(((((14,(8,(3,(2,5)))),((4,7),(1,6))),(11,13)),((12,15),(9,10))),16);
((((8,(((2,5),(1,6)),(3,(14,(4,7))))),(11,13)),((9,10),(12,15))),16);
((((((3,((2,5),(1,6))),(8,14)),(4,7)),(11,13)),((12,15),(9,10))),16);
((((((3,(2,5)),((1,6),(14,(4,7)))),8),(11,13)),((12,15),(9,10))),16);
((((3,(8,(14,(4,7)))),((11,13),((2,5),(1,6)))),((9,10),(12,15))),16);
(((((11,13),(8,(7,(4,14)))),((3,(2,5)),(1,6))),((12,15),(9,10))),16);
(((((11,13),((3,(5,(2,4))),(1,6))),(14,(7,8))),((12,15),(9,10))),16);
(((((3,(2,5)),(1,6)),((11,13),(8,(14,(4,7))))),((9,10),(12,15))),16);
(((((1,(6,(3,(2,5)))),(8,(14,(4,7)))),(11,13)),((9,10),(12,15))),16);
(((((8,(14,(4,7))),((3,(2,5)),(1,6))),(11,13)),((12,15),(9,10))),16);
((((((8,(7,14)),((3,(5,(2,4))),(1,6))),(11,13)),(12,15)),(9,10)),16);
((((((3,(2,5)),(1,6)),(8,(14,(4,7)))),(11,13)),((12,15),(9,10))),16);
((((((6,(1,(3,(2,5)))),(14,(4,7))),8),(11,13)),((12,15),(9,10))),16);
((((((1,(3,(2,5))),6),(8,(14,(4,7)))),(11,13)),((9,10),(12,15))),16);
((((((3,((2,5),(1,6))),(8,(14,(4,7)))),(11,13)),(9,10)),(12,15)),16);
(((((((3,(2,5)),(1,6)),(14,(4,7))),(11,13)),8),((12,15),(9,10))),16);
(((((((1,(3,6)),(2,5)),(14,(4,7))),8),(11,13)),((12,15),(9,10))),16);
((((12,15),(9,10)),((11,13),(((3,(2,5)),(1,6)),(8,(14,(4,7)))))),16);
((((12,15),((11,13),((1,6),((2,(3,5)),(8,(14,(4,7))))))),(9,10)),16);
((((((14,(4,7)),(1,6)),8),((11,13),(3,(2,5)))),((12,15),(9,10))),16);
((((((14,(4,7)),((1,6),(3,(2,5)))),8),((12,15),(9,10))),(11,13)),16);
((((((14,(4,7)),((3,(2,5)),(1,6))),8),(11,13)),((12,15),(9,10))),16);
(((((((1,6),(3,(2,5))),(14,(4,7))),(11,13)),8),((9,10),(12,15))),16);
((((((6,(3,(5,(2,4)))),1),(8,(7,14))),(11,13)),((9,10),(12,15))),16);
(((((((8,(7,14)),(1,6)),(3,(5,(2,4)))),(11,13)),(9,10)),(12,15)),16);
((((((1,6),((14,(4,7)),(8,(3,(2,5))))),(11,13)),(9,10)),(12,15)),16);
((((((8,(14,(4,7))),(1,6)),(3,(2,5))),(11,13)),((9,10),(12,15))),16);
(((((((2,5),(1,6)),(3,(8,(14,(4,7))))),(11,13)),(9,10)),(12,15)),16);
