(((((3,12),(14,(6,7))),(4,(1,(9,10)))),((2,11),(5,(8,(13,15))))),16);
((((((15,(8,13)),5),(2,11)),((3,12),(14,(6,7)))),(4,(1,(9,10)))),16);
((((8,15),(((3,12),(6,(7,14))),(4,(1,(9,10))))),((2,11),(5,13))),16);
(((((6,14),7),(3,12)),((4,(1,(9,10))),((2,11),(5,(13,(8,15)))))),16);
(((((2,11),(5,(13,(8,15)))),(4,(1,(9,10)))),((3,12),(14,(6,7)))),16);
(((((2,11),(5,(13,(8,15)))),(4,(1,(9,10)))),((6,(7,14)),(3,12))),16);
((((((8,15),13),5),(2,11)),((4,(1,(9,10))),((3,12),(14,(6,7))))),16);
(((((((15,8),13),5),(2,11)),(4,(1,(9,10)))),((14,(6,7)),(3,12))),16);
((((13,(8,15)),(5,(2,11))),(((3,12),(14,(6,7))),(4,(1,(9,10))))),16);
((((((8,15),13),5),(2,11)),((4,(1,(9,10))),((3,12),(14,(6,7))))),16);
(((4,(1,10)),(((3,12),(14,(7,(6,9)))),((2,11),(5,(15,(8,13)))))),16);
((((((9,10),1),4),((2,11),(5,(8,(13,15))))),((3,12),(14,(6,7)))),16);
(((11,(2,(5,(13,(8,15))))),(((3,12),(14,(6,7))),(4,(1,(9,10))))),16);
(((((8,13),(5,15)),(2,11)),(((3,12),(14,(6,7))),(4,(1,(9,10))))),16);
(((4,((1,(9,10)),((3,12),(14,(6,7))))),((2,11),(15,(5,(8,13))))),16);
(((((5,(8,(13,15))),(2,11)),((3,12),(7,(6,14)))),(4,(1,(9,10)))),16);
(((((5,(13,15)),8),(2,11)),(((3,12),(14,(6,7))),(4,(1,(9,10))))),16);
(((((2,11),(5,(15,(8,13)))),(4,(1,10))),((3,12),((7,9),(6,14)))),16);
(((((13,(8,15)),5),(2,11)),((4,(1,(9,10))),((3,12),(14,(6,7))))),16);
((((2,11),(5,(8,(13,15)))),(((3,12),(14,(6,7))),(4,(1,(9,10))))),16);
(((((2,11),(5,(13,(8,15)))),((3,12),(14,(6,7)))),(4,(1,(9,10)))),16);
(((((3,12),(6,(14,7))),((2,11),(5,(15,(8,13))))),(4,(1,(9,10)))),16);
(((((7,(6,9)),14),(3,12)),(((2,11),(5,(8,(13,15)))),(4,(1,10)))),16);
((((((8,13),15),5),(2,11)),(((3,12),(14,(6,7))),(4,(1,(9,10))))),16);
(((((3,12),(14,(6,7))),(4,(1,(9,10)))),((2,11),(5,(13,(8,15))))),16);
(((((5,(13,(8,15))),(2,11)),(4,(1,(9,10)))),((3,12),(14,(6,7)))),16);
(((((7,(6,14)),(3,12)),(4,(1,(9,10)))),((2,11),(5,(13,(8,15))))),16);
(((((2,11),(5,(8,(13,15)))),(4,(1,(9,10)))),((3,12),(14,(6,7)))),16);
((((2,11),(5,(8,(13,15)))),(((3,12),(7,(6,14))),(4,(1,(9,10))))),16);
(((4,(10,(1,9))),(((2,11),(5,(8,(13,15)))),((3,12),(14,(6,7))))),16);
((((1,(9,10)),((5,13),((8,15),(2,11)))),(4,((3,12),(7,(6,14))))),16);
(((((2,11),(5,(13,(8,15)))),(4,(1,(9,10)))),((3,12),(6,(7,14)))),16);
((((5,(13,(8,15))),(2,11)),((4,(1,(9,10))),((3,12),(14,(6,7))))),16);
(((((1,(9,10)),4),((3,12),(7,(6,14)))),((15,(8,13)),(5,(2,11)))),16);
(((((3,12),(14,(6,7))),((2,11),(5,(15,(8,13))))),(4,(1,(9,10)))),16);
(((((3,(7,(6,14))),12),(4,(1,(9,10)))),((2,11),(5,(15,(8,13))))),16);
(((((5,(8,(13,15))),(2,11)),((3,12),(7,(6,14)))),(4,(1,(9,10)))),16);
(((((5,(15,(13,8))),(2,11)),(4,(1,(9,10)))),((3,12),(14,(6,7)))),16);
((((((8,13),15),5),(2,11)),((4,(1,(9,10))),((3,12),(7,(6,14))))),16);
((((((3,12),(6,(7,14))),(4,(1,(9,10)))),(2,11)),(8,(5,(13,15)))),16);
(((((2,11),(5,(13,(8,15)))),(4,(1,10))),((3,12),(7,(14,(6,9))))),16);
((((5,(2,11)),(8,(13,15))),(((3,12),(14,(6,7))),(4,(1,(9,10))))),16);
((((((15,13),8),5),(2,11)),(((3,12),(14,(6,(7,9)))),(4,(1,10)))),16);
((((4,(1,(9,10))),((2,11),(5,(15,(8,13))))),((6,(7,14)),(3,12))),16);
(((((6,(7,14)),(3,12)),(4,(1,(9,10)))),((2,11),(5,(15,(8,13))))),16);
(((((3,12),(14,(6,7))),((13,(8,15)),(5,(2,11)))),(1,(4,(9,10)))),16);
(((((5,(15,(8,13))),(2,11)),(4,(1,(9,10)))),((3,12),(14,(6,7)))),16);
(((((3,12),(7,(6,14))),(4,(1,(9,10)))),(5,((2,11),(15,(8,13))))),16);
((((((13,(8,15)),5),(2,11)),((14,(6,7)),(3,12))),(4,(1,(9,10)))),16);
((((4,(1,(9,10))),((3,12),(14,(6,7)))),((2,11),(5,(15,(8,13))))),16);
(((((3,12),(6,(14,(7,9)))),((2,11),(5,(13,(8,15))))),(4,(1,10))),16);
((((14,(6,7)),(3,12)),(((2,11),(5,(13,(8,15)))),(4,(1,(9,10))))),16);
(((((3,12),(14,(6,(7,9)))),(4,(1,10))),((2,11),(5,(8,(13,15))))),16);
(((((4,(1,9)),10),((3,12),(14,(6,7)))),((2,11),(5,(13,(8,15))))),16);
((((2,11),(5,(15,(8,13)))),((4,(1,10)),((3,12),(14,(7,(6,9)))))),16);
(((4,(1,(9,10))),(((3,12),(14,(6,7))),((2,11),(5,(13,(15,8)))))),16);
(((((6,7),14),(3,12)),((4,(1,(9,10))),((2,11),(5,(13,(8,15)))))),16);
((((2,11),(5,(8,(13,15)))),(((3,12),(7,(6,14))),(4,(1,(9,10))))),16);
((((2,11),(5,(15,(8,13)))),(((3,12),(14,(6,7))),(1,(4,(9,10))))),16);
((((4,(1,(9,10))),((3,12),(14,(6,7)))),(5,((2,11),(15,(8,13))))),16);
((((4,(1,(9,10))),((3,12),(14,(6,7)))),((2,11),(5,(13,(8,15))))),16);
(((((14,(6,7)),(3,12)),(4,(1,(9,10)))),((15,(8,13)),(5,(2,11)))),16);
((((4,(1,(9,10))),((2,11),(5,(13,(8,15))))),((3,12),(14,(6,7)))),16);
(((((3,12),(14,(6,7))),(4,(1,(9,10)))),((2,11),(5,(13,(8,15))))),16);
(((((5,8),(13,15)),(2,11)),(((3,12),(14,(6,7))),(4,(1,(9,10))))),16);
((((4,(1,(9,10))),((2,11),(5,(13,(8,15))))),((3,12),(14,(6,7)))),16);
(((((14,(6,7)),(3,12)),(4,(1,(9,10)))),(5,((2,11),(13,(8,15))))),16);
((((2,11),(5,(15,(8,13)))),(((3,12),(14,(6,7))),(4,(9,(1,10))))),16);
((((1,(4,(9,10))),(14,(6,7))),((3,12),((2,11),(5,(8,(13,15)))))),16);
(((((3,12),(7,(6,14))),((2,11),(5,(13,(8,15))))),(4,(1,(9,10)))),16);
(((4,(1,10)),(((3,12),(14,(7,(6,9)))),((2,11),(5,(8,(13,15)))))),16);
(((((((13,15),8),5),(2,11)),((3,12),(14,(6,7)))),(4,(1,(9,10)))),16);
(((((((15,13),8),5),(2,11)),((6,(7,14)),(3,12))),(4,(1,(9,10)))),16);
(((((3,12),(14,(6,7))),((2,11),(5,(15,(13,8))))),(4,(1,(9,10)))),16);
((((2,11),(5,(15,(8,13)))),(((3,12),(14,(6,7))),(4,(1,(9,10))))),16);
(((((3,12),(14,(6,7))),(4,(1,(9,10)))),((2,11),(5,(8,(13,15))))),16);
(((5,((2,11),(13,(8,15)))),((4,(1,(9,10))),(14,((6,7),(3,12))))),16);
(((((4,(1,(9,10))),((7,(6,14)),(3,12))),(5,(15,(8,13)))),(2,11)),16);
(((((2,11),(5,(8,(13,15)))),((3,12),(14,(6,7)))),(4,(1,(9,10)))),16);
((((5,(13,(8,15))),(2,11)),(((14,(6,7)),(3,12)),(4,(1,(9,10))))),16);
(((((3,12),(14,(6,7))),(4,(1,(9,10)))),((2,11),(5,(8,(13,15))))),16);
(((((15,(8,13)),5),(2,11)),(((14,(6,7)),(3,12)),(4,(1,(9,10))))),16);
(((((5,(13,(8,15))),(2,11)),(4,(1,(9,10)))),((3,12),(14,(6,7)))),16);
((((4,(1,(9,10))),((14,(6,7)),(3,12))),((2,11),(5,(13,(8,15))))),16);
((((((2,11),(8,(13,15))),5),((3,12),(14,(6,7)))),(4,(10,(1,9)))),16);
((((15,(8,13)),(5,(2,11))),(((3,12),(14,(6,7))),(4,(1,(9,10))))),16);
((((4,(1,(9,10))),((3,12),(14,(6,7)))),((13,(8,15)),((2,11),5))),16);
(((((3,12),(14,(6,7))),(4,(1,(9,10)))),((2,11),(5,(15,(13,8))))),16);
((((2,11),(5,(15,(8,13)))),((12,(3,(14,(6,7)))),(1,(4,(9,10))))),16);
((((2,5),(11,(8,(13,15)))),(((14,(6,7)),(9,(3,12))),(4,(1,10)))),16);
(((((2,11),(5,(15,(8,13)))),(10,(4,1))),((14,(7,(6,9))),(3,12))),16);
((((((8,(13,15)),5),(2,11)),(4,(1,(9,10)))),((14,(6,7)),(3,12))),16);
((((2,11),(5,(13,(8,15)))),((4,(1,10)),((14,(9,(6,7))),(3,12)))),16);
(((((14,(7,(6,9))),(3,12)),((2,11),(5,(15,(8,13))))),(4,(1,10))),16);
((((4,(1,(9,10))),((2,11),(5,(15,(8,13))))),((6,7),(14,(3,12)))),16);
(((5,((2,11),(13,(15,8)))),(((3,12),(14,(6,7))),(4,(1,(9,10))))),16);
((((((14,(6,9)),(3,12)),7),((2,11),(5,(13,(8,15))))),(4,(1,10))),16);
(((((((7,9),6),14),(3,12)),((2,11),(5,(8,(13,15))))),(4,(1,10))),16);
(((((1,10),4),((3,12),(6,(14,(7,9))))),((15,(8,13)),(5,(2,11)))),16);
((((2,11),(5,(13,(8,15)))),(((3,12),(14,(6,7))),(4,(1,(9,10))))),16);
((((2,11),(5,(13,(8,15)))),((4,(1,(9,10))),((3,12),(14,(6,7))))),16);
(((((7,14),(6,(3,12))),((2,11),(5,(13,(8,15))))),(4,(1,(9,10)))),16);
(((4,(1,(9,10))),(((3,12),(14,(6,7))),((2,11),(5,(15,(8,13)))))),16);
(((((3,12),(14,(6,7))),(4,(1,(9,10)))),((2,11),(5,(8,(15,13))))),16);
((((5,(13,(8,15))),(2,11)),((4,(1,(9,10))),((3,12),(14,(6,7))))),16);
((((2,11),(5,(8,(13,15)))),(((3,12),(14,(6,7))),(4,(1,(9,10))))),16);
(((((8,(13,15)),5),(2,11)),(((3,12),(6,(14,7))),(4,(1,(9,10))))),16);
((((2,11),(5,(8,(13,15)))),(((3,12),(6,(7,14))),(4,(1,(9,10))))),16);
(((((2,11),(5,(13,(8,15)))),(4,(1,(9,10)))),((3,12),(14,(6,7)))),16);
(((((4,1),(9,10)),((2,11),(5,(13,(8,15))))),((3,12),(7,(6,14)))),16);
(((((3,12),(6,(14,(7,9)))),(4,(1,10))),((2,11),(5,(15,(8,13))))),16);
(((((6,(14,7)),(3,12)),(4,(1,(9,10)))),((2,11),(5,(13,(8,15))))),16);
((((3,12),(14,(6,7))),((4,(1,(9,10))),((2,11),(5,(13,(8,15)))))),16);
((((4,(1,10)),((3,12),(6,(14,(7,9))))),((2,11),(5,(8,(13,15))))),16);
((((4,(1,(9,10))),((2,11),(5,(8,(13,15))))),((3,12),(14,(6,7)))),16);
(((((3,12),(14,(7,6))),(4,(1,(9,10)))),((2,11),(5,(15,(8,13))))),16);
(((((3,12),(6,(7,14))),((5,(13,(8,15))),(4,(9,(1,10))))),(2,11)),16);
(((((14,(6,7)),(3,12)),(4,(1,(9,10)))),((2,11),(5,(15,(8,13))))),16);
((((((8,13),15),5),(2,11)),(((3,12),(14,(6,7))),(4,(1,(9,10))))),16);
((((15,(8,13)),(5,(2,11))),(((3,12),(14,(6,7))),(4,(1,(9,10))))),16);
(((((3,12),(6,(7,14))),(4,(1,(9,10)))),((2,11),(5,(15,(8,13))))),16);
((((2,11),(5,(15,(8,13)))),(((3,12),(6,(7,14))),(4,(1,(9,10))))),16);
(((1,((9,10),4)),(((14,(6,7)),(3,12)),((2,11),(5,(15,(8,13)))))),16);
((((9,10),(4,1)),(((14,(6,7)),(3,12)),((2,11),(5,(13,(8,15)))))),16);
(((((2,11),(5,(13,(8,15)))),(14,((6,7),(3,12)))),(4,(1,(9,10)))),16);
(((((2,11),(5,(13,(8,15)))),((3,12),(14,(7,6)))),(4,(1,(9,10)))),16);
((((4,(1,(9,10))),((3,12),(14,(6,7)))),((15,(8,13)),(5,(2,11)))),16);
((((4,(1,(9,10))),((14,(6,7)),(3,12))),((2,11),(5,(15,(8,13))))),16);
((((((15,13),8),5),(2,11)),(((3,12),(14,(6,7))),(4,(1,(9,10))))),16);
(((((3,12),(7,(6,14))),((13,(8,15)),(5,(2,11)))),(4,(1,(9,10)))),16);
(((((((8,13),15),5),(2,11)),(4,(1,(9,10)))),((3,12),(14,(6,7)))),16);
(((((3,12),(14,(6,7))),(4,(1,(9,10)))),((2,11),(5,(13,(8,15))))),16);
((((15,(8,13)),(5,(2,11))),(((3,12),(14,(6,7))),(4,(1,(9,10))))),16);
((((4,(1,(9,10))),((2,11),(5,(15,(8,13))))),(14,((6,7),(3,12)))),16);
((((4,(1,(9,10))),((2,11),(5,(8,(13,15))))),((3,12),(6,(7,14)))),16);
(((((3,12),(14,(6,7))),((2,11),(5,(15,(8,13))))),(4,(1,(9,10)))),16);
(((((15,(8,13)),5),(2,11)),(((3,12),(14,(6,7))),(4,(1,(9,10))))),16);
((((2,11),((13,(8,15)),5)),(((3,12),(14,(6,7))),(4,(1,(9,10))))),16);
((((2,11),(5,(8,(13,15)))),(((3,12),(14,(6,7))),(4,(1,(9,10))))),16);
((((((13,15),8),5),(2,11)),(((14,(6,7)),(3,12)),(4,(1,(9,10))))),16);
((((((13,(8,15)),5),(2,11)),(4,(1,(9,10)))),((3,12),(6,(7,14)))),16);
((((2,11),(15,(5,(8,13)))),((4,(1,(9,10))),((14,(6,7)),(3,12)))),16);
((((4,(1,(9,10))),((3,12),(7,(6,14)))),((2,11),(5,(13,(8,15))))),16);
(((((3,12),(7,(6,14))),(4,(1,(9,10)))),((2,11),(5,(15,(8,13))))),16);
(((((14,(6,7)),(3,12)),(4,(1,(9,10)))),((2,11),(5,(8,(13,15))))),16);
((((13,(8,15)),(5,(2,11))),(((3,12),(14,(6,7))),(4,(1,(9,10))))),16);
(((((14,(6,7)),(3,12)),(4,(1,(9,10)))),((2,11),(5,(15,(8,13))))),16);
((((((2,11),(13,(8,15))),5),((14,(6,7)),(3,12))),(4,(1,(9,10)))),16);
(((((3,12),(14,(6,7))),(4,(1,(9,10)))),((2,11),(5,(15,(8,13))))),16);
((((2,11),(5,(13,(8,15)))),(((3,12),(14,(6,7))),(1,(4,(9,10))))),16);
(((((2,11),(5,(8,(13,15)))),(4,(1,(9,10)))),((3,12),(14,(6,7)))),16);
(((((3,12),(6,(7,14))),(4,(1,(9,10)))),((2,11),(5,(8,(13,15))))),16);
(((((((13,15),8),5),(2,11)),((3,12),(14,(6,7)))),(4,(1,(9,10)))),16);
((((4,(1,10)),(6,((3,12),(14,(7,9))))),((2,11),(5,(8,(13,15))))),16);
(((((2,11),(5,(8,(13,15)))),(4,(1,(9,10)))),((3,12),(14,(6,7)))),16);
(((((14,(7,(6,9))),(3,12)),(4,(1,10))),((2,11),(13,(5,(8,15))))),16);
((((8,(13,15)),(5,(2,11))),((4,(1,(9,10))),((3,12),(6,(7,14))))),16);
((((8,(13,15)),(5,(2,11))),((4,(1,(9,10))),((14,(6,7)),(3,12)))),16);
((((3,12),(14,(6,7))),((4,(1,(9,10))),((2,11),(5,(15,(8,13)))))),16);
((((7,((6,14),(3,12))),(4,(1,(9,10)))),((2,11),(5,(15,(8,13))))),16);
(((((2,11),(5,(13,(8,15)))),(4,(1,(9,10)))),((14,(6,7)),(3,12))),16);
(((((3,12),(7,(6,14))),(4,(1,(9,10)))),((2,11),(13,(5,(8,15))))),16);
(((((3,12),(14,(6,(7,9)))),(4,(1,10))),(5,((2,11),(8,(13,15))))),16);
(((4,(9,(1,10))),(((3,12),(14,(6,7))),((2,11),(5,(13,(8,15)))))),16);
((((2,11),(5,(13,(8,15)))),(((14,(6,7)),(3,12)),(4,(1,(9,10))))),16);
(((((2,11),(5,(13,(8,15)))),(4,(9,(1,10)))),((3,12),(7,(6,14)))),16);
(((((13,(8,15)),5),(2,11)),((4,(1,(9,10))),((3,12),(6,(7,14))))),16);
(((((3,12),(14,(6,(7,9)))),((2,11),(5,(13,(8,15))))),(4,(1,10))),16);
((((2,11),(5,(13,(8,15)))),((4,(1,10)),((3,12),((7,9),(6,14))))),16);
((((4,(1,(9,10))),((2,11),(5,(8,(13,15))))),((6,7),(14,(3,12)))),16);
((((2,11),(5,(8,(13,15)))),((4,(1,(9,10))),((3,12),(14,(6,7))))),16);
((((4,(1,(9,10))),((3,12),(6,(7,14)))),((2,11),(5,(8,(13,15))))),16);
(((((8,(13,15)),(2,11)),5),(((14,(6,7)),(3,12)),(4,(1,(9,10))))),16);
(((((1,(9,10)),4),((3,12),(14,(6,7)))),((5,(8,(13,15))),(2,11))),16);
((((4,(1,(9,10))),((3,12),(14,(6,7)))),((2,11),(5,(13,(8,15))))),16);
(((4,(1,(9,10))),(((3,12),(14,(6,7))),((2,11),(5,(15,(8,13)))))),16);
((((4,(1,(9,10))),((3,12),(14,(6,7)))),((15,(13,8)),(5,(2,11)))),16);
(((((2,11),(5,(15,(8,13)))),((3,12),(14,(6,7)))),(4,(1,(9,10)))),16);
(((((3,12),(14,(6,7))),((2,11),(5,(15,(8,13))))),(4,(1,(9,10)))),16);
(((((1,(9,10)),4),((3,12),(7,(6,14)))),((2,11),(5,(13,(8,15))))),16);
(((((3,12),(14,(6,7))),((2,11),(5,(15,(8,13))))),(4,(1,(9,10)))),16);
(((((3,12),(14,(6,7))),(4,(1,(9,10)))),((2,11),(5,(13,(8,15))))),16);
(((((3,12),(14,(6,7))),(4,(1,(9,10)))),((2,11),(5,(8,(13,15))))),16);
(((4,(1,(9,10))),(((2,11),(5,(13,(8,15)))),(3,(12,(7,(6,14)))))),16);
((((4,(1,(9,10))),((2,11),(5,(8,(13,15))))),((3,12),(14,(6,7)))),16);
((((5,13),((8,15),(2,11))),(((3,12),(14,(7,(6,9)))),(4,(1,10)))),16);
((((4,(1,(9,10))),((2,11),(5,(13,(8,15))))),((3,12),(7,(6,14)))),16);
((((((7,9),6),14),(3,12)),(((2,11),(5,(13,(8,15)))),(4,(1,10)))),16);
(((4,(1,(9,10))),(((2,11),(5,(8,(13,15)))),((3,12),(14,(6,7))))),16);
(((((2,11),(5,(13,(8,15)))),(4,(9,(1,10)))),((3,12),(7,(6,14)))),16);
((((4,(1,(9,10))),(5,((2,11),(13,(8,15))))),((3,12),(14,(6,7)))),16);
((((4,(1,(9,10))),((2,11),(5,(8,(13,15))))),((6,(7,14)),(3,12))),16);
(((((14,(7,6)),(3,12)),(5,((2,11),(8,(13,15))))),(4,(1,(9,10)))),16);
(((((3,12),(14,(6,(7,9)))),(4,(1,10))),((2,11),(5,(15,(8,13))))),16);
((((((13,(8,15)),(2,11)),5),(4,(1,(9,10)))),((7,(6,14)),(3,12))),16);
(((((3,12),(14,(6,7))),(4,(1,(9,10)))),((2,11),(5,(15,(8,13))))),16);
(((((8,13),(5,15)),(2,11)),(((3,12),((6,9),(7,14))),(10,(1,4)))),16);
(((((3,12),(14,(6,7))),(4,(1,(9,10)))),((2,11),(5,(13,(8,15))))),16);
((((4,(1,(9,10))),((3,12),(14,(6,7)))),((2,11),(5,(8,(13,15))))),16);
((((4,(1,(9,10))),((2,11),(5,(13,(15,8))))),((3,12),(7,(6,14)))),16);
(((((2,11),(5,(15,(8,13)))),((3,12),(14,(6,7)))),(4,(1,(9,10)))),16);
((((2,11),(5,(8,(13,15)))),(((14,(6,7)),(3,12)),(4,(1,(9,10))))),16);
((((4,(1,(9,10))),((3,12),(14,(6,7)))),((2,11),(5,(13,(8,15))))),16);
(((((3,12),(14,(6,7))),(4,(1,(9,10)))),((2,11),(5,(13,(8,15))))),16);
(((((1,(9,10)),((3,12),(14,(6,7)))),4),((2,11),(5,(13,(8,15))))),16);
((((((8,13),15),5),(2,11)),(((14,(6,7)),(3,12)),(4,(1,(9,10))))),16);
(((4,(1,(9,10))),(((2,11),(5,(8,(13,15)))),((14,(6,7)),(3,12)))),16);
(((((3,12),(14,(6,(7,9)))),(4,(1,10))),((2,11),(5,(13,(8,15))))),16);
((((((14,(3,12)),(9,(6,7))),(4,(1,10))),(5,(8,(13,15)))),(2,11)),16);
((((4,(1,(9,10))),((14,(6,7)),(3,12))),((2,11),(5,(15,(8,13))))),16);
((((2,11),(5,(13,(8,15)))),((4,(1,(9,10))),((14,(6,7)),(3,12)))),16);
(((((15,(8,13)),((2,11),5)),((3,12),(7,(14,6)))),(4,(1,(9,10)))),16);
((((2,11),(5,(8,(13,15)))),(((3,12),(14,(6,7))),(4,(1,(9,10))))),16);
((((((6,7),(9,14)),(3,12)),(4,(1,10))),((2,11),(5,(13,(8,15))))),16);
(((((2,11),(5,(15,(8,13)))),((3,12),(14,(7,6)))),(4,(1,(9,10)))),16);
(((((7,(6,14)),(3,12)),((2,11),(5,(8,(13,15))))),(4,(1,(9,10)))),16);
((((3,(12,((7,9),(6,14)))),(4,(1,10))),((2,11),(15,(5,(8,13))))),16);
((((((13,(8,15)),5),(2,11)),(4,(1,(9,10)))),((14,(6,7)),(3,12))),16);
((((2,11),(5,(13,(15,8)))),(((3,12),(14,(6,7))),(4,(1,(9,10))))),16);
((((2,11),(5,(8,(13,15)))),(((3,12),(14,(6,7))),(4,(1,(9,10))))),16);
((((4,(1,(9,10))),((2,11),(5,(8,(13,15))))),((3,12),(14,(6,7)))),16);
((((4,(1,10)),((3,12),(14,(7,(6,9))))),((2,11),(5,(15,(8,13))))),16);
((((((1,9),10),4),((3,12),(14,(6,7)))),((15,(8,13)),(5,(2,11)))),16);
((((2,11),(5,(15,(8,13)))),(((3,12),(14,(6,7))),(4,(1,(9,10))))),16);
(((((1,10),4),((3,12),(6,(14,(7,9))))),((2,11),(5,(8,(13,15))))),16);
((((((3,12),(14,(6,7))),(4,(1,(9,10)))),(5,(15,(8,13)))),(2,11)),16);
(((((15,(8,13)),5),(2,11)),(((6,(7,14)),(3,12)),(4,(1,(9,10))))),16);
((((3,12),(14,(6,7))),((4,(1,(9,10))),((2,11),(5,(15,(8,13)))))),16);
(((((2,11),(5,(13,(8,15)))),((3,12),((6,7),(9,14)))),(4,(1,10))),16);
((((2,11),(5,(13,(8,15)))),(((3,12),(14,(6,7))),(4,(1,(9,10))))),16);
(((4,((1,(9,10)),((3,12),(14,(6,7))))),((2,11),(5,(8,(13,15))))),16);
((((((12,14),(6,7)),3),(4,(1,(9,10)))),((2,11),(5,(13,(8,15))))),16);
((((4,(1,(9,10))),((3,12),(14,(6,7)))),((2,11),(5,(15,(8,13))))),16);
((((2,11),((8,15),(5,13))),(((14,(6,7)),(3,12)),(4,(1,(9,10))))),16);
((((4,(1,(9,10))),((3,12),(7,(6,14)))),((2,11),(5,(13,(8,15))))),16);
(((((3,12),(14,(6,7))),((2,11),(5,(8,(13,15))))),(4,(1,(9,10)))),16);
(((4,(1,(9,10))),(((3,12),(6,(7,14))),((2,11),(5,(15,(8,13)))))),16);
(((4,(1,(9,10))),(((3,12),(6,(7,14))),(13,((2,11),(5,(8,15)))))),16);
(((((14,(6,7)),(3,12)),(4,(1,(9,10)))),((2,11),(5,(13,(8,15))))),16);
((((2,11),(5,(13,(8,15)))),(((3,12),(14,(6,7))),(4,(1,(9,10))))),16);
(((((3,12),(14,(6,7))),((2,11),(5,(15,(8,13))))),(4,(1,(9,10)))),16);
(((((3,12),(6,(7,14))),(4,(1,(9,10)))),((2,11),(5,(8,(13,15))))),16);
(((((1,(9,10)),4),((14,(6,7)),(3,12))),((2,11),((13,15),(5,8)))),16);
(((((3,12),(14,(6,7))),(4,(1,(9,10)))),((2,11),(5,(13,(8,15))))),16);
((((14,(6,7)),((3,12),(4,(1,(9,10))))),((2,11),(5,(15,(13,8))))),16);
(((((3,12),(14,(6,7))),(4,(1,(9,10)))),((2,11),(5,(15,(8,13))))),16);
((((4,(1,(9,10))),((2,11),(8,(5,(13,15))))),((3,12),(14,(6,7)))),16);
((((2,11),(5,(13,(8,15)))),(((3,12),(14,(6,7))),(4,(1,(9,10))))),16);
((((((9,(6,7)),14),(3,12)),(4,(1,10))),((2,11),(5,(15,(8,13))))),16);
((((2,11),(5,(15,(13,8)))),(((3,12),(14,(6,7))),(4,(1,(9,10))))),16);
(((((14,(6,7)),(3,12)),((2,11),(5,(8,(13,15))))),(4,(1,(9,10)))),16);
((((2,11),(5,(13,(8,15)))),((4,(1,(9,10))),((14,(6,7)),(3,12)))),16);
(((((8,(13,15)),5),(2,11)),(((14,(6,7)),(3,12)),(4,(1,(9,10))))),16);
(((((3,12),(14,(6,7))),((2,11),(5,(15,(8,13))))),(4,(1,(9,10)))),16);
((((4,(1,(9,10))),((14,(6,7)),(3,12))),((2,11),(5,(15,(8,13))))),16);
((((5,(15,(8,13))),(2,11)),(((3,12),(7,(6,14))),(4,(1,(9,10))))),16);
(((((7,(6,14)),(3,12)),((2,11),(5,(8,(13,15))))),(4,(1,(9,10)))),16);
((((14,((6,7),(3,12))),((2,11),((8,15),(5,13)))),(4,(1,(9,10)))),16);
((((((15,(8,13)),5),(2,11)),((3,12),(14,(6,7)))),(4,(1,(9,10)))),16);
((((3,12),((6,9),(7,14))),((4,(1,10)),((2,11),(5,(13,(8,15)))))),16);
((((2,11),(5,(8,(13,15)))),((4,(1,(9,10))),((3,12),(14,(6,7))))),16);
((((((13,(15,8)),5),(2,11)),((3,12),((7,9),(14,6)))),(4,(1,10))),16);
((((13,(8,15)),(5,(2,11))),((((6,7),(9,14)),(3,12)),(4,(1,10)))),16);
(((((3,12),(14,(6,7))),(4,(1,(9,10)))),((2,11),(5,(8,(13,15))))),16);
(((((2,11),(5,(15,(8,13)))),(4,(1,(9,10)))),((14,(6,7)),(3,12))),16);
(((4,(1,(9,10))),(((3,12),(14,(6,7))),((2,11),(5,(13,(15,8)))))),16);
((((2,11),(5,(15,(8,13)))),((4,(1,(9,10))),((14,(6,7)),(3,12)))),16);
(((((2,11),(5,(13,(8,15)))),(4,(1,(9,10)))),((3,12),(14,(6,7)))),16);
(((((3,12),(14,(6,7))),(4,(1,(9,10)))),((2,11),(5,(15,(8,13))))),16);
(((((7,14),(6,(12,3))),(4,(1,(9,10)))),((2,11),(5,(13,(8,15))))),16);
(((((2,11),(5,(15,(8,13)))),((14,(6,7)),(4,(1,(9,10))))),(3,12)),16);
(((((9,(1,10)),4),((3,12),(6,(7,14)))),((2,11),(5,(8,(13,15))))),16);
(((((3,12),(14,(6,(7,9)))),(4,(1,10))),(5,((2,11),(13,(8,15))))),16);
(((((3,12),(7,(6,14))),((2,11),(5,(15,(8,13))))),(4,(1,(9,10)))),16);
(((((3,12),(14,(6,7))),(4,(1,(9,10)))),((2,11),(5,(8,(13,15))))),16);
(((((6,14),(7,(3,12))),((2,11),(15,(5,(8,13))))),(4,(1,(9,10)))),16);
(((((3,12),(14,(6,7))),((2,11),(5,(15,(8,13))))),(4,(1,(9,10)))),16);
(((((14,(6,7)),(3,12)),(4,(1,(9,10)))),((2,11),(5,(8,(13,15))))),16);
(((((2,11),(5,(13,(8,15)))),(4,(1,(9,10)))),((3,12),(6,(7,14)))),16);
((((((6,7),14),(3,12)),((2,11),(5,(15,(8,13))))),(4,(1,(9,10)))),16);
((((2,11),(5,(8,(13,15)))),((4,(1,(9,10))),((3,12),(14,(6,7))))),16);
(((3,(12,(6,(7,14)))),((4,(1,(9,10))),((2,11),(5,(13,(8,15)))))),16);
((((4,((3,12),(14,(6,7)))),((2,11),(5,(8,(13,15))))),(1,(9,10))),16);
(((((5,(8,13)),15),(2,11)),((4,(1,(9,10))),((3,12),(14,(6,7))))),16);
((((((8,(13,15)),5),(2,11)),((3,12),(14,(6,7)))),(4,(1,(9,10)))),16);
(((((((8,13),15),5),(2,11)),(4,(1,(9,10)))),((3,12),(14,(6,7)))),16);
((((((15,(8,13)),5),(2,11)),((3,12),(6,(7,14)))),(4,(1,(9,10)))),16);
((((((8,15),13),5),(2,11)),(((3,12),(14,(6,(7,9)))),(4,(1,10)))),16);
(((((2,11),(5,(13,(8,15)))),(4,(1,10))),((3,12),(14,(6,(7,9))))),16);
((((2,11),(5,(15,(8,13)))),(((3,12),(14,(6,7))),(4,(1,(9,10))))),16);
((((2,11),(5,(13,(8,15)))),(((3,12),(7,(6,14))),(4,(1,(9,10))))),16);
((((4,(1,(9,10))),((2,11),(5,(13,(8,15))))),((3,12),(14,(6,7)))),16);
((((4,(1,(9,10))),((3,12),(7,(6,14)))),(11,(2,(5,(15,(8,13)))))),16);
(((((7,(6,14)),(3,12)),(4,(1,(9,10)))),((2,11),(5,(15,(8,13))))),16);
((((4,(1,(9,10))),((3,12),(14,(6,7)))),((2,11),(5,(13,(8,15))))),16);
((((((13,(8,15)),5),(2,11)),(4,(1,(9,10)))),((3,12),(14,(6,7)))),16);
((((5,(8,(13,15))),(2,11)),(((14,(6,7)),(3,12)),(4,(1,(9,10))))),16);
((((((14,(6,7)),(3,12)),(4,(1,(9,10)))),(5,(2,11))),(8,(13,15))),16);
((((2,11),(5,(13,(8,15)))),(((3,12),(14,(6,7))),(4,(1,(9,10))))),16);
((((2,11),(5,(13,(8,15)))),(((3,12),(7,(6,14))),(4,(10,(1,9))))),16);
((((((14,(6,7)),(3,12)),(1,(9,10))),((2,11),(5,(15,(8,13))))),4),16);
((((2,11),(5,(13,(8,15)))),(((3,12),(14,(6,7))),(4,(1,(9,10))))),16);
((((3,(12,(14,(6,7)))),(4,(1,(9,10)))),((2,11),(5,(15,(8,13))))),16);
(((((1,(9,10)),((3,12),(14,(6,7)))),((2,11),(5,(13,(8,15))))),4),16);
((((4,(1,(9,10))),((14,(6,7)),(3,12))),((2,11),(5,(8,(13,15))))),16);
(((((2,11),(5,(8,(13,15)))),(4,((3,12),(7,(6,14))))),(1,(9,10))),16);
(((((3,12),(6,(7,14))),(4,(1,(9,10)))),((2,11),(5,(13,(15,8))))),16);
(((((((13,15),8),5),(2,11)),((3,12),(14,(6,7)))),(4,(1,(9,10)))),16);
((((5,((2,11),(13,(8,15)))),((3,12),(14,(6,7)))),(4,(1,(9,10)))),16);
(((((6,(14,(7,9))),(3,12)),(4,(1,10))),((2,11),(5,(8,(13,15))))),16);
((((((5,15),(8,13)),(2,11)),(4,(1,(9,10)))),((3,12),(14,(6,7)))),16);
(((((3,12),(14,(6,7))),(4,(1,(9,10)))),((2,11),(5,(13,(8,15))))),16);
(((((2,11),(5,(15,(8,13)))),((3,12),(14,(6,7)))),(4,(1,(9,10)))),16);
(((((14,(6,7)),(3,12)),(4,(1,(9,10)))),((2,11),(5,(8,(13,15))))),16);
(((((13,5),(8,15)),(2,11)),(((3,12),(14,(6,(7,9)))),(4,(1,10)))),16);
((((2,11),(5,(13,(8,15)))),((4,(1,(9,10))),((3,12),(14,(6,7))))),16);
(((((3,12),(14,(6,7))),(4,(1,(9,10)))),((2,11),(5,(13,(8,15))))),16);
((((((9,10),1),4),((14,(6,7)),(3,12))),((2,11),(5,(8,(13,15))))),16);
(((((14,(6,7)),(4,(1,(9,10)))),(3,12)),((2,11),(5,(15,(8,13))))),16);
((((5,(15,(8,13))),(2,11)),(((6,(7,14)),(3,12)),(4,(1,(9,10))))),16);
((((2,11),(5,(15,(8,13)))),((4,(1,(9,10))),((3,12),(14,(6,7))))),16);
(((5,((2,11),(13,(8,15)))),(4,((1,(9,10)),((3,12),(14,(6,7)))))),16);
(((((3,12),(14,(6,7))),(4,(1,(9,10)))),((2,11),(5,(8,(13,15))))),16);
((((3,12),(14,(6,7))),((4,(1,(9,10))),((2,11),(5,(13,(8,15)))))),16);
(((((3,12),(14,(6,7))),(4,(1,(9,10)))),((2,11),(5,(13,(8,15))))),16);
(((((2,11),(5,(15,(8,13)))),(4,(1,(9,10)))),((3,12),(6,(7,14)))),16);
((((3,12),(6,(7,14))),((4,(1,(9,10))),((2,11),(5,(8,(15,13)))))),16);
((((4,(1,(9,10))),((3,12),(6,(7,14)))),((2,11),(5,(13,(8,15))))),16);
(((((13,5),(8,15)),(2,11)),(((3,12),((6,7),(9,14))),(4,(1,10)))),16);
((((5,8),((13,15),(2,11))),(((14,(6,(7,9))),(3,12)),(4,(1,10)))),16);
(((((9,10),(4,1)),(5,((2,11),(8,(13,15))))),((3,12),(6,(7,14)))),16);
((((2,11),(5,(13,(8,15)))),(((6,(7,14)),(3,12)),(4,(1,(9,10))))),16);
(((((2,11),(5,(15,(8,13)))),((3,12),(14,(6,7)))),(4,(1,(9,10)))),16);
((((4,(1,(9,10))),((2,11),(5,(8,(13,15))))),((3,12),(14,(6,7)))),16);
((((2,11),(5,(15,(8,13)))),(((3,12),(14,(6,7))),(4,(1,(9,10))))),16);
((((8,(13,15)),(5,(2,11))),(((14,(6,7)),(3,12)),(4,(1,(9,10))))),16);
((((2,11),(5,(8,(13,15)))),(((3,12),(14,(6,7))),(4,(1,(9,10))))),16);
(((((3,12),(14,(6,7))),(4,(1,(9,10)))),((2,11),(5,(8,(13,15))))),16);
((((5,(13,(8,15))),(2,11)),(((3,12),(6,(7,14))),(4,(1,(9,10))))),16);
(((((15,(8,13)),5),(2,11)),(((3,12),(7,(6,14))),(4,(1,(9,10))))),16);
((((4,(1,(9,10))),(14,((6,7),(3,12)))),((2,11),(5,(15,(8,13))))),16);
((((((6,(7,9)),14),(3,12)),((2,11),(5,(13,(8,15))))),(4,(1,10))),16);
(((((14,(6,7)),(3,12)),((2,11),(5,(8,(13,15))))),(4,(1,(9,10)))),16);
((((4,(10,(1,9))),((6,(7,14)),(3,12))),((2,11),(5,(8,(13,15))))),16);
((((14,(6,(7,9))),(3,12)),(((2,11),(5,(15,(8,13)))),(4,(1,10)))),16);
((((4,(1,(9,10))),((3,12),(14,(6,7)))),((2,11),(5,(15,(8,13))))),16);
(((((2,11),(5,(13,(8,15)))),(4,(1,(9,10)))),((3,12),(14,(6,7)))),16);
(((((2,11),(5,(15,(8,13)))),(14,((6,7),(3,12)))),(4,(1,(9,10)))),16);
((((3,12),(14,(6,7))),((4,(1,(9,10))),((2,11),(5,(8,(13,15)))))),16);
((((2,11),(5,(8,(13,15)))),(((3,12),(6,(14,(7,9)))),(4,(1,10)))),16);
((((2,11),(5,(13,(8,15)))),((4,(1,(9,10))),((3,12),(14,(6,7))))),16);
((((((15,(8,13)),5),(2,11)),((3,12),(14,(6,7)))),(4,(1,(9,10)))),16);
((((4,(1,(9,10))),((3,12),(14,(6,7)))),((2,11),(5,(8,(13,15))))),16);
(((((6,(7,14)),(3,12)),((2,11),(5,(8,(13,15))))),(4,(1,(9,10)))),16);
(((4,(1,(9,10))),(((3,12),(14,(6,7))),((2,11),(5,(15,(8,13)))))),16);
(((((14,(6,7)),(3,12)),(4,(1,(9,10)))),((2,11),(5,(15,(8,13))))),16);
((((15,(8,13)),(5,(2,11))),(((3,12),(14,(6,7))),(4,(1,(9,10))))),16);
(((4,(1,(9,10))),(((3,12),(7,(6,14))),((2,11),(5,(13,(8,15)))))),16);
((((((8,13),15),5),(2,11)),(((3,12),(6,(7,14))),(4,(1,(9,10))))),16);
(((((3,12),(14,(6,7))),(4,(1,(9,10)))),((2,11),(5,(8,(13,15))))),16);
(((((9,(6,7)),14),(3,12)),((4,(1,10)),((2,11),(5,(8,(13,15)))))),16);
((((2,11),(5,(15,(8,13)))),(((3,12),(14,(6,7))),(4,(10,(1,9))))),16);
(((((1,(9,10)),4),((3,12),(6,(7,14)))),((2,11),(5,(13,(8,15))))),16);
(((((3,12),(14,(6,7))),(4,(1,(9,10)))),((2,11),(5,(15,(13,8))))),16);
(((((3,12),(6,(7,14))),(4,(1,(9,10)))),((2,11),(5,(13,(8,15))))),16);
((((((13,15),8),5),(2,11)),(((3,12),(14,(6,7))),(4,(1,(9,10))))),16);
((((15,(5,(8,13))),(2,11)),(((14,(6,7)),(3,12)),(4,(1,(9,10))))),16);
(((((3,12),(14,(6,7))),((2,11),(5,(8,(13,15))))),(4,(1,(9,10)))),16);
(((((13,(8,15)),5),(2,11)),(((3,12),(14,(6,7))),(4,(1,(9,10))))),16);
((((3,12),(14,(6,7))),((4,(1,(9,10))),((2,11),(5,(8,(13,15)))))),16);
(((((3,12),((7,9),(6,14))),(4,(1,10))),((2,11),(5,(8,(13,15))))),16);
((((5,(13,(8,15))),(((3,12),(14,(6,7))),(9,(4,(1,10))))),(2,11)),16);
(((((5,(13,(8,15))),(2,11)),((3,12),(6,(7,14)))),(4,(1,(9,10)))),16);
(((((2,11),(5,(15,(8,13)))),(4,(1,10))),((3,12),(14,(6,(7,9))))),16);
((((5,(8,(13,15))),(2,11)),((4,(1,(9,10))),((3,12),(14,(6,7))))),16);
((((2,11),(5,(13,(8,15)))),(((3,12),(14,(7,6))),(4,(1,(9,10))))),16);
((((4,(1,(9,10))),((3,12),(7,(6,14)))),((2,11),(5,(8,(13,15))))),16);
(((((3,12),(14,(6,7))),(4,(1,(9,10)))),((2,11),(5,(13,(8,15))))),16);
(((((3,12),(6,(7,14))),(4,(1,(9,10)))),((2,11),(5,(13,(8,15))))),16);
((((((7,(6,9)),14),(3,12)),(4,(1,10))),((5,(8,(13,15))),(2,11))),16);
(((((3,12),(14,(6,7))),(5,((2,11),(13,(8,15))))),(1,(4,(9,10)))),16);
(((((6,7),(14,(3,12))),(4,(1,(9,10)))),((2,11),(5,(13,(8,15))))),16);
(((((3,12),(14,(6,7))),((2,11),(5,(13,(8,15))))),(4,(1,(9,10)))),16);
((((3,12),(14,(6,7))),((4,(1,(9,10))),((5,(13,15)),(8,(2,11))))),16);
((((1,4),((2,11),(5,(15,(8,13))))),((9,10),((3,12),(14,(6,7))))),16);
(((((3,12),(14,((7,9),6))),((13,(8,15)),(5,(2,11)))),(4,(1,10))),16);
(((((3,12),(14,(6,7))),(4,(1,(9,10)))),((2,11),(5,(13,(8,15))))),16);
((((4,(1,(9,10))),((3,12),(14,(6,7)))),((2,11),(5,(13,(8,15))))),16);
((((6,7),(14,(3,12))),((4,(1,(9,10))),((2,11),(5,(13,(8,15)))))),16);
(((4,(1,(9,10))),(((14,(6,7)),(3,12)),((2,11),(5,(15,(8,13)))))),16);
((((5,(13,(8,15))),(2,11)),(((14,(6,7)),(3,12)),(4,(1,(9,10))))),16);
((((4,(1,10)),((7,(6,9)),(14,(3,12)))),((2,11),(5,(8,(13,15))))),16);
((((2,11),(5,(13,(8,15)))),((4,(1,10)),((3,12),(6,(14,(7,9)))))),16);
(((((3,12),(14,(6,7))),((2,11),(5,(8,(13,15))))),(4,(1,(9,10)))),16);
((((((6,14),7),(3,12)),(4,(1,(9,10)))),((2,11),(5,(15,(8,13))))),16);
((((4,(1,(9,10))),((2,11),(5,(13,(8,15))))),((3,12),(14,(6,7)))),16);
((((4,(1,(9,10))),((3,12),(14,(6,7)))),((2,11),(5,(13,(15,8))))),16);
(((((14,(6,7)),(3,12)),(4,(1,(9,10)))),(5,((2,11),(8,(15,13))))),16);
((((8,(5,(13,15))),(2,11)),(((3,12),(14,(6,7))),(4,(1,(9,10))))),16);
((((((13,15),8),5),(2,11)),(((3,12),(14,(6,7))),(4,(1,(9,10))))),16);
((((2,11),(5,(13,(8,15)))),(((3,12),(14,(6,7))),(4,(10,(1,9))))),16);
((((2,11),(5,(15,(8,13)))),((4,(1,(9,10))),((7,14),(6,(3,12))))),16);
(((((13,(8,15)),5),(2,11)),((4,(1,(9,10))),((14,(6,7)),(3,12)))),16);
(((4,(((2,11),((8,15),(5,13))),((3,12),(6,(7,14))))),(1,(9,10))),16);
((((5,(15,(8,13))),(2,11)),(((3,12),(14,(6,7))),(4,(1,(9,10))))),16);
(((4,(1,(9,10))),(((2,11),(5,(8,(13,15)))),((3,12),(14,(6,7))))),16);
((((5,((2,11),(15,(13,8)))),(4,(1,(9,10)))),((3,12),(7,(6,14)))),16);
(((((2,11),((8,15),(5,13))),(1,(4,(9,10)))),(3,(12,(14,(6,7))))),16);
((((4,(1,(9,10))),((2,11),(5,(13,(8,15))))),((3,12),(14,(6,7)))),16);
(((((14,(6,(7,9))),(3,12)),(4,(1,10))),((2,11),(5,(15,(8,13))))),16);
(((4,(1,(9,10))),(((3,12),(14,(6,7))),((2,11),(5,(13,(8,15)))))),16);
(((((3,12),(14,(7,(6,9)))),((2,11),(5,(15,(8,13))))),(4,(1,10))),16);
(((4,(1,(9,10))),(((14,(6,7)),(3,12)),((2,11),(5,(15,(8,13)))))),16);
(((((5,(13,(8,15))),(2,11)),(4,(1,10))),((3,12),(14,(6,(7,9))))),16);
(((4,((3,12),(7,(6,14)))),((1,(9,10)),((2,11),(5,(15,(8,13)))))),16);
((((4,(1,(9,10))),((3,12),(7,(6,14)))),((2,11),(5,(8,(13,15))))),16);
((((((5,(13,15)),8),(2,11)),((3,12),(6,(14,7)))),(4,(1,(9,10)))),16);
((((2,11),(5,(13,(8,15)))),(((3,12),(14,(6,7))),(4,(9,(1,10))))),16);
((((4,(1,(9,10))),((14,(6,7)),(3,12))),((2,11),(5,(8,(13,15))))),16);
((((4,(1,10)),((2,11),(5,(8,(13,15))))),((14,(6,(7,9))),(3,12))),16);
(((1,(4,(9,10))),(((3,12),(6,(7,14))),((2,11),(5,(13,(8,15)))))),16);
((((((8,13),15),5),(2,11)),(((14,(6,7)),(3,12)),(4,(1,(9,10))))),16);
(((((3,12),(7,(6,14))),(4,(1,(9,10)))),((2,11),(5,(13,(8,15))))),16);
(((((3,12),(14,(6,7))),(4,(1,(9,10)))),((2,11),(5,(8,(13,15))))),16);
(((((3,12),(14,(6,7))),(4,(1,(9,10)))),((2,11),(5,(8,(13,15))))),16);
((((((9,(6,7)),14),(3,12)),(4,(1,10))),((2,11),(5,(15,(8,13))))),16);
((((4,(1,(9,10))),((3,12),(6,(14,7)))),((5,(8,15)),(13,(2,11)))),16);
((((4,(1,10)),((3,12),((6,9),(7,14)))),((2,11),(5,(8,(13,15))))),16);
(((((2,11),(5,(13,(8,15)))),(4,(1,(9,10)))),(14,((6,7),(3,12)))),16);
((((4,(1,(9,10))),((2,11),(5,(15,(8,13))))),((3,12),(14,(6,7)))),16);
((((15,(8,13)),(5,(2,11))),(((3,12),(14,(6,7))),(4,(1,(9,10))))),16);
(((((5,(8,(13,15))),(2,11)),(4,(1,(9,10)))),((3,12),(7,(6,14)))),16);
(((((14,(6,7)),(3,12)),(4,(1,(9,10)))),((2,11),(5,(13,(15,8))))),16);
(((((8,(13,15)),5),(2,11)),(((3,12),(14,(6,7))),((9,10),(4,1)))),16);
((((4,(1,10)),((2,11),(5,(15,(8,13))))),((3,12),(6,((7,9),14)))),16);
((((4,(1,(9,10))),((3,12),(14,(6,7)))),((2,11),(5,(13,(8,15))))),16);
(((4,(1,(9,10))),(((3,12),(14,(6,7))),((2,11),(5,(13,(8,15)))))),16);
(((((3,12),(6,(7,14))),((2,11),(5,(13,(8,15))))),(4,(1,(9,10)))),16);
(((((((13,8),15),5),(2,11)),(4,(1,(9,10)))),((3,12),(7,(6,14)))),16);
((((((9,(7,6)),14),(3,12)),(4,(1,10))),((2,11),(5,(8,(13,15))))),16);
(((((3,12),(14,(6,7))),((2,11),(5,(15,(8,13))))),(4,(1,(9,10)))),16);
(((((3,12),((6,7),14)),(4,(1,(9,10)))),((2,11),(5,(8,(13,15))))),16);
((((2,11),(5,(15,(8,13)))),(((3,12),(14,(6,7))),(4,(1,(9,10))))),16);
((((4,(10,(9,1))),(3,(12,(7,(6,14))))),((2,11),(5,(13,(8,15))))),16);
(((((4,(1,9)),10),((14,(6,7)),(3,12))),((2,11),(5,(15,(8,13))))),16);
((((14,(6,7)),(3,12)),((4,(1,(9,10))),((2,11),(5,(8,(13,15)))))),16);
((((((1,10),9),4),((3,12),(14,(6,7)))),((2,11),(5,(8,(13,15))))),16);
((((2,11),(5,(13,(15,8)))),(((3,12),(14,(6,7))),(4,(1,(9,10))))),16);
(((4,(1,(9,10))),(((2,11),(5,(13,(8,15)))),((3,12),(14,(6,7))))),16);
((((4,(1,(9,10))),((3,12),(14,(6,7)))),((2,11),(5,(8,(13,15))))),16);
((((2,11),(5,(15,(8,13)))),(((3,12),(6,(7,14))),(4,(1,(9,10))))),16);
((((((8,(13,15)),5),(2,11)),(4,(1,(9,10)))),((3,12),(14,(6,7)))),16);
((((6,(14,(7,9))),(3,12)),((4,(1,10)),((2,11),(5,(15,(8,13)))))),16);
((((4,(1,(9,10))),((2,11),(5,(8,(13,15))))),(14,((3,12),(6,7)))),16);
(((((2,11),(5,(8,(13,15)))),((3,12),(6,(14,7)))),(4,(1,(9,10)))),16);
((((((15,(8,13)),5),(2,11)),(4,(1,(9,10)))),((14,(6,7)),(3,12))),16);
(((((4,(1,(9,10))),((7,(6,14)),(3,12))),(2,11)),(5,(13,(8,15)))),16);
(((((7,(6,14)),(3,12)),(4,(1,(9,10)))),((2,11),(5,(8,(13,15))))),16);
(((4,(1,(9,10))),(((3,12),(14,(6,7))),((2,11),(5,(15,(8,13)))))),16);
((((2,11),(5,(13,(8,15)))),(((3,12),(14,(6,7))),(4,(1,(9,10))))),16);
((((4,(1,(9,10))),((3,12),(14,(6,7)))),((2,11),(5,(8,(15,13))))),16);
((((((13,(15,8)),(2,11)),5),((6,(7,14)),(3,12))),(4,(1,(9,10)))),16);
(((((13,15),(5,8)),(2,11)),(((3,12),(6,(7,14))),(4,(1,(9,10))))),16);
(((((8,(13,15)),5),(2,11)),(((3,12),(14,(9,(6,7)))),(4,(1,10)))),16);
(((((2,11),(15,(8,13))),5),(((3,12),(14,(6,7))),(4,(1,(9,10))))),16);
(((((2,11),(13,(8,15))),5),(((3,12),(14,(6,7))),(4,(1,(9,10))))),16);
(((((3,12),(14,(6,7))),(4,(1,(9,10)))),((2,11),(5,(8,(13,15))))),16);
((((((8,15),13),5),(2,11)),(((3,12),(14,(6,7))),(4,(1,(9,10))))),16);
(((((5,(2,11)),(15,(8,13))),(4,(1,(9,10)))),((3,12),(7,(6,14)))),16);
(((((9,(1,10)),4),((3,12),(6,(7,14)))),((2,11),(5,(15,(8,13))))),16);
((((2,11),(5,(8,(13,15)))),((4,(1,10)),((3,12),(14,(6,(7,9)))))),16);
(((4,(1,(9,10))),(((3,12),(14,(6,7))),((2,11),(5,(15,(8,13)))))),16);
(((((3,12),(6,(7,14))),((2,11),(5,(13,(8,15))))),(4,(1,(9,10)))),16);
((((2,11),((8,13),(5,15))),((4,(1,(9,10))),((3,12),(14,(6,7))))),16);
((((4,(1,10)),((2,11),(5,(13,(8,15))))),((3,12),(7,(14,(6,9))))),16);
((((3,12),((14,(6,(7,9))),(4,(1,10)))),((2,11),(5,(15,(8,13))))),16);
((((((2,11),(13,15)),(5,8)),((3,12),(14,(6,7)))),(4,(1,(9,10)))),16);
((((4,(1,10)),(3,((7,(14,(6,9))),12))),((8,(13,15)),((2,11),5))),16);
(((((14,(6,7)),(3,12)),((2,11),(5,(8,(13,15))))),(4,(1,(9,10)))),16);
(((((3,12),(6,(7,14))),(4,(1,(9,10)))),((2,11),(5,(15,(8,13))))),16);
(((((2,11),(5,(8,(13,15)))),(4,(1,(9,10)))),((3,12),(14,(6,7)))),16);
(((((3,12),(14,(6,(7,9)))),(4,(1,10))),((2,11),(5,(13,(8,15))))),16);
(((((3,12),(6,(7,14))),(4,(1,(9,10)))),((2,11),(5,(15,(8,13))))),16);
(((((3,12),(14,(6,7))),((2,11),(5,(13,(8,15))))),(4,(1,(9,10)))),16);
(((((3,12),(14,(6,7))),(4,(1,(9,10)))),((2,11),(5,(8,(15,13))))),16);
((((4,(1,(9,10))),((2,11),(5,(13,(8,15))))),((3,12),(14,(6,7)))),16);
(((((8,(13,15)),5),(2,11)),((4,(1,(9,10))),((7,(6,14)),(3,12)))),16);
(((((3,12),(14,(6,7))),(4,(1,(9,10)))),((2,11),(5,(15,(8,13))))),16);
(((4,(1,(9,10))),(((14,(6,7)),(3,12)),((2,11),(5,(8,(13,15)))))),16);
(((((2,11),(5,(8,(13,15)))),((3,12),(6,(7,14)))),(4,(9,(1,10)))),16);
(((((8,(13,15)),(11,(5,2))),((6,(7,14)),(3,12))),(4,(1,(9,10)))),16);
((((4,(1,(9,10))),((2,11),(5,(13,(8,15))))),((6,(7,14)),(3,12))),16);
((((13,(5,(8,15))),(2,11)),(((3,12),(14,(6,7))),(4,(1,(9,10))))),16);
((((((8,15),13),5),(2,11)),(((14,(6,(7,9))),(3,12)),(4,(1,10)))),16);
(((4,(1,10)),(((3,12),((6,9),(7,14))),((2,11),(5,(13,(8,15)))))),16);
(((((2,11),(5,(15,(8,13)))),(4,(1,(9,10)))),((3,12),(14,(6,7)))),16);
(((((14,(6,(7,9))),(3,12)),(4,(1,10))),((2,11),(5,(13,(8,15))))),16);
(((((1,(10,9)),4),((3,12),(14,(6,7)))),((2,11),(5,(13,(8,15))))),16);
(((((((13,15),8),5),(2,11)),((3,12),(14,(6,7)))),(1,(4,(9,10)))),16);
((((4,(1,(9,10))),((3,12),(14,(6,7)))),((2,11),(5,(8,(13,15))))),16);
(((((5,15),(8,13)),(2,11)),((4,(1,(9,10))),((3,12),(14,(6,7))))),16);
((((2,11),(5,(8,(13,15)))),(((3,12),(7,(6,14))),(4,(1,(9,10))))),16);
((((((8,13),15),5),(2,11)),(((3,12),(14,(6,(7,9)))),(4,(1,10)))),16);
((((5,(15,(8,13))),(2,11)),(((3,12),(14,(6,7))),(4,(1,(9,10))))),16);
((((7,(6,14)),(3,12)),(((2,11),(5,(8,(13,15)))),(4,(1,(9,10))))),16);
((((4,(1,(9,10))),((3,12),(14,(6,7)))),((2,11),(5,(15,(8,13))))),16);
((((((3,12),(14,(6,7))),(4,(1,(9,10)))),(2,11)),(5,(15,(8,13)))),16);
(((((8,(13,15)),5),(2,11)),(((3,12),(7,(14,6))),(4,(1,(9,10))))),16);
((((((13,(15,8)),5),(2,11)),((3,12),(14,(6,7)))),(4,(1,(9,10)))),16);
(((((2,11),(15,(8,13))),5),(((3,12),(14,(6,7))),(4,(1,(9,10))))),16);
(((((((8,15),13),5),(2,11)),(4,(1,(9,10)))),((7,(6,14)),(3,12))),16);
((((4,(1,(9,10))),((2,11),(5,(15,(8,13))))),((3,12),(14,(6,7)))),16);
(((((2,11),(5,(15,(8,13)))),(4,(1,(9,10)))),((14,(6,7)),(3,12))),16);
(((((15,(8,13)),5),(2,11)),((4,(1,(9,10))),((3,12),(14,(6,7))))),16);
((((((8,(13,15)),5),(2,11)),(4,(1,10))),((3,12),(14,(6,(7,9))))),16);
(((((9,10),(1,4)),((2,11),(5,(8,(13,15))))),((3,12),(14,(6,7)))),16);
((((5,(15,(8,13))),(2,11)),(((3,12),(14,(6,7))),(4,(1,(9,10))))),16);
(((((3,12),((7,9),(6,14))),(4,(1,10))),((2,11),(5,(8,(13,15))))),16);
((((8,(5,(13,15))),(2,11)),(((14,(6,(7,9))),(3,12)),(4,(1,10)))),16);
(((((1,(9,10)),4),((2,11),(5,(15,(8,13))))),((3,12),(14,(6,7)))),16);
((((2,11),(5,(8,(13,15)))),(((3,12),(6,(14,(7,9)))),(4,(1,10)))),16);
((((((2,11),(8,(13,15))),5),((3,12),(14,(6,7)))),(4,(1,(9,10)))),16);
(((1,(4,(9,10))),(((2,11),(5,(13,(8,15)))),((7,(6,14)),(3,12)))),16);
(((5,((2,11),(8,(13,15)))),(((14,(6,7)),(3,12)),(4,(1,(9,10))))),16);
(((((3,12),(14,(6,7))),((2,11),(5,(15,(8,13))))),(4,(1,(9,10)))),16);
((((((13,(8,15)),5),(2,11)),(4,(1,(9,10)))),((3,12),(6,(7,14)))),16);
(((4,(1,(9,10))),(((3,12),(14,(6,7))),((2,11),(5,(8,(13,15)))))),16);
((((2,11),(5,(8,(13,15)))),((4,(1,(9,10))),((3,12),(14,(6,7))))),16);
((((15,(5,(8,13))),(2,11)),(((3,12),(14,(6,7))),(4,(1,(9,10))))),16);
((((((8,15),13),5),(2,11)),((4,(1,(9,10))),((3,12),(7,(6,14))))),16);
(((((3,12),(14,(6,7))),(4,(1,(9,10)))),((2,11),(5,(8,(13,15))))),16);
(((((3,12),(14,(6,7))),((2,11),(5,(8,(13,15))))),(4,(1,(9,10)))),16);
((((2,11),(5,(13,(8,15)))),(((3,12),(14,(6,7))),(4,(1,(9,10))))),16);
((((((15,(8,13)),5),(2,11)),(4,(1,(9,10)))),((14,(6,7)),(3,12))),16);
((((2,11),(5,(15,(8,13)))),(((3,12),(14,(6,7))),(4,(1,(9,10))))),16);
((((4,(1,(9,10))),((2,11),(5,(8,(13,15))))),((3,12),(14,(6,7)))),16);
(((((5,(13,(8,15))),(2,11)),((3,12),(14,(6,7)))),(4,(1,(9,10)))),16);
((((4,(1,(9,10))),((2,11),(5,(13,(8,15))))),((3,12),(14,(6,7)))),16);
(((((3,12),(14,(7,(6,9)))),(4,(1,10))),((2,11),(5,(8,(13,15))))),16);
(((((6,14),(7,9)),(3,12)),((4,(1,10)),((15,(8,13)),(5,(2,11))))),16);
(((((4,(1,(9,10))),((6,(7,14)),(3,12))),5),((15,(8,13)),(2,11))),16);
(((((2,11),(5,(8,(13,15)))),(4,(1,10))),((14,(6,(7,9))),(3,12))),16);
(((((3,12),(7,(6,14))),(4,(1,(9,10)))),((2,11),(5,(13,(8,15))))),16);
((((2,11),(5,(13,(8,15)))),((4,(1,(9,10))),((3,12),(14,(6,7))))),16);
(((((14,(6,(7,9))),(3,12)),(4,(1,10))),((2,11),(5,(13,(8,15))))),16);
(((((2,11),(5,(15,(8,13)))),((3,12),(14,(7,(6,9))))),(4,(1,10))),16);
(((((13,(8,15)),(5,(2,11))),((3,12),(14,(6,7)))),(4,(1,(9,10)))),16);
((((((7,9),(6,14)),(3,12)),(4,(1,10))),((8,(13,15)),(5,(2,11)))),16);
((((4,(1,10)),((2,11),(5,(15,(8,13))))),((3,12),((6,9),(7,14)))),16);
((((5,(8,(13,15))),(2,11)),(((3,12),(6,(14,(7,9)))),(4,(1,10)))),16);
((((2,11),(5,(13,(8,15)))),(((14,(6,7)),(3,12)),(4,(1,(9,10))))),16);
(((((2,11),(15,(8,13))),5),(((3,12),(14,(6,7))),(4,(1,(9,10))))),16);
((((2,11),(5,(15,(8,13)))),(((3,12),(14,(6,7))),(4,(1,(9,10))))),16);
(((((2,11),(5,(15,(8,13)))),(4,(1,(9,10)))),((3,12),(14,(6,7)))),16);
((((4,(1,(9,10))),((2,11),(5,(15,(8,13))))),((7,(6,14)),(3,12))),16);
(((((2,11),(5,(13,(8,15)))),(4,((3,12),(14,(6,7))))),(1,(9,10))),16);
(((((((7,9),6),14),(3,12)),(4,(1,10))),(5,((15,(8,13)),(2,11)))),16);
((((2,11),(5,(8,(13,15)))),(((3,12),(14,(6,7))),(4,(1,(9,10))))),16);
(((((14,(6,7)),(3,12)),(4,(1,(9,10)))),((8,(13,15)),(5,(2,11)))),16);
((((13,(8,15)),(5,(2,11))),(((3,12),(14,(6,7))),(4,(1,(9,10))))),16);
(((((5,15),(8,13)),(2,11)),(((3,12),(7,(6,14))),(4,(1,(9,10))))),16);
(((((3,12),(14,(9,(6,7)))),(4,(1,10))),((2,11),(5,(13,(8,15))))),16);
(((((8,(13,15)),5),(2,11)),(((3,12),(14,(6,(7,9)))),(4,(1,10)))),16);
((((4,(1,(9,10))),((2,11),(5,(8,(13,15))))),((3,12),(14,(6,7)))),16);
(((((5,(8,(13,15))),(2,11)),((3,12),(14,(6,7)))),(4,(10,(1,9)))),16);
(((((9,10),(1,4)),((14,(6,7)),(3,12))),((2,11),(5,(15,(8,13))))),16);
(((((3,12),(14,(6,7))),(4,(1,(9,10)))),((2,11),(5,(15,(8,13))))),16);
(((((1,(9,10)),4),((3,12),(14,(6,7)))),((2,11),(5,(15,(8,13))))),16);
(((((3,12),(14,(6,7))),(4,(9,(1,10)))),((2,11),(5,(8,(13,15))))),16);
((((4,(1,(9,10))),((2,11),(5,(13,(8,15))))),((3,12),(14,(6,7)))),16);
((((4,(1,(9,10))),((3,12),(14,(6,7)))),((2,11),(5,(15,(8,13))))),16);
((((2,11),(5,(13,(8,15)))),(((3,12),(7,(6,14))),(4,(1,(9,10))))),16);
((((5,(15,(8,13))),(((3,12),(7,(6,14))),(4,(1,(9,10))))),(2,11)),16);
((((((6,7),14),(3,12)),(4,(1,(9,10)))),((2,11),(5,(8,(13,15))))),16);
(((((6,14),(7,(3,12))),(4,(1,(9,10)))),((2,11),(5,(15,(8,13))))),16);
((((2,11),(5,(13,(8,15)))),(((3,12),(14,(6,7))),(4,(1,(9,10))))),16);
(((((3,12),(14,(6,7))),((2,11),(5,(15,(8,13))))),(4,(1,(9,10)))),16);
(((((3,12),(14,(6,7))),((2,11),(5,(13,(8,15))))),(4,(1,(9,10)))),16);
(((((((8,15),13),5),(2,11)),((14,(6,7)),(3,12))),(4,(1,(9,10)))),16);
(((((8,(13,15)),5),(2,11)),(((3,12),(14,(6,7))),(4,(1,(9,10))))),16);
(((((13,(8,15)),((2,11),5)),((3,12),((7,9),(6,14)))),(4,(1,10))),16);
(((((2,11),(5,(8,(13,15)))),(4,(1,(9,10)))),((14,(6,7)),(3,12))),16);
(((((3,12),(14,(6,(7,9)))),((2,11),(5,(13,(8,15))))),(4,(1,10))),16);
(((((3,12),(14,(6,(7,9)))),((5,(8,(13,15))),(1,(4,10)))),(2,11)),16);
(((((8,(13,15)),5),(2,11)),(((3,12),(14,(6,7))),(4,(1,(9,10))))),16);
((((4,(10,(1,9))),((3,12),(14,(6,7)))),((2,11),(5,(13,(8,15))))),16);
((((2,11),(5,(8,(13,15)))),(((3,12),(14,(6,7))),(4,(1,(9,10))))),16);
(((((14,(6,7)),(3,12)),(4,(1,(9,10)))),((2,11),(5,(15,(8,13))))),16);
(((((3,12),(14,(6,7))),(4,(1,(9,10)))),((2,11),(5,(15,(8,13))))),16);
((((5,(15,(8,13))),(2,11)),(((3,12),(14,(6,7))),(4,(1,(9,10))))),16);
((((((13,15),8),5),(2,11)),(((3,12),((7,9),(6,14))),(4,(1,10)))),16);
(((((14,(6,7)),(3,12)),(4,(1,(9,10)))),((2,11),(5,(13,(8,15))))),16);
(((((7,14),(6,(3,12))),(4,(1,(9,10)))),((2,11),(5,(15,(8,13))))),16);
(((((5,(13,15)),8),(2,11)),(((3,12),(14,(6,7))),(4,(1,(9,10))))),16);
(((((15,(8,13)),5),(2,11)),(((3,12),(7,(6,14))),(4,(1,(9,10))))),16);
((((1,(9,10)),(4,((3,12),(14,(6,7))))),((2,11),(5,(8,(13,15))))),16);
((((((8,13),15),5),(2,11)),(((3,12),(14,(6,7))),(4,(1,(9,10))))),16);
((((((14,7),6),(3,12)),(4,(10,(1,9)))),((2,11),(13,(5,(8,15))))),16);
((((3,12),(6,(14,(7,9)))),(((2,11),(5,(15,(8,13)))),(4,(1,10)))),16);
(((((3,12),(14,(6,7))),(4,(1,(9,10)))),((2,11),(5,(15,(8,13))))),16);
(((((((13,15),8),5),(2,11)),(4,(1,(9,10)))),((14,(6,7)),(3,12))),16);
((((((8,15),13),5),(2,11)),(((3,12),(14,(6,7))),(4,(1,(9,10))))),16);
(((((3,12),(14,(6,7))),(4,(1,(9,10)))),((2,11),(5,(8,(13,15))))),16);
((((((10,1),9),4),((2,11),(5,(15,(8,13))))),((3,12),(14,(6,7)))),16);
(((((5,(13,(8,15))),(2,11)),(4,(1,(9,10)))),(14,((6,7),(3,12)))),16);
(((((15,(13,8)),5),(2,11)),(((3,12),(7,(6,14))),(4,(1,(9,10))))),16);
(((((5,(8,(13,15))),(2,11)),(4,(1,(9,10)))),((3,12),(14,(6,7)))),16);
(((((14,(6,(7,9))),(3,12)),(4,(1,10))),((2,11),(5,(8,(13,15))))),16);
(((((2,11),(5,(8,(13,15)))),(4,(1,(9,10)))),((3,12),(14,(6,7)))),16);
((((4,(1,(9,10))),((3,12),(14,(6,7)))),((2,11),(5,(13,(8,15))))),16);
(((4,(1,(9,10))),(((3,12),((6,7),14)),((2,11),(5,(15,(8,13)))))),16);
(((((3,12),(14,(6,7))),(4,(1,(9,10)))),((2,11),(5,(8,(13,15))))),16);
(((((13,(8,15)),(5,(2,11))),((3,12),(14,(6,7)))),(4,(1,(9,10)))),16);
((((((8,13),15),5),(2,11)),(((6,(7,14)),(3,12)),(4,(1,(9,10))))),16);
(((((15,(5,(8,13))),(2,11)),((3,12),(7,(14,6)))),(4,(1,(9,10)))),16);
(((((1,(9,10)),4),((2,11),(5,(15,(8,13))))),((3,12),(7,(14,6)))),16);
((((1,(9,10)),((2,11),(5,(8,(13,15))))),(4,((3,12),(14,(6,7))))),16);
((((4,(1,(9,10))),((3,12),(14,(6,7)))),((2,11),(5,(8,(13,15))))),16);
((((4,((3,12),(7,(6,14)))),(1,(9,10))),((2,11),(5,(8,(13,15))))),16);
(((((3,12),(14,(6,7))),(4,(1,(9,10)))),((2,11),(5,(15,(8,13))))),16);
(((((3,12),(14,(6,7))),(4,(1,(9,10)))),((2,11),(5,(8,(13,15))))),16);
(((((14,(6,7)),(3,12)),(4,(1,(9,10)))),((2,11),(5,(8,(13,15))))),16);
(((((3,12),(14,(6,7))),((2,11),(5,(13,(8,15))))),(4,(1,(9,10)))),16);
((((2,11),(8,(5,(13,15)))),(((3,12),(14,(6,7))),(4,(1,(9,10))))),16);
((((((15,(8,13)),5),(2,11)),(4,(1,10))),((3,12),(7,(14,(6,9))))),16);
(((((13,(8,15)),5),(2,11)),(((3,12),(14,(6,7))),(4,(1,(9,10))))),16);
(((((15,(8,13)),5),(2,11)),((4,(1,(9,10))),((3,12),(14,(6,7))))),16);
((((3,12),(14,(6,7))),((4,(1,(9,10))),((2,11),(5,(15,(8,13)))))),16);
(((((4,(1,(9,10))),((3,12),(14,(6,7)))),(2,11)),(5,(8,(13,15)))),16);
(((((3,12),(14,(6,7))),((2,11),(5,(8,(13,15))))),(4,(1,(9,10)))),16);
(((((9,(6,7)),14),(3,12)),((4,(1,10)),((2,11),(5,(8,(13,15)))))),16);
((((3,12),(6,(7,14))),((4,(1,(9,10))),((2,11),(5,(8,(13,15)))))),16);
(((5,((8,(13,15)),(2,11))),((4,(1,(9,10))),((3,12),(7,(6,14))))),16);
((((((15,(8,13)),5),(2,11)),((14,(6,7)),(3,12))),(4,(1,(9,10)))),16);
(((((3,12),(14,(6,7))),((2,11),(5,(13,(8,15))))),(4,(1,(9,10)))),16);
((((2,11),(5,(8,(13,15)))),(((3,12),(14,(6,7))),(4,(1,(9,10))))),16);
((((14,(6,7)),((3,12),(4,(1,(9,10))))),((2,11),(5,(8,(13,15))))),16);
(((((2,11),(5,(15,(8,13)))),(4,(1,10))),((14,(9,(6,7))),(12,3))),16);
(((((2,11),(5,(15,(8,13)))),((3,12),(6,(7,14)))),(4,(1,(9,10)))),16);
((((4,(1,(9,10))),((2,11),(5,(15,(8,13))))),((3,12),(14,(6,7)))),16);
(((((13,(8,15)),5),(2,11)),(((3,12),(6,(7,14))),(4,(1,(9,10))))),16);
(((((15,(8,13)),(5,(2,11))),((14,(6,7)),(3,12))),(4,(1,(9,10)))),16);
((((2,11),(5,(15,(8,13)))),(((3,12),(14,(6,7))),(4,(1,(9,10))))),16);
(((((2,11),(5,(15,(8,13)))),(4,(1,(9,10)))),((3,12),(6,(7,14)))),16);
(((((3,12),(14,(6,7))),((13,(8,15)),(5,(2,11)))),(1,(4,(9,10)))),16);
((((2,11),(5,(15,(8,13)))),(((6,(7,14)),(3,12)),(4,(1,(9,10))))),16);
((((((15,(8,13)),5),(2,11)),((3,12),(14,(6,7)))),(4,(1,(9,10)))),16);
((((4,(1,(9,10))),((2,11),(5,(13,(8,15))))),((3,12),(14,(6,7)))),16);
(((((3,12),(14,(6,(7,9)))),((2,11),(5,(13,(8,15))))),(1,(4,10))),16);
(((((7,(14,6)),(3,12)),(4,(1,(9,10)))),((2,11),(5,(8,(13,15))))),16);
((((((13,15),(5,8)),(2,11)),(4,(1,(9,10)))),((14,(6,7)),(3,12))),16);
((((4,(1,(9,10))),((2,11),(5,(13,(8,15))))),((3,12),(14,(6,7)))),16);
((((2,11),(5,(15,(8,13)))),(((14,(6,7)),(3,12)),(4,(1,(9,10))))),16);
(((((2,11),(5,(15,(8,13)))),(4,(1,(9,10)))),((3,12),(14,(6,7)))),16);
(((((7,(6,14)),(3,12)),((2,11),(5,(15,(8,13))))),(4,(1,(9,10)))),16);
(((5,((2,11),(8,(13,15)))),((4,(1,(9,10))),((6,(7,14)),(3,12)))),16);
((((2,11),(5,(13,(8,15)))),((4,(1,(9,10))),((3,12),(14,(6,7))))),16);
((((3,12),(14,(6,(7,9)))),(((2,11),(5,(8,(13,15)))),(4,(1,10)))),16);
(((11,(2,(5,(13,(8,15))))),((6,((7,14),(3,12))),(4,(1,(9,10))))),16);
((((((7,14),6),(3,12)),(4,(1,(9,10)))),((2,11),(5,(15,(8,13))))),16);
((((5,(8,(13,15))),((4,(1,(9,10))),((3,12),(14,(6,7))))),(2,11)),16);
((((2,11),(5,(15,(8,13)))),((4,(1,10)),((3,12),(14,(6,(7,9)))))),16);
(((((8,(13,15)),(2,11)),5),((4,(1,(9,10))),((3,12),(6,(7,14))))),16);
((((3,12),(7,(6,14))),((4,(1,(9,10))),((5,13),((8,15),(2,11))))),16);
(((((5,(8,(13,15))),(4,(1,(9,10)))),(2,11)),((3,12),(7,(6,14)))),16);
(((((3,12),(6,(7,14))),4),(((2,11),(5,(8,(13,15)))),(1,(9,10)))),16);
((((4,(1,(9,10))),((2,11),(5,(8,(13,15))))),((3,12),(14,(6,7)))),16);
(((((2,11),(5,(13,(8,15)))),(4,(1,(9,10)))),((3,12),(14,(6,7)))),16);
(((((13,15),(5,8)),(2,11)),(((3,12),(6,(7,14))),(4,(1,(9,10))))),16);
(((((2,11),(5,(8,(13,15)))),(4,(1,(9,10)))),((3,12),(14,(6,7)))),16);
((((4,(1,(9,10))),((2,11),(5,(15,(8,13))))),((3,12),(14,(6,7)))),16);
(((((2,11),(5,(8,(13,15)))),(4,(1,(9,10)))),((3,12),(14,(6,7)))),16);
(((((2,11),(5,(8,(13,15)))),(4,(1,(9,10)))),((3,12),(14,(6,7)))),16);
(((((3,12),(14,(6,(7,9)))),(4,(1,10))),((2,11),(5,(8,(13,15))))),16);
(((((13,(5,(8,15))),(2,11)),(4,(1,(9,10)))),((3,12),(7,(6,14)))),16);
(((((3,12),(14,(6,7))),((2,11),(5,(13,(15,8))))),(4,(1,(9,10)))),16);
((((((15,13),8),5),(2,11)),(((14,(6,7)),(3,12)),(4,(1,(9,10))))),16);
(((((3,12),(14,(6,7))),(1,(4,(9,10)))),((2,11),(5,(15,(8,13))))),16);
(((((3,12),(14,(6,(7,9)))),((2,11),(5,(15,(8,13))))),(1,(4,10))),16);
((((4,(1,(9,10))),((3,12),(14,(6,7)))),((2,11),(5,(8,(13,15))))),16);
(((((1,(9,10)),4),((3,12),(14,(6,7)))),((2,11),(5,(13,(8,15))))),16);
(((((2,11),(5,(8,(13,15)))),(4,(1,10))),((3,12),((6,9),(7,14)))),16);
(((((2,11),(5,(8,(13,15)))),(4,(1,(9,10)))),((3,12),(14,(6,7)))),16);
(((5,((2,11),(13,(8,15)))),((4,(1,10)),((3,12),(14,(6,(7,9)))))),16);
((((4,(1,(9,10))),((3,12),(14,(6,7)))),((2,11),(5,(13,(8,15))))),16);
((((4,(1,(9,10))),((2,11),(5,(8,(13,15))))),((3,12),(14,(6,7)))),16);
(((((3,12),(14,(6,7))),((2,11),(5,(8,(13,15))))),(4,(1,(9,10)))),16);
(((((2,11),(5,(15,(8,13)))),((3,12),(14,(6,7)))),(4,(1,(9,10)))),16);
((((4,(1,(9,10))),(5,((2,11),(15,(8,13))))),((3,12),(7,(6,14)))),16);
(((((2,11),(5,(13,(8,15)))),((3,12),(6,(7,14)))),(4,(1,(9,10)))),16);
((((2,11),(5,(8,(13,15)))),(((3,12),(14,(6,7))),(4,(1,(9,10))))),16);
(((((5,(15,(8,13))),(2,11)),((3,12),(14,(6,(7,9))))),(4,(1,10))),16);
(((((3,12),(14,(6,7))),(4,(1,(9,10)))),((2,11),(5,(15,(8,13))))),16);
((((2,11),(5,(15,(8,13)))),(((14,(6,7)),(3,12)),(4,(1,(9,10))))),16);
((((4,(1,(9,10))),((14,(6,7)),(3,12))),((2,11),(5,(15,(8,13))))),16);
(((((3,12),(14,(9,(6,7)))),(4,(1,10))),((2,11),(13,((8,15),5)))),16);
((((5,(2,11)),(8,(13,15))),(((7,(6,14)),(3,12)),(4,(1,(9,10))))),16);
(((((3,12),(6,(7,14))),(4,(1,(9,10)))),((2,11),(5,(15,(13,8))))),16);
(((((3,12),(6,(7,14))),((2,11),(5,(8,(13,15))))),(4,(1,(9,10)))),16);
((((2,11),(5,(15,(8,13)))),((4,(10,(1,9))),((14,(6,7)),(3,12)))),16);
(((((15,(13,8)),5),(2,11)),(((6,(7,14)),(3,12)),(4,(1,(9,10))))),16);
(((((3,12),(14,(6,7))),(4,(1,(9,10)))),((2,11),(5,(15,(8,13))))),16);
((((4,(1,(9,10))),((2,11),(5,(8,(13,15))))),((7,(6,14)),(3,12))),16);
((((((13,15),8),5),(2,11)),(((3,12),(14,(6,7))),(4,(1,(9,10))))),16);
(((((((13,15),8),5),(2,11)),(4,(1,(9,10)))),((3,12),(14,(6,7)))),16);
((((4,(1,(9,10))),((3,12),(14,(6,7)))),((2,11),(5,(8,(13,15))))),16);
((((((7,14),6),(3,12)),(4,(1,(9,10)))),((2,11),(5,(8,(13,15))))),16);
((((4,(9,(1,10))),((3,12),(14,(6,7)))),((2,11),((8,13),(5,15)))),16);
(((((3,12),(14,(6,7))),(4,(9,(1,10)))),(5,((2,11),(15,(8,13))))),16);
(((((2,11),(5,(8,(13,15)))),((3,12),(14,(9,(6,7))))),(4,(1,10))),16);
((((5,(2,11)),(13,(8,15))),(((3,12),(7,(6,14))),(4,(1,(9,10))))),16);
((((1,(9,10)),(4,((3,12),(14,(6,7))))),((2,11),(5,(13,(8,15))))),16);
((((4,(1,(9,10))),((3,12),(14,(6,7)))),((13,(8,15)),(5,(2,11)))),16);
(((((1,(9,10)),4),(12,(3,(14,(6,7))))),((2,11),(5,(13,(8,15))))),16);
(((((2,11),(5,(8,(13,15)))),((3,12),(14,(6,7)))),(4,(1,(9,10)))),16);
(((((3,12),(14,(6,7))),(4,(1,(9,10)))),((2,11),(5,(15,(8,13))))),16);
(((((15,(8,13)),(4,(1,(10,9)))),(5,(2,11))),((14,(6,7)),(3,12))),16);
((((2,11),(5,(15,(8,13)))),(((3,12),(14,(6,7))),(4,(1,(9,10))))),16);
(((((14,(6,7)),(3,12)),(5,((2,11),(15,(8,13))))),(4,(1,(9,10)))),16);
(((((3,12),(7,(6,14))),(1,(4,(9,10)))),((2,11),(5,(15,(8,13))))),16);
(((((5,(8,13)),15),(2,11)),(((3,12),(7,(6,14))),(4,(1,(9,10))))),16);
((((4,(1,(9,10))),((3,12),(14,(6,7)))),((2,11),(5,(15,(8,13))))),16);
((((4,(1,(9,10))),((2,11),(5,(8,(13,15))))),((3,12),(14,(6,7)))),16);
(((((2,11),(5,(13,(8,15)))),((9,10),(1,4))),((14,(6,7)),(3,12))),16);
((((4,(1,(9,10))),((3,12),(14,(6,7)))),((2,11),(5,(8,(13,15))))),16);
((((4,(1,(9,10))),((3,12),(7,(6,14)))),((2,11),(5,(13,(8,15))))),16);
(((((4,(1,(9,10))),((3,12),(14,(6,7)))),(11,(5,(8,(13,15))))),2),16);
(((4,(1,(9,10))),(((2,11),(5,(13,(8,15)))),((3,12),(7,(6,14))))),16);
((((((6,(7,9)),14),(3,12)),(4,(1,10))),((2,11),(5,(8,(13,15))))),16);
((((2,11),(5,(15,(8,13)))),(((3,12),(14,(6,7))),(4,(1,(9,10))))),16);
((((((13,15),8),5),(2,11)),(((3,12),(14,(6,7))),(4,(1,(9,10))))),16);
(((((3,12),(7,(6,14))),(4,(9,(1,10)))),((8,(13,15)),(5,(2,11)))),16);
((((5,(8,(13,15))),(2,11)),(((14,(6,7)),(3,12)),(4,(1,(9,10))))),16);
(((((3,12),(14,(6,(7,9)))),(4,(1,10))),((2,11),(5,(15,(8,13))))),16);
(((((14,(6,(7,9))),(3,12)),((2,11),(5,(15,(8,13))))),(4,(1,10))),16);
(((((13,(8,15)),5),(2,11)),(((3,12),(14,(6,7))),(4,(1,(9,10))))),16);
(((((3,12),(14,(6,7))),(4,(1,(9,10)))),((2,11),(5,(8,(13,15))))),16);
(((((14,(6,7)),(3,12)),((2,11),(5,(8,(13,15))))),(4,(1,(9,10)))),16);
(((4,(1,(9,10))),(((3,12),(14,(6,7))),((2,11),(5,(15,(8,13)))))),16);
((((5,(13,(8,15))),(2,11)),((4,(1,(9,10))),((3,12),(14,(6,7))))),16);
((((2,11),(5,(15,(8,13)))),((4,(1,(9,10))),(6,((7,14),(3,12))))),16);
((((3,12),(7,(6,14))),((4,(1,(9,10))),((2,11),(5,(13,(8,15)))))),16);
(((((8,(13,15)),5),(2,11)),(((3,12),(14,(6,7))),(4,(1,(9,10))))),16);
(((((((9,14),7),6),(3,12)),((2,11),(5,(15,(8,13))))),(4,(1,10))),16);
((((((7,14),(6,9)),(3,12)),((2,11),(5,(13,(8,15))))),(4,(1,10))),16);
(((((2,11),(5,(15,(8,13)))),(4,(1,(9,10)))),((3,12),(7,(6,14)))),16);
((((2,11),(5,(15,(8,13)))),(((14,(6,7)),(3,12)),(4,(1,(9,10))))),16);
((((5,(13,(15,8))),(2,11)),((4,(1,(9,10))),((3,12),(6,(7,14))))),16);
(((((3,12),(14,(6,7))),(5,((2,11),(15,(8,13))))),(4,(1,(9,10)))),16);
((((((9,(6,7)),14),(3,12)),(4,(1,10))),((2,11),(5,(8,(13,15))))),16);
(((((3,12),(14,(6,7))),(5,((2,11),(15,(8,13))))),(4,(1,(9,10)))),16);
((((4,(1,10)),((2,11),(5,(15,(8,13))))),((3,12),(14,(6,(7,9))))),16);
(((((4,(9,10)),1),((14,(6,7)),(3,12))),((2,11),((8,15),(5,13)))),16);
((((4,((14,(6,7)),(3,12))),((2,11),(5,(15,(8,13))))),(1,(9,10))),16);
(((((5,(13,(8,15))),(2,11)),((14,(6,7)),(3,12))),(4,(1,(9,10)))),16);
(((((3,12),(14,(6,7))),(4,(1,(9,10)))),((2,11),(5,(13,(15,8))))),16);
(((((14,(6,(7,9))),(3,12)),((2,11),(5,(8,(13,15))))),(4,(1,10))),16);
((((2,11),(5,(15,(8,13)))),(((3,12),(14,(6,7))),(4,(1,(9,10))))),16);
((((4,(1,(9,10))),((7,(6,14)),(3,12))),(5,((2,11),(8,(13,15))))),16);
(((((3,12),(14,(6,7))),(4,(1,(9,10)))),((2,11),(5,(15,(8,13))))),16);
((((2,11),(5,(15,(8,13)))),(((3,12),(14,(7,(6,9)))),(4,(1,10)))),16);
((((2,11),(5,(13,(8,15)))),(((3,12),(14,(6,7))),(4,(1,(9,10))))),16);
((((6,7),(14,(3,12))),((4,(9,(1,10))),((2,11),(5,(13,(8,15)))))),16);
(((4,(1,(9,10))),(((3,12),(14,(6,7))),((2,11),(5,(15,(13,8)))))),16);
((((4,(1,(9,10))),((2,11),(5,(13,(8,15))))),((3,12),(14,(6,7)))),16);
((((2,11),(5,(8,(13,15)))),(((3,12),(14,(6,7))),(4,(1,(9,10))))),16);
(((((2,11),(5,(13,(8,15)))),(4,(1,(9,10)))),((3,12),(14,(6,7)))),16);
((((4,(1,10)),((3,12),((7,9),(6,14)))),((2,11),(5,(8,(13,15))))),16);
((((((14,(6,9)),7),(3,12)),(4,(1,10))),((2,11),(5,(15,(8,13))))),16);
(((4,(((3,12),(14,(6,7))),((2,11),(5,(15,(8,13)))))),(1,(9,10))),16);
(((((5,15),(8,13)),(2,11)),((4,(1,(9,10))),((14,(6,7)),(3,12)))),16);
(((((3,12),(14,(6,(7,9)))),((2,11),(5,(15,(8,13))))),(4,(1,10))),16);
(((((3,12),(14,(6,7))),(4,(1,(9,10)))),((2,11),(5,(13,(8,15))))),16);
(((((((15,8),13),5),(2,11)),((14,(6,7)),(3,12))),(4,(1,(9,10)))),16);
(((((3,12),((6,9),(7,14))),((2,11),(5,(15,(8,13))))),(4,(1,10))),16);
((((4,(1,(9,10))),((2,11),(5,(15,(8,13))))),((3,12),(14,(6,7)))),16);
(((((14,(6,7)),(3,12)),(4,(1,(9,10)))),((2,11),(5,(13,(8,15))))),16);
(((((3,12),(6,(7,14))),(4,(1,(9,10)))),((2,11),(5,(15,(8,13))))),16);
((((4,(1,(9,10))),((2,11),(5,(15,(8,13))))),((14,(6,7)),(3,12))),16);
(((((3,12),(14,(6,7))),((9,10),(1,4))),((2,11),(5,(8,(13,15))))),16);
(((((3,12),(14,(6,7))),((2,11),(5,(8,(13,15))))),(4,(1,(9,10)))),16);
(((1,(4,(9,10))),(((3,12),(6,(7,14))),((2,11),(13,(5,(8,15)))))),16);
(((((3,12),(14,(6,7))),(4,(1,(9,10)))),((2,11),(5,(15,(8,13))))),16);
((((((5,(8,13)),15),(2,11)),(4,(1,(9,10)))),((3,12),(7,(6,14)))),16);
(((((2,11),(15,(8,13))),5),(((14,(6,7)),(3,12)),(4,(1,(9,10))))),16);
((((((9,(6,7)),14),(3,12)),(4,(1,10))),((2,11),(5,(15,(8,13))))),16);
(((((3,12),(14,(6,7))),(4,(1,(9,10)))),(5,((13,(8,15)),(2,11)))),16);
((((2,11),(5,(8,(13,15)))),((4,(1,(9,10))),((3,12),(14,(6,7))))),16);
(((((15,(13,8)),(5,(2,11))),(4,(1,(9,10)))),((3,12),(14,(6,7)))),16);
((((2,11),(5,(13,(8,15)))),(((14,(6,(7,9))),(3,12)),(4,(1,10)))),16);
((((2,11),(5,(15,(8,13)))),(((3,12),(14,(6,7))),(4,(1,(9,10))))),16);
(((((13,(8,15)),5),(2,11)),((4,(1,(9,10))),((14,(6,7)),(3,12)))),16);
(((((5,(8,(13,15))),(2,11)),((3,12),(14,(6,7)))),(4,(9,(1,10)))),16);
(((((5,(8,15)),13),(2,11)),(((3,12),(7,(6,14))),(4,(1,(9,10))))),16);
(((((1,(9,10)),4),((14,(6,7)),(3,12))),((2,11),(5,(13,(8,15))))),16);
(((((3,12),(6,(7,14))),(4,(1,(9,10)))),((2,11),(5,(8,(13,15))))),16);
((((4,(1,(9,10))),((2,11),(5,(8,(13,15))))),((3,12),(14,(6,7)))),16);
((((((14,(6,7)),9),(3,12)),(4,(1,10))),((2,11),(5,(8,(13,15))))),16);
(((((6,(7,14)),(3,12)),((2,11),(5,(13,(8,15))))),(4,(10,(1,9)))),16);
((((4,(1,10)),((3,12),(14,(6,(7,9))))),((2,11),(5,(15,(8,13))))),16);
((((2,11),(5,(13,(8,15)))),(((3,12),(14,(6,7))),(4,(1,(9,10))))),16);
(((((2,11),(5,(8,(13,15)))),((6,14),((3,12),7))),(4,(1,(9,10)))),16);
(((((3,12),(14,(6,7))),(4,(1,(9,10)))),((2,11),((8,15),(5,13)))),16);
((((((6,14),7),(3,12)),(4,(1,(9,10)))),((2,11),(5,(15,(8,13))))),16);
(((((3,12),(6,(7,14))),(4,(1,(9,10)))),(5,((2,11),(15,(8,13))))),16);
((((2,11),(4,(1,(9,10)))),((5,(15,(8,13))),((3,12),(14,(6,7))))),16);
(((((2,11),(5,(15,(8,13)))),(4,(1,(9,10)))),((3,12),(14,(6,7)))),16);
((((7,((3,12),(14,(6,9)))),(4,(1,10))),((2,11),(5,(8,(13,15))))),16);
((((((15,8),13),5),(2,11)),((4,(1,10)),((3,12),(14,(9,(6,7)))))),16);
((((4,(1,(9,10))),((2,11),(5,(8,(13,15))))),((3,12),(14,(6,7)))),16);
(((((3,12),(14,(6,7))),((2,11),((8,15),(5,13)))),(4,(9,(1,10)))),16);
(((((3,12),(14,(6,7))),((2,11),(5,(15,(8,13))))),(4,(1,(9,10)))),16);
((((2,11),(5,(15,(8,13)))),((4,(1,(9,10))),((3,12),(6,(7,14))))),16);
((((3,12),((14,(6,7)),(4,(1,(9,10))))),((2,11),(5,(13,(8,15))))),16);
((((2,11),(5,(15,(8,13)))),(((3,12),(14,(6,7))),(4,(1,(9,10))))),16);
((((((6,7),(3,12)),14),(4,(1,(9,10)))),((2,11),(5,(13,(8,15))))),16);
(((((3,12),(14,(6,7))),(4,(1,(9,10)))),((2,11),(5,(8,(13,15))))),16);
(((((14,(6,7)),(3,12)),(4,(1,(9,10)))),((2,11),(5,(8,(15,13))))),16);
(((((3,12),(14,(6,7))),(4,(1,(9,10)))),((2,11),(5,(8,(13,15))))),16);
((((2,11),(5,(15,(8,13)))),(((3,12),(14,(6,7))),(4,(1,(9,10))))),16);
((((4,(1,(9,10))),((14,(6,7)),(3,12))),((2,11),(5,(8,(13,15))))),16);
(((((2,11),(5,(13,(8,15)))),(1,(4,(9,10)))),((3,12),(14,(6,7)))),16);
((((5,(13,(8,15))),(2,11)),((4,(1,(9,10))),((3,12),(7,(6,14))))),16);
(((((3,12),(6,(7,14))),((2,11),(5,(8,(13,15))))),(4,(1,(9,10)))),16);
((((((8,(13,15)),5),(2,11)),(12,(3,(14,(6,(7,9)))))),(4,(1,10))),16);
((((4,(1,(9,10))),((2,11),(5,(15,(8,13))))),((3,12),(7,(6,14)))),16);
((((4,(1,(9,10))),((6,14),(7,(3,12)))),((2,11),(5,(8,(13,15))))),16);
(((((2,11),(5,(15,(8,13)))),(4,(1,(9,10)))),((3,12),(14,(7,6)))),16);
((((4,(1,(9,10))),((3,12),(14,(6,7)))),((2,11),(5,(15,(8,13))))),16);
(((((3,12),(14,(6,7))),(4,(1,(9,10)))),(5,((2,11),(15,(8,13))))),16);
(((((14,(6,7)),(3,12)),(4,(1,(9,10)))),(((2,11),(8,(13,15))),5)),16);
((((5,(2,11)),(13,(8,15))),(((3,12),(14,(9,(6,7)))),(4,(1,10)))),16);
(((((3,12),(14,(6,7))),((2,11),(5,(8,(13,15))))),(4,(1,(9,10)))),16);
((((2,11),(5,(15,(8,13)))),(((3,12),(14,(6,7))),(4,(1,(9,10))))),16);
(((((3,12),(14,(6,7))),((2,11),(5,(15,(8,13))))),(4,(1,(9,10)))),16);
(((((13,(15,8)),5),(2,11)),(((3,12),(14,(6,7))),(4,(1,(9,10))))),16);
(((((3,12),(14,(6,7))),(4,(1,(9,10)))),((2,11),(5,(15,(8,13))))),16);
(((((3,12),(6,(7,14))),((2,11),(13,(5,(8,15))))),(4,(1,(9,10)))),16);
(((((14,(6,(7,9))),(3,12)),(4,(1,10))),((2,11),(5,(13,(8,15))))),16);
(((((3,12),(14,(6,7))),((2,11),(5,(13,(8,15))))),(4,(1,(9,10)))),16);
(((((3,12),(14,(6,7))),(4,(1,(9,10)))),((2,11),(5,(8,(13,15))))),16);
((((((8,13),15),5),(2,11)),(((14,(6,7)),(3,12)),(4,(1,(9,10))))),16);
((((1,(4,(9,10))),((3,12),(7,(6,14)))),((2,11),(5,(8,(13,15))))),16);
(((((3,12),(6,(7,14))),(4,(1,(9,10)))),((2,11),(5,(8,(13,15))))),16);
(((((8,(2,11)),(5,(13,15))),((3,12),(6,(7,14)))),(4,(1,(9,10)))),16);
(((((6,(7,14)),(3,12)),(4,(1,(9,10)))),((2,11),(5,(8,(13,15))))),16);
(((((3,12),(7,(6,14))),(5,((2,11),(8,(13,15))))),(4,(1,(9,10)))),16);
(((((3,12),(7,(6,14))),(4,(1,(9,10)))),((2,11),(5,(13,(8,15))))),16);
(((((2,11),(8,(5,(13,15)))),(4,(1,10))),((3,12),(14,(6,(7,9))))),16);
(((((4,(1,(9,10))),((3,12),(7,(6,14)))),(5,(8,(13,15)))),(2,11)),16);
(((((2,11),(5,(15,(8,13)))),(4,(1,(9,10)))),((3,12),(14,(6,7)))),16);
(((((2,11),(5,(13,(8,15)))),(4,(1,(9,10)))),((3,12),(14,(6,7)))),16);
(((4,(1,(9,10))),(((3,12),(14,(6,7))),((2,11),(5,(15,(8,13)))))),16);
((((2,11),(5,(8,(13,15)))),((4,(1,(9,10))),((3,12),(7,(6,14))))),16);
(((((2,11),(5,(15,(8,13)))),((3,12),(14,(6,7)))),(4,(1,(9,10)))),16);
((((3,12),(14,(6,7))),((4,(1,(9,10))),((2,11),(5,(15,(8,13)))))),16);
(((((2,11),(5,(15,(8,13)))),(4,(1,10))),((9,(14,(6,7))),(3,12))),16);
((((2,11),(5,(15,(13,8)))),(((6,7),(14,(3,12))),(4,(1,(9,10))))),16);
((((2,11),(5,(8,(15,13)))),((4,(1,(9,10))),((3,12),(14,(6,7))))),16);
((((8,(13,15)),(5,(2,11))),((4,(1,10)),((3,12),(6,(14,(7,9)))))),16);
((((4,(1,10)),((3,12),(14,(6,(7,9))))),((2,11),(5,(15,(8,13))))),16);
(((((7,(6,14)),(3,12)),(4,(1,(9,10)))),((13,(8,15)),(5,(2,11)))),16);
((((2,11),(5,(8,(13,15)))),(((14,(6,7)),(3,12)),(4,(1,(9,10))))),16);
((((5,(8,(13,15))),(2,11)),(((3,12),(6,(7,14))),(4,(10,(1,9))))),16);
((((15,(8,13)),(5,(2,11))),(((3,12),(14,(6,(7,9)))),(1,(4,10)))),16);
(((((2,11),(5,(15,(8,13)))),((3,12),(14,(6,7)))),(4,(1,(9,10)))),16);
(((((3,12),(6,(7,14))),(4,(1,(9,10)))),((2,11),(5,(8,(13,15))))),16);
((((4,(1,(9,10))),((2,11),(5,(8,(13,15))))),((14,(6,7)),(3,12))),16);
((((2,11),(15,(5,(8,13)))),(((3,12),(14,(6,7))),(4,(1,(9,10))))),16);
(((((2,11),(8,15)),(5,13)),((4,(1,(9,10))),((3,12),(14,(6,7))))),16);
((((2,11),(5,(13,(8,15)))),((4,(1,(9,10))),((3,12),(14,(6,7))))),16);
(((((2,11),(5,(15,(8,13)))),(4,(1,(9,10)))),((3,12),(14,(6,7)))),16);
(((((14,(3,12)),(6,7)),(4,(1,(9,10)))),((2,11),(5,(13,(8,15))))),16);
(((((3,12),(14,(6,7))),(4,(1,(9,10)))),((2,11),(5,(8,(13,15))))),16);
(((((2,11),(5,(8,(13,15)))),((3,12),(7,(6,14)))),(4,(1,(9,10)))),16);
((((((1,9),10),4),((14,(6,7)),(3,12))),((2,11),(5,(13,(8,15))))),16);
(((((2,11),(5,(13,(8,15)))),(4,(1,(9,10)))),((3,12),(14,(6,7)))),16);
((((4,(1,(9,10))),((14,(6,7)),(3,12))),((2,11),(5,(13,(8,15))))),16);
(((((14,(6,7)),(3,12)),(4,(1,(9,10)))),((2,11),(5,(15,(8,13))))),16);
((((((8,(13,15)),5),(2,11)),(4,(1,(9,10)))),((3,12),(14,(6,7)))),16);
((((4,(1,(9,10))),((2,11),(5,(15,(8,13))))),((14,(6,7)),(3,12))),16);
(((((14,(6,7)),(3,12)),(4,(1,(9,10)))),((2,11),(5,(13,(8,15))))),16);
((((((3,12),(6,14)),7),(4,(1,(9,10)))),((2,11),(5,(8,(13,15))))),16);
(((((3,12),(14,(6,7))),(4,(1,(9,10)))),((2,11),(5,(15,(8,13))))),16);
((((1,((9,10),4)),((3,12),(6,(7,14)))),((2,11),(5,(8,(13,15))))),16);
(((((15,(5,(8,13))),(2,11)),(4,(1,(9,10)))),((3,12),(14,(6,7)))),16);
((((3,12),(14,(6,7))),((4,(1,(9,10))),((2,11),(5,(13,(8,15)))))),16);
((((2,11),(5,(8,(13,15)))),((4,(1,(9,10))),((3,12),(14,(6,7))))),16);
((((2,11),(5,(8,(13,15)))),((4,(1,(9,10))),((3,12),(14,(6,7))))),16);
(((((3,12),(6,(14,(7,9)))),(4,(1,10))),((2,11),(5,(15,(8,13))))),16);
(((((3,12),(14,(6,7))),((2,11),(5,(13,(8,15))))),(4,(1,(9,10)))),16);
((((2,11),(5,(8,(13,15)))),(((3,12),(14,(6,7))),(4,(1,(9,10))))),16);
(((((15,(8,13)),5),(2,11)),(((3,12),(7,(6,14))),(4,(1,(9,10))))),16);
(((((3,12),(14,(6,7))),(4,(1,(9,10)))),((2,11),(5,(8,(13,15))))),16);
(((((3,12),(14,(7,6))),((2,11),(8,(5,(13,15))))),(4,(1,(9,10)))),16);
(((((15,(13,8)),(5,(2,11))),(4,(1,(9,10)))),((3,12),(14,(6,7)))),16);
((((2,11),(5,(8,(13,15)))),(((3,12),(14,(6,7))),(4,(1,(9,10))))),16);
(((((((8,13),15),5),(2,11)),((14,(6,7)),(3,12))),(4,(1,(9,10)))),16);
((((4,(1,(9,10))),((14,(6,7)),(3,12))),((2,11),(5,(13,(8,15))))),16);
((((15,(8,13)),((2,11),5)),((4,(1,(9,10))),((6,(7,14)),(3,12)))),16);
(((((3,12),(14,(6,7))),(4,(1,(9,10)))),(2,(11,(5,(13,(8,15)))))),16);
(((4,(1,(9,10))),(((3,12),(6,(7,14))),((2,11),(5,(15,(8,13)))))),16);
(((((((8,13),15),5),(2,11)),(4,(1,10))),((3,12),((7,9),(14,6)))),16);
(((((2,11),(5,(8,(13,15)))),((3,12),(6,(7,14)))),(4,(1,(9,10)))),16);
(((((3,12),(14,(9,(6,7)))),((15,(8,13)),(5,(2,11)))),(4,(1,10))),16);
((((2,11),(5,(13,(8,15)))),((4,(1,(9,10))),((3,12),(14,(6,7))))),16);
((((((13,15),8),5),(2,11)),(((3,12),(14,(6,7))),(4,(1,(9,10))))),16);
(((((3,12),(6,(7,14))),(4,(1,(9,10)))),(5,((2,11),(15,(8,13))))),16);
(((((5,(15,(8,13))),(2,11)),(4,(1,10))),((3,12),(14,(6,(7,9))))),16);
(((((2,11),(5,(15,(8,13)))),((3,12),(6,(7,14)))),(4,(1,(9,10)))),16);
(((((((8,13),15),5),(2,11)),((3,12),(14,(6,7)))),(4,(1,(9,10)))),16);
(((((14,(7,(6,9))),(3,12)),(4,(1,10))),((2,11),(5,(13,(15,8))))),16);
(((((3,12),(14,(6,7))),(4,(1,(9,10)))),((2,11),(5,(13,(8,15))))),16);
((((4,(9,(1,10))),((3,12),(6,(7,14)))),((2,11),(5,(8,(13,15))))),16);
(((((3,12),(14,(6,7))),((2,11),(5,(15,(8,13))))),(4,(1,(9,10)))),16);
((((((5,(8,15)),13),(2,11)),(4,(1,(9,10)))),((3,12),(6,(7,14)))),16);
((((((13,15),(5,8)),(2,11)),(4,(1,(9,10)))),((3,12),(14,(6,7)))),16);
(((((3,12),(14,(6,7))),((2,11),(5,(8,(13,15))))),(4,(1,(9,10)))),16);
(((((13,(8,15)),(2,11)),5),(((3,12),(14,(6,7))),(4,(1,(9,10))))),16);
((((2,11),(5,(15,(8,13)))),(((14,(6,7)),(3,12)),(4,(1,(9,10))))),16);
(((((3,12),(14,(6,7))),(4,(1,(9,10)))),((2,11),(5,(13,(8,15))))),16);
(((((14,(9,(6,7))),(3,12)),((2,11),(5,(15,(8,13))))),(4,(1,10))),16);
(((((7,(6,14)),(3,12)),((5,(13,(8,15))),(4,(1,(9,10))))),(2,11)),16);
((((4,(1,(9,10))),((3,12),(7,(6,14)))),((2,11),(5,(8,(13,15))))),16);
((((2,11),(5,(8,(13,15)))),((3,(12,(14,(6,7)))),(4,(1,(9,10))))),16);
(((((3,12),(14,(6,7))),(4,(1,(9,10)))),((2,11),(5,(13,(8,15))))),16);
(((((3,12),(14,(6,7))),(4,(1,(9,10)))),((2,11),(15,(5,(8,13))))),16);
((((((7,14),6),(3,12)),(4,(1,(9,10)))),((2,11),(5,(15,(8,13))))),16);
((((4,(1,(9,10))),((3,12),(14,(6,7)))),((2,11),(5,(8,(13,15))))),16);
((((4,(1,(9,10))),((6,(7,14)),(3,12))),((2,11),(5,(15,(8,13))))),16);
(((((13,(8,15)),5),(2,11)),((4,(1,(9,10))),((14,(6,7)),(3,12)))),16);
(((((3,12),(7,(6,14))),(((2,11),(5,(15,(8,13)))),4)),(1,(9,10))),16);
(((((3,12),(7,(14,6))),((2,11),(5,(13,(8,15))))),(4,(1,(9,10)))),16);
(((((15,(8,13)),5),(2,11)),((4,(1,(9,10))),((3,12),(14,(6,7))))),16);
(((((8,(13,15)),5),(2,11)),(((14,(6,7)),(3,12)),(4,(1,(9,10))))),16);
(((((14,(6,7)),(3,12)),((2,11),(5,(13,(8,15))))),(4,(1,(9,10)))),16);
(((((1,10),4),((3,12),(14,(6,(7,9))))),((2,11),(5,(13,(8,15))))),16);
(((((4,1),(9,10)),((3,12),(6,(7,14)))),(5,((2,11),(15,(8,13))))),16);
(((((5,(8,(13,15))),((3,12),(7,(6,14)))),(2,11)),(4,(1,(9,10)))),16);
(((((2,11),(5,(15,(8,13)))),(4,(1,(9,10)))),((3,12),(7,(6,14)))),16);
((((4,(1,10)),((3,12),(14,(6,(7,9))))),((2,11),(5,(13,(8,15))))),16);
(((((5,(15,(8,13))),(2,11)),(4,(1,(9,10)))),((3,12),(6,(7,14)))),16);
(((5,((13,(8,15)),(2,11))),((4,(1,(9,10))),((3,12),(14,(6,7))))),16);
(((((8,(13,15)),(2,11)),5),((4,(1,(9,10))),((3,12),(14,(6,7))))),16);
((((14,(6,7)),(3,12)),((4,(1,(9,10))),((2,11),(5,(13,(8,15)))))),16);
((((((15,(8,13)),5),(2,11)),((14,(6,(7,9))),(3,12))),(4,(1,10))),16);
(((((3,12),(14,(6,7))),(4,(1,(9,10)))),((2,11),(5,(13,(8,15))))),16);
(((((1,(9,10)),4),((3,12),(14,(6,7)))),((2,11),(5,(13,(8,15))))),16);
((((3,12),(6,(7,14))),(((2,11),(5,(8,(13,15)))),(4,(1,(9,10))))),16);
(((((14,(6,7)),(3,12)),(4,(1,(9,10)))),((2,11),(5,(8,(15,13))))),16);
(((((13,(8,15)),(5,(2,11))),(4,(1,(9,10)))),((3,12),(14,(6,7)))),16);
((((((8,15),13),5),(2,11)),(((3,12),(14,(6,7))),(4,(1,(9,10))))),16);
(((((2,11),(15,(5,(8,13)))),(4,(1,(9,10)))),((3,12),(14,(6,7)))),16);
((((2,11),(5,(15,(8,13)))),((4,(1,(9,10))),((3,12),(14,(6,7))))),16);
(((((1,(9,10)),4),((3,12),(7,(6,14)))),((2,11),(5,(13,(8,15))))),16);
(((((3,12),(14,(6,(7,9)))),((2,11),(5,(8,(13,15))))),(4,(1,10))),16);
(((((15,(8,13)),((2,11),5)),((3,12),(6,(14,(7,9))))),(4,(1,10))),16);
(((((3,12),(14,(6,7))),(4,(1,(9,10)))),((2,11),(5,(15,(13,8))))),16);
(((4,(1,(9,10))),(((2,11),(5,(13,(8,15)))),((14,(6,7)),(3,12)))),16);
(((((2,11),(13,(8,15))),5),(((3,12),(14,(6,(7,9)))),(4,(1,10)))),16);
(((((14,(6,7)),(3,12)),((2,11),(5,(8,(13,15))))),(4,(1,(9,10)))),16);
(((((7,(6,14)),(3,12)),(4,(1,(9,10)))),((2,11),(5,(8,(13,15))))),16);
(((((2,11),((13,15),(5,8))),(4,(1,(9,10)))),((3,12),(14,(6,7)))),16);
(((4,(1,(9,10))),(((3,12),(14,(6,7))),((2,11),(5,(15,(8,13)))))),16);
(((((3,12),(14,(6,(7,9)))),(4,(1,10))),((2,11),(5,(15,(8,13))))),16);
(((((3,12),(14,(6,7))),((9,10),(1,4))),((2,11),(5,(15,(8,13))))),16);
((((5,(15,(8,13))),(2,11)),(((14,(6,7)),(3,12)),(4,(1,(9,10))))),16);
(((((5,(15,(8,13))),(2,11)),((3,12),((7,9),(6,14)))),(4,(1,10))),16);
(((((3,12),(14,(6,7))),((2,11),(5,(8,(13,15))))),(4,(1,(9,10)))),16);
(((((14,(6,7)),(3,12)),((2,11),(5,(15,(8,13))))),(4,(1,(9,10)))),16);
((((4,(1,(9,10))),((3,12),(7,(6,14)))),((2,11),(5,(8,(13,15))))),16);
(((((3,12),(14,(6,7))),(4,(1,(9,10)))),((2,11),(5,(8,(13,15))))),16);
(((((3,12),(14,(6,7))),(4,(1,(9,10)))),((2,11),(5,(8,(13,15))))),16);
(((((3,12),(14,(6,(7,9)))),(5,((15,(13,8)),(2,11)))),(4,(1,10))),16);
(((1,(4,(9,10))),(((3,12),(14,(6,7))),((2,11),(5,(15,(8,13)))))),16);
((((4,(1,(9,10))),((2,11),(5,(13,(8,15))))),((14,(6,7)),(3,12))),16);
(((4,(1,(9,10))),(((3,12),(14,(6,7))),((2,11),(5,(8,(13,15)))))),16);
(((((3,12),(14,(6,7))),(4,(1,(9,10)))),((2,11),(5,(13,(8,15))))),16);
(((((15,(8,13)),5),(2,11)),(((14,(6,7)),(3,12)),(4,(1,(9,10))))),16);
(((((7,(6,14)),(3,12)),(4,(1,(9,10)))),((2,11),(5,(15,(8,13))))),16);
((((((13,15),8),5),(2,11)),(((3,12),(14,(6,(7,9)))),(4,(1,10)))),16);
((((((8,13),15),5),(2,11)),(((3,12),(14,(6,7))),(4,(1,(9,10))))),16);
(((1,(4,(9,10))),(((2,11),(5,(13,(8,15)))),((3,12),(7,(6,14))))),16);
((((5,(8,(13,15))),(2,11)),(((3,12),(14,(6,7))),(4,(1,(9,10))))),16);
((((2,11),(5,(15,(8,13)))),(((14,(6,7)),(3,12)),(4,(1,(9,10))))),16);
((((3,12),(14,(6,7))),((4,(1,(9,10))),((2,11),(5,(13,(8,15)))))),16);
((((4,(1,10)),((2,11),(5,(8,(13,15))))),((3,12),(14,(6,(7,9))))),16);
(((((1,(9,10)),4),((3,12),(14,(6,7)))),((2,11),(5,(15,(8,13))))),16);
((((((7,9),(6,14)),(3,12)),(4,(1,10))),((2,11),(5,(8,(13,15))))),16);
(((((7,(6,14)),(3,12)),(4,(1,(9,10)))),((2,11),(5,(8,(13,15))))),16);
(((((3,12),(6,(14,(7,9)))),(4,(1,10))),(5,((2,11),(15,(8,13))))),16);
(((((5,(13,15)),8),(2,11)),(((3,12),(7,(6,14))),(4,(1,(9,10))))),16);
((((3,12),(14,(6,7))),((4,(1,(9,10))),((2,11),(5,(8,(13,15)))))),16);
(((((3,12),(14,(6,7))),((2,11),(5,(13,(8,15))))),(4,(1,(9,10)))),16);
(((((3,12),(6,(7,14))),(4,(1,(9,10)))),((2,11),(5,(13,(8,15))))),16);
(((((3,12),(14,(6,7))),((2,11),(5,(15,(8,13))))),(4,(1,(9,10)))),16);
((((2,11),(5,(15,(8,13)))),(((3,12),(7,(6,14))),(4,(9,(1,10))))),16);
(((((7,(6,14)),(3,12)),(4,(1,(9,10)))),((2,11),(5,(15,(8,13))))),16);
((((2,11),(5,(8,(15,13)))),(((3,12),(14,(6,7))),(4,(1,(9,10))))),16);
(((((3,12),(6,(7,14))),(4,(1,(9,10)))),((8,(13,15)),(5,(2,11)))),16);
