((((((((1,7),18),8),((4,6),(10,15))),(3,16)),(12,((9,13),(19,(5,14))))),((11,20),(2,17))),21);
((((((((8,18),7),1),((4,6),(10,15))),(3,16)),(12,((13,19),(14,(5,9))))),((11,20),(2,17))),21);
((((((8,(1,7)),((4,6),(10,15))),(18,(3,16))),((11,20),(2,17))),(12,((19,(5,13)),(9,14)))),21);
(((((((18,(7,8)),1),((4,6),(10,15))),(3,16)),((11,20),(2,17))),(12,((14,(5,9)),(13,19)))),21);
(((((((1,7),(8,18)),(10,(15,(4,6)))),(3,16)),((11,20),(2,17))),(12,((13,19),(9,(5,14))))),21);
((((((18,(8,(1,7))),((4,6),(10,15))),(3,16)),(2,(17,(11,20)))),(12,((13,19),(5,(9,14))))),21);
((((((1,(18,7)),8),((3,16),((4,6),(10,15)))),((11,20),(2,17))),(12,((13,19),(9,(5,14))))),21);
((((((((4,6),(10,15)),(1,18)),(7,8)),(3,16)),((11,20),(2,17))),(12,((9,14),(19,(5,13))))),21);
(((((((15,(10,(4,6))),(7,18)),(1,8)),(3,16)),(12,((5,9),(13,(14,19))))),((11,20),(2,17))),21);
(((((11,20),(2,17)),((3,16),(((4,6),(10,15)),((1,7),(8,18))))),((9,(5,(13,19))),(12,14))),21);
((((3,16),(1,(8,(7,18)))),((((11,20),(2,17)),(12,(19,(13,(5,(9,14)))))),((4,6),(10,15)))),21);
((((((8,(18,(1,7))),((10,15),(4,6))),(3,16)),((11,20),(2,17))),(12,(9,((5,14),(13,19))))),21);
(((12,((9,(5,14)),(13,19))),((17,(2,(11,20))),(((1,7),(8,18)),((3,16),((4,6),(10,15)))))),21);
((((((18,(8,(1,7))),(3,16)),((10,15),(4,6))),(17,(2,(11,20)))),(12,((5,14),(9,(13,19))))),21);
(((((18,(8,(1,7))),(((4,6),(10,15)),(3,16))),(2,(17,(11,20)))),(12,((13,19),((5,14),9)))),21);
((((((18,(8,(1,7))),((4,6),(15,10))),(3,16)),((11,20),(2,17))),(12,((13,19),(5,(9,14))))),21);
((((((10,(4,6)),(8,(15,(18,(1,7))))),(3,16)),((13,(5,(9,14))),(12,19))),((11,20),(2,17))),21);
(((((7,(18,(1,8))),((15,(10,(4,6))),(3,16))),((11,20),(2,17))),(12,((5,(9,14)),(13,19)))),21);
((((((1,(8,18)),7),((4,6),(10,15))),(3,16)),((12,((5,14),(9,(13,19)))),((11,20),(2,17)))),21);
((((((8,(1,(7,18))),(3,16)),((4,6),(10,15))),((11,20),(2,17))),((13,19),(12,(14,(5,9))))),21);
(((12,((13,19),(14,(5,9)))),((17,(2,(11,20))),(((7,18),(1,8)),(((4,6),(10,15)),(3,16))))),21);
((((((8,18),(3,16)),((1,7),(15,(10,(4,6))))),(2,(17,(11,20)))),(12,((9,14),(13,(5,19))))),21);
(((((3,16),(1,8)),((7,18),(15,(10,(4,6))))),((12,(13,(19,(14,(5,9))))),((11,20),(2,17)))),21);
((((((4,6),(10,15)),((3,16),(8,(18,(1,7))))),((11,20),(2,17))),((19,(14,(5,9))),(12,13))),21);
((((((((1,8),18),7),((4,6),(10,15))),(3,16)),((11,20),(2,17))),(12,((13,19),(9,(5,14))))),21);
(((((3,((7,(1,(8,18))),((4,6),(10,15)))),16),(12,((9,(5,14)),(13,19)))),((11,20),(2,17))),21);
((((((3,16),((10,15),(1,(7,(8,18))))),(4,6)),((11,20),(2,17))),(12,((13,19),(14,(5,9))))),21);
(((((((15,(4,6)),(18,(8,(1,7)))),(3,16)),10),(12,((9,14),(13,(5,19))))),((11,20),(2,17))),21);
((((((8,(18,(1,7))),((4,6),(10,15))),(3,16)),(12,((13,19),(9,(5,14))))),((11,20),(2,17))),21);
(((((((8,18),(1,7)),((4,6),(10,15))),(3,16)),((11,20),(2,17))),(12,((14,(5,9)),(13,19)))),21);
((((((2,(11,20)),17),(((4,6),(10,15)),(8,(18,(1,7))))),(3,16)),(12,((13,19),(9,(5,14))))),21);
((((((7,(8,(18,1))),((4,6),(10,15))),(3,16)),((11,20),(2,17))),(12,((9,(5,14)),(13,19)))),21);
(((12,((9,(5,14)),(13,19))),(((3,16),(((4,6),(10,15)),(1,(7,(8,18))))),(2,(17,(11,20))))),21);
(((((((8,(1,7)),18),(3,16)),((10,15),(4,6))),(12,((13,19),(9,(5,14))))),((11,20),(2,17))),21);
((((((4,(15,(6,10))),(18,(8,(1,7)))),(3,16)),((11,20),(2,17))),(12,((14,19),(9,(5,13))))),21);
(((((((18,(1,7)),8),((4,6),(10,15))),(3,16)),((11,20),(2,17))),(12,((9,14),(19,(5,13))))),21);
((((12,((13,19),(9,(5,14)))),((3,16),(7,(((4,6),(10,15)),(8,(1,18)))))),((11,20),(2,17))),21);
(((((3,16),((6,(4,(10,15))),((7,8),(1,18)))),((11,20),(2,17))),(12,((13,19),(5,(14,9))))),21);
((((((((1,8),(7,18)),(10,15)),(4,6)),(3,16)),(2,(17,(11,20)))),(12,((13,19),(5,(9,14))))),21);
((((((((1,7),18),8),(4,6)),(10,15)),((3,16),((11,20),(2,17)))),(12,(5,((13,19),(9,14))))),21);
((((((18,(1,7)),(8,((4,6),(10,15)))),(3,16)),((11,20),(2,17))),(12,(14,(9,(19,(5,13)))))),21);
((((((8,(18,(1,7))),((4,6),(10,15))),(3,16)),(2,(17,(11,20)))),(12,((9,(5,14)),(13,19)))),21);
(((((((18,(1,8)),7),(3,16)),((4,6),(10,15))),(2,(17,(11,20)))),(12,((5,(9,14)),(13,19)))),21);
((((((((4,6),(10,15)),(8,18)),(1,7)),(3,16)),((11,20),(2,17))),(12,((13,19),(5,(14,9))))),21);
((((((18,(8,(1,7))),(10,(15,(4,6)))),(3,16)),(12,((9,14),(5,(13,19))))),(2,(17,(11,20)))),21);
(((((7,((18,(1,8)),((4,6),(10,15)))),(3,16)),((11,20),(2,17))),(12,(5,((13,19),(9,14))))),21);
((((((18,(1,7)),8),((4,6),(10,15))),(3,16)),(((11,20),(2,17)),(12,((13,19),(5,(9,14)))))),21);
(((((((10,15),(4,6)),(3,16)),(8,(18,(1,7)))),(17,(2,(11,20)))),(12,((5,(19,13)),(9,14)))),21);
(((((((4,6),((1,7),(8,18))),(10,15)),(3,16)),((11,20),(2,17))),(12,((13,19),(5,(9,14))))),21);
((((((((7,18),1),8),(4,(6,(10,15)))),(3,16)),((11,20),(2,17))),(12,((13,19),(5,(9,14))))),21);
(((((8,(1,7)),((18,((10,15),(4,6))),(3,16))),(2,(17,(11,20)))),(9,(((5,14),(13,19)),12))),21);
((((((((7,18),(1,8)),((4,6),(10,15))),(3,16)),(11,20)),(2,17)),(12,(13,(19,(14,(5,9)))))),21);
((((((3,16),((8,18),(1,7))),((4,6),(10,15))),(2,(17,(11,20)))),(12,((13,19),(9,(5,14))))),21);
(((((18,((8,(1,7)),((4,6),(10,15)))),(3,16)),(17,(2,(11,20)))),(12,((19,(5,13)),(9,14)))),21);
((((((8,18),(1,7)),((3,16),(10,(15,(4,6))))),((11,20),(2,17))),(12,((19,(5,13)),(9,14)))),21);
((((((((1,7),18),8),((4,6),(10,15))),(3,16)),(2,(17,(11,20)))),(12,((13,19),(9,(5,14))))),21);
((((((7,(1,18)),(8,((4,6),(10,15)))),(3,16)),((11,20),(2,17))),(12,((9,14),(5,(13,19))))),21);
(((12,((13,19),(9,(5,14)))),(((11,20),(2,17)),((3,16),(((4,6),(10,15)),((1,7),(8,18)))))),21);
((((((3,16),(18,(8,(1,7)))),((4,6),(10,15))),((11,20),(2,17))),(12,((13,19),(5,(9,14))))),21);
(((((3,16),(8,(18,(1,7)))),(12,((13,19),(9,(5,14))))),((10,(15,(4,6))),((11,20),(2,17)))),21);
((((((8,(18,(1,7))),(6,(4,(10,15)))),(3,16)),((11,20),(2,17))),(12,((13,19),(9,(5,14))))),21);
((((((((7,1),8),18),(10,(15,(4,6)))),(3,16)),((13,19),(12,(5,(9,14))))),((11,20),(2,17))),21);
(((((((4,6),((10,15),(1,7))),(3,16)),(8,18)),((11,20),(2,17))),(12,((5,14),(9,(13,19))))),21);
((((((((8,18),(1,7)),(10,15)),(4,6)),(3,16)),((11,20),(2,17))),(19,(12,(9,(13,(5,14)))))),21);
((((((((1,7),8),18),((4,6),(10,15))),16),((11,20),(2,17))),(3,(12,((13,19),(5,(9,14)))))),21);
((((((3,16),(18,(8,(1,7)))),((4,6),(10,15))),(12,((13,19),(9,(5,14))))),((11,20),(2,17))),21);
((((18,(1,7)),((3,16),(8,((4,6),(10,15))))),((12,((9,14),(19,(5,13)))),((11,20),(2,17)))),21);
(((((11,20),(2,17)),((3,16),(((4,6),(10,15)),(8,(18,(1,7)))))),(12,((9,14),(5,(13,19))))),21);
(((((((1,7),((10,15),(8,18))),(4,6)),(3,16)),((11,20),(2,17))),(12,((5,14),(9,(13,19))))),21);
((((((18,(7,(1,8))),((4,6),(10,15))),(3,16)),(2,(11,20))),(17,(12,((9,(5,14)),(13,19))))),21);
(((((((8,(1,7)),18),((4,6),(10,15))),(3,16)),((11,20),(2,17))),(12,((13,19),(9,(5,14))))),21);
((((((2,17),(11,20)),(((4,6),(10,15)),((18,(1,7)),(3,16)))),8),(12,((5,14),(9,(13,19))))),21);
((((((3,16),((4,6),(10,15))),(18,(8,(1,7)))),((11,20),(2,17))),(12,(9,((5,14),(13,19))))),21);
((((((((7,18),1),8),(6,(4,15))),(10,(3,16))),((11,20),(2,17))),(12,((9,(5,14)),(13,19)))),21);
((((((((1,7),8),18),(6,(4,(10,15)))),(3,16)),((11,20),(2,17))),(12,((13,19),(9,(5,14))))),21);
(((((((1,7),(8,18)),((4,6),(10,15))),(3,16)),((11,20),(2,17))),(12,(9,((5,14),(13,19))))),21);
(((((11,20),(2,17)),(((10,(15,(4,6))),(7,(1,8))),(18,(3,16)))),(12,((13,19),(9,(5,14))))),21);
((((((1,7),(8,18)),(((4,6),(10,15)),(3,16))),((11,20),(2,17))),(12,(19,(13,(14,(5,9)))))),21);
((((((1,7),(8,18)),((10,(15,(4,6))),(3,16))),((11,20),(2,17))),(12,((9,(5,14)),(13,19)))),21);
((((11,20),((15,(10,(4,6))),((3,16),((1,7),(8,18))))),((12,((13,19),(9,(5,14)))),(2,17))),21);
((((((13,19),(9,(5,14))),12),(((4,6),(10,15)),((3,16),(8,(18,(1,7)))))),((11,20),(2,17))),21);
(((((((7,18),(1,8)),((4,6),(10,15))),(3,16)),((11,20),(2,17))),(12,(9,((19,(5,13)),14)))),21);
(((((11,20),(2,17)),(9,(12,((5,14),(13,19))))),((3,16),(((4,6),(10,15)),((1,7),(18,8))))),21);
((((((3,16),((4,6),(10,15))),(8,(7,(1,18)))),((11,20),(2,17))),(12,(14,((13,19),(5,9))))),21);
(((((18,(8,(1,7))),((4,6),(10,15))),(3,16)),((2,((11,20),17)),((14,(9,5)),(12,(13,19))))),21);
(((((((8,18),(1,7)),(3,16)),((4,6),(10,15))),((11,20),(2,17))),(12,(14,(9,(19,(5,13)))))),21);
((((((4,6),(10,15)),((3,16),(8,(18,(1,7))))),((11,20),(2,17))),(12,((13,19),(9,(5,14))))),21);
(((((8,(18,(1,7))),((10,15),(4,6))),(3,16)),(((11,20),(2,17)),(12,(13,(19,(14,(5,9))))))),21);
(((((((18,(1,7)),8),((4,6),(10,15))),(3,16)),((11,20),(2,17))),(14,(12,((13,19),(5,9))))),21);
((((((8,(1,(7,18))),((4,6),(10,15))),(3,16)),(17,(2,(11,20)))),(12,(9,((5,14),(13,19))))),21);
(((((3,16),(((4,6),(10,15)),((7,8),(1,18)))),((11,20),(2,17))),(12,((13,19),(9,(5,14))))),21);
(((((11,20),(2,17)),((((4,6),(10,15)),(18,(1,8))),(7,(3,16)))),(12,(13,(19,(9,(5,14)))))),21);
((((((8,(1,7)),(((4,6),(10,15)),18)),(3,16)),((11,20),(2,17))),(12,((13,19),(9,(5,14))))),21);
(((((18,((1,7),8)),(3,16)),((4,6),(10,15))),((12,((14,(5,9)),(13,19))),((11,20),(2,17)))),21);
(((((11,20),(2,17)),((18,(7,(1,8))),((3,16),((4,6),(10,15))))),(12,(19,((5,14),(9,13))))),21);
(((((1,((8,(7,18)),(10,(15,(4,6))))),(3,16)),((11,20),(2,17))),(12,((13,19),(14,(5,9))))),21);
((((((1,(7,8)),18),((4,6),(10,15))),(3,16)),((12,((13,19),(14,(5,9)))),((11,20),(2,17)))),21);
((((((((10,15),(1,7)),(8,18)),(3,16)),(4,6)),((11,20),(2,17))),(12,(13,(19,(5,(9,14)))))),21);
(((((((6,15),10),4),((1,7),(18,8))),(3,16)),((12,((5,(13,19)),(9,14))),((11,20),(2,17)))),21);
(((((11,20),(2,17)),(((1,7),(8,18)),((3,16),((4,6),(10,15))))),(12,((13,19),(5,(9,14))))),21);
