((((6,((18,19),(13,((7,(10,(3,(4,11)))),(2,5))))),(17,(12,(9,16)))),(8,(1,(14,(15,20))))),21);
(((((((7,(10,(4,11))),3),(2,5)),13),(6,(18,19))),((17,(16,(9,12))),(1,(8,(14,(15,20)))))),21);
(((((((3,10),((7,(4,11)),(2,5))),6),13),((18,19),((9,16),(12,17)))),(8,(1,(14,(15,20))))),21);
((((((((3,(4,11)),(10,7)),(2,5)),13),(6,(18,19))),(17,(9,(12,16)))),(8,(1,(14,(15,20))))),21);
(((((((((((4,11),7),10),3),(2,5)),13),6),(18,19)),(17,(12,(9,16)))),(8,(1,(14,(15,20))))),21);
((((((6,(18,19)),(13,(7,(4,11)))),((3,10),(2,5))),((9,16),(12,17))),(8,(1,(14,(15,20))))),21);
((((((((10,(3,4)),7),11),(2,5)),(13,(6,(18,19)))),(17,(12,(9,16)))),((14,(15,20)),(1,8))),21);
((((((6,(18,19)),(5,(2,((3,(4,11)),(7,10))))),13),(17,(9,(12,16)))),(8,(1,(14,(15,20))))),21);
(((((((((4,11),(3,10)),7),(2,5)),13),(19,(6,18))),(17,(12,(9,16)))),(8,(1,(14,(15,20))))),21);
((((((((7,(3,(4,11))),10),(2,5)),13),(6,(18,19))),(17,(16,(12,9)))),((1,14),(8,(15,20)))),21);
((((((13,((11,(3,4)),(2,5))),(7,10)),(6,(18,19))),(17,(12,(9,16)))),(1,(8,(14,(15,20))))),21);
(((((6,(18,19)),((2,5),((3,(4,11)),(7,10)))),(13,(17,(12,(9,16))))),(8,(1,(14,(15,20))))),21);
(((((((((3,4),11),(7,10)),(2,5)),13),(6,(18,19))),((12,16),(9,17))),(8,(1,(14,(15,20))))),21);
(((((((3,(4,11)),((7,10),(2,5))),13),(6,(18,19))),(17,(12,(9,16)))),(1,(8,(14,(15,20))))),21);
((((((2,5),(10,(7,(3,(4,11))))),((6,(18,19)),13)),((12,17),(9,16))),(8,(1,(14,(15,20))))),21);
((((((7,(10,(3,(4,11)))),(2,5)),(13,(6,(18,19)))),(17,(12,(9,16)))),(8,((14,20),(1,15)))),21);
(((((6,(18,19)),(13,((11,(7,10)),((3,4),(2,5))))),(17,(12,(9,16)))),(8,(1,(14,(15,20))))),21);
(((((((3,(7,(5,(10,(4,11))))),2),13),(6,(18,19))),(12,(17,(9,16)))),((1,14),(8,(15,20)))),21);
((((((((((3,11),4),10),7),5),2),(6,(13,(18,19)))),((12,16),(9,17))),((14,(15,20)),(8,1))),21);
((((((((((4,11),(7,3)),10),2),5),13),(19,(6,18))),(17,(12,(9,16)))),(8,(1,(14,(15,20))))),21);
((((((((3,4),11),(7,10)),13),((2,5),(6,(18,19)))),(12,(17,(9,16)))),((14,(15,20)),(1,8))),21);
(((((13,(6,(18,19))),(2,(5,((3,10),(7,(4,11)))))),(12,(17,(9,16)))),(8,(1,(14,(15,20))))),21);
(((((((((3,4),(10,7)),(2,5)),11),13),(6,(18,19))),((9,16),(12,17))),(1,(8,(14,(15,20))))),21);
((((((((10,(3,4)),11),7),(2,5)),13),(6,(18,19))),(((9,16),(12,17)),(8,(1,(14,(15,20)))))),21);
((((17,(16,(12,9))),(13,((6,(18,19)),((2,5),((3,(4,11)),(7,10)))))),(8,(1,(20,(14,15))))),21);
((((((((7,10),4),3),11),(2,5)),(((12,16),(9,17)),(13,(6,(18,19))))),(1,(8,(14,(15,20))))),21);
(((((((2,(3,(4,11))),5),(7,10)),13),((9,(17,(12,16))),(6,(18,19)))),(8,(1,(14,(15,20))))),21);
((((((((((3,4),10),11),7),(2,5)),13),(17,(9,(12,16)))),(6,(18,19))),(8,(1,(14,(15,20))))),21);
(((((((((3,10),4),(7,11)),(2,5)),13),(6,(18,19))),(17,(16,(9,12)))),((14,20),(8,(1,15)))),21);
((((6,(18,19)),((17,(9,(16,12))),(((10,(4,11)),(2,5)),(13,(3,7))))),(1,(8,(14,(15,20))))),21);
((((((((10,(3,7)),(4,11)),(2,5)),13),(6,(18,19))),(17,(12,(9,16)))),((14,(15,20)),(1,8))),21);
(((((((4,(7,(3,10))),(2,(5,11))),13),(6,(18,19))),(17,(12,(9,16)))),(8,(1,(14,(15,20))))),21);
((((((((10,(3,(4,11))),7),(2,5)),13),(6,(18,19))),((9,16),(17,12))),(8,(1,(14,(15,20))))),21);
(((((((4,11),((2,5),(3,(7,10)))),13),(6,(18,19))),((9,16),(17,12))),(8,(1,(14,(15,20))))),21);
(((((((((10,11),4),(3,7)),(2,5)),13),(6,(18,19))),((9,16),(12,17))),((14,(15,20)),(1,8))),21);
((((((((11,(3,4)),7),10),2),(6,(18,19))),((5,13),(17,(12,(9,16))))),((1,(15,20)),(8,14))),21);
((((((5,(7,(10,(4,(3,11))))),(2,13)),(6,(18,19))),(17,(12,(9,16)))),(1,(8,(14,(15,20))))),21);
(((((((7,(4,(3,11))),10),(2,5)),(13,(6,(18,19)))),(17,(12,(9,16)))),((14,(15,20)),(1,8))),21);
((((6,((18,19),(13,((2,5),(11,(7,(10,(3,4)))))))),(17,(12,(9,16)))),(8,(1,(14,(15,20))))),21);
(((((6,(18,19)),((2,(5,(7,((3,(4,11)),10)))),13)),(17,(12,(9,(15,16))))),((14,20),(1,8))),21);
((((((6,(18,19)),((4,11),((2,5),(7,(3,10))))),13),(17,(12,(9,16)))),(8,(1,(14,(15,20))))),21);
((((((((7,(3,10)),(4,11)),(2,5)),13),(6,(18,19))),(8,(1,(14,(15,20))))),(12,(17,(9,16)))),21);
((((((((3,(4,11)),(7,10)),(2,5)),13),(6,(18,19))),(17,(12,(9,16)))),(1,(8,(14,(15,20))))),21);
(((((((3,(2,5)),(7,(10,(4,11)))),13),(6,(18,19))),(17,(12,(9,16)))),(8,(1,(14,(15,20))))),21);
((((((2,(7,10)),(5,(3,(4,11)))),6),((17,(16,(9,12))),(13,(18,19)))),(1,(8,(14,(15,20))))),21);
((((((((10,11),(3,4)),7),(13,(2,5))),(6,(18,19))),(17,(16,(9,12)))),((20,(14,15)),(1,8))),21);
(((((13,((2,5),((7,11),(10,(3,4))))),(6,(18,19))),(17,(9,(16,12)))),((20,(14,15)),(1,8))),21);
(((((18,19),(6,(13,(2,(5,((3,11),(4,(7,10)))))))),((15,20),(8,(1,14)))),((9,16),(12,17))),21);
(((((((((3,(4,7)),10),2),(5,11)),13),(6,(18,19))),(17,(12,(9,16)))),(8,(1,(14,(15,20))))),21);
((((17,(9,(12,16))),((6,(18,19)),((2,5),(13,(10,(7,(3,(4,11)))))))),((14,(15,20)),(1,8))),21);
(((((((11,((3,4),(7,10))),(2,5)),13),(6,(18,19))),(17,(12,(9,16)))),(8,((15,20),(1,14)))),21);
((((((((3,10),(7,(4,11))),(2,5)),13),(6,(18,19))),(17,(12,(9,16)))),(8,(1,(14,(15,20))))),21);
(((((13,(((11,(3,4)),(7,10)),(2,5))),(19,(6,18))),(17,(12,(9,16)))),(1,(8,(14,(20,15))))),21);
(((((((5,(2,4)),((3,11),(7,10))),13),(6,(18,19))),(17,((9,15),(12,16)))),((14,20),(1,8))),21);
((((((((10,(4,(3,11))),7),5),(2,(6,(18,19)))),13),(16,(17,(9,12)))),(8,(1,(14,(15,20))))),21);
(((((((((3,(4,11)),7),10),(2,5)),13),(6,(18,19))),(17,(9,(12,16)))),((15,20),(8,(1,14)))),21);
(((((((((3,(4,11)),(10,7)),(2,5)),13),6),(18,19)),(17,(12,(9,16)))),((1,15),(8,(14,20)))),21);
(((((((((10,11),7),(3,4)),(2,5)),13),(6,(18,19))),(12,(17,(9,16)))),((14,(15,20)),(1,8))),21);
((((((13,((3,10),(2,5))),(6,(18,19))),(7,(4,11))),((9,12),(16,17))),(8,(1,(20,(14,15))))),21);
(((((((2,5),((4,11),(10,(7,3)))),(19,(6,18))),13),(17,(12,(9,16)))),((15,20),(8,(1,14)))),21);
(((((((11,(3,7)),(4,10)),(2,5)),13),(6,(18,19))),((17,(12,(9,(15,16)))),(1,(8,(14,20))))),21);
(((((6,(18,19)),(13,(7,(((4,11),(3,10)),(2,5))))),((12,17),(15,(9,16)))),(8,(20,(1,14)))),21);
(((((((11,((3,4),(10,7))),(2,5)),13),(6,(18,19))),(1,(8,(14,20)))),(15,((9,16),(17,12)))),21);
(((((((((3,10),(7,4)),11),(2,5)),(6,(18,19))),13),((12,(15,16)),(9,17))),(8,(1,(14,20)))),21);
((((((((4,7),(11,(3,10))),(2,5)),13),(6,(18,19))),((14,(15,20)),(1,8))),(17,(12,(9,16)))),21);
(((((((((4,11),(7,3)),10),(2,5)),13),(6,(18,19))),(17,(12,(9,16)))),(8,(1,(14,(15,20))))),21);
(((((((((7,(3,4)),10),11),(2,5)),13),(6,(18,19))),(17,(16,(9,12)))),(8,(1,(14,(15,20))))),21);
((((((((7,(4,10)),3),11),2),(13,(5,(6,(18,19))))),(17,(12,(9,16)))),(8,(1,(14,(15,20))))),21);
(((((6,(18,19)),(13,((2,5),((4,11),(7,(3,10)))))),(17,(12,(9,16)))),((1,14),(8,(15,20)))),21);
(((((17,(9,(12,16))),(6,(18,19))),(13,(5,(2,(7,(10,(3,(4,11)))))))),((14,(15,20)),(1,8))),21);
((((((2,5),(13,(7,(10,(3,(4,11)))))),(6,(18,19))),(12,(17,(9,16)))),(8,(1,(14,(15,20))))),21);
(((((((((7,10),4),(3,11)),(2,5)),13),(6,(18,19))),(16,(17,(9,12)))),(8,(1,(14,(15,20))))),21);
(((((((((4,11),(10,7)),3),(2,5)),(6,(18,19))),13),((12,16),(9,17))),(8,(15,(1,(14,20))))),21);
((((((((3,(10,(4,11))),7),13),(2,5)),(6,(18,19))),(12,(17,(9,16)))),(1,(8,(14,(15,20))))),21);
(((((((((4,7),(3,11)),10),(2,5)),13),(6,(18,19))),((12,17),(9,16))),((14,(15,20)),(8,1))),21);
(((((6,(18,19)),(13,((2,5),(10,((4,11),(3,7)))))),((9,16),(12,17))),((1,(15,20)),(8,14))),21);
((((((2,((7,(4,11)),(5,(3,10)))),13),(6,(18,19))),(17,(12,(9,16)))),(8,(1,(14,(15,20))))),21);
((((((((10,(7,(4,11))),3),(2,5)),13),(6,(18,19))),(8,(1,(14,(15,20))))),(17,(12,(9,16)))),21);
((((((((4,11),(10,(3,7))),(13,(2,5))),(18,19)),6),(1,(8,(14,20)))),((9,(15,16)),(12,17))),21);
((((((((7,(4,(3,11))),10),(2,5)),13),(6,(18,19))),(17,(12,(9,16)))),(8,(1,(14,(15,20))))),21);
((((((((11,(4,7)),3),10),(6,(18,19))),(13,(2,5))),((9,16),(12,17))),(8,(1,(14,(15,20))))),21);
(((((((((((3,11),4),7),10),2),5),13),(6,(18,19))),(17,(12,(9,16)))),(8,(20,(1,(14,15))))),21);
((((((((3,(7,(10,11))),(2,5)),4),13),(17,(12,(9,16)))),(6,(18,19))),(8,(20,(1,(14,15))))),21);
(((((((6,(18,19)),(10,((4,11),(3,7)))),13),(2,5)),(17,(16,(9,12)))),(8,(1,(14,(15,20))))),21);
((((((((3,10),7),(4,11)),13),((2,5),(6,(18,19)))),(17,(12,(9,16)))),((14,(15,20)),(1,8))),21);
(((((((((((4,10),3),11),7),5),2),13),(6,(18,19))),(9,(17,(12,16)))),(8,(1,(14,(15,20))))),21);
((((((((7,10),(3,(4,11))),(2,5)),13),(6,(18,19))),(17,(12,(9,16)))),(8,(1,(14,(15,20))))),21);
(((((((2,5),(3,(7,11))),(6,(18,19))),(13,(4,10))),(17,(9,(12,16)))),((14,(15,20)),(1,8))),21);
((((((((3,(4,11)),(7,10)),(2,5)),13),(6,(18,19))),(17,(12,(9,16)))),(1,(8,(14,(15,20))))),21);
(((((6,(18,19)),(13,((2,5),((4,11),(7,(3,10)))))),(17,(12,(9,16)))),(8,(1,(14,(15,20))))),21);
(((((((((4,11),3),10),7),(2,5)),13),(6,(18,19))),((8,(1,(14,(15,20)))),(17,(12,(9,16))))),21);
((((((3,(7,10)),(4,11)),5),((6,(18,19)),(2,13))),((17,(9,(12,16))),(8,(1,(14,(15,20)))))),21);
((((((2,5),(13,(7,(11,(3,(10,4)))))),(6,(18,19))),((9,16),(12,17))),(8,(1,(14,(15,20))))),21);
(((((((((4,11),(3,7)),10),(2,5)),13),(6,(18,19))),(17,(12,(9,(15,16))))),(8,(20,(1,14)))),21);
(((((((((3,7),10),(2,5)),(4,11)),13),(17,(12,(9,16)))),(6,(18,19))),(1,(8,(14,(15,20))))),21);
(((((((((7,(3,4)),11),10),(2,5)),13),(6,(18,19))),(17,(12,(9,16)))),(1,(8,(14,(15,20))))),21);
((((((((((3,11),(4,10)),7),(2,5)),13),(6,(18,19))),(17,(12,(9,16)))),(1,(14,(15,20)))),8),21);
((((((((7,((4,11),3)),10),(2,5)),13),(6,(18,19))),(17,(12,(9,16)))),(8,(15,(1,(14,20))))),21);
((((((((3,(10,(4,11))),7),(2,5)),13),(6,(18,19))),(12,(17,(9,16)))),(8,(1,(20,(14,15))))),21);
(((((((((7,(3,11)),10),4),(2,5)),13),(6,(18,19))),(17,(12,(9,(15,16))))),(1,(8,(14,20)))),21);
