(21,((14,(1,7)),((12,(13,(5,11))),(16,((4,(2,18)),((15,20),((6,(8,17)),((9,10),(3,19)))))))));
(21,((1,(7,14)),(((20,(2,4)),((16,18),(15,((10,(9,19)),(3,(8,(6,17))))))),(12,(5,(11,13))))));
(21,((15,((20,((2,16),(4,18))),(3,((19,(9,10)),(6,(8,17)))))),((12,(5,(11,13))),(1,(7,14)))));
(21,((((19,(9,10)),(3,(6,(8,17)))),((4,(2,(16,18))),(15,20))),((12,(11,(5,13))),(1,(7,14)))));
(21,(((3,(8,17)),(15,((6,(19,(9,10))),(4,(2,(20,(16,18))))))),((12,(5,(11,13))),(1,(7,14)))));
(21,(((3,((6,(8,17)),(19,(9,10)))),(15,((2,4),(20,(16,18))))),((12,(5,(11,13))),(1,(7,14)))));
(21,((12,(13,(5,11))),((3,((4,((19,(6,17)),(8,(9,10)))),(15,(20,(16,(2,18)))))),(1,(7,14)))));
(21,(((20,(18,(2,(4,16)))),(15,((6,10),(3,((8,17),(9,19)))))),((12,(13,(5,11))),(1,(7,14)))));
(21,(((20,(4,(2,(16,18)))),(((8,17),(6,19)),(15,(3,(9,10))))),((1,(7,14)),(12,(13,(5,11))))));
(21,((17,((15,(20,(4,(2,(16,18))))),(3,(9,((10,19),(6,8)))))),(1,((7,14),(12,(5,(11,13)))))));
(21,((15,((20,(2,(16,(4,18)))),((6,(8,17)),(3,(19,(9,10)))))),((12,(13,(5,11))),(1,(7,14)))));
(21,(((7,14),((5,13),(11,12))),(1,(3,(((8,17),(10,(9,19))),(15,(6,(20,(4,(2,(16,18)))))))))));
(21,((((4,(16,18)),(2,20)),(15,((6,(8,17)),(3,(19,(9,10)))))),((12,(11,(5,13))),(1,(7,14)))));
(21,((1,(7,14)),((12,(13,(5,11))),((4,20),(15,((2,(16,18)),((8,(6,17)),(3,(19,(9,10))))))))));
(21,((20,((4,(2,(16,18))),(15,((17,(6,8)),(3,(19,(9,10))))))),((1,12),((7,14),(13,(5,11))))));
(21,((1,(7,14)),(((4,(3,(17,(6,8)))),((18,(2,16)),((9,(10,19)),(15,20)))),((5,11),(12,13)))));
(21,((((10,19),(3,(6,8))),(15,((9,17),((4,16),(20,(2,18)))))),((12,(5,(11,13))),(1,(7,14)))));
(21,(((20,(16,18)),((19,(9,10)),((3,(6,(8,17))),(15,(2,4))))),((12,(11,(5,13))),(1,(7,14)))));
(21,((((9,(10,19)),(8,(6,17))),((4,20),(3,(15,(2,(16,18)))))),((12,(11,(5,13))),(1,(7,14)))));
(21,(((((9,10),(6,(8,17))),(3,19)),(15,(20,((16,18),(2,4))))),((12,(11,(5,13))),(1,(7,14)))));
(21,((1,(7,14)),(((20,((16,18),(2,4))),(15,(3,((19,(9,10)),(6,(8,17)))))),(12,(13,(5,11))))));
(21,((15,((((16,18),(2,4)),((8,(6,17)),(9,19))),(20,(3,10)))),(12,((5,(11,13)),(1,(7,14))))));
(21,((1,(7,14)),(((20,((16,18),(2,4))),(15,((3,6),((8,17),(19,(9,10)))))),(12,(5,(11,13))))));
(21,((((8,19),(4,15)),(((9,10),(3,(6,17))),(20,(2,(16,18))))),((12,(5,(11,13))),(1,(7,14)))));
(21,(((12,(13,(5,11))),(1,(7,14))),((2,15),((19,(9,10)),((20,(4,(16,18))),(3,(8,(6,17))))))));
(21,((((20,(4,(16,(2,18)))),(3,15)),((6,(8,17)),(19,(9,10)))),((7,14),(1,(12,(5,(11,13)))))));
(21,((1,(7,14)),((15,((2,((9,10),(3,19))),((6,(8,17)),(4,(20,(16,18)))))),(12,(11,(5,13))))));
(21,((15,((2,20),((6,(8,17)),((4,(16,18)),(3,(9,(10,19))))))),((12,(11,(5,13))),(1,(7,14)))));
(((((9,19),(3,10)),(15,((17,(6,8)),(20,(2,(4,(16,18))))))),((12,(13,(5,11))),(1,(7,14)))),21);
(21,((((3,6),(15,((16,18),(2,4)))),(20,(19,((9,10),(8,17))))),((1,(7,14)),(12,(5,(11,13))))));
(21,(((3,((8,17),(10,19))),((20,(2,(4,(16,18)))),(15,(6,9)))),((1,(7,14)),(12,(5,(11,13))))));
(21,((15,((3,(19,(9,10))),((8,(6,17)),((4,(16,18)),(2,20))))),((12,(13,(5,11))),(1,(7,14)))));
(21,((1,(7,14)),(((20,(2,(4,(16,18)))),(15,(8,(3,((6,17),(10,(9,19))))))),(12,(11,(5,13))))));
(21,((15,(20,(((9,10),(19,(17,(6,8)))),(3,(4,(2,(16,18))))))),((12,(13,(5,11))),(1,(7,14)))));
(21,(((15,(20,((16,18),(2,4)))),((6,8),((10,19),(3,(9,17))))),((12,(11,(5,13))),(1,(7,14)))));
(21,((15,((4,(16,18)),((2,20),((9,19),(3,(10,(8,(6,17)))))))),((12,(11,(5,13))),(1,(7,14)))));
(21,((20,(3,(((8,(6,17)),(19,(9,10))),(15,(4,(2,(16,18))))))),((1,(7,14)),(5,(12,(11,13))))));
(21,((((3,(9,19)),(6,(10,(8,17)))),(((16,18),(2,4)),(15,20))),((12,(5,(11,13))),(1,(7,14)))));
(21,((15,((4,(2,(16,18))),(20,(3,((6,(8,17)),(19,(9,10))))))),((12,(13,(5,11))),(1,(7,14)))));
(21,(((19,(9,10)),((4,20),((3,(6,(8,17))),(15,(2,(16,18)))))),((12,(11,(5,13))),(1,(7,14)))));
(21,((15,((20,(2,(4,(16,18)))),((6,(8,17)),(3,(19,(9,10)))))),((12,(5,(11,13))),(1,(7,14)))));
(21,((1,(7,14)),((12,(13,(5,11))),((3,((19,(9,10)),(6,(8,17)))),(15,((16,18),(4,(2,20))))))));
(21,((12,(1,(7,14))),((11,(5,13)),(((4,(2,(16,18))),(3,((9,19),(10,(6,(8,17)))))),(15,20)))));
(21,((15,((19,(9,10)),((20,(2,(4,(16,18)))),(3,(6,(8,17)))))),((12,(11,(5,13))),(1,(7,14)))));
(21,((19,(15,((17,(3,((9,10),(6,8)))),(20,(4,(2,(16,18))))))),((12,(13,(5,11))),(1,(7,14)))));
(21,(((15,((2,(16,18)),(4,20))),((6,8),(17,(3,(10,(9,19)))))),((7,14),(1,((5,11),(12,13))))));
(21,((1,(7,14)),(((3,(9,10)),(15,((20,((2,18),(4,16))),((6,8),(17,19))))),(12,(13,(5,11))))));
(21,((4,(((3,(19,(9,10))),(15,(2,(16,18)))),(20,(6,(8,17))))),((1,(7,14)),(12,(13,(5,11))))));
(21,((1,(7,14)),((15,((20,(2,(16,18))),(4,((19,((8,17),(9,10))),(3,6))))),(12,(5,(11,13))))));
(21,((((2,18),(20,(4,16))),(3,(15,((10,(9,19)),(6,(8,17)))))),((12,(13,(5,11))),(1,(7,14)))));
(21,(((2,(16,18)),((19,(3,(9,10))),(15,((6,(8,17)),(4,20))))),(1,((7,14),(12,(13,(5,11)))))));
(21,(((15,(20,(4,(2,(16,18))))),((6,(8,17)),(3,(19,(9,10))))),((12,(5,(11,13))),(1,(7,14)))));
(21,(((20,(4,(2,(16,18)))),(15,((19,(9,10)),(3,(17,(6,8)))))),((12,(5,(11,13))),(1,(7,14)))));
(21,(((3,(20,(4,(2,18)))),((6,8),(16,(15,(17,(10,(9,19))))))),((12,(11,(5,13))),(1,(7,14)))));
(21,((((15,((6,8),(3,17))),((19,(9,10)),((16,18),(20,(2,4))))),(12,(11,(5,13)))),(1,(7,14))));
(21,((((3,((8,17),(9,(10,19)))),((2,(4,(16,18))),(15,(6,20)))),(12,(13,(5,11)))),(1,(7,14))));
(21,((15,(((3,(6,(8,17))),(19,(9,10))),((2,(16,18)),(4,20)))),((12,(11,(5,13))),(1,(7,14)))));
(21,(((((6,8),(9,(10,19))),(3,17)),((20,(2,(16,18))),(4,15))),((1,(7,14)),(12,(5,(11,13))))));
(21,(((19,(9,10)),((20,(4,(2,(16,18)))),(15,(3,(6,(8,17)))))),((12,(13,(5,11))),(1,(7,14)))));
(21,(((6,(8,17)),((3,(10,(9,19))),((20,(2,4)),(15,(16,18))))),((12,(13,(5,11))),(1,(7,14)))));
(21,(((20,(4,(2,(16,18)))),(15,(3,((8,17),(6,(10,(9,19))))))),((12,(13,(5,11))),(1,(7,14)))));
(21,((((9,10),(15,(4,(2,(16,18))))),(6,(20,((8,17),(3,19))))),((12,(5,(11,13))),(1,(7,14)))));
(21,((20,((4,(2,(16,18))),((3,(17,(6,8))),(15,(19,(9,10)))))),((1,(7,14)),(12,(11,(5,13))))));
(21,((1,(7,14)),((((4,(16,18)),(2,20)),(15,(3,((6,17),(8,(19,(9,10))))))),(12,(13,(5,11))))));
(21,(((4,(20,(16,(2,18)))),(15,(3,((10,(9,19)),(8,(6,17)))))),((1,(7,14)),(12,(13,(5,11))))));
(21,(((16,18),(((10,(6,(8,17))),(3,(9,19))),(15,(2,(4,20))))),((1,(7,14)),(12,(5,(11,13))))));
(21,(((15,(19,(6,(8,17)))),(20,(4,(3,((9,10),(16,(2,18))))))),((1,(7,14)),(11,(12,(5,13))))));
(21,((1,(7,14)),(((3,(6,17)),(15,(((9,10),(8,19)),((2,4),(20,(16,18)))))),(12,(5,(11,13))))));
(21,((((19,(9,10)),(3,(6,(8,17)))),(15,(20,(4,(16,(2,18)))))),((1,(7,14)),(12,(5,(11,13))))));
(21,((1,(7,14)),(((20,((16,18),(2,4))),((3,(6,(8,17))),(15,(19,(9,10))))),(12,(5,(11,13))))));
(21,((((10,19),(17,(6,8))),(15,((4,18),(20,((2,16),(3,9)))))),((12,(11,(5,13))),(1,(7,14)))));
(21,((((19,(8,17)),(3,(6,9))),((20,((16,18),(2,4))),(10,15))),((12,(13,(5,11))),(1,(7,14)))));
(21,((1,(7,14)),(((19,(9,10)),((6,(3,(8,17))),((2,(16,18)),(15,(4,20))))),(12,(11,(5,13))))));
(21,(((12,(13,(5,11))),(1,(7,14))),((20,((9,10),((4,16),(2,18)))),(3,(15,(19,(17,(6,8))))))));
(21,(((11,(5,13)),(1,(7,14))),(12,(15,((20,((16,18),(2,4))),(3,((6,(8,17)),(19,(9,10)))))))));
(21,((1,(7,14)),((18,((20,(4,(2,16))),(15,((9,10),(3,(19,(6,(8,17)))))))),(12,(5,(11,13))))));
(21,((12,((3,(6,((8,17),(19,(9,10))))),(15,(4,(20,(16,(2,18))))))),((11,(5,13)),(1,(7,14)))));
(21,((20,((15,((10,(9,19)),(6,(8,17)))),(3,(2,(4,(16,18)))))),((12,(5,(11,13))),(1,(7,14)))));
(21,(((3,((19,(9,10)),(6,(8,17)))),(15,((18,(2,16)),(4,20)))),((7,14),(1,(12,(13,(5,11)))))));
(21,(((15,(3,((19,(9,10)),(8,(6,17))))),(20,(4,(2,(16,18))))),((12,(13,(5,11))),(1,(7,14)))));
(21,(((2,18),(((8,17),((10,(9,19)),(3,6))),(15,(20,(4,16))))),((1,(7,14)),(12,(11,(5,13))))));
(21,((3,((2,(20,(4,(16,18)))),(15,((19,(9,10)),(6,(8,17)))))),((7,14),(1,(12,(5,(11,13)))))));
(21,((((3,6),((8,17),(19,(9,10)))),((4,20),(15,(2,(16,18))))),((1,(7,14)),(12,(11,(5,13))))));
(21,((((4,(2,(16,18))),(3,(19,((9,10),(6,(8,17)))))),(15,20)),((12,(11,(5,13))),(1,(7,14)))));
(21,((1,(7,14)),((((8,17),(15,(4,(16,(2,18))))),((6,(10,(9,19))),(3,20))),(12,(11,(5,13))))));
(21,((((4,(2,(16,18))),(3,(19,((9,10),(6,(8,17)))))),(15,20)),((12,(11,(5,13))),(1,(7,14)))));
(21,(((15,(3,(17,(6,8)))),((19,(9,10)),(4,(20,(16,(2,18)))))),((1,(7,14)),(12,(5,(11,13))))));
(21,((9,(15,((3,(6,((8,17),(10,19)))),((4,(16,18)),(2,20))))),((12,(13,(5,11))),(1,(7,14)))));
(21,((20,((3,((6,(8,17)),(19,(9,10)))),(15,((2,16),(4,18))))),((12,(5,(11,13))),(1,(7,14)))));
(21,((((2,4),(20,(16,18))),(15,((10,19),(3,((8,17),(6,9)))))),(1,((13,(5,11)),(12,(7,14))))));
(21,((((6,8),(15,(4,20))),(3,((2,(16,18)),(9,(17,(10,19)))))),((1,(7,14)),(12,(11,(5,13))))));
(21,(((12,(5,(11,13))),(1,(7,14))),(20,((18,(4,(2,16))),(3,(15,(19,(6,((9,10),(8,17))))))))));
(21,(((20,(2,(4,(16,18)))),(15,((3,(6,17)),(8,(10,(9,19)))))),((12,(5,(11,13))),(1,(7,14)))));
(21,((1,(7,14)),((((6,8),(17,(19,(9,10)))),(15,(3,(20,(4,(2,(16,18))))))),(12,(13,(5,11))))));
(21,(((3,((17,(6,8)),(19,(9,10)))),(15,(2,(20,(4,(16,18)))))),((1,(7,14)),(5,(12,(11,13))))));
(21,((7,(1,14)),((15,((4,(16,18)),((2,20),(3,((6,(8,17)),(19,(9,10))))))),(12,(13,(5,11))))));
(21,(((3,(17,((9,(10,19)),(6,8)))),(15,((18,(2,16)),(4,20)))),((12,(11,(5,13))),(1,(7,14)))));
(21,((15,(((6,(8,17)),(3,(19,(9,10)))),((4,16),(20,(2,18))))),((12,(5,(11,13))),(1,(7,14)))));
(21,((7,14),((20,((3,(16,(2,(4,18)))),((19,(9,10)),(15,(6,(8,17)))))),(1,(12,(11,(5,13)))))));
(21,(((15,(20,(4,(16,18)))),(2,((6,(8,17)),(3,(10,(9,19)))))),((1,(7,14)),(12,(11,(5,13))))));
(21,(((3,((10,19),(9,(6,(8,17))))),(15,((4,(16,18)),(2,20)))),((12,(11,(5,13))),(1,(7,14)))));
(21,(((20,((16,18),(2,4))),(15,(((9,19),(6,(8,17))),(3,10)))),((12,(13,(5,11))),(1,(7,14)))));
(21,((1,(7,14)),(((4,(2,(16,18))),((3,(19,((9,10),(8,(6,17))))),(15,20))),(12,(5,(11,13))))));
(21,(((10,((8,17),(3,(6,(9,19))))),(15,((2,(16,18)),(4,20)))),((12,(13,(5,11))),(1,(7,14)))));
(21,((20,(((9,10),(3,(19,(8,(6,17))))),(15,(4,(18,(2,16)))))),((1,(7,14)),(12,(11,(5,13))))));
(21,(((15,(6,(19,(3,((9,10),(8,17)))))),(20,(4,(2,(16,18))))),((12,(13,(5,11))),(1,(7,14)))));
(21,((1,(7,14)),((12,(11,(5,13))),(((6,(8,17)),(19,(9,10))),(3,(15,((2,4),(20,(16,18)))))))));
(21,((((3,9),(4,(20,(2,(16,18))))),(15,((8,17),(6,(10,19))))),((12,(11,(5,13))),(1,(7,14)))));
(21,(((3,(9,(17,(6,8)))),((15,(10,19)),(20,(4,(2,(16,18)))))),((1,(7,14)),(12,(5,(11,13))))));
(21,(((3,((2,(20,(4,(16,18)))),(15,(19,((9,10),(6,(8,17))))))),(13,(5,11))),(12,(1,(7,14)))));
(21,(((12,(13,(5,11))),(((17,(6,8)),(3,(9,(10,19)))),(15,(20,(4,(2,(16,18))))))),(1,(7,14))));
(21,(((15,((3,(6,8)),(4,20))),((2,(16,18)),(17,(19,(9,10))))),((12,(5,(11,13))),(1,(7,14)))));
(21,(((20,(4,(2,(16,18)))),(15,(3,((17,(6,8)),(19,(9,10)))))),((12,(13,(5,11))),(1,(7,14)))));
(21,((1,(7,14)),((20,((3,15),(((8,(6,17)),(19,(9,10))),(2,(4,(16,18)))))),(12,(5,(11,13))))));
(21,(((((2,16),(4,18)),(15,(3,19))),(20,((9,10),(6,(8,17))))),((12,(13,(5,11))),(1,(7,14)))));
(21,((1,(7,14)),(((15,((2,(16,18)),(4,20))),(19,((9,10),(3,(8,(6,17)))))),(12,(5,(11,13))))));
(21,(((20,(4,(2,(16,18)))),(15,(3,((19,(9,10)),(6,(8,17)))))),((12,(5,(11,13))),(1,(7,14)))));
(21,(((9,(10,19)),(((4,(2,(16,18))),(3,(6,(8,17)))),(15,20))),((1,(7,14)),((5,11),(12,13)))));
(21,((1,(7,14)),((20,(15,((4,(16,(2,18))),(10,(3,((17,(6,8)),(9,19))))))),(12,(5,(11,13))))));
(21,(((6,(3,((8,17),(9,(10,19))))),(15,(20,((2,16),(4,18))))),((12,(5,(11,13))),(1,(7,14)))));
(21,((((3,(6,(8,17))),(15,(2,(4,(16,18))))),(19,(20,(9,10)))),((12,(13,(5,11))),(1,(7,14)))));
(21,((1,((7,14),(12,(11,(5,13))))),((4,(2,(16,18))),(20,(15,((19,(9,10)),(3,(6,(8,17)))))))));
(21,((1,(7,14)),(((6,(20,(2,(16,(4,18))))),(15,((8,17),(3,(19,(9,10)))))),(12,(13,(5,11))))));
(21,((12,((19,(3,((9,10),(6,(8,17))))),(20,(15,(2,(4,(16,18))))))),((7,14),(1,(5,(11,13))))));
(21,(((6,(8,17)),(20,(((16,18),(2,4)),(15,(3,(19,(9,10))))))),((1,(7,14)),(12,(13,(5,11))))));
(21,((12,(1,(7,14))),((11,(5,13)),((3,(19,(9,10))),((20,(18,(2,16))),((17,(6,8)),(4,15)))))));
(21,(((15,(19,(6,((9,10),(8,17))))),(3,(20,((2,18),(4,16))))),((12,(11,(5,13))),(1,(7,14)))));
(21,(((15,(9,10)),((19,(8,(3,(6,17)))),(2,(20,(4,(16,18)))))),((12,(5,(11,13))),(1,(7,14)))));
(21,((15,(((4,(16,18)),(2,20)),((6,(8,17)),(3,(19,(9,10)))))),((1,(7,14)),(12,(5,(11,13))))));
(21,((((2,(16,18)),(4,20)),(((10,19),(8,(6,9))),(15,(3,17)))),(12,((13,(5,11)),(1,(7,14))))));
(21,((15,(((2,4),(20,(16,18))),((19,(9,10)),((8,17),(3,6))))),((1,(7,14)),(12,(5,(11,13))))));
(21,(((3,((8,(6,17)),(19,(9,10)))),(15,(20,(4,(2,(16,18)))))),((12,(5,(11,13))),(1,(7,14)))));
(21,(((4,(2,(16,18))),((3,((6,(8,17)),(9,(10,19)))),(15,20))),((1,(7,14)),(12,(5,(11,13))))));
(21,(((2,16),((20,(4,18)),(15,((6,(8,17)),((9,10),(3,19)))))),(1,((7,14),(12,(13,(5,11)))))));
(21,(((12,(5,(11,13))),(3,(((19,(9,10)),(8,(6,17))),(20,(15,(2,(4,(16,18)))))))),(1,(7,14))));
(21,(((20,(4,(18,(2,16)))),(15,((6,(8,17)),(3,(19,(9,10)))))),((12,(13,(5,11))),(1,(7,14)))));
(21,((15,((3,(19,(6,(8,17)))),((9,10),(20,(2,(4,(16,18))))))),(1,((7,14),(12,(5,(11,13)))))));
(21,((1,(7,14)),(((9,((10,(8,19)),(3,(6,17)))),((2,16),(15,(4,(18,20))))),(12,(5,(11,13))))));
(21,((12,(((4,(2,(16,18))),(3,15)),(20,((19,(9,10)),(6,(8,17)))))),((11,(5,13)),(1,(7,14)))));
(21,((20,((3,((10,(9,19)),(6,(8,17)))),(15,(18,(4,(2,16)))))),(1,((7,14),((11,13),(5,12))))));
(21,(((6,(9,10)),((3,(19,(8,17))),(15,(20,((16,18),(2,4)))))),((1,(7,14)),(12,(13,(5,11))))));
(21,((((19,(9,10)),(3,(2,20))),((4,(16,18)),(15,(6,(8,17))))),((12,(5,(11,13))),(1,(7,14)))));
(21,((((19,(9,10)),(3,8)),((6,17),(20,(15,((16,18),(2,4)))))),((12,(13,(5,11))),(1,(7,14)))));
(21,((15,((20,((16,18),(2,4))),((9,10),((8,(6,17)),(3,19))))),((12,(5,(11,13))),(1,(7,14)))));
(21,(((19,((9,10),(3,(6,(8,17))))),(15,(20,(4,(2,(16,18)))))),((11,(5,13)),(12,(1,(7,14))))));
(21,(((4,(20,(18,(2,16)))),(6,(15,((3,(8,17)),(10,(9,19)))))),((1,(7,14)),(12,(11,(5,13))))));
(21,(((6,(8,17)),((16,(20,(4,(2,18)))),(15,((9,10),(3,19))))),((1,(7,14)),(12,(11,(5,13))))));
(21,(((9,19),(15,((3,(10,(6,(8,17)))),(20,(2,(4,(16,18))))))),((1,(7,14)),(12,(13,(5,11))))));
(21,(((12,(5,11)),(13,((4,18),((2,16),(15,(20,((9,10),(3,(19,(8,(6,17))))))))))),(1,(7,14))));
(21,(((2,(20,(4,(16,18)))),(3,(15,((19,(9,10)),(8,(6,17)))))),(1,((7,14),(12,(11,(5,13)))))));
(21,(((2,4),((3,((6,(8,17)),(19,(9,10)))),(15,(20,(16,18))))),((1,(7,14)),(12,(11,(5,13))))));
(21,((1,(7,14)),((((3,(8,17)),((9,10),(6,19))),(15,(2,(20,(4,(16,18)))))),(12,(11,(5,13))))));
(21,(((20,(4,(16,18))),(2,(15,(10,(19,((6,(8,17)),(3,9))))))),((12,(5,(11,13))),(1,(7,14)))));
(21,(((20,(3,19)),((4,(16,(2,18))),(15,(6,((8,17),(9,10)))))),((12,(5,(11,13))),(1,(7,14)))));
(21,(((20,((16,18),(2,4))),(15,(3,((8,(6,17)),(19,(9,10)))))),((12,(11,(5,13))),(1,(7,14)))));
(21,(((3,(9,10)),((19,(8,(6,17))),(15,((4,(2,18)),(16,20))))),((12,(11,(5,13))),(1,(7,14)))));
(21,(((((2,16),(4,18)),(3,((6,(8,17)),(9,19)))),(10,(15,20))),((12,(5,(11,13))),(1,(7,14)))));
(21,((1,(7,14)),((12,(5,(11,13))),(15,(((9,10),(3,(19,(6,(8,17))))),(20,(16,(4,(2,18)))))))));
(21,(((19,20),(((16,18),(2,4)),(15,((8,17),(3,(6,(9,10))))))),((12,(5,(11,13))),(1,(7,14)))));
(21,(((3,15),(((19,(8,17)),(6,(9,10))),(20,(4,(2,(16,18)))))),((12,(11,(5,13))),(7,(1,14)))));
(21,((15,(((19,(9,10)),(20,(4,(2,(16,18))))),((6,17),(3,8)))),((12,(13,(5,11))),(1,(7,14)))));
(21,(((12,(13,(5,11))),(1,(7,14))),((3,(17,((6,8),(19,(9,10))))),(20,(15,(4,(2,(16,18))))))));
(21,(((19,(9,10)),(((16,18),(2,4)),((3,(6,(8,17))),(15,20)))),((12,(13,(5,11))),(1,(7,14)))));
(21,(((3,(10,(9,19))),((6,(8,17)),(20,(15,(18,(4,(2,16))))))),((12,(5,(11,13))),(1,(7,14)))));
(21,(((15,20),(((16,18),(6,(8,17))),((19,(9,10)),(3,(2,4))))),((7,14),(1,(12,(5,(11,13)))))));
(21,(((20,(2,4)),(15,((3,(6,10)),((16,18),(9,(19,(8,17))))))),((12,(13,(5,11))),(1,(7,14)))));
(21,(((15,20),((3,((9,19),(10,(17,(6,8))))),((2,16),(4,18)))),((1,(7,14)),(12,(13,(5,11))))));
(21,(((19,(6,(8,17))),((3,(9,10)),(15,(4,(2,(16,18)))))),(20,((12,13),((5,11),(1,(7,14)))))));
(21,(((15,(4,(2,(16,18)))),(20,(10,((9,19),(3,(8,(6,17))))))),((12,(13,(5,11))),(1,(7,14)))));
(21,(((20,(3,((19,(9,10)),(6,(8,17))))),(15,(2,(4,(16,18))))),((7,14),(1,(12,(5,(11,13)))))));
(21,((1,(7,14)),(((2,15),(20,((4,(16,18)),(6,((8,17),(3,(9,(10,19)))))))),(12,(11,(5,13))))));
(21,(((6,(3,(10,19))),((2,(4,(16,18))),(15,(20,(9,(8,17)))))),((12,(13,(5,11))),(1,(7,14)))));
(21,((15,((20,(4,(2,(16,18)))),(((9,10),(6,17)),(3,(8,19))))),((12,(13,(5,11))),(1,(7,14)))));
(21,(((4,((19,(9,10)),(6,(3,(8,17))))),(15,(20,(16,(2,18))))),((7,14),(1,(12,(11,(5,13)))))));
(21,((1,(7,14)),(((15,(4,(9,10))),(3,((8,20),((18,(2,16)),(19,(6,17)))))),(12,(13,(5,11))))));
(21,(((20,((16,18),(2,4))),(((9,10),(6,(8,17))),(3,(15,19)))),((12,(11,(5,13))),(1,(7,14)))));
(21,((((8,(19,(9,10))),(3,(6,17))),(15,(20,(2,(4,(16,18)))))),((12,(5,(11,13))),(1,(7,14)))));
(21,((15,(((9,10),(19,(3,(17,(6,8))))),((2,(16,18)),(4,20)))),((12,(11,(5,13))),(1,(7,14)))));
(21,((((19,(9,10)),(3,(6,(8,17)))),(15,((4,(16,18)),(2,20)))),((12,(11,(5,13))),(1,(7,14)))));
(21,(((20,(2,(16,18))),(((6,17),((10,19),(3,(8,9)))),(4,15))),((12,(5,(11,13))),(1,(7,14)))));
(21,((((19,(17,(9,10))),(3,(20,(18,(2,16))))),((6,8),(4,15))),((12,(13,(5,11))),(1,(7,14)))));
(21,((1,(7,14)),(((20,(2,15)),((4,(16,18)),((17,(6,8)),(3,(19,(9,10)))))),(12,(11,(5,13))))));
(21,((((9,10),(19,(3,(6,(8,17))))),(15,(20,(4,(2,(16,18)))))),((1,(7,14)),(12,(13,(5,11))))));
(21,((((9,19),(3,(6,10))),(15,((8,17),(20,((2,16),(4,18)))))),((1,(7,14)),(12,(13,(5,11))))));
(21,((((2,20),(4,(16,18))),((6,(8,17)),(15,(3,(19,(9,10)))))),((12,(11,(5,13))),(1,(7,14)))));
(21,(((((16,18),(2,4)),((9,10),(8,17))),(15,(20,(6,(3,19))))),(12,((5,(11,13)),(1,(7,14))))));
(21,((((10,(9,19)),(6,(8,17))),(3,(15,(20,(4,(18,(2,16))))))),((1,(7,14)),(12,(11,(5,13))))));
(21,(((3,(6,(8,17))),((10,(9,19)),((2,4),(15,(20,(16,18)))))),((1,(7,14)),(13,(12,(5,11))))));
(21,((((9,10),(3,(19,(6,(8,17))))),((2,(16,18)),(20,(4,15)))),((1,(7,14)),(12,(5,(11,13))))));
(21,(((18,(2,16)),((4,20),(15,((3,19),((6,(8,17)),(9,10)))))),((1,(7,14)),(12,(13,(5,11))))));
(21,(((3,(6,17)),((8,(19,(9,10))),(15,(20,((16,18),(2,4)))))),((11,(5,13)),(12,(1,(7,14))))));
(21,((1,(7,14)),(((3,((8,(6,17)),(19,(9,10)))),((4,(2,(16,18))),(15,20))),(12,(13,(5,11))))));
(21,((20,(15,((3,6),(((8,17),(19,(9,10))),(4,(2,(16,18))))))),((1,(7,14)),(12,(11,(5,13))))));
(21,(((10,(9,19)),(15,((2,(20,(4,(16,18)))),(6,(3,(8,17)))))),((12,(13,(5,11))),(1,(7,14)))));
(21,(((4,(2,(16,18))),((3,(9,((6,(8,17)),(10,19)))),(15,20))),((12,(11,(5,13))),(1,(7,14)))));
(21,((12,(11,(5,13))),(((6,(8,17)),((3,(15,(2,(16,18)))),((4,20),(19,(9,10))))),(1,(7,14)))));
(21,((15,(((17,19),(3,(6,8))),((9,10),((2,18),(16,(4,20)))))),((12,(11,(5,13))),(1,(7,14)))));
(21,(((6,(9,(8,17))),((3,(10,19)),(15,(20,(4,(18,(2,16))))))),((12,(13,(5,11))),(1,(7,14)))));
(21,((15,((10,19),(((2,4),(20,(16,18))),(9,(3,(17,(6,8))))))),((1,(7,14)),(12,(11,(5,13))))));
(21,(((15,((6,(8,17)),(20,(2,(4,(16,18)))))),(3,(19,(9,10)))),((12,(5,(11,13))),(1,(7,14)))));
(21,(((15,20),((4,(16,18)),(2,((10,(9,19)),(3,(6,(8,17))))))),((12,(5,(11,13))),(1,(7,14)))));
(21,(((20,(2,(4,(16,18)))),((6,(3,((9,10),(8,17)))),(15,19))),((7,14),(1,(12,(13,(5,11)))))));
(21,((((19,(9,10)),(6,(8,17))),(3,(15,((18,(2,16)),(4,20))))),((12,(5,(11,13))),(1,(7,14)))));
(21,(((10,(3,((6,(8,17)),(9,19)))),(20,(15,(4,(2,(16,18)))))),((1,(7,14)),(12,(11,(5,13))))));
(21,((((9,10),(2,(18,(4,16)))),(3,((19,(6,(8,17))),(15,20)))),((12,(5,(11,13))),(1,(7,14)))));
(21,(((15,(3,(9,10))),((19,(17,(6,8))),((2,20),(4,(16,18))))),((12,(5,(11,13))),(1,(7,14)))));
(21,(((20,(4,(16,18))),(15,(2,((6,(19,(9,10))),(3,(8,17)))))),((12,(11,(5,13))),(1,(7,14)))));
(21,((15,((4,(20,(16,(2,18)))),((3,19),(17,((9,10),(6,8)))))),((12,(5,(11,13))),(1,(7,14)))));
(21,(((6,(9,10)),(15,((20,(4,(2,(16,18)))),(3,(19,(8,17)))))),(1,((7,14),(12,(5,(11,13)))))));
(21,(((3,(2,(15,(4,(16,18))))),(20,((19,(9,10)),(6,(8,17))))),((12,(5,(11,13))),(1,(7,14)))));
(21,(((15,18),((20,(2,(4,16))),(3,((17,(6,8)),(9,(10,19)))))),((1,(7,14)),(12,(11,(5,13))))));
(21,(((3,(6,(8,17))),(15,((9,(10,19)),(20,(4,(2,(16,18))))))),((12,(5,(11,13))),(1,(7,14)))));
(21,(((19,(8,17)),(15,(((9,10),((16,18),(2,4))),(20,(3,6))))),((12,(11,(5,13))),(1,(7,14)))));
(21,(((3,((9,10),(19,(6,(8,17))))),(15,(4,(20,(2,(16,18)))))),((1,(7,14)),(12,(13,(5,11))))));
(21,(((20,(4,(2,16))),(18,(15,(3,((6,(8,17)),(19,(9,10))))))),((12,(5,(11,13))),(1,(7,14)))));
(21,((15,(20,((4,(2,(16,18))),(3,((6,(8,17)),(19,(9,10))))))),((5,(12,(11,13))),(1,(7,14)))));
(21,((3,((20,((4,(2,(16,18))),(17,19))),(15,((6,8),(9,10))))),((7,14),(1,(12,(5,(11,13)))))));
(21,((1,(7,14)),((12,(11,(5,13))),(15,(((3,(8,17)),((9,19),(6,10))),((4,(16,18)),(2,20)))))));
(21,(((15,20),(3,(((6,(9,10)),(19,(8,17))),(4,(16,(2,18)))))),((12,(5,(11,13))),(1,(7,14)))));
(21,((((19,(9,10)),(3,(6,(8,17)))),(15,(20,(4,(2,(16,18)))))),((12,(11,(5,13))),(1,(7,14)))));
(21,((1,(7,14)),(((3,(19,((9,10),(6,(8,17))))),(15,(20,(4,(16,(2,18)))))),(12,(11,(5,13))))));
(21,((1,(7,14)),((20,((3,19),(((9,10),(6,(8,17))),(15,(4,(2,(16,18))))))),(12,(11,(5,13))))));
(21,((15,((20,(2,(16,18))),(4,(6,(3,(19,((9,10),(8,17)))))))),((12,(11,(5,13))),(1,(7,14)))));
(21,((1,(7,14)),((15,((20,((2,18),(4,16))),((6,(8,17)),(19,(3,(9,10)))))),(12,(11,(5,13))))));
(21,((((3,9),(6,((8,17),(10,19)))),(15,((4,(2,16)),(18,20)))),(1,((7,14),(12,(13,(5,11)))))));
(21,(((3,20),((2,(4,(16,18))),(15,((8,17),(9,(6,(10,19))))))),((1,(7,14)),(12,(5,(11,13))))));
(21,((15,((3,(19,(8,17))),((6,(9,10)),(20,((16,18),(2,4)))))),((12,(11,(5,13))),(1,(7,14)))));
(21,(((((9,10),(6,(8,17))),(3,19)),(15,((4,16),(20,(2,18))))),((1,(7,14)),(12,(13,(5,11))))));
(21,(((3,(8,17)),(20,((4,((10,19),(6,9))),(15,(2,(16,18)))))),((7,14),(1,(12,(11,(5,13)))))));
(21,((1,(7,14)),(((15,(4,(16,(2,18)))),((19,(8,17)),(20,(6,(3,(9,10)))))),(12,(11,(5,13))))));
(21,((15,((20,(4,(2,(16,18)))),((9,(10,19)),(3,(6,(8,17)))))),((7,(1,14)),(12,(5,(11,13))))));
(21,(((5,(11,13)),(1,(7,14))),(12,((6,(8,17)),((3,(19,(9,10))),(15,(20,((4,16),(2,18)))))))));
(21,((1,(7,14)),((((6,(8,17)),(3,(19,(9,10)))),(15,(4,(20,(2,(16,18)))))),(12,(5,(11,13))))));
(21,((3,((2,(20,(4,(16,18)))),(15,((19,(9,10)),(6,(8,17)))))),((12,(13,(5,11))),(1,(7,14)))));
(21,((1,(7,14)),((((8,19),(15,(20,(4,(16,18))))),(2,((9,10),(3,(6,17))))),(12,(13,(5,11))))));
(21,(((3,(19,(9,10))),((15,(16,18)),((6,(8,17)),(2,(4,20))))),((12,(5,(11,13))),(1,(7,14)))));
(21,(((3,(19,((9,10),(6,(8,17))))),(15,(20,(4,(2,(16,18)))))),((5,(12,(11,13))),(1,(7,14)))));
(21,((15,((20,(2,(4,(16,18)))),((8,17),(3,(6,(19,(9,10))))))),((12,(5,(11,13))),(1,(7,14)))));
(21,(((20,(3,((6,(8,17)),(19,(9,10))))),(15,(4,(2,(16,18))))),((12,(5,(11,13))),(1,(7,14)))));
(21,((((((2,18),(4,16)),(3,(9,(6,(8,17))))),(15,(20,(10,19)))),(11,(12,(5,13)))),(1,(7,14))));
(21,(((12,(5,13)),((4,(2,(16,18))),((3,((8,17),((9,19),(6,10)))),(15,20)))),(11,(1,(7,14)))));
(21,(((15,((9,10),(20,(2,16)))),((4,18),((6,(8,17)),(3,19)))),((12,(13,(5,11))),(1,(7,14)))));
(21,((((20,(2,(16,18))),(4,15)),((6,(19,(9,10))),(3,(8,17)))),((12,(13,(5,11))),(1,(7,14)))));
(21,(((3,(20,(4,(2,(16,18))))),(15,((8,17),((9,10),(6,19))))),((1,(7,14)),(12,(13,(5,11))))));
(21,(((3,(19,(9,10))),(((2,4),(20,(16,18))),(15,(6,(8,17))))),((12,(5,(11,13))),(1,(7,14)))));
(21,((1,(7,14)),(((15,((16,18),(20,(2,4)))),((17,(19,(6,8))),(3,(9,10)))),(12,(13,(5,11))))));
(21,((12,((16,18),((20,(2,4)),(15,(((9,10),(6,8)),(3,(17,19))))))),((5,(11,13)),(1,(7,14)))));
(21,((1,(7,14)),(((((8,17),(9,10)),(3,(6,19))),((2,18),(15,(20,(4,16))))),(12,(11,(5,13))))));
(21,((((4,(20,(2,(16,18)))),(15,(19,(9,10)))),(3,(6,(8,17)))),((1,(7,14)),(12,(5,(11,13))))));
(21,(((20,((2,18),(4,16))),(3,(15,((17,(6,8)),(19,(9,10)))))),((12,(11,(5,13))),(1,(7,14)))));
(21,(((2,(20,(4,(16,18)))),(15,(19,((9,10),(3,(6,(8,17))))))),((11,(12,(5,13))),(1,(7,14)))));
(21,((((2,(16,18)),(4,20)),(((9,10),(17,(6,8))),(15,(3,19)))),((12,(5,(11,13))),(1,(7,14)))));
(21,((15,((20,((4,16),(2,18))),((6,(8,17)),(3,(19,(9,10)))))),((12,(5,(11,13))),(1,(7,14)))));
(21,(((((20,(16,18)),(15,(2,4))),((6,(19,(9,10))),(3,(8,17)))),(12,(11,(5,13)))),(1,(7,14))));
(21,((1,(7,14)),((((8,17),(6,(10,19))),((3,(4,(20,(16,(2,18))))),(9,15))),(12,(13,(5,11))))));
(21,(((6,(9,10)),((15,18),((3,(19,(8,17))),(20,(4,(2,16)))))),(1,((7,14),(12,(13,(5,11)))))));
(21,(((15,((2,(16,18)),(4,20))),((19,(9,10)),(3,(6,(8,17))))),((1,(7,14)),(12,(13,(5,11))))));
(21,((18,((15,(3,(17,(19,(9,10))))),((6,8),((4,16),(2,20))))),(1,((7,14),(12,(13,(5,11)))))));
(21,((((4,20),(15,(19,(3,(6,(9,10)))))),((8,17),(2,(16,18)))),((12,(13,(5,11))),(1,(7,14)))));
(21,(((6,(2,(4,(16,18)))),(20,(15,((9,(10,19)),(3,(8,17)))))),((12,(11,(5,13))),(1,(7,14)))));
(21,((15,((20,(2,(4,(16,18)))),(9,((10,19),(3,(6,(8,17))))))),((1,(7,14)),(12,(11,(5,13))))));
(21,((1,(7,14)),((12,(5,(11,13))),((15,((4,(16,18)),(2,20))),(10,(8,(3,((6,17),(9,19)))))))));
(21,(((3,6),(((8,17),(9,(10,19))),(15,((2,4),(20,(16,18)))))),((1,(7,14)),(12,(5,(11,13))))));
(21,(((15,((3,(9,10)),(17,(6,19)))),(8,((2,(4,16)),(18,20)))),((5,(11,13)),(12,(1,(7,14))))));
(21,(((3,((9,10),(6,(8,17)))),((15,(18,(16,(2,4)))),(19,20))),((1,(7,14)),(12,(11,(5,13))))));
(21,(((15,(4,(2,(16,18)))),(20,((8,17),(3,(6,(10,(9,19))))))),((1,(7,14)),(12,(11,(5,13))))));
(21,((12,((15,20),((3,(9,10)),((19,(8,(6,17))),(4,(2,(16,18))))))),((11,(5,13)),(1,(7,14)))));
(21,(((15,(20,(6,(8,17)))),(3,((19,(9,10)),((2,16),(4,18))))),((1,(7,14)),(12,(5,(11,13))))));
(21,(((15,(2,4)),(20,((16,18),((3,(6,(8,17))),(10,(9,19)))))),(12,((11,(5,13)),(1,(7,14))))));
(21,(((4,(16,18)),(3,((2,20),(15,((9,10),(19,(6,(8,17)))))))),((13,(12,(5,11))),(1,(7,14)))));
((((15,(6,(3,(8,17)))),((9,(10,19)),(20,(4,(2,(16,18)))))),(1,((7,14),(12,(11,(5,13)))))),21);
(21,((12,(11,(5,13))),(((15,(9,10)),((2,(16,18)),(((6,19),(3,(8,17))),(4,20)))),(1,(7,14)))));
(21,((((16,(2,18)),(3,(19,(9,10)))),(20,((6,(8,17)),(4,15)))),(1,((7,14),(12,(13,(5,11)))))));
(21,(((19,(8,17)),((16,(20,(3,(6,(9,10))))),(15,(4,(2,18))))),((13,(5,11)),(12,(1,(7,14))))));
(21,((((20,(2,(16,18))),((6,(8,17)),(3,(19,(9,10))))),(4,15)),((1,(7,14)),(12,(5,(11,13))))));
(21,(((5,(11,13)),(((4,(20,(2,(16,18)))),((3,8),(17,(6,19)))),(15,(9,10)))),(12,(1,(7,14)))));
(21,((1,(7,14)),((((19,(6,8)),(17,(3,(9,10)))),(4,(15,(20,(2,(16,18)))))),(12,(5,(11,13))))));
(21,(((15,(10,(9,19))),(4,((3,(6,(8,17))),(20,(18,(2,16)))))),(1,((7,14),(12,(5,(11,13)))))));
(21,((15,(((2,(16,18)),(4,20)),((19,(6,(8,17))),(3,(9,10))))),((12,(13,(5,11))),(1,(7,14)))));
(21,(((((6,8),(9,(10,19))),(3,17)),(15,((2,18),(20,(4,16))))),((1,(7,14)),(12,(5,(11,13))))));
(21,((((4,(16,18)),(2,20)),((3,(19,(9,10))),(15,(6,(8,17))))),((12,(13,(5,11))),(1,(7,14)))));
(21,(((20,(4,(2,(16,18)))),(15,((9,19),(3,(10,(8,(6,17))))))),((12,(13,(5,11))),(1,(7,14)))));
(21,(((((8,17),(19,(9,10))),(16,(20,(4,(2,18))))),(15,(3,6))),((12,(11,(5,13))),(1,(7,14)))));
(21,(((15,((19,(9,10)),(2,20))),((6,(8,17)),(3,(4,(16,18))))),((12,(11,(5,13))),(1,(7,14)))));
(21,(((3,(10,19)),((2,(16,18)),((9,(6,(8,17))),(15,(4,20))))),((1,(7,14)),(13,(12,(5,11))))));
(21,((((2,(16,18)),(9,19)),((3,(6,17)),(15,((8,10),(4,20))))),((12,(13,(5,11))),(1,(7,14)))));
(21,((15,((3,(19,(9,10))),(((16,18),(2,4)),(20,(6,(8,17)))))),((12,(5,(11,13))),(1,(7,14)))));
(21,(((6,(8,17)),((3,(19,(9,10))),(15,(2,((16,18),(4,20)))))),((12,(13,(5,11))),(1,(7,14)))));
(21,(((15,(20,(2,4))),((16,18),((19,(9,10)),(3,(6,(8,17)))))),((12,(11,(5,13))),(1,(7,14)))));
(21,((15,(((6,17),(8,(3,(19,(9,10))))),(20,(4,(2,(16,18)))))),((12,(11,(5,13))),(1,(7,14)))));
(21,(((17,(4,(18,(2,16)))),(20,(15,(3,(8,(6,(19,(9,10)))))))),((12,(11,(5,13))),(1,(7,14)))));
(21,(((((6,(8,17)),(3,(9,(10,19)))),(2,15)),(20,(18,(4,16)))),((12,(11,(5,13))),(1,(7,14)))));
(21,((1,(7,14)),(((3,(15,(2,16))),((20,(4,18)),(19,(6,((8,17),(9,10)))))),(12,(13,(5,11))))));
(21,(((13,(5,11)),((20,(2,(4,(16,18)))),(15,(6,(3,(9,((8,17),(10,19)))))))),(12,(1,(7,14)))));
(21,(((8,((3,(6,17)),(19,(9,10)))),(15,(20,(18,(16,(2,4)))))),((12,(5,(11,13))),(1,(7,14)))));
(21,(((3,4),((20,(2,(16,18))),(15,((9,19),(10,(6,(8,17))))))),(1,((7,14),(12,(11,(5,13)))))));
(21,(((15,20),((4,(18,(2,16))),((3,6),((8,17),(19,(9,10)))))),((1,(7,14)),(12,(11,(5,13))))));
(21,((15,((6,((9,(8,17)),(19,(3,10)))),(20,(4,(2,(16,18)))))),((7,14),(1,(12,(5,(11,13)))))));
(21,(((15,(3,((6,(8,17)),(10,(9,19))))),((20,(2,18)),(4,16))),((1,(7,14)),(12,(13,(5,11))))));
(21,(((8,(6,17)),(15,((3,(19,(9,10))),((16,(4,18)),(2,20))))),((12,(11,(5,13))),(1,(7,14)))));
(21,(((2,20),((4,(16,18)),(((9,10),(3,(6,(8,17)))),(15,19)))),((13,(12,(5,11))),(1,(7,14)))));
(21,(((15,(3,(19,(9,10)))),((2,20),((17,(6,8)),(4,(16,18))))),((12,(11,(5,13))),(1,(7,14)))));
(21,((12,((20,(15,(18,(16,(2,4))))),(((6,17),(8,(9,10))),(3,19)))),((11,(5,13)),(1,(7,14)))));
(21,(((3,20),((15,((6,17),(19,(9,10)))),(8,((16,18),(2,4))))),((12,(5,(11,13))),(1,(7,14)))));
(21,((((3,17),((9,10),(19,(6,8)))),(15,(20,((16,18),(2,4))))),((1,(7,14)),(12,(11,(5,13))))));
(21,((((4,16),(20,(2,18))),((3,(19,(9,10))),(15,(6,(8,17))))),((1,(7,14)),(12,(13,(5,11))))));
(21,((1,(7,14)),((((3,((6,(8,17)),(9,(10,19)))),(4,(2,(16,18)))),(15,20)),(12,(5,(11,13))))));
(21,(((((6,17),(8,(9,10))),(20,(4,(2,(16,18))))),(15,(3,19))),((11,(5,13)),(12,(1,(7,14))))));
(21,((3,((2,(18,(4,16))),((6,((8,17),(10,(9,19)))),(15,20)))),(1,((7,14),((11,13),(5,12))))));
(21,((((16,18),(20,(2,4))),(15,(17,(3,((6,8),(19,(9,10))))))),((12,(11,(5,13))),(1,(7,14)))));
(21,(((((10,(9,19)),(20,(2,(4,(16,18))))),(15,(3,(6,(8,17))))),(12,(11,(5,13)))),(1,(7,14))));
(21,(((20,(3,((9,(6,8)),(10,(17,19))))),(15,((4,18),(2,16)))),((1,(7,14)),(12,(13,(5,11))))));
((((12,(13,(5,11))),(1,(7,14))),(((16,18),(3,(17,(6,8)))),((20,(2,4)),(15,(10,(9,19)))))),21);
(21,((((10,19),(8,(6,17))),((3,9),(15,(20,(4,(2,(16,18))))))),((12,(5,(11,13))),(1,(7,14)))));
(21,((1,(7,14)),((11,(12,(5,13))),((((19,(9,10)),(3,(6,(8,17)))),(20,(4,(16,18)))),(2,15)))));
(21,((19,((15,((6,17),(3,8))),((9,10),((4,(16,18)),(2,20))))),((12,(11,(5,13))),(1,(7,14)))));
(21,((1,(7,14)),(((15,(20,(4,(18,(2,16))))),((3,(19,(9,10))),(6,(8,17)))),(12,(11,(5,13))))));
(21,((15,((3,((6,(8,17)),(19,(9,10)))),(20,(4,(2,(16,18)))))),((12,(13,(5,11))),(1,(7,14)))));
(21,(((3,((6,(8,17)),(10,(9,19)))),((4,(2,(16,18))),(15,20))),((12,(11,(5,13))),(1,(7,14)))));
(21,(((3,20),(15,((18,(4,(2,16))),(19,((6,(8,17)),(9,10)))))),((1,(7,14)),(12,(11,(5,13))))));
(21,(((15,(4,(2,(16,18)))),((3,(9,10)),(20,(19,(17,(6,8)))))),((12,(11,(5,13))),(1,(7,14)))));
(21,((((2,18),(20,(4,16))),(3,(15,(6,(19,((9,10),(8,17))))))),((12,(11,(5,13))),(1,(7,14)))));
(21,((15,((4,(16,(2,18))),(20,((9,19),(3,(6,(10,(8,17)))))))),((12,(5,(11,13))),(1,(7,14)))));
(21,((1,(7,14)),(((4,15),((19,(9,10)),((20,(2,(16,18))),(3,(6,(8,17)))))),(12,(13,(5,11))))));
(21,((1,(7,14)),((12,(11,(5,13))),(15,((16,(4,(2,18))),(20,(3,((10,(9,19)),(17,(6,8))))))))));
(21,((((6,(9,(10,19))),(20,(2,4))),((3,(8,17)),(15,(16,18)))),((12,(13,(5,11))),(1,(7,14)))));
(21,(((3,(6,((8,17),(9,(10,19))))),((2,4),(15,(20,(16,18))))),((12,(13,(5,11))),(1,(7,14)))));
(21,(((2,20),(15,((4,(16,18)),(3,(19,(6,((8,17),(9,10)))))))),((7,14),(1,(12,(11,(5,13)))))));
(21,((15,(4,(((2,18),(16,20)),((19,(6,(8,17))),(3,(9,10)))))),((7,14),(1,(12,(13,(5,11)))))));
(21,((1,(7,14)),((12,(11,(5,13))),(((9,10),(4,20)),((15,(8,(19,(6,17)))),(3,(2,(16,18))))))));
(21,((1,(7,14)),((12,(11,(5,13))),(((6,(19,(9,10))),(3,(8,17))),(15,((16,18),(20,(2,4))))))));
(21,((15,((20,(4,(2,(16,18)))),(((6,(8,17)),(9,19)),(3,10)))),((12,(5,(11,13))),(1,(7,14)))));
(21,(((3,10),((19,(8,17)),(15,((6,9),(20,(2,(4,(16,18)))))))),((12,(11,(5,13))),(1,(7,14)))));
(21,(((((9,10),(8,17)),(4,15)),((20,(16,(2,18))),(6,(3,19)))),((12,(11,(5,13))),(1,(7,14)))));
(21,(((3,((8,17),(6,(19,(9,10))))),(((2,16),(4,18)),(15,20))),((12,(13,(5,11))),(1,(7,14)))));
(21,(((20,(18,(15,((8,17),(19,(9,10)))))),((16,(2,4)),(3,6))),((12,(11,(5,13))),(1,(7,14)))));
(21,((((2,(16,18)),(((8,17),(3,6)),(10,(9,19)))),(20,(4,15))),((12,(13,(5,11))),(1,(7,14)))));
(21,(((10,(6,(8,17))),((3,(9,19)),((4,(2,(16,18))),(15,20)))),((1,(7,14)),(12,(13,(5,11))))));
(21,((1,(7,14)),(((6,((9,10),(3,(19,(8,17))))),(15,20)),((2,(4,(16,18))),(12,(11,(5,13)))))));
(21,(((20,(3,15)),((4,(18,(2,16))),((9,19),(10,(6,(8,17)))))),(12,((11,(5,13)),(1,(7,14))))));
(21,(((15,(3,((2,4),(20,(16,18))))),((19,(9,10)),(6,(8,17)))),((7,14),(1,(12,(5,(11,13)))))));
(21,(((20,(4,(2,18))),(3,(16,(15,(8,(10,((6,17),(9,19)))))))),(1,((7,14),(12,(13,(5,11)))))));
(21,((1,(7,14)),((20,(15,((4,(2,(16,18))),(3,((19,(9,10)),(8,(6,17))))))),(12,(11,(5,13))))));
(21,((3,((18,(20,(4,(2,16)))),(15,((6,(8,17)),(19,(9,10)))))),((1,(7,14)),(12,(5,(11,13))))));
(21,(((15,(20,(4,(16,18)))),(2,((6,(19,(9,10))),(3,(8,17))))),((1,(7,14)),(12,(11,(5,13))))));
(21,((((16,18),(2,4)),(15,((3,(19,(9,10))),(20,(8,(6,17)))))),(12,((11,(5,13)),(1,(7,14))))));
(21,(((12,(13,(5,11))),(1,(7,14))),((20,(2,(16,18))),((19,(((9,10),(8,17)),(3,6))),(4,15)))));
(21,(((12,(11,(5,13))),(1,(7,14))),((20,(15,(4,16))),(18,(2,(3,((6,(8,17)),(19,(9,10)))))))));
(21,(((15,(4,(20,(2,(16,18))))),(3,((19,(9,10)),(6,(8,17))))),(1,((7,14),((11,13),(5,12))))));
(21,(((12,(5,(11,13))),(1,(7,14))),(20,(((17,(19,(9,10))),(3,(6,8))),(15,((16,18),(2,4)))))));
(21,((((8,(6,17)),(19,(9,10))),(3,(15,(20,(16,(4,(2,18))))))),(1,((7,14),(12,(5,(11,13)))))));
(21,((20,((15,(4,(2,(16,18)))),((9,10),(19,(3,(6,(8,17))))))),(1,((7,14),(12,(11,(5,13)))))));
(21,((19,((15,(((9,10),(8,17)),(3,6))),(20,(4,(2,(16,18)))))),((12,(11,(5,13))),(1,(7,14)))));
(21,((((6,(8,17)),(19,(9,10))),((20,(4,(2,(16,18)))),(3,15))),((1,(7,14)),(12,(13,(5,11))))));
(21,(((8,17),((4,(2,(16,18))),(20,(15,(3,(6,(19,(9,10)))))))),(((11,13),(5,12)),(1,(7,14)))));
(21,((1,(7,14)),(((3,(9,(10,19))),((6,(8,17)),(15,((2,(16,18)),(4,20))))),(12,(5,(11,13))))));
(21,((15,((9,10),(((17,(6,8)),(3,19)),(20,(2,(4,(16,18))))))),((12,(5,(11,13))),(1,(7,14)))));
(21,(((15,20),((2,(4,(16,18))),(((9,10),(8,17)),(3,(6,19))))),((1,(7,14)),(12,(11,(5,13))))));
(21,(((4,(2,(16,18))),(15,(20,(3,((9,10),(19,(8,(6,17)))))))),((1,(7,14)),(12,(13,(5,11))))));
(21,((15,((20,(4,(2,(16,18)))),(17,((19,(9,10)),(3,(6,8)))))),(12,(1,((7,14),(11,(5,13)))))));
(21,((15,(((19,(9,10)),(3,(6,(8,17)))),(20,(4,(2,(16,18)))))),((1,(7,14)),(12,(11,(5,13))))));
(21,(((6,(15,(19,((9,10),(8,17))))),(3,(2,(20,(4,(16,18)))))),((12,(13,(5,11))),(1,(7,14)))));
(21,((((9,(10,19)),((6,17),(3,8))),((4,(16,18)),(15,(2,20)))),((12,(13,(5,11))),(1,(7,14)))));
(21,(((((8,17),(19,(9,10))),(4,(20,(2,(16,18))))),(15,(3,6))),((12,(11,(5,13))),(1,(7,14)))));
(21,((12,(((19,(9,10)),(3,(6,(8,17)))),(15,(20,((16,18),(2,4)))))),((5,(11,13)),(1,(7,14)))));
(21,((((20,(2,(4,(16,18)))),(15,(((8,17),(19,(9,10))),(3,6)))),(12,(5,(11,13)))),(1,(7,14))));
(21,((1,(7,14)),((20,(((6,(8,17)),(3,(19,(9,10)))),(15,((2,18),(4,16))))),(12,(11,(5,13))))));
(21,((((8,17),(3,6)),(15,(20,((2,(4,(16,18))),(19,(9,10)))))),((12,(5,(11,13))),(1,(7,14)))));
(21,(((15,(4,(2,(16,18)))),(20,((9,(10,19)),(3,(6,(8,17)))))),((12,(13,(5,11))),(1,(7,14)))));
(21,((((10,19),(20,(4,(2,(16,18))))),(15,(6,(9,(3,(8,17)))))),((12,(11,(5,13))),(1,(7,14)))));
(21,(((11,(5,13)),((9,(10,19)),((3,(17,(6,8))),(15,(20,(4,(2,(16,18)))))))),(12,(1,(7,14)))));
(21,(((4,(2,(16,18))),((3,(17,(6,8))),((19,(9,10)),(15,20)))),((12,(11,(5,13))),(1,(7,14)))));
(21,(((1,(7,14)),(12,(5,(11,13)))),(3,(15,(((8,17),(6,(19,(9,10)))),(20,(2,(4,(16,18)))))))));
(21,((1,(7,14)),(((15,(3,((6,(8,17)),(19,(9,10))))),(4,(20,(2,(16,18))))),(12,(5,(11,13))))));
(21,(((20,(2,(4,(16,18)))),(15,((9,10),((8,(6,17)),(3,19))))),((12,(13,(5,11))),(7,(1,14)))));
(21,((((3,(9,10)),(6,(19,(8,17)))),(15,(20,(4,(16,(2,18)))))),((12,(11,(5,13))),(1,(7,14)))));
(21,((15,((10,(18,20)),((4,(2,16)),((9,19),(3,(6,(8,17))))))),((12,(11,(5,13))),(1,(7,14)))));
(21,((((20,(4,18)),(15,(2,16))),((6,17),(3,(8,(10,(9,19)))))),((7,14),(1,(12,(5,(11,13)))))));
(21,((12,(((9,10),(19,(3,(6,(8,17))))),(15,(20,(2,(4,(16,18))))))),((5,(11,13)),(1,(7,14)))));
(21,(((2,9),(((3,(19,(6,(8,17)))),(20,(4,(16,18)))),(10,15))),((1,(7,14)),(12,(5,(11,13))))));
((((1,(7,14)),(12,(13,(5,11)))),((6,(8,17)),((2,(4,(16,18))),((19,(3,(9,10))),(15,20))))),21);
(21,((((((4,(16,18)),(2,20)),(3,(10,19))),(17,(15,(9,(6,8))))),(12,(11,(5,13)))),(1,(7,14))));
(21,(((15,16),(((19,(9,10)),(20,(4,18))),(2,(3,(6,(8,17)))))),((12,(5,(11,13))),(1,(7,14)))));
(21,((1,(7,14)),(((3,17),((4,20),(((10,19),(9,(6,8))),(15,(2,(16,18)))))),(12,(5,(11,13))))));
(21,((15,((2,4),((20,(16,18)),((3,(8,17)),((9,10),(6,19)))))),((12,(13,(5,11))),(1,(7,14)))));
(21,(((15,(19,20)),(((2,18),(4,16)),((9,10),(3,(17,(6,8)))))),((1,(7,14)),(12,(11,(5,13))))));
(21,((1,(7,14)),((15,((20,(4,(2,(16,18)))),(9,((10,19),(3,(6,(8,17))))))),(12,(5,(11,13))))));
(21,(((15,(18,(20,(4,(2,16))))),((6,(8,17)),(3,(19,(9,10))))),((12,(11,(5,13))),(1,(7,14)))));
(21,((15,((((9,10),(6,(8,17))),(3,19)),(20,(2,(4,(16,18)))))),((13,(12,(5,11))),(1,(7,14)))));
(21,((((18,(2,4)),(16,20)),(15,((19,(9,10)),(3,(6,(8,17)))))),((12,(13,(5,11))),(1,(7,14)))));
(21,(((9,10),(((6,19),(3,(8,17))),(15,(20,((16,18),(2,4)))))),((12,(11,(5,13))),(1,(7,14)))));
(21,(((3,(8,(19,(9,10)))),((2,20),((6,17),(15,(4,(16,18)))))),((12,(13,(5,11))),(1,(7,14)))));
(21,((15,((20,(2,18)),((4,16),((3,(6,(8,17))),(19,(9,10)))))),((1,(7,14)),(12,(13,(5,11))))));
(21,(((3,((9,10),((6,8),(17,19)))),((2,20),(15,(4,(16,18))))),((12,(11,(5,13))),(1,(7,14)))));
(21,((15,(((6,8),(17,(19,(3,(9,10))))),(20,(18,(4,(2,16)))))),(12,((5,(11,13)),(1,(7,14))))));
(21,(((20,(4,(16,(2,18)))),(15,(((8,17),(9,10)),(3,(6,19))))),((12,(13,(5,11))),(1,(7,14)))));
(21,((15,(((6,17),(3,10)),(((16,18),(2,4)),(20,(8,(9,19)))))),((1,(7,14)),(12,(13,(5,11))))));
(21,((4,(15,(((6,(8,17)),(3,(19,(9,10)))),(20,(2,(16,18)))))),((1,(7,14)),((5,13),(11,12)))));
(21,((15,(((4,16),(20,(2,18))),(3,(19,((9,10),(6,(8,17))))))),((12,(11,(5,13))),(1,(7,14)))));
(21,(((3,((19,(9,10)),(6,(8,17)))),(15,(20,(2,(4,(16,18)))))),((12,(5,(11,13))),(1,(7,14)))));
(21,(((15,(4,(2,(16,18)))),((3,(19,(9,10))),(20,(6,(8,17))))),((12,(11,(5,13))),(1,(7,14)))));
(21,(((4,(2,(16,18))),(20,((9,(3,(6,(8,17)))),(15,(10,19))))),((12,(13,(5,11))),(1,(7,14)))));
(21,((20,((15,((6,(8,17)),(9,10))),((4,(18,(2,16))),(3,19)))),((12,(11,(5,13))),(1,(7,14)))));
(21,(((4,(2,(16,18))),(15,(20,(((9,10),(6,(8,17))),(3,19))))),((12,(11,(5,13))),(1,(7,14)))));
(21,((15,((3,((6,(8,17)),(9,(10,19)))),(4,(20,(2,(16,18)))))),((12,(13,(5,11))),(1,(7,14)))));
(21,((((9,10),(19,(3,(8,(6,17))))),(15,(20,(2,(4,(16,18)))))),((12,(11,(5,13))),(1,(7,14)))));
(21,(((4,(2,(16,18))),((10,(3,9)),((19,(8,(6,17))),(15,20)))),((12,(5,(11,13))),(1,(7,14)))));
(21,(((3,((6,(8,17)),(19,(9,10)))),(15,(20,(4,(2,(16,18)))))),((12,(13,(5,11))),(1,(7,14)))));
(21,((1,(7,14)),(((20,(4,(2,(16,18)))),(15,(3,((19,(9,10)),(6,(8,17)))))),(12,(5,(11,13))))));
(21,(((15,20),((18,(2,(4,16))),((19,(6,(8,17))),(3,(9,10))))),((12,(11,(5,13))),(1,(7,14)))));
(21,(((3,((6,(8,17)),(9,(10,19)))),(15,((16,(2,18)),(4,20)))),((1,(7,14)),(12,(5,(11,13))))));
(21,(((2,((8,17),((9,10),(6,19)))),((15,20),(3,(4,(16,18))))),((12,(5,(11,13))),(1,(7,14)))));
(21,(((3,((9,10),(19,(6,(8,17))))),((16,(4,(2,18))),(15,20))),((1,(7,14)),(12,(11,(5,13))))));
(21,(((15,(9,19)),(2,((20,(16,(4,18))),(3,(10,(6,(8,17))))))),((13,(12,(5,11))),(1,(7,14)))));
(21,((15,(3,((8,17),(((9,10),(6,19)),(2,(20,(4,(16,18)))))))),((12,(5,(11,13))),(1,(7,14)))));
(21,(((20,(4,(16,18))),((2,(3,(9,(10,19)))),(15,(6,(8,17))))),((7,14),(1,(12,(11,(5,13)))))));
(21,(((20,(4,(2,(16,18)))),(15,((6,(8,17)),(3,(9,(10,19)))))),((12,(5,(11,13))),(1,(7,14)))));
(21,(((20,(15,(16,(4,(2,18))))),(3,((6,8),(17,(19,(9,10)))))),((7,14),(1,(12,(5,(11,13)))))));
(21,(((3,((6,17),(8,(19,(9,10))))),(15,(2,(20,(18,(4,16)))))),((5,(11,13)),(12,(1,(7,14))))));
(21,((1,(7,14)),((((15,(4,20)),((3,10),(9,19))),((6,(8,17)),(2,(16,18)))),(12,(13,(5,11))))));
(21,(((15,20),((6,(8,17)),((10,(3,(9,19))),((16,18),(2,4))))),((12,(11,(5,13))),(1,(7,14)))));
(21,((((19,(9,10)),(3,(6,(8,17)))),(15,(20,(2,(4,(16,18)))))),((7,14),(1,(12,(5,(11,13)))))));
(21,((((19,(9,10)),(17,(6,8))),(3,(15,(20,(2,(4,(16,18))))))),((12,(11,(5,13))),(1,(7,14)))));
(21,((((4,(2,18)),(15,20)),(16,((17,(6,8)),((9,10),(3,19))))),((12,(11,(5,13))),(1,(7,14)))));
(21,((1,(7,14)),((12,(11,(5,13))),((3,(19,(9,10))),((6,(8,17)),(15,(20,((16,18),(2,4)))))))));
(21,((12,(11,(5,13))),(((15,(16,20)),(((17,(6,8)),(19,(9,10))),(3,(4,(2,18))))),(1,(7,14)))));
(21,((12,(1,(7,14))),((5,(11,13)),(15,((3,(9,((10,19),(6,(8,17))))),(4,(20,(16,(2,18)))))))));
(21,((3,(15,(((19,(9,10)),(17,(6,8))),((4,(2,16)),(18,20))))),((1,(7,14)),(12,(5,(11,13))))));
(21,(((15,(2,(4,(16,18)))),(20,((6,(19,(9,10))),(3,(8,17))))),((1,(7,14)),(12,(11,(5,13))))));
(21,((20,((4,(2,(16,18))),(15,(9,(3,((8,(6,17)),(10,19))))))),((12,(11,(5,13))),(1,(7,14)))));
(21,(((20,((16,18),(2,4))),(15,(8,((6,17),(3,(19,(9,10))))))),((12,(13,(5,11))),(1,(7,14)))));
(21,((1,(7,14)),((15,(20,(((2,16),(4,18)),(19,((9,10),(3,(6,(8,17)))))))),(12,(5,(11,13))))));
(21,(((4,(2,(16,18))),(((10,19),(17,(6,8))),(20,(15,(3,9))))),((12,(13,(5,11))),(1,(7,14)))));
(21,(((3,(9,(6,(8,17)))),((10,19),(15,(2,((16,18),(4,20)))))),((12,(11,(5,13))),(1,(7,14)))));
(21,((15,(20,((4,(2,(16,18))),(3,((19,(9,10)),(6,(8,17))))))),((12,(11,(5,13))),(1,(7,14)))));
(21,((((6,(8,17)),(19,(9,10))),(3,((2,4),(20,(15,(16,18)))))),((1,(7,14)),(12,(5,(11,13))))));
(21,(((2,4),(((19,(9,10)),(3,(17,(6,8)))),(15,(20,(16,18))))),((12,(5,(11,13))),(1,(7,14)))));
(21,(((4,(18,(2,16))),((3,(19,(9,10))),(20,(15,(17,(6,8)))))),((12,(11,(5,13))),(1,(7,14)))));
(21,(((3,((6,(8,17)),(19,(9,10)))),(15,(20,(16,(4,(2,18)))))),((12,(13,(5,11))),(1,(7,14)))));
(21,((15,(((3,(9,(10,19))),(17,(6,8))),((2,(16,18)),(4,20)))),((12,(11,(5,13))),(1,(7,14)))));
(21,((1,(7,14)),((20,(((9,19),(15,(2,(16,18)))),((3,(8,17)),(4,(6,10))))),(12,(13,(5,11))))));
(21,(((16,20),(((17,(6,8)),(3,(19,(9,10)))),(15,(18,(2,4))))),((12,(5,(11,13))),(1,(7,14)))));
(21,(((15,20),((4,(18,(2,16))),((10,(8,(6,17))),(3,(9,19))))),((1,(7,14)),(12,(11,(5,13))))));
(21,(((15,(16,(2,18))),(((8,17),((19,(9,10)),(3,6))),(4,20))),(((5,11),(12,13)),(1,(7,14)))));
(21,((15,((9,(6,(8,17))),((3,(10,19)),((2,(16,18)),(4,20))))),((12,(5,(11,13))),(1,(7,14)))));
(21,(((12,(11,(5,13))),(1,(7,14))),(15,((2,(3,((8,17),(19,(9,10))))),(6,(20,(18,(4,16))))))));
(21,(((2,((9,(10,19)),(3,(6,(8,17))))),(15,(20,(4,(16,18))))),((12,(13,(5,11))),(1,(7,14)))));
(21,(((15,(20,(16,(2,18)))),(9,(4,(3,((8,(6,17)),(10,19)))))),((12,(11,(5,13))),(1,(7,14)))));
(21,(((3,((19,(9,10)),(6,(8,17)))),((4,15),((2,16),(18,20)))),((12,(5,(11,13))),(1,(7,14)))));
(21,(((15,(18,(2,(4,16)))),(20,((10,(9,19)),(3,(6,(8,17)))))),((1,(7,14)),(12,(5,(11,13))))));
(21,(((15,(20,(8,17))),(((16,18),(2,4)),(6,(3,(10,(9,19)))))),((12,(13,(5,11))),(1,(7,14)))));
(21,((3,((6,(8,17)),((20,(4,(2,(16,18)))),(15,(19,(9,10)))))),((1,(7,14)),(12,(5,(11,13))))));
(21,((15,((19,(3,(9,10))),((6,(8,17)),(20,(4,(16,(2,18))))))),(1,((7,14),(12,(5,(11,13)))))));
(21,((15,((16,(3,((9,10),(8,17)))),((6,19),(20,(2,(4,18)))))),((12,(13,(5,11))),(1,(7,14)))));
(21,((((20,(2,18)),((19,(9,10)),(3,(6,(8,17))))),(15,(4,16))),((1,(7,14)),(12,(5,(11,13))))));
(21,((((19,(9,10)),(3,8)),((6,17),(20,(15,((2,18),(4,16)))))),((12,(11,(5,13))),(1,(7,14)))));
(21,(((3,(19,(9,10))),(15,((17,(6,8)),((4,(16,18)),(2,20))))),((1,(7,14)),(12,(13,(5,11))))));
(21,(((15,(4,(2,(16,18)))),(20,(19,((6,(8,17)),(3,(9,10)))))),((12,(5,(11,13))),(1,(7,14)))));
(21,(((15,(2,(16,18))),((20,((9,19),(6,(8,17)))),(4,(3,10)))),((12,(11,(5,13))),(1,(7,14)))));
(21,(((15,(3,16)),(((19,(9,10)),(17,(6,8))),(20,(4,(2,18))))),((1,(7,14)),(12,(11,(5,13))))));
(21,(((11,(5,13)),(1,(7,14))),(12,(((3,((9,10),(19,(6,(8,17))))),(15,(4,20))),(2,(16,18))))));
(21,(((20,(4,(16,(2,18)))),((19,(9,10)),(15,(3,(6,(8,17)))))),((12,(5,(11,13))),(1,(7,14)))));
(21,((1,(7,14)),((12,(13,(5,11))),(4,((15,(20,(2,(16,18)))),((19,(9,10)),(3,(8,(6,17)))))))));
(21,((1,(7,14)),((20,((15,(((6,(8,17)),(9,10)),(3,19))),((2,18),(4,16)))),((11,13),(5,12)))));
(21,((15,((2,(16,18)),(4,(20,((9,10),((17,(6,8)),(3,19))))))),((12,(11,(5,13))),(1,(7,14)))));
(21,((((4,(16,18)),(2,20)),(15,((17,(6,8)),(3,(19,(9,10)))))),((12,(11,(5,13))),(1,(7,14)))));
(21,((((2,18),(20,(4,16))),(15,(3,((6,(8,17)),(19,(9,10)))))),((12,(13,(5,11))),(1,(7,14)))));
(21,((((9,((10,19),(17,(6,8)))),(20,(4,(2,(16,18))))),(3,15)),((1,(7,14)),((5,13),(11,12)))));
(21,(((20,(4,(2,(16,18)))),(15,(3,((9,(10,19)),(17,(6,8)))))),((1,(7,14)),(12,(13,(5,11))))));
(21,((15,(3,(((19,(9,10)),(6,(8,17))),(20,(4,(2,(16,18))))))),((12,(11,(5,13))),(1,(7,14)))));
(21,((((3,10),(15,((8,17),(6,(9,19))))),(20,(2,(4,(16,18))))),((12,(5,(11,13))),(1,(7,14)))));
(21,((1,(7,14)),((((3,(19,(9,10))),(20,(16,(2,(4,18))))),(15,(6,(8,17)))),(12,(13,(5,11))))));
(21,((((6,(8,17)),(3,(9,(10,19)))),(20,(15,(4,(18,(2,16)))))),((7,14),(1,(12,(11,(5,13)))))));
(21,((((3,(6,(19,(9,10)))),(15,20)),((8,17),(4,(2,(16,18))))),((1,(7,14)),(12,(11,(5,13))))));
(21,(((3,20),(15,(((6,(8,17)),(19,(9,10))),(4,(2,(16,18)))))),((12,(5,(11,13))),(1,(7,14)))));
(21,((1,(7,14)),((4,((6,17),(8,(19,(9,10))))),((15,(3,(20,(2,(16,18))))),(12,(11,(5,13)))))));
(21,(((18,(4,(2,16))),((3,(19,(6,(8,17)))),((9,10),(15,20)))),((12,(11,(5,13))),(1,(7,14)))));
(21,((((3,(8,(6,17))),((4,(16,18)),(2,15))),(20,(10,(9,19)))),((12,(13,(5,11))),(1,(7,14)))));
(21,(((15,(20,(2,(4,(16,18))))),((6,((8,17),(10,19))),(3,9))),((1,(7,14)),(12,(11,(5,13))))));
(21,((1,(7,14)),((11,(5,13)),(12,((15,(2,(4,(16,18)))),((20,(6,(8,17))),(19,(3,(9,10)))))))));
(21,(((15,(9,(10,19))),((3,(6,(8,17))),(20,(2,(4,(16,18)))))),((7,14),(1,(12,(11,(5,13)))))));
(21,((1,(7,14)),(((20,(19,(9,10))),((4,(2,(16,18))),(15,(3,(6,(8,17)))))),(12,(11,(5,13))))));
(21,(((20,((4,18),(2,16))),(15,((19,(9,10)),(3,(6,(8,17)))))),((12,(13,(5,11))),(1,(7,14)))));
(21,((((16,18),(20,(2,4))),((17,((6,8),(19,(9,10)))),(3,15))),((12,(11,(5,13))),(1,(7,14)))));
(21,((15,(((17,(6,8)),(3,(9,19))),(10,(20,(16,(4,(2,18))))))),((12,(5,(11,13))),(1,(7,14)))));
(((((19,(9,10)),(3,(17,(6,8)))),((2,4),(15,(20,(16,18))))),((1,(7,14)),(12,(11,(5,13))))),21);
(21,(((3,15),(((8,17),((9,10),(6,19))),(20,(4,(2,(16,18)))))),((12,(13,(5,11))),(1,(7,14)))));
(21,(((3,(20,(4,(2,(16,18))))),((8,19),(15,((9,10),(6,17))))),((12,(13,(5,11))),(1,(7,14)))));
(21,(((3,(20,(2,(4,(16,18))))),(15,((19,(9,10)),(6,(8,17))))),((12,(13,(5,11))),(1,(7,14)))));
(21,((((3,(10,(6,8))),(17,(9,19))),((2,4),(15,(20,(16,18))))),((12,(5,(11,13))),(1,(7,14)))));
(21,(((13,(5,11)),((4,(20,(2,(16,18)))),(15,((8,17),((19,(9,10)),(3,6)))))),(12,(1,(7,14)))));
(21,(((4,15),((20,(16,(2,18))),(3,(9,((6,(8,17)),(10,19)))))),((1,(7,14)),(12,(5,(11,13))))));
(21,(((15,((2,(16,18)),((9,10),(19,(6,(8,17)))))),(3,(4,20))),((12,(13,(5,11))),(1,(7,14)))));
(21,(((20,(2,16)),(4,((8,(3,((6,17),(19,(9,10))))),(15,18)))),((12,(13,(5,11))),(1,(7,14)))));
(21,((15,(((6,19),(3,(10,(9,(8,17))))),(20,(4,(2,(16,18)))))),((12,(5,(11,13))),(1,(7,14)))));
(21,(((((17,(6,8)),(3,(19,(9,10)))),(16,20)),(15,(18,(2,4)))),((12,(11,(5,13))),(1,(7,14)))));
(21,((1,(7,14)),((15,((6,19),((20,((16,18),(2,4))),(3,((8,17),(9,10)))))),(12,(13,(5,11))))));
(21,(((15,(19,(9,10))),(((2,4),(20,(16,18))),(3,(6,(8,17))))),((7,14),(1,(12,(5,(11,13)))))));
(21,(((11,(5,13)),((15,(3,(19,(6,(8,17))))),((9,10),(20,(4,(2,(16,18))))))),(12,(1,(7,14)))));
(21,((1,(7,14)),(((20,(2,(4,(16,18)))),((6,(8,17)),(15,(3,(9,(10,19)))))),((5,13),(11,12)))));
(21,((((16,18),(4,20)),((10,(((9,19),(6,8)),(3,17))),(2,15))),((1,(7,14)),(12,(5,(11,13))))));
(21,((((3,(10,19)),(9,(6,(8,17)))),(15,(20,(2,(4,(16,18)))))),((12,(5,(11,13))),(1,(7,14)))));
(21,(((15,20),(6,(((8,17),(10,(9,19))),(3,(4,(2,(16,18))))))),((12,(13,(5,11))),(1,(7,14)))));
(21,(((15,(4,(18,(2,16)))),(20,(6,((3,(9,10)),(19,(8,17)))))),((12,(5,(11,13))),(1,(7,14)))));
(21,(((20,(15,(4,(2,(16,18))))),((9,(10,19)),(3,(17,(6,8))))),((12,(11,(5,13))),(1,(7,14)))));
(21,(((15,(20,(4,(2,(16,18))))),(8,((6,17),(3,(19,(9,10)))))),(((11,13),(5,12)),(1,(7,14)))));
(21,((1,(7,14)),(((3,15),(((16,18),(2,4)),(20,((6,(8,17)),(19,(9,10)))))),(12,(5,(11,13))))));
(21,(((15,((10,19),(17,(6,8)))),((3,9),(20,(4,(2,(16,18)))))),((12,(5,(11,13))),(7,(1,14)))));
(21,(((20,(4,(2,(16,18)))),(15,(3,((9,10),(19,(6,(8,17))))))),((5,(12,(11,13))),(1,(7,14)))));
(21,((((6,(8,17)),(3,(19,(9,10)))),(20,(15,(4,(2,(16,18)))))),((12,(5,(11,13))),(1,(7,14)))));
(21,((12,(13,(5,11))),((((8,17),(15,(20,(4,(2,(16,18)))))),(3,(6,(9,(10,19))))),(1,(7,14)))));
(21,(((2,((16,18),(4,20))),((19,(9,10)),(15,(3,(6,(8,17)))))),((12,(11,(5,13))),(1,(7,14)))));
(21,(((3,((19,(9,10)),(8,(6,17)))),(15,(4,(20,(2,(16,18)))))),((12,(13,(5,11))),(1,(7,14)))));
(21,((((16,(4,(2,18))),((6,(8,17)),(3,(19,(9,10))))),(15,20)),((12,(5,(11,13))),(1,(7,14)))));
(21,((15,((20,((16,18),(2,4))),(3,((6,(19,(9,10))),(8,17))))),((12,(11,(5,13))),(1,(7,14)))));
(21,(((15,((3,(10,(19,(8,17)))),(6,9))),((16,18),(20,(2,4)))),(12,((5,(11,13)),(1,(7,14))))));
(21,((15,((20,(4,(2,(16,18)))),((9,(10,19)),(17,(3,(6,8)))))),((12,(11,(5,13))),(1,(7,14)))));
(21,((1,(7,14)),((((16,18),(20,(2,4))),(3,(15,((6,17),(8,(19,(9,10))))))),(12,(13,(5,11))))));
(21,(((3,(19,((9,10),(8,17)))),((20,(2,(4,(16,18)))),(6,15))),((1,(7,14)),(12,(5,(11,13))))));
(21,((1,(7,14)),(((15,((4,20),((8,17),(19,(9,10))))),((2,(16,18)),(3,6))),(12,(11,(5,13))))));
(21,((15,((20,((16,18),(2,4))),(3,(19,((9,10),(8,(6,17))))))),((1,(7,14)),(12,(5,(11,13))))));
(21,((12,(5,(11,13))),(((4,(18,(2,16))),((6,(8,17)),((3,20),(15,(9,(10,19)))))),(1,(7,14)))));
(21,(((2,4),((19,(9,10)),((3,(6,(8,17))),((16,18),(15,20))))),((12,(13,(5,11))),(1,(7,14)))));
(21,(((20,(4,18)),(15,((2,16),((19,(9,10)),(3,(6,(8,17))))))),((12,(11,(5,13))),(1,(7,14)))));
(21,((1,(7,14)),((((2,4),(20,(16,18))),(15,((6,(19,(8,17))),(3,(9,10))))),(12,(11,(5,13))))));
(21,((12,(5,(11,13))),(((15,((16,18),(20,(2,4)))),(9,(3,((6,(8,17)),(10,19))))),(1,(7,14)))));
(21,(((15,(4,(2,(16,18)))),((6,(8,17)),(20,(3,(19,(9,10)))))),((7,14),(1,(12,(5,(11,13)))))));
(21,(((((6,(8,17)),(10,(9,19))),(20,(16,(4,(2,18))))),(3,15)),((12,(11,(5,13))),(1,(7,14)))));
(21,(((((3,9),(15,(4,(20,(2,(16,18)))))),(6,((8,17),(10,19)))),(12,(11,13))),(5,(1,(7,14)))));
(21,((((2,18),((6,(8,17)),(19,(9,10)))),(3,(15,(4,(16,20))))),((1,(7,14)),((11,13),(5,12)))));
(21,(((3,(9,(10,19))),((15,(20,(2,18))),((6,(8,17)),(4,16)))),((12,(13,(5,11))),(1,(7,14)))));
(21,((((6,(8,17)),(3,9)),((10,19),((20,(16,18)),(15,(2,4))))),((1,(7,14)),(12,(5,(11,13))))));
(21,(((((16,18),(2,4)),(20,(3,(8,(6,17))))),(15,(19,(9,10)))),(1,((7,14),(12,(11,(5,13)))))));
(21,(((15,(16,18)),(20,((3,(17,(6,8))),((19,(9,10)),(2,4))))),((12,(5,(11,13))),(1,(7,14)))));
(21,((15,((3,((6,(8,17)),(9,(10,19)))),(20,((4,16),(2,18))))),(1,((7,14),(12,(5,(11,13)))))));
(21,((12,((4,(2,(16,18))),(8,(20,(15,(10,((6,17),(3,(9,19))))))))),((11,(5,13)),(1,(7,14)))));
(21,(((15,((((6,17),(19,(9,10))),(3,8)),((2,4),(20,(16,18))))),(12,(11,(5,13)))),(1,(7,14))));
(21,(((6,(8,17)),((3,(19,(9,10))),(15,(20,(4,(2,(16,18))))))),((12,(5,(11,13))),(1,(7,14)))));
(21,(((15,(20,(2,(4,18)))),(16,((19,(9,10)),(3,(6,(8,17)))))),((12,(11,(5,13))),(1,(7,14)))));
(21,((15,(3,(((6,(8,17)),(19,(9,10))),(2,(20,(4,(16,18))))))),((12,(5,(11,13))),(1,(7,14)))));
(21,((1,(7,14)),((((6,(8,17)),(19,(9,10))),((3,((16,18),(2,20))),(4,15))),(12,(11,(5,13))))));
(21,((4,((3,(6,(8,17))),((19,(9,10)),(15,(20,(2,(16,18))))))),((12,(5,(11,13))),(1,(7,14)))));
(21,((15,((20,(2,(4,(16,18)))),((6,(8,17)),(3,(19,(9,10)))))),((12,(11,(5,13))),(1,(7,14)))));
(21,((15,((20,(4,(2,(16,18)))),((10,(9,19)),(3,(6,(8,17)))))),((1,(7,14)),(12,(5,(11,13))))));
(21,(((4,(20,(2,(16,18)))),(3,(15,((19,(9,10)),(6,(8,17)))))),((1,(7,14)),(12,(11,(5,13))))));
(21,((15,(3,((20,(4,(2,(16,18)))),(((6,17),(9,10)),(8,19))))),((12,(5,(11,13))),(1,(7,14)))));
(21,((14,(1,7)),((12,(5,(11,13))),((20,(2,(16,18))),((3,19),(15,(6,(4,((8,17),(9,10))))))))));
(21,(((3,10),(((2,18),(4,16)),(((9,19),(8,(6,17))),(15,20)))),((12,(11,(5,13))),(1,(7,14)))));
(21,(((20,(16,18)),(15,((2,4),(19,(3,((9,10),(6,(8,17)))))))),((12,(11,(5,13))),(1,(7,14)))));
(21,((1,(7,14)),((((19,(9,10)),(20,(4,(2,(16,18))))),(15,(8,(3,(6,17))))),(12,(11,(5,13))))));
(21,(((20,(2,(4,(16,18)))),(3,((6,(8,17)),(15,(19,(9,10)))))),(12,((13,(5,11)),(1,(7,14))))));
(21,(((15,(4,20)),((2,(16,18)),(3,((19,(9,10)),(6,(8,17)))))),((12,(13,(5,11))),(1,(7,14)))));
(21,((12,((20,(3,((19,(9,10)),(6,(8,17))))),((2,4),(15,(16,18))))),((11,(5,13)),(1,(7,14)))));
(21,((((6,(8,17)),(19,(9,10))),(3,(15,(20,((16,18),(2,4)))))),((12,(5,(11,13))),(1,(7,14)))));
(21,((1,(7,14)),(((20,(4,(16,18))),((19,(8,(6,17))),(15,(2,(3,(9,10)))))),(12,(5,(11,13))))));
(21,((((3,(8,(6,17))),((4,(16,18)),(2,20))),(15,(9,(10,19)))),(12,((11,(5,13)),(1,(7,14))))));
(21,(((((19,(6,(8,17))),(3,(9,10))),(15,(20,(2,(4,(16,18)))))),(12,(5,(11,13)))),(1,(7,14))));
(21,((((3,(19,(9,10))),((16,18),(2,20))),((8,(6,17)),(4,15))),((12,(11,(5,13))),(1,(7,14)))));
(21,((20,(((6,(8,17)),(3,(19,(9,10)))),(15,((16,18),(2,4))))),((1,(7,14)),(12,(11,(5,13))))));
(21,(((18,20),((3,((10,(9,19)),(6,(8,17)))),(15,(2,(4,16))))),((12,(13,(5,11))),(1,(7,14)))));
(21,((20,(((19,(9,10)),(3,(6,(8,17)))),(15,(4,(2,(16,18)))))),((1,(7,14)),(12,(5,(11,13))))));
(21,(((((19,((17,(6,8)),(9,10))),(15,20)),(3,(2,(16,(4,18))))),(12,(5,(11,13)))),(1,(7,14))));
(21,((1,(7,14)),(((15,(4,(2,(16,18)))),(20,((9,19),((8,(6,17)),(3,10))))),(12,(11,(5,13))))));
(21,((1,(7,14)),((((2,(4,(16,18))),(15,(6,8))),(20,(17,(3,(19,(9,10)))))),(12,(5,(11,13))))));
(21,((((19,(9,10)),(3,(6,(8,17)))),(15,((2,(16,18)),(4,20)))),((12,(13,(5,11))),(1,(7,14)))));
(21,((1,(7,14)),((12,(5,(11,13))),(((16,18),(3,(9,10))),((19,(6,(8,17))),(15,(20,(2,4))))))));
(21,(((11,(5,13)),(1,(7,14))),(12,((3,(19,(9,10))),((6,(8,17)),(20,(15,(4,(2,(16,18))))))))));
(21,(((15,(20,(9,(10,19)))),(((16,18),(2,4)),(3,(17,(6,8))))),((1,(7,14)),(12,(13,(5,11))))));
(21,((((4,(2,(16,18))),(9,((10,19),(6,(8,17))))),(3,(15,20))),((12,(13,(5,11))),(1,(7,14)))));
(21,(((4,20),((2,(16,18)),(15,(((6,8),(17,(9,10))),(3,19))))),((1,(7,14)),(12,(11,(5,13))))));
(21,((1,(7,14)),((((9,(10,19)),(3,(6,(8,17)))),(20,(15,(2,(4,(16,18)))))),(13,(12,(5,11))))));
(21,((((4,(2,(16,18))),(20,(6,17))),(15,(3,((9,10),(8,19))))),((1,(7,14)),(12,(13,(5,11))))));
(21,((15,((20,(16,18)),((2,4),(3,((6,19),((8,17),(9,10))))))),((1,(7,14)),(12,(11,(5,13))))));
(21,((1,(7,14)),(((3,(19,((9,10),(6,(8,17))))),(15,(20,(4,(2,(16,18)))))),(12,(11,(5,13))))));
(21,((3,(((2,(16,18)),(4,20)),(15,((6,(8,17)),(19,(9,10)))))),((12,(13,(5,11))),(1,(7,14)))));
(21,(((2,(4,(16,18))),((17,(3,((19,(9,10)),(6,8)))),(15,20))),((12,(11,(5,13))),(1,(7,14)))));
(21,(((((19,(9,10)),(6,(8,17))),(3,(4,(18,(2,16))))),(15,20)),((12,(13,(5,11))),(1,(7,14)))));
(21,(((19,(6,(8,17))),((3,(9,10)),(20,(15,((16,18),(2,4)))))),(1,((7,14),(12,(13,(5,11)))))));
(21,(((5,11),(12,13)),(((3,(9,10)),((19,(6,(8,17))),((20,(2,(16,18))),(4,15)))),(1,(7,14)))));
(21,(((3,(17,(6,8))),((15,20),((19,(9,10)),(2,(4,(16,18)))))),((7,14),(1,(12,(13,(5,11)))))));
(21,((((16,18),(2,(4,20))),(((3,(8,17)),(19,(9,10))),(6,15))),((1,(7,14)),(12,(5,(11,13))))));
(21,((15,((4,(16,18)),(((10,19),(3,(6,(8,17)))),(9,(2,20))))),((12,(11,(5,13))),(1,(7,14)))));
(21,(((3,15),((4,20),((2,(16,18)),((6,(8,17)),(19,(9,10)))))),((1,(7,14)),(5,(12,(11,13))))));
(21,((((2,(16,18)),(4,20)),((6,(8,17)),(15,(3,(10,(9,19)))))),((1,(7,14)),(12,(5,(11,13))))));
(21,(((2,(4,(16,18))),((20,((8,17),((9,10),(6,19)))),(3,15))),((12,(5,(11,13))),(1,(7,14)))));
(21,(((20,(2,(16,18))),(15,(4,((9,(17,(6,8))),(3,(10,19)))))),((12,(11,(5,13))),(1,(7,14)))));
(21,((15,(20,(((16,18),(2,4)),((9,10),(19,((8,17),(3,6))))))),((1,(7,14)),(12,(13,(5,11))))));
(21,(((3,(8,17)),(((9,10),(6,19)),(20,(15,(2,(4,(16,18))))))),((12,(13,(5,11))),(1,(7,14)))));
(21,((((3,6),(20,((2,16),(4,18)))),(15,((9,10),(19,(8,17))))),((1,(7,14)),(12,(11,(5,13))))));
(21,(((4,(2,(16,18))),((15,(19,(6,((8,17),(9,10))))),(3,20))),((12,(5,(11,13))),(1,(7,14)))));
(21,(((20,(4,(2,(16,18)))),(15,(((9,10),(17,(6,8))),(3,19)))),((12,(11,(5,13))),(1,(7,14)))));
(21,(((3,((9,10),(19,(6,(8,17))))),(15,(4,(20,(2,(16,18)))))),((12,(13,(5,11))),(1,(7,14)))));
(21,((3,(20,((4,(2,(16,18))),(15,((6,(8,17)),(9,(10,19))))))),((12,(5,(11,13))),(1,(7,14)))));
(21,((((2,(16,18)),(4,20)),(15,((6,10),((8,17),(19,(3,9)))))),((1,(7,14)),(12,(11,(5,13))))));
(21,(((((6,(8,17)),(19,(9,10))),(3,20)),(15,(4,(2,(16,18))))),((1,(7,14)),(11,(12,(5,13))))));
(21,(((4,20),(((6,(8,17)),((3,19),(9,10))),(15,(16,(2,18))))),(1,((7,14),(12,(11,(5,13)))))));
(21,(((15,19),((3,(9,(10,(6,(8,17))))),(20,(2,(4,(16,18)))))),((12,(13,(5,11))),(1,(7,14)))));
(21,(((20,(4,(18,(2,16)))),(15,((6,(8,17)),(9,(3,(10,19)))))),((1,(7,14)),(12,(11,(5,13))))));
(21,(((15,(17,(9,10))),((2,(20,(4,(16,18)))),((6,8),(3,19)))),((12,(13,(5,11))),(1,(7,14)))));
(21,(((15,(20,(16,18))),((2,4),((6,(8,17)),(3,(19,(9,10)))))),((12,(5,(11,13))),(1,(7,14)))));
(21,(((2,((8,17),(3,((9,10),(6,19))))),(15,(20,(4,(16,18))))),((12,(11,(5,13))),(1,(7,14)))));
(21,(((4,(3,15)),((20,(2,(16,18))),((8,17),(9,(6,(10,19)))))),((12,(13,(5,11))),(1,(7,14)))));
(21,((1,(7,14)),(((9,10),(20,((2,4),(15,((16,18),(3,((6,8),(17,19)))))))),((5,13),(11,12)))));
(21,(((12,(11,(5,13))),(((16,18),(6,(8,17))),((15,(2,(4,20))),(3,(19,(9,10)))))),(1,(7,14))));
(21,((15,((3,((17,(6,8)),(19,(9,10)))),(20,(2,(4,(16,18)))))),((12,(5,(11,13))),(1,(7,14)))));
(21,(((4,(2,16)),(((9,10),(19,(3,(6,(8,17))))),(15,(18,20)))),((12,(11,(5,13))),(1,(7,14)))));
(21,((((15,(2,(16,18))),((4,20),((8,17),(3,(6,(19,(9,10))))))),(12,(11,(5,13)))),(1,(7,14))));
(21,((((8,17),(6,(9,10))),((3,19),(((16,18),(2,4)),(15,20)))),((12,(5,(11,13))),(1,(7,14)))));
(21,((((4,(20,(2,(16,18)))),(3,(19,(9,10)))),(6,(15,(8,17)))),((12,(5,(11,13))),(1,(7,14)))));
(21,((1,(7,14)),(((((16,18),(2,4)),(3,(6,(8,17)))),((19,(9,10)),(15,20))),(12,(13,(5,11))))));
(21,((18,((20,(2,(4,16))),(15,((19,(9,10)),(8,(3,(6,17))))))),(12,((5,(11,13)),(1,(7,14))))));
(21,((20,(15,((4,(16,18)),(((6,(8,17)),(19,(9,10))),(2,3))))),((7,14),(1,(12,(11,(5,13)))))));
(21,((3,((20,(15,(16,18))),((2,4),((10,19),(9,(6,(8,17))))))),((12,(11,(5,13))),(1,(7,14)))));
(21,((1,(7,14)),((((3,(6,(8,17))),(4,(2,(16,18)))),(15,(20,(9,(10,19))))),(11,(12,(5,13))))));
(21,(((9,10),((4,(2,16)),(((3,(8,17)),(6,19)),(15,(18,20))))),((1,(7,14)),(12,(13,(5,11))))));
(21,((((6,17),(8,(19,(9,10)))),((15,(20,(2,4))),(3,(16,18)))),((1,(7,14)),(12,(5,(11,13))))));
(21,(((15,(19,(6,(8,17)))),(3,((9,10),((2,16),(20,(4,18)))))),((1,(7,14)),(12,(13,(5,11))))));
(21,((1,(7,14)),((12,(13,(5,11))),((15,(10,(9,19))),((2,(4,(16,18))),(20,(3,(6,(8,17)))))))));
(21,((((6,(9,10)),(20,(2,18))),(15,((4,16),(19,(3,(8,17)))))),((1,(7,14)),(12,(13,(5,11))))));
(21,(((19,(6,(8,17))),((3,(9,10)),((20,(16,(4,18))),(2,15)))),((12,(13,(5,11))),(1,(7,14)))));
(21,(((20,(4,(16,(2,18)))),(15,(19,(3,((9,10),(6,(8,17))))))),((12,(11,(5,13))),(1,(7,14)))));
(21,(((4,(16,18)),(15,((3,((9,19),(17,(10,(6,8))))),(2,20)))),((12,(11,(5,13))),(1,(7,14)))));
(21,(((3,(6,(8,17))),((15,(18,(2,16))),((19,(9,10)),(4,20)))),((7,14),(1,(12,(13,(5,11)))))));
(21,(((10,(8,17)),(((2,4),(20,(16,18))),(15,(3,(6,(9,19)))))),((12,(5,(11,13))),(1,(7,14)))));
(21,((((3,((6,(8,17)),(19,(9,10)))),((16,18),(2,4))),(15,20)),((12,(5,(11,13))),(1,(7,14)))));
(21,(((15,((8,17),(9,(10,19)))),((3,6),((2,(16,18)),(4,20)))),((1,(7,14)),(12,(13,(5,11))))));
(21,((15,((19,(9,10)),((3,(8,(6,17))),((16,18),(2,(4,20)))))),((12,(13,(5,11))),(1,(7,14)))));
(21,((3,((9,10),(15,((19,(8,(6,17))),(20,(2,(4,(16,18)))))))),((1,(7,14)),(12,(11,(5,13))))));
(21,((1,(7,14)),(((10,(9,(19,(6,(8,17))))),(20,(3,(15,(4,(2,(16,18))))))),(12,(5,(11,13))))));
(((12,((11,(5,13)),(((19,(6,(9,10))),(3,(8,17))),(15,(20,((16,18),(2,4))))))),(1,(7,14))),21);
(21,((1,(7,14)),((11,(5,13)),(12,(15,(4,((20,(2,(16,18))),((6,(8,17)),(19,(3,(9,10)))))))))));
(21,((((2,16),(20,(4,18))),(15,(8,(3,((6,17),(10,(9,19))))))),(1,((7,14),(12,(13,(5,11)))))));
(21,((1,(7,14)),((4,((8,17),((3,(6,19)),((9,10),(20,(15,(2,(16,18)))))))),(12,(13,(5,11))))));
(21,(((15,20),((16,(4,(2,18))),(3,((19,(9,10)),(8,(6,17)))))),((1,(7,14)),(12,(11,(5,13))))));
(21,(((15,((17,(6,19)),(3,8))),((9,10),(20,(2,(4,(16,18)))))),((12,(5,(11,13))),(1,(7,14)))));
(21,((1,(7,14)),((15,((4,16),(2,18))),(((3,(9,(10,19))),(20,(6,(8,17)))),(12,(5,(11,13)))))));
(21,((((8,17),(3,9)),((19,(6,10)),(15,(4,(20,(18,(2,16))))))),(1,((7,14),(12,(13,(5,11)))))));
(21,(((3,(8,17)),(15,((6,(19,(9,10))),(20,(4,(2,(16,18))))))),(1,((7,14),(12,(13,(5,11)))))));
(21,(((15,20),((3,((10,19),(9,(6,(8,17))))),(4,(18,(2,16))))),((12,(11,(5,13))),(1,(7,14)))));
(21,(((3,((9,(10,19)),(17,(6,8)))),((2,16),(15,(20,(4,18))))),((12,(5,(11,13))),(1,(7,14)))));
(21,(((20,((16,18),(2,4))),((3,(19,(9,10))),(15,(6,(8,17))))),((12,(11,(5,13))),(1,(7,14)))));
(21,((((9,10),(6,19)),(((2,4),(20,(16,18))),(15,(3,(8,17))))),((12,(5,(11,13))),(1,(7,14)))));
(21,(((((6,17),(20,(4,(16,18)))),(2,15)),((3,9),(19,(8,10)))),((1,(7,14)),(12,(13,(5,11))))));
(21,((12,((4,(2,(16,18))),(15,(20,(6,(3,((8,17),(9,(10,19))))))))),((13,(5,11)),(1,(7,14)))));
(21,((1,(7,14)),((2,(20,(((8,17),(10,19)),((3,(6,9)),(15,(4,(16,18))))))),(12,(5,(11,13))))));
(21,((20,((3,(9,19)),((6,(10,(8,17))),(15,(18,(4,(2,16))))))),((12,(11,(5,13))),(1,(7,14)))));
(21,((1,(7,14)),((20,((15,(9,10)),((4,(2,(16,18))),(3,(19,(6,(8,17))))))),(12,(5,(11,13))))));
(21,((15,(((6,(8,17)),((10,19),(3,9))),((18,20),(4,(2,16))))),((1,(7,14)),(12,(11,(5,13))))));
(21,(((6,(9,10)),((2,(4,(16,18))),(15,(20,((8,17),(3,19)))))),((12,(13,(5,11))),(1,(7,14)))));
(21,((((2,4),((3,(6,9)),(20,(16,18)))),(15,((8,17),(10,19)))),((12,(13,(5,11))),(1,(7,14)))));
(21,((15,((2,4),(20,((16,18),(3,(19,((9,10),(17,(6,8))))))))),((12,(11,(5,13))),(1,(7,14)))));
(21,(((15,(8,17)),((20,(16,18)),((2,4),((9,19),(3,(6,10)))))),((7,14),(1,(12,(5,(11,13)))))));
(21,((2,(15,((9,(8,17)),((3,(6,(10,19))),((16,18),(4,20)))))),((12,(11,(5,13))),(1,(7,14)))));
(21,(((20,((16,18),(2,4))),(15,((6,(8,17)),(3,(19,(9,10)))))),((1,(7,14)),(12,(5,(11,13))))));
(21,(((20,((10,19),(6,(8,17)))),(15,((4,(2,(16,18))),(3,9)))),((12,(11,(5,13))),(1,(7,14)))));
(21,(((((6,(8,17)),(19,(9,10))),(15,(4,(16,18)))),(3,(2,20))),((12,(5,(11,13))),(1,(7,14)))));
(21,(((11,(5,13)),(1,(7,14))),(12,((15,(20,(4,(2,16)))),(18,(3,((17,(6,8)),(10,(9,19)))))))));
(21,((1,(7,14)),(((20,(18,(2,16))),((3,((10,(9,19)),(6,(8,17)))),(4,15))),(12,(5,(11,13))))));
(21,(((2,(4,(16,18))),((15,20),(((6,8),(19,(9,10))),(3,17)))),((12,(13,(5,11))),(1,(7,14)))));
(21,((((4,(2,(16,18))),(15,20)),(3,((6,(8,17)),(19,(9,10))))),((1,(7,14)),(12,(13,(5,11))))));
(21,(((20,(4,(2,(16,18)))),(15,((10,(6,(8,17))),(3,(9,19))))),((12,(13,(5,11))),(1,(7,14)))));
(21,(((9,10),((15,(3,(19,(6,(8,17))))),(20,(4,(2,(16,18)))))),((7,14),(1,(12,(13,(5,11)))))));
(21,((12,(11,(5,13))),((1,(7,14)),((19,(9,10)),((3,(17,(6,8))),(15,(20,(2,(4,(16,18))))))))));
(21,((((16,18),(20,(2,4))),(15,(3,((17,(6,8)),(19,(9,10)))))),((12,(11,(5,13))),(1,(7,14)))));
(21,((1,(7,14)),(((20,((16,18),(2,4))),(15,(3,((6,(8,17)),(19,(9,10)))))),((5,13),(11,12)))));
(21,(((12,(5,(11,13))),(1,(7,14))),(15,((3,(8,17)),((19,(6,(9,10))),((2,(16,18)),(4,20)))))));
(21,((3,(((9,(10,19)),(8,(6,17))),(15,(20,((16,18),(2,4)))))),((12,(5,(11,13))),(1,(7,14)))));
(21,(((19,(9,10)),((2,(4,18)),(15,((3,(17,(6,8))),(16,20))))),((1,(7,14)),((5,11),(12,13)))));
(21,((((8,17),(3,(6,(19,(9,10))))),((2,(16,18)),(15,(4,20)))),((1,(7,14)),(12,(11,(5,13))))));
(21,(((3,(4,(2,(16,18)))),(20,(15,((6,(8,17)),(19,(9,10)))))),((12,(11,(5,13))),(1,(7,14)))));
(21,(((3,(6,(8,17))),((15,(19,(9,10))),(4,(20,(2,(16,18)))))),((12,(13,(5,11))),(1,(7,14)))));
(21,((((2,(16,18)),(4,20)),((3,(8,17)),(15,(10,(6,(9,19)))))),(((7,14),(11,(5,13))),(1,12))));
(21,((12,((15,(20,(4,(2,(16,18))))),((6,(8,17)),(3,(9,(10,19)))))),((11,(5,13)),(1,(7,14)))));
(21,(((6,(19,(9,10))),((3,(8,17)),(15,(20,((16,18),(2,4)))))),((1,(7,14)),((5,11),(12,13)))));
(21,(((15,(10,(6,(8,17)))),(3,((9,19),((2,4),(20,(16,18)))))),((12,(13,(5,11))),(1,(7,14)))));
(21,(((4,15),((20,(2,(16,18))),((8,17),((3,6),(19,(9,10)))))),((12,(5,(11,13))),(1,(7,14)))));
(21,((1,(7,14)),(12,(((15,((2,(16,18)),(4,20))),(3,((6,(8,17)),(19,(9,10))))),(13,(5,11))))));
(21,(((15,(17,(19,(9,10)))),((6,8),(3,(20,((16,18),(2,4)))))),((12,(5,(11,13))),(1,(7,14)))));
(21,(((3,((6,(8,17)),(19,(9,10)))),(15,(20,(4,(2,(16,18)))))),((12,(13,(5,11))),(1,(7,14)))));
(21,(((20,((16,(2,18)),(4,15))),(3,((8,17),(6,(19,(9,10)))))),((12,(5,(11,13))),(1,(7,14)))));
(21,(((20,(4,(2,(16,18)))),(15,(3,(10,((9,19),(6,(8,17))))))),((12,(13,(5,11))),(1,(7,14)))));
(21,(((3,((8,(6,17)),(19,(9,10)))),(((2,16),(4,18)),(15,20))),((12,(11,(5,13))),(1,(7,14)))));
(21,((3,(20,(((8,(6,17)),(19,(9,10))),(15,(4,(18,(2,16))))))),((11,(12,(5,13))),(1,(7,14)))));
(21,(((15,(4,(2,(16,18)))),((6,(8,17)),(20,(3,(19,(9,10)))))),((1,(7,14)),(12,(13,(5,11))))));
(21,(((16,(15,(20,(4,(2,18))))),(3,((19,(9,10)),(6,(8,17))))),((12,(13,(5,11))),(1,(7,14)))));
(21,((1,(7,14)),(((3,(9,10)),(((16,18),(2,4)),(15,20))),((19,(6,(8,17))),(12,(11,(5,13)))))));
(21,(((4,20),(((10,(9,19)),(3,(8,(6,17)))),(15,(2,(16,18))))),((12,(13,(5,11))),(1,(7,14)))));
(21,((20,((3,((19,(9,10)),(6,(8,17)))),(15,((16,18),(2,4))))),((12,(11,(5,13))),(1,(7,14)))));
(21,(((15,20),((4,(2,(16,18))),(3,((6,(8,17)),(19,(9,10)))))),((1,(7,14)),((11,13),(5,12)))));
(21,((1,(7,14)),(((3,15),(((19,(9,10)),(6,(8,17))),(20,(2,(4,(16,18)))))),(12,(11,(5,13))))));
(21,((16,((2,18),((3,15),(((19,(9,10)),(6,(8,17))),(4,20))))),((12,(13,(5,11))),(1,(7,14)))));
(21,((12,(1,(7,14))),((11,(5,13)),((15,((19,(9,10)),(17,(3,(6,8))))),((16,(2,18)),(4,20))))));
(21,((1,(7,14)),((15,(((2,(16,18)),(4,20)),((9,(10,19)),(3,(6,(8,17)))))),(12,(11,(5,13))))));
(21,((1,(7,14)),((((6,(8,17)),(19,(3,(9,10)))),(15,(20,(4,(2,(16,18)))))),(12,(5,(11,13))))));
(21,((1,(7,14)),((15,(20,(((16,18),(2,4)),(3,((6,(8,17)),(19,(9,10))))))),(12,(13,(5,11))))));
(21,((((16,18),(4,(2,20))),(15,(19,(3,((9,10),(8,(6,17))))))),((1,(7,14)),(12,(5,(11,13))))));
(21,(((4,(16,18)),((((19,(9,10)),(6,(8,17))),(3,15)),(2,20))),((12,(11,(5,13))),(1,(7,14)))));
(21,((((10,19),(9,(6,(8,17)))),(3,(15,(20,(4,(2,(16,18))))))),((12,(13,(5,11))),(1,(7,14)))));
(21,((15,(20,((4,(16,(2,18))),(8,((17,(19,(9,10))),(3,6)))))),(((5,13),(11,12)),(1,(7,14)))));
(21,((1,(7,14)),((15,((3,(19,(8,(6,17)))),((9,10),((4,(16,18)),(2,20))))),(11,(12,(5,13))))));
(21,(((4,(16,(2,18))),((15,20),(17,(3,((6,8),(19,(9,10))))))),(12,((11,(5,13)),(1,(7,14))))));
(21,(((19,(9,10)),((8,(3,(6,17))),(15,(20,(4,(2,(16,18))))))),((12,(13,(5,11))),(1,(7,14)))));
(21,((4,((2,(20,(16,18))),(15,((3,(9,(10,19))),(6,(8,17)))))),((12,(13,(5,11))),(1,(7,14)))));
(21,((15,((20,((16,18),(2,4))),(3,((19,(9,10)),(6,(8,17)))))),((12,(11,(5,13))),(1,(7,14)))));
(21,((((4,20),(15,(2,(16,18)))),(3,((10,19),(9,(17,(6,8)))))),((12,(11,(5,13))),(1,(7,14)))));
(21,(((20,(4,(2,(16,18)))),(15,((9,10),(3,(19,(17,(6,8))))))),(((5,11),(12,13)),(1,(7,14)))));
(21,(((15,(2,(16,18))),((3,(9,10)),((19,(6,(8,17))),(4,20)))),((12,(13,(5,11))),(1,(7,14)))));
(21,(((((9,10),(6,(8,17))),(3,19)),(20,(15,((16,18),(2,4))))),((12,(13,(5,11))),(1,(7,14)))));
(21,((4,(15,((20,(2,(16,18))),((8,17),(3,(6,(19,(9,10)))))))),((12,(13,(5,11))),(1,(7,14)))));
(21,((15,((4,(20,(2,(16,18)))),((8,17),((10,(9,19)),(3,6))))),((12,(13,(5,11))),(1,(7,14)))));
(21,((1,(7,14)),((15,(4,20)),(((6,8),((3,(17,(19,(9,10)))),(18,(2,16)))),(12,(5,(11,13)))))));
(21,(((2,16),((20,(4,18)),(15,(3,((6,8),(17,(19,(9,10)))))))),((12,(5,(11,13))),(1,(7,14)))));
(21,(((7,14),(1,12)),((11,(5,13)),(((3,(19,(9,10))),(17,(6,8))),(2,(15,(20,(4,(16,18)))))))));
(21,((1,(7,14)),(((20,(2,4)),(15,((16,18),(8,(3,((19,(9,10)),(6,17))))))),(12,(13,(5,11))))));
(21,(((20,(15,((16,18),(2,4)))),(3,((6,(8,17)),(9,(10,19))))),((12,(5,(11,13))),(1,(7,14)))));
(21,(((20,(4,(18,(2,16)))),(15,((19,(6,(8,17))),(3,(9,10))))),((12,(11,(5,13))),(1,(7,14)))));
(21,(((15,(16,(4,18))),((((6,8),(9,10)),(3,(17,19))),(2,20))),(12,((5,(11,13)),(1,(7,14))))));
(21,((1,(7,14)),(15,(((16,(2,4)),((18,20),(((8,17),(19,(9,10))),(3,6)))),(12,(5,(11,13)))))));
(21,(((4,16),(((8,17),((9,10),(6,(3,19)))),(15,(20,(2,18))))),((12,(5,(11,13))),(1,(7,14)))));
(21,((((20,(4,(2,(16,18)))),(15,((6,(8,17)),(3,(19,(9,10)))))),(12,(11,(5,13)))),(1,(7,14))));
(21,((((19,(3,(9,10))),(20,(4,(16,18)))),(2,(15,(6,(8,17))))),((1,(7,14)),(12,(5,(11,13))))));
(21,(((16,18),((15,(20,(2,4))),(3,((6,(8,17)),(19,(9,10)))))),((12,(11,(5,13))),(1,(7,14)))));
(21,((15,(((6,(8,17)),(3,(19,(9,10)))),((2,(16,18)),(4,20)))),((12,(13,(5,11))),(1,(7,14)))));
(21,((1,(7,14)),((12,(13,(5,11))),((9,((16,18),(20,(2,4)))),((3,6),(15,((8,17),(10,19))))))));
(21,(((4,15),((20,(2,(16,18))),(((9,10),(6,(8,17))),(3,19)))),((12,(5,(11,13))),(1,(7,14)))));
(21,((1,(7,14)),((15,((20,(4,(2,(16,18)))),(6,(3,((9,10),(19,(8,17))))))),(12,(13,(5,11))))));
(21,((((10,(17,(9,19))),((3,(6,8)),(15,20))),((16,18),(2,4))),((12,(13,(5,11))),(1,(7,14)))));
(21,(((20,(4,(2,(16,18)))),((3,(6,(19,(9,10)))),(15,(8,17)))),((12,(13,(5,11))),(1,(7,14)))));
(((((2,4),(20,(16,18))),(15,((6,(9,10)),(3,(19,(8,17)))))),((12,(11,(5,13))),(1,(7,14)))),21);
(21,(((20,(15,(3,((8,17),(6,(9,10)))))),((18,(2,16)),(4,19))),((12,(13,(5,11))),(1,(7,14)))));
(21,((1,(7,14)),((20,(((3,(9,10)),(19,(17,(6,8)))),(15,(2,(4,(16,18)))))),(12,(5,(11,13))))));
(21,(((4,(16,18)),((2,20),((9,10),(15,(3,(19,(6,(8,17)))))))),((1,(7,14)),((5,13),(11,12)))));
(21,((((6,(8,17)),(20,(4,(16,(2,18))))),(15,(3,(19,(9,10))))),((12,(5,(11,13))),(1,(7,14)))));
(21,((1,(7,14)),((3,((20,(16,(4,(2,18)))),(15,((8,(10,19)),(17,(6,9)))))),(12,(13,(5,11))))));
(21,(((20,(2,(4,(16,18)))),(15,((19,(6,(8,17))),(3,(9,10))))),((11,(12,(5,13))),(1,(7,14)))));
(21,((1,(7,14)),((((16,18),(20,(2,4))),(15,((8,(9,10)),(3,(19,(6,17)))))),(12,(11,(5,13))))));
(21,(((1,(7,14)),(12,(13,(5,11)))),((15,(3,(19,(6,(8,17))))),((9,10),((2,(16,18)),(4,20))))));
(21,(((20,(3,15)),(((6,(8,17)),(19,(9,10))),(4,(18,(2,16))))),((1,(7,14)),(12,(11,(5,13))))));
(21,((15,((3,(17,((6,8),(19,(9,10))))),(20,(4,(2,(16,18)))))),((12,(13,(5,11))),(1,(7,14)))));
(21,(((20,(15,(19,(9,10)))),((3,(6,(8,17))),(4,(2,(16,18))))),((12,(5,(11,13))),(1,(7,14)))));
(21,(((19,(6,(8,17))),(3,(20,(15,((9,10),(4,(2,(16,18)))))))),((1,(7,14)),(12,(11,(5,13))))));
(21,(((10,(8,17)),(15,((3,(6,(9,19))),(20,(4,(2,(16,18))))))),((12,(5,(11,13))),(1,(7,14)))));
(21,((((2,(16,18)),(4,20)),(15,((19,(9,10)),(3,(6,(8,17)))))),(((5,11),(12,13)),(1,(7,14)))));
(21,((((8,(19,(9,10))),(15,(3,(6,17)))),((4,(16,18)),(2,20))),((12,(11,(5,13))),(1,(7,14)))));
(21,((((8,(6,17)),(3,(10,(9,19)))),(20,(15,(18,(4,(2,16)))))),((12,(13,(5,11))),(1,(7,14)))));
(21,(((2,(15,(4,(16,18)))),(20,((19,(9,10)),(3,(17,(6,8)))))),((12,(13,(5,11))),(1,(7,14)))));
(21,((((19,(9,10)),(6,(8,17))),((4,(18,(2,16))),(3,(15,20)))),(12,((5,(11,13)),(1,(7,14))))));
(21,((5,13),((1,(7,14)),((15,(((6,(8,17)),(3,(9,10))),(19,(20,(4,(2,(16,18))))))),(11,12)))));
(21,((15,((2,18),((3,((6,(8,17)),(19,(9,10)))),(20,(4,16))))),((12,(5,(11,13))),(1,(7,14)))));
(21,(((15,(2,20)),((4,(16,18)),((10,19),(9,(3,(6,(8,17))))))),((12,(13,(5,11))),(1,(7,14)))));
(21,((15,(4,(20,((2,(16,18)),((8,19),((9,10),(3,(6,17)))))))),((12,(13,(5,11))),(1,(7,14)))));
(21,((((6,(8,17)),(3,19)),((9,10),(15,((2,(16,18)),(4,20))))),((12,(13,(5,11))),(1,(7,14)))));
(21,((((4,(2,(16,18))),(20,(6,(8,17)))),((19,(9,10)),(3,15))),((12,(11,(5,13))),(1,(7,14)))));
(21,((20,(15,((2,(4,(16,18))),(9,((10,19),(3,(6,(8,17)))))))),((12,(11,(5,13))),(1,(7,14)))));
(21,(((15,(4,(18,(2,16)))),(20,(19,(3,((6,17),(8,(9,10))))))),((1,(7,14)),(12,(11,(5,13))))));
(21,((15,((3,((6,(8,17)),(9,(10,19)))),(4,(20,(16,(2,18)))))),(1,((7,14),(12,(5,(11,13)))))));
(21,(((20,(4,(2,(16,18)))),(15,((6,10),(3,((8,17),(9,19)))))),((12,(13,(5,11))),(1,(7,14)))));
(21,(((9,10),((3,(19,(6,(8,17)))),(15,(20,(18,(4,(2,16))))))),((12,(11,(5,13))),(1,(7,14)))));
(21,(((12,(13,(5,11))),(1,(7,14))),(((19,(9,10)),(3,(8,17))),((20,((4,16),(2,18))),(6,15)))));
(21,((1,(7,14)),(((19,(4,(20,(2,(16,18))))),(15,((3,(6,8)),(17,(9,10))))),(12,(13,(5,11))))));
(21,(((4,(18,(2,16))),(20,(15,((9,(10,19)),(3,(6,(8,17))))))),((12,(5,(11,13))),(1,(7,14)))));
(21,(((3,((6,(8,17)),(19,(9,10)))),(15,(20,(2,(4,(16,18)))))),((12,(13,(5,11))),(1,(7,14)))));
(21,((4,(((6,8),(3,(19,(9,10)))),((2,(16,18)),(17,(15,20))))),((12,(5,(11,13))),(1,(7,14)))));
(21,((1,(7,14)),(((20,(16,(4,(2,18)))),((6,(9,(3,(10,19)))),(15,(8,17)))),(12,(13,(5,11))))));
(21,((1,(7,14)),(15,(((20,((16,18),(2,4))),((6,(8,17)),(3,(19,(9,10))))),(12,(5,(11,13)))))));
(21,((((16,18),(2,4)),(20,(15,((3,(8,17)),(6,(19,(9,10))))))),((1,(7,14)),(12,(11,(5,13))))));
(21,(((13,(5,11)),((15,(4,20)),((10,19),((2,(16,18)),(3,(9,(6,(8,17)))))))),(12,(1,(7,14)))));
(21,((((3,(10,(6,(8,17)))),(2,(20,(4,(16,18))))),(15,(9,19))),((12,(13,(5,11))),(1,(7,14)))));
(21,(((2,(4,18)),(((6,(8,17)),(3,(19,(9,10)))),(15,(16,20)))),((12,(13,(5,11))),(1,(7,14)))));
(21,((((19,(9,10)),(3,(17,(6,8)))),(15,((16,18),(20,(2,4))))),((12,(11,(5,13))),(1,(7,14)))));
(21,(((20,(4,(18,(2,16)))),((15,(6,(8,17))),(19,(3,(9,10))))),((12,(5,(11,13))),(1,(7,14)))));
(21,(((3,(9,(10,19))),((4,(2,(16,18))),((6,(8,17)),(15,20)))),((12,(13,(5,11))),(1,(7,14)))));
(21,(((3,((19,(9,10)),(6,(8,17)))),(15,(20,(2,(4,(16,18)))))),((12,(11,(5,13))),(1,(7,14)))));
(21,((1,(7,14)),((((4,(2,16)),(3,((6,(8,17)),(19,(9,10))))),(15,(18,20))),(12,(5,(11,13))))));
(21,((1,(7,14)),((12,(5,(11,13))),((15,(20,(4,(2,(16,18))))),((6,(8,17)),(3,(10,(9,19))))))));
(21,((((8,17),(19,(3,(6,(9,10))))),(20,(15,(4,(2,(16,18)))))),(1,((7,14),(12,(13,(5,11)))))));
(21,((15,((3,(8,(6,17))),((19,(9,10)),((16,18),(20,(2,4)))))),((12,(11,(5,13))),(1,(7,14)))));
(21,((((6,(19,(9,10))),(15,(3,(8,17)))),((4,(16,18)),(2,20))),((12,(13,(5,11))),(1,(7,14)))));
(21,((((9,10),((2,(16,18)),(15,20))),(4,((6,(8,17)),(3,19)))),((12,(11,(5,13))),(1,(7,14)))));
(21,(((3,(9,(10,19))),((6,(8,17)),(15,(20,(4,(2,(16,18))))))),((12,(13,(5,11))),(1,(7,14)))));
(21,(((15,((2,(16,18)),(4,20))),((19,(8,(6,17))),(3,(9,10)))),((7,14),(1,(12,(13,(5,11)))))));
(21,(((2,(4,(16,18))),(20,(15,((6,(8,17)),(3,(19,(9,10))))))),((12,(13,(5,11))),(1,(7,14)))));
(21,(((15,(2,(4,(16,18)))),(20,(3,((19,(9,10)),(6,(8,17)))))),((12,(5,(11,13))),(1,(7,14)))));
(21,((((4,18),((6,(8,17)),(10,(9,19)))),(15,(3,(20,(2,16))))),((12,(13,(5,11))),(1,(7,14)))));
(21,((3,(((6,17),(9,(8,(10,19)))),(((2,18),(4,16)),(15,20)))),((12,(13,(5,11))),(1,(7,14)))));
(21,(((6,((9,10),(3,(19,(8,17))))),(4,(15,(20,(2,(16,18)))))),((12,(13,(5,11))),(1,(7,14)))));
(21,(((15,20),((2,(16,(4,18))),(3,((17,(6,8)),(19,(9,10)))))),((1,(7,14)),(12,(13,(5,11))))));
(21,((9,((4,(20,(2,(16,18)))),(15,(3,((17,(6,8)),(10,19)))))),(1,(12,((11,(5,13)),(7,14))))));
(21,(((((8,19),(6,10)),(3,(9,17))),(15,((16,18),(20,(2,4))))),((12,(5,(11,13))),(1,(7,14)))));
(21,((((16,18),(2,4)),(15,(20,(3,((8,17),(6,(19,(9,10)))))))),((12,(5,(11,13))),(1,(7,14)))));
(21,(((((9,10),(19,(6,(8,17)))),(3,15)),(20,((16,18),(2,4)))),((12,(11,(5,13))),(1,(7,14)))));
(21,((12,(((3,6),(15,(8,17))),((9,(10,19)),(20,(4,(2,(16,18))))))),((5,(11,13)),(1,(7,14)))));
(21,(((19,(3,(6,(8,17)))),((9,10),(15,(20,(2,(4,(16,18))))))),((12,(13,(5,11))),(1,(7,14)))));
(21,(((((6,9),(10,(8,17))),(3,19)),(15,(20,(4,(2,(16,18)))))),((12,(5,(11,13))),(1,(7,14)))));
(21,(((3,((16,(2,18)),(4,20))),(15,((6,(8,17)),(19,(9,10))))),((12,(13,(5,11))),(1,(7,14)))));
(21,((15,((3,((6,(8,17)),(19,(9,10)))),((20,(2,16)),(4,18)))),((12,(5,(11,13))),(1,(7,14)))));
(21,(((((8,17),(9,10)),(6,(3,19))),(15,(20,((16,18),(2,4))))),((1,(7,14)),(12,(5,(11,13))))));
(21,((1,(7,14)),(((20,(4,(2,(16,18)))),(15,((10,(9,19)),((8,17),(3,6))))),(12,(11,(5,13))))));
(21,((((9,10),(3,(19,(6,(8,17))))),(15,(20,(4,(2,(16,18)))))),((12,(11,(5,13))),(1,(7,14)))));
(21,((15,(((9,10),((17,(6,8)),(3,19))),((2,16),(20,(4,18))))),((12,(11,(5,13))),(1,(7,14)))));
(21,(((6,(8,17)),((3,(4,(2,(16,18)))),((9,(10,19)),(15,20)))),((12,(5,(11,13))),(1,(7,14)))));
(21,(((20,(4,18)),(15,((2,16),((19,(9,10)),(3,(6,(8,17))))))),((12,(13,(5,11))),(1,(7,14)))));
(21,((1,(7,14)),((15,(3,((9,((10,19),(6,(8,17)))),(2,(20,(4,(16,18))))))),(12,(13,(5,11))))));
(21,((1,(7,14)),(((4,(20,(2,(16,18)))),(15,((19,(9,10)),(3,(17,(6,8)))))),((5,11),(12,13)))));
(21,(((16,(2,18)),((15,20),(4,((10,(9,19)),(3,(17,(6,8))))))),(1,((7,14),(12,(5,(11,13)))))));
(21,((((6,8),(2,(16,18))),(((17,(9,19)),(3,10)),(4,(15,20)))),((12,(13,(5,11))),(1,(7,14)))));
(21,(((15,16),((3,((6,(8,17)),(9,(10,19)))),(20,(4,(2,18))))),((1,(7,14)),(12,(11,(5,13))))));
(21,((((4,18),(20,(2,16))),((10,((9,19),(6,(8,17)))),(3,15))),((7,14),(1,(12,(11,(5,13)))))));
(21,(((4,(2,(16,18))),((9,(6,(8,17))),(20,(15,(3,(10,19)))))),((12,(13,(5,11))),(1,(7,14)))));
(21,((1,(7,14)),((15,((20,((17,(6,8)),(3,(19,(9,10))))),(2,(4,(16,18))))),(12,(13,(5,11))))));
(21,((((17,(3,(6,(10,(9,19))))),(15,20)),(8,(4,(2,(16,18))))),((1,(7,14)),(12,(13,(5,11))))));
(21,(((15,(3,(8,(6,17)))),((19,(9,10)),((2,(16,18)),(4,20)))),((12,(13,(5,11))),(1,(7,14)))));
(21,((15,((19,(6,(8,17))),((20,(4,(2,(16,18)))),(3,(9,10))))),((13,(5,11)),(12,(1,(7,14))))));
(21,((1,(7,14)),((5,(12,(11,13))),(((16,(2,4)),(18,20)),((10,(6,(8,17))),(15,(3,(9,19))))))));
(21,((1,(7,14)),((((19,(17,(6,8))),(3,15)),((9,10),(20,((16,18),(2,4))))),(12,(13,(5,11))))));
(21,(((8,17),((20,(2,(4,(16,18)))),(15,((19,(9,10)),(3,6))))),((12,(11,(5,13))),(1,(7,14)))));
(21,((((6,(8,17)),(3,(9,(10,19)))),(20,(15,((16,18),(2,4))))),((12,(11,(5,13))),(1,(7,14)))));
(21,(((15,(3,(6,(8,17)))),((4,18),(16,((19,(9,10)),(2,20))))),((1,(7,14)),(12,(11,(5,13))))));
(21,(((5,(11,13)),((3,((19,(9,10)),(8,(6,17)))),(15,(4,(20,(16,(2,18))))))),(1,(12,(7,14)))));
(21,(((((19,(9,10)),(15,20)),(4,6)),((2,(16,18)),(3,(8,17)))),((12,(11,(5,13))),(1,(7,14)))));
(21,(((15,(3,((9,10),(8,17)))),((6,19),(20,(4,(2,(16,18)))))),(((11,13),(5,12)),(1,(7,14)))));
(21,(((((6,(8,17)),(10,(9,19))),(4,20)),(3,(15,(2,(16,18))))),((1,(7,14)),(12,(11,(5,13))))));
(21,((15,((20,(4,(2,(16,18)))),((6,(8,17)),(3,(9,(10,19)))))),((12,(11,(5,13))),(1,(7,14)))));
(21,((3,((15,(20,(16,(2,18)))),(4,((8,(6,17)),(9,(10,19)))))),((12,(5,(11,13))),(1,(7,14)))));
(21,(((2,15),(3,((4,(16,18)),(20,(19,((9,10),(6,(8,17)))))))),((1,(7,14)),(12,(11,(5,13))))));
(21,((1,(7,14)),((((9,(10,19)),(3,(8,(6,17)))),(15,(20,((16,18),(2,4))))),(12,(11,(5,13))))));
(21,(((15,((2,20),((9,10),(6,(19,(8,17)))))),(3,(4,(16,18)))),(12,((5,(11,13)),(1,(7,14))))));
(21,((15,((3,((19,(9,10)),(6,(8,17)))),(4,(20,(2,(16,18)))))),((12,(13,(5,11))),(1,(7,14)))));
(21,(((3,((10,(9,19)),(6,(8,17)))),(((16,18),(4,20)),(2,15))),((12,(11,(5,13))),(1,(7,14)))));
(21,(((15,(2,4)),((3,(9,10)),((19,(8,(6,17))),(20,(16,18))))),((12,(11,(5,13))),(1,(7,14)))));
(21,(((20,((16,18),(2,4))),(15,((6,8),((19,(9,10)),(3,17))))),((1,(7,14)),(12,(11,(5,13))))));
(21,(((3,(15,(4,(2,18)))),((8,((6,17),(19,(9,10)))),(16,20))),((12,(11,(5,13))),(1,(7,14)))));
(21,((15,((4,(2,16)),(3,(((6,(8,17)),(19,(9,10))),(18,20))))),((12,(13,(5,11))),(1,(7,14)))));
(21,(((15,(20,(4,(2,(16,18))))),(3,((19,(9,10)),(17,(6,8))))),((12,(11,(5,13))),(1,(7,14)))));
(21,(((15,20),((2,(4,(16,18))),(((17,(6,8)),(10,19)),(3,9)))),((12,(11,(5,13))),(1,(7,14)))));
(21,(((15,(20,(4,(2,(16,18))))),(((3,10),((6,(8,17)),(9,19))),(12,(13,(5,11))))),(1,(7,14))));
(21,(((4,(((10,19),(9,(6,8))),(3,17))),(15,(20,(2,(16,18))))),((12,(11,(5,13))),(1,(7,14)))));
(21,((1,(7,14)),((((9,10),(3,19)),((20,(18,(4,(2,16)))),(15,(6,(8,17))))),(12,(11,(5,13))))));
(21,((((6,(8,17)),(19,(9,10))),(3,(15,(20,(2,(4,(16,18))))))),(((5,11),(12,13)),(1,(7,14)))));
(21,(((15,(17,(6,8))),((16,(4,18)),((2,20),(3,(9,(10,19)))))),((12,(13,(5,11))),(1,(7,14)))));
(21,(((3,(10,(6,(8,17)))),(((20,(2,18)),(4,16)),(15,(9,19)))),(((11,13),(5,12)),(1,(7,14)))));
(21,((((3,(9,10)),(6,(19,(8,17)))),(15,(4,(20,(2,(16,18)))))),((1,(7,14)),(12,(5,(11,13))))));
(21,((3,(((6,(8,17)),(15,(2,(16,18)))),((9,(10,19)),(4,20)))),(12,((5,(11,13)),(1,(7,14))))));
(21,(((15,(20,(4,(2,(16,18))))),((17,(9,10)),(3,(19,(6,8))))),((1,(7,14)),(12,(11,(5,13))))));
(21,((1,(7,14)),(((3,((6,(8,17)),(19,(9,10)))),(15,(20,(4,(2,(16,18)))))),(12,(5,(11,13))))));
(21,(((20,(2,4)),((16,18),(15,((8,17),(19,(3,(6,(9,10)))))))),((12,(11,(5,13))),(1,(7,14)))));
(21,((((9,10),(3,(6,(19,(8,17))))),(20,(15,(2,(4,(16,18)))))),((1,(7,14)),(12,(11,(5,13))))));
(21,(((3,((19,(9,10)),(6,(8,17)))),(15,(4,(20,(16,(2,18)))))),((5,(11,13)),(1,(12,(7,14))))));
(21,((20,((4,(2,(16,18))),(15,(19,(3,((9,10),(6,(8,17)))))))),((12,(5,(11,13))),(1,(7,14)))));
(21,(((3,((2,4),(20,(16,18)))),(15,((6,(8,17)),(19,(9,10))))),((12,(5,(11,13))),(1,(7,14)))));
(21,(((20,((8,17),(10,(6,19)))),(3,(15,(9,(2,(16,(4,18))))))),((12,(13,(5,11))),(1,(7,14)))));
(21,((((17,19),(9,(6,8))),((4,(2,(16,18))),(20,(15,(3,10))))),((12,(11,(5,13))),(1,(7,14)))));
(21,(((8,((10,(9,19)),(3,(6,17)))),(15,((2,(16,18)),(4,20)))),((12,(5,(11,13))),(1,(7,14)))));
(21,((1,(7,14)),((12,(5,(11,13))),(((16,18),(2,4)),(20,(15,(17,(3,((6,8),(10,(9,19)))))))))));
(21,(((20,(4,(18,(2,16)))),(15,((9,(8,17)),((6,19),(3,10))))),((1,(7,14)),((5,11),(12,13)))));
(21,(((12,(11,(5,13))),(1,(7,14))),(15,((3,(8,(6,17))),((9,10),(19,(20,(4,(2,(16,18))))))))));
(21,((((3,19),(((9,10),(17,(6,8))),(2,20))),(15,(4,(16,18)))),((7,(1,14)),(12,(13,(5,11))))));
(21,((1,(7,14)),((3,((2,(16,18)),((19,((9,10),(6,(8,17)))),(15,(4,20))))),(12,(5,(11,13))))));
(21,((((6,(8,17)),(3,19)),(15,((20,(2,(16,18))),(4,(9,10))))),((12,(5,(11,13))),(1,(7,14)))));
(21,(((15,((6,(8,17)),(3,(10,(9,19))))),(20,(4,(18,(2,16))))),((7,14),(1,(12,(5,(11,13)))))));
(21,(((3,((9,19),(17,(6,8)))),(10,(15,(20,(4,(2,(16,18))))))),((12,(5,(11,13))),(1,(7,14)))));
(21,(((17,(9,10)),(((3,(19,(6,8))),(15,20)),(4,(18,(2,16))))),((7,14),(1,(12,(5,(11,13)))))));
(21,(((3,(8,17)),(15,(16,((19,(6,(9,10))),(20,(4,(2,18))))))),((7,14),(1,(12,(11,(5,13)))))));
(21,(((11,(5,13)),(15,((3,(19,(9,10))),((6,(8,17)),((16,18),(20,(2,4))))))),(12,(1,(7,14)))));
(21,(((5,(11,13)),(15,((6,19),((20,((16,18),(2,4))),(3,((8,17),(9,10))))))),((7,14),(1,12))));
(21,(((15,(6,(8,17))),((4,(20,(2,(16,18)))),(3,(19,(9,10))))),((7,14),(1,(12,(11,(5,13)))))));
(21,(((1,(7,14)),(12,(5,(11,13)))),((3,(6,(8,17))),((19,(9,10)),(15,((20,(16,18)),(2,4)))))));
(21,(((20,(4,(16,18))),(((8,17),(9,19)),((10,(3,6)),(2,15)))),((12,(11,(5,13))),(1,(7,14)))));
(21,((1,(7,14)),(((20,(16,(2,(4,18)))),(15,(3,((6,8),((9,10),(17,19)))))),(13,(12,(5,11))))));
(21,((1,(7,14)),((15,((19,(8,17)),(20,(4,(2,(16,18)))))),((3,(6,(9,10))),(12,(5,(11,13)))))));
(21,(((3,(9,19)),(2,((10,(6,(8,17))),(15,(20,(4,(16,18))))))),((7,14),(1,(12,(11,(5,13)))))));
(21,((1,(7,14)),(((15,(9,(3,19))),((10,(6,(8,17))),(2,(20,(18,(4,16)))))),(12,(5,(11,13))))));
(21,(((15,16),((4,(2,18)),((6,17),(20,((9,(10,19)),(3,8)))))),((1,(7,14)),(12,(13,(5,11))))));
(21,((1,(7,14)),((12,(5,(11,13))),(15,((9,(10,19)),((3,(6,(8,17))),(4,(20,(2,(16,18))))))))));
(21,((3,(15,((2,((16,18),(4,20))),(10,((17,(6,8)),(9,19)))))),((12,(13,(5,11))),(1,(7,14)))));
(21,(((15,20),((3,(6,(8,17))),((10,(9,19)),(18,(4,(2,16)))))),((12,(11,(5,13))),(1,(7,14)))));
(21,((((2,(16,18)),(15,(4,20))),((8,17),(3,(6,(19,(9,10)))))),((12,(5,(11,13))),(1,(7,14)))));
(21,(((20,((17,(6,8)),(19,(9,10)))),(3,(15,(4,(2,(16,18)))))),((12,(11,(5,13))),(1,(7,14)))));
(21,((((3,(10,(6,17))),((9,19),(4,(16,(2,18))))),(8,(15,20))),((12,(5,(11,13))),(1,(7,14)))));
(21,((20,((3,((6,8),((9,10),(17,19)))),(15,((16,18),(2,4))))),(1,((7,14),(12,(13,(5,11)))))));
(21,((1,(7,14)),(((4,20),(15,(2,((16,18),(3,(9,((6,(8,17)),(10,19)))))))),(12,(5,(11,13))))));
(21,((((6,(8,17)),((3,9),(20,(4,(2,(16,18)))))),(15,(10,19))),(1,((7,14),(12,(13,(5,11)))))));
(21,(((12,(5,(11,13))),(1,(7,14))),(3,((8,((4,16),(20,(2,18)))),(15,((6,17),(19,(9,10))))))));
(21,((((10,19),((6,(8,17)),(3,9))),(15,(20,(4,(2,(16,18)))))),((1,(7,14)),(12,(13,(5,11))))));
(21,((1,(7,14)),(((3,15),((16,(2,18)),(((6,17),(8,(19,(9,10)))),(4,20)))),(12,(5,(11,13))))));
(21,((((3,6),(15,(19,((9,10),(8,17))))),((4,18),(20,(2,16)))),((12,(5,(11,13))),(1,(7,14)))));
(21,((20,(15,((3,(9,(8,(6,17)))),((18,(4,(2,16))),(10,19))))),((1,(7,14)),(12,(11,(5,13))))));
(21,((1,(12,(5,(11,13)))),((7,14),(((6,(8,17)),(19,(9,10))),(3,(15,(18,(20,(4,(2,16))))))))));
(21,(((15,((16,18),(2,4))),((9,((10,19),(6,(8,17)))),(3,20))),((12,(11,(5,13))),(1,(7,14)))));
(21,((20,(15,((3,(10,(9,19))),((17,(6,8)),(4,(2,(16,18))))))),((12,(13,(5,11))),(1,(7,14)))));
(21,(((3,((6,(8,17)),(19,(9,10)))),(15,(20,((16,18),(2,4))))),(1,((7,14),(12,(5,(11,13)))))));
(21,(((20,(4,(16,(2,18)))),(15,(3,((9,(10,19)),(6,(8,17)))))),((12,(13,(5,11))),(1,(7,14)))));
(21,(((15,(16,(2,18))),(20,(4,((3,6),(10,((8,17),(9,19))))))),((12,(5,(11,13))),(1,(7,14)))));
(21,((12,(15,((2,(16,18)),((4,20),((6,(8,17)),((9,10),(3,19))))))),((5,(11,13)),(1,(7,14)))));
(21,((4,((((9,10),(6,(8,17))),(3,19)),(15,(20,(2,(16,18)))))),((12,(13,(5,11))),(1,(7,14)))));
(21,(((16,(20,(4,(2,18)))),(15,(3,(19,((6,(8,17)),(9,10)))))),((12,(11,(5,13))),(1,(7,14)))));
(21,(((3,((6,(8,17)),(19,(9,10)))),(15,((2,(16,18)),(4,20)))),((12,(13,(5,11))),(1,(7,14)))));
(21,(((15,(20,(2,(4,(16,18))))),((19,(9,10)),(3,(6,(8,17))))),((1,(7,14)),(11,(12,(5,13))))));
(21,((1,(7,14)),(((15,(20,(2,18))),((8,((10,(9,19)),(6,17))),(3,(4,16)))),(12,(11,(5,13))))));
(21,(((19,((6,(8,17)),(3,(9,10)))),((20,(2,4)),(15,(16,18)))),((12,(5,(11,13))),(1,(7,14)))));
(21,(((20,(2,18)),((15,((9,10),(3,19))),((6,(8,17)),(4,16)))),((12,(5,(11,13))),(1,(7,14)))));
(21,(1,((7,14),(((2,(20,(4,(16,18)))),(9,(15,(3,((10,19),(8,(6,17))))))),(12,(11,(5,13)))))));
(21,((1,(7,14)),((12,(5,(11,13))),((9,((10,19),(3,(8,(6,17))))),((2,16),(15,(20,(4,18))))))));
(21,(((4,20),(((3,19),(2,(16,18))),(15,((9,10),(6,(8,17)))))),((12,(13,(5,11))),(1,(7,14)))));
(21,((1,(7,14)),((((6,(8,17)),(19,(9,10))),(3,(15,(20,((16,18),(2,4)))))),(12,(5,(11,13))))));
(21,((15,(20,(((2,16),(4,18)),(3,((6,(8,17)),(19,(9,10))))))),((1,(7,14)),(12,(11,(5,13))))));
(21,((15,(20,((3,((8,17),(10,(6,(9,19))))),(2,(4,(16,18)))))),((1,(7,14)),(12,(5,(11,13))))));
(21,((((2,(16,18)),(4,20)),(15,((19,(9,10)),(3,(6,(8,17)))))),((12,(13,(5,11))),(1,(7,14)))));
(21,((1,(7,14)),(((15,(4,8)),((3,((9,10),(19,(6,17)))),(20,(2,(16,18))))),(12,(11,(5,13))))));
(21,(((15,(20,(2,(16,18)))),((6,(9,10)),(4,(3,(19,(8,17)))))),((12,(5,(11,13))),(1,(7,14)))));
(21,((1,(7,14)),(((19,(9,10)),((3,(6,(8,17))),((2,20),(15,(4,(16,18)))))),(12,(13,(5,11))))));
(21,((1,(7,14)),(((15,(18,20)),((4,(2,16)),(17,(3,((6,8),(19,(9,10))))))),(12,(13,(5,11))))));
(21,(((20,(4,(16,18))),(2,(15,(19,(3,(9,(10,(17,(6,8))))))))),((7,14),(1,(12,(11,(5,13)))))));
(21,(((20,(4,(2,(16,18)))),(15,(3,((19,(9,10)),(6,(8,17)))))),((12,(5,(11,13))),(1,(7,14)))));
(21,(((20,(4,(2,(16,18)))),(15,((6,(8,17)),(3,(19,(9,10)))))),((12,(11,(5,13))),(1,(7,14)))));
(21,(((18,(2,16)),((3,(9,(10,19))),(20,((8,(6,17)),(4,15))))),((12,(13,(5,11))),(1,(7,14)))));
(21,(((2,(20,(4,(16,18)))),(15,((10,(9,19)),(3,(8,(6,17)))))),((12,(11,(5,13))),(1,(7,14)))));
(21,(((20,(15,(9,19))),(3,((6,(10,(8,17))),(2,(4,(16,18)))))),((1,(7,14)),(12,(13,(5,11))))));
(21,(((15,(16,(4,(2,18)))),(20,(3,(6,((8,17),(10,(9,19))))))),((7,14),(1,(12,(5,(11,13)))))));
(21,((1,(7,14)),((12,(5,(11,13))),((15,((10,((8,17),(9,19))),(4,(2,(16,18))))),(20,(3,6))))));
(21,((20,((9,10),((19,(3,(6,(8,17)))),(15,(4,(2,(16,18))))))),((12,(11,(5,13))),(1,(7,14)))));
(21,((1,(7,14)),(((3,((19,(9,10)),(6,(8,17)))),((20,(2,(16,18))),(4,15))),(12,(13,(5,11))))));
(21,((1,(7,14)),(((15,(4,(2,(16,18)))),(20,((3,(19,(9,10))),(8,(6,17))))),(12,(5,(11,13))))));
(21,((((3,(8,(6,17))),(15,(4,20))),((2,(16,18)),(19,(9,10)))),((1,(7,14)),(12,(11,(5,13))))));
(21,((((4,20),(15,(2,(16,18)))),((6,(8,17)),(3,(19,(9,10))))),((12,(11,(5,13))),(1,(7,14)))));
(21,(((18,(20,(2,(4,16)))),(15,(3,((6,(8,17)),(9,(10,19)))))),((12,(11,(5,13))),(1,(7,14)))));
(21,(((20,(6,(19,(9,10)))),((3,(8,17)),(15,(2,(4,(16,18)))))),((1,(7,14)),(12,(13,(5,11))))));
(21,(((((10,(8,(6,17))),(3,19)),(15,20)),(9,(4,(2,(16,18))))),((1,(7,14)),(12,(5,(11,13))))));
(21,((((6,8),(10,(9,19))),(4,(15,((20,(2,(16,18))),(3,17))))),((5,(12,(11,13))),(1,(7,14)))));
(21,((((19,(9,10)),(6,(8,17))),((15,(3,(2,4))),(18,(16,20)))),((12,(11,(5,13))),(1,(7,14)))));
(21,(((9,10),((4,(16,18)),(19,((3,(6,(8,17))),(15,(2,20)))))),((12,(11,(5,13))),(1,(7,14)))));
(21,(((20,(((19,(9,10)),(3,(6,(8,17)))),(15,((4,16),(2,18))))),((5,11),(12,13))),(1,(7,14))));
(21,((1,(7,14)),(((15,(20,(2,(4,(16,18))))),((9,10),(3,(19,(17,(6,8)))))),(12,(13,(5,11))))));
(21,(((12,(13,(5,11))),(15,((20,((16,18),(2,4))),(3,((19,(9,10)),(6,(8,17))))))),(1,(7,14))));
(21,(((((9,10),(6,(8,17))),(3,19)),(4,(15,(20,(2,(16,18)))))),((1,(7,14)),((5,13),(11,12)))));
(21,(((20,((4,15),(19,((2,(16,18)),(3,((9,10),(6,(8,17)))))))),(12,13)),((5,11),(1,(7,14)))));
(21,(((20,(3,(15,(16,(4,18))))),(2,((9,19),(10,(6,(8,17)))))),((12,(5,11)),(13,(1,(7,14))))));
(21,(((3,(19,((9,10),(8,(6,17))))),(15,(20,(4,(2,(16,18)))))),((12,(13,(5,11))),(1,(7,14)))));
(21,((15,((20,((16,18),(2,4))),(3,((6,(19,(9,10))),(8,17))))),((12,(5,(11,13))),(1,(7,14)))));
(21,((((3,(6,8)),(17,(10,(9,19)))),(15,(20,(4,(2,(16,18)))))),((12,(13,(5,11))),(1,(7,14)))));
(21,(((13,(5,11)),(3,((20,((10,(9,19)),(17,(6,8)))),(15,(2,(4,(16,18))))))),(12,(1,(7,14)))));
(21,(((15,20),((3,(4,18)),((2,16),((9,10),(19,(6,(8,17))))))),((7,14),(1,(12,(5,(11,13)))))));
(21,((1,(7,14)),((((19,(6,(8,17))),(3,(9,10))),(15,((2,(16,18)),(4,20)))),(12,(5,(11,13))))));
(21,((1,(7,14)),(12,((11,(5,13)),((4,20),((16,(2,18)),(15,((17,(6,8)),(3,(19,(9,10)))))))))));
(21,(((15,20),((8,17),(((2,4),(16,18)),((6,19),(3,(9,10)))))),((7,14),(1,(12,(11,(5,13)))))));
(21,(((19,((6,(8,17)),(9,10))),(3,(15,((2,4),(20,(16,18)))))),((12,(11,(5,13))),(1,(7,14)))));
(21,(((3,19),(((9,10),(6,(8,17))),((2,4),(15,(20,(16,18)))))),((12,(13,(5,11))),(1,(7,14)))));
(21,((1,(7,14)),(12,((11,(5,13)),((15,(19,(3,(9,10)))),((17,(6,8)),(20,((16,18),(2,4)))))))));
(21,(((6,((8,17),(19,(9,10)))),(15,(3,((16,18),(20,(2,4)))))),((12,(11,(5,13))),(1,(7,14)))));
(21,(((4,18),((19,(9,10)),((15,(20,(2,16))),(3,(6,(8,17)))))),((12,(11,(5,13))),(1,(7,14)))));
(21,(((15,(2,(20,(4,(16,18))))),((3,17),((6,8),(19,(9,10))))),((1,(7,14)),(12,(11,(5,13))))));
(21,((1,(7,14)),(((((2,18),(4,16)),(15,19)),(20,(3,((8,17),(6,(9,10)))))),(12,(13,(5,11))))));
(21,((((9,10),((8,(6,17)),(3,19))),(15,(20,(4,(2,(16,18)))))),((1,(7,14)),(12,(5,(11,13))))));
(21,(((15,(4,16)),((3,((9,19),(10,(6,(8,17))))),(20,(2,18)))),((12,(11,(5,13))),(1,(7,14)))));
(21,(((15,20),((4,(2,(16,18))),(3,((6,(8,17)),(19,(9,10)))))),((12,(5,11)),(13,(1,(7,14))))));
(21,((4,((20,(18,(2,16))),(15,((9,19),(3,(10,(6,(8,17)))))))),((12,(11,(5,13))),(1,(7,14)))));
(21,(((((8,17),(20,(3,(6,10)))),((9,19),(15,(16,(4,(2,18)))))),(12,(5,(11,13)))),(1,(7,14))));
(21,((15,(((20,(2,4)),(16,18)),((6,(8,17)),(3,(19,(9,10)))))),((1,(7,14)),(12,(5,(11,13))))));
(21,((((3,((19,(9,10)),(6,(8,17)))),(15,20)),(4,(2,(16,18)))),((1,(7,14)),(12,(13,(5,11))))));
(21,(((15,20),((16,(18,(2,4))),((19,(9,10)),(3,(8,(6,17)))))),((12,(13,(5,11))),(1,(7,14)))));
(21,((((9,(10,19)),(3,(8,17))),((20,(4,(18,(2,16)))),(6,15))),(((5,13),(11,12)),(1,(7,14)))));
(21,((1,(7,14)),(((((10,19),(6,(8,17))),(3,15)),(9,(20,((16,18),(2,4))))),(12,(11,(5,13))))));
(21,(((2,(16,18)),((4,((19,(9,10)),(8,(6,17)))),(3,(15,20)))),((12,(13,(5,11))),(1,(7,14)))));
(21,((20,(((6,(9,10)),(19,(3,(8,17)))),(15,((16,18),(2,4))))),((12,(5,(11,13))),(1,(7,14)))));
(21,(((3,20),(15,(((16,18),(2,4)),((9,19),(10,(6,(8,17))))))),((1,(7,14)),(12,(11,(5,13))))));
(21,((1,(7,14)),(((4,(2,(16,18))),(15,(20,(3,((9,(10,19)),(6,(8,17))))))),(12,(13,(5,11))))));
(21,((15,(((6,17),((8,(9,19)),(3,10))),((4,(16,18)),(2,20)))),((1,(7,14)),(12,(11,(5,13))))));
(21,((19,(15,((3,((6,(8,17)),(9,10))),((16,18),(20,(2,4)))))),((12,(11,(5,13))),(1,(7,14)))));
(21,(((15,(3,((6,8),(17,(19,(9,10)))))),((16,20),(18,(2,4)))),((13,(5,11)),(12,(1,(7,14))))));
(21,((((6,(8,17)),(19,(9,10))),(3,(20,(15,((16,18),(2,4)))))),((1,(7,14)),(12,(11,(5,13))))));
(21,(((20,((2,(4,(16,18))),(3,(19,(6,(8,17)))))),(15,(9,10))),((12,(11,(5,13))),(1,(7,14)))));
(21,(((3,(6,(8,17))),((20,(4,(2,(16,18)))),(15,(19,(9,10))))),((1,(7,14)),(12,(5,(11,13))))));
(21,(((19,((6,(8,17)),(3,(9,10)))),(20,(15,((16,18),(2,4))))),((12,(13,(5,11))),(1,(7,14)))));
(21,((1,(7,14)),(((20,(4,(2,(16,18)))),((3,19),(15,((8,17),(6,(9,10)))))),(12,(13,(5,11))))));
(21,((((16,18),(2,(3,20))),(((9,10),(19,(8,(6,17)))),(4,15))),((12,(5,(11,13))),(1,(7,14)))));
(21,((15,(3,(((6,8),(17,(19,(9,10)))),(20,((2,18),(4,16)))))),((12,(11,(5,13))),(1,(7,14)))));
(21,(((15,(4,(20,(2,(16,18))))),(3,((10,(9,19)),(17,(6,8))))),((12,(11,(5,13))),(1,(7,14)))));
(21,((1,(7,14)),(((4,(2,(16,18))),((3,(10,((8,17),(6,(9,19))))),(15,20))),(12,(11,(5,13))))));
(21,((((9,10),((2,(16,18)),(4,20))),(15,(3,(8,(19,(6,17)))))),((12,(13,(5,11))),(1,(7,14)))));
(21,((15,(((9,10),(3,((6,17),(8,19)))),((2,(16,18)),(4,20)))),((1,(7,14)),(12,(5,(11,13))))));
(21,(((3,(9,(8,17))),((6,(10,19)),(((2,16),(4,18)),(15,20)))),((12,(5,(11,13))),(1,(7,14)))));
(21,((((6,(8,17)),(15,((3,19),((9,10),(4,(20,(2,(16,18)))))))),(12,13)),((5,11),(1,(7,14)))));
(21,((1,(7,14)),(((3,(6,(8,17))),(((16,18),(2,4)),(15,(20,(19,(9,10)))))),(12,(11,(5,13))))));
(21,(((15,(4,16)),((20,(2,18)),(3,(10,((9,19),(6,(8,17))))))),((12,(13,(5,11))),(1,(7,14)))));
(21,(((20,(4,(2,(16,18)))),(15,(3,(((6,8),(9,10)),(17,19))))),((1,(7,14)),(12,(5,(11,13))))));
(21,(((3,16),(15,((20,(4,(2,18))),(19,((9,10),(6,(8,17))))))),((12,(13,(5,11))),(1,(7,14)))));
(21,(((15,(19,(3,6))),(((8,17),(9,10)),(20,(4,(18,(2,16)))))),((12,(13,(5,11))),(1,(7,14)))));
(21,(((9,(20,(4,(2,(16,18))))),(15,(3,((10,19),(6,(8,17)))))),((14,(1,7)),(12,(11,(5,13))))));
(21,((((6,(8,17)),(3,(10,(9,19)))),((2,(4,(16,18))),(15,20))),(12,((13,(5,11)),(1,(7,14))))));
(21,((1,(7,14)),((15,((3,8),(((6,17),(19,(9,10))),(4,(20,(2,(16,18))))))),(12,(11,(5,13))))));
(21,(((15,20),((4,(18,(2,16))),(3,((9,10),(19,(8,(6,17))))))),((12,(5,(11,13))),(1,(7,14)))));
(21,(((15,20),((4,(2,(16,18))),((17,(8,(9,10))),(6,(3,19))))),((12,(11,(5,13))),(1,(7,14)))));
(21,(((6,(8,17)),(((9,10),(3,19)),(15,(20,((4,18),(2,16)))))),((12,(5,(11,13))),(1,(7,14)))));
(21,((2,(((19,(9,10)),((3,(8,17)),(4,(20,(16,18))))),(6,15))),((1,(7,14)),((11,13),(5,12)))));
(21,((1,(7,14)),((((3,19),((9,10),(6,(8,17)))),(15,(20,(4,(2,(16,18)))))),(12,(13,(5,11))))));
(21,((((10,(6,(8,17))),(3,(9,19))),(2,(15,(20,(4,(16,18)))))),((12,(13,(5,11))),(1,(7,14)))));
(21,((20,((19,(9,10)),(15,((3,(6,(8,17))),(4,(2,(16,18))))))),((12,(11,(5,13))),(1,(7,14)))));
(21,(((15,(3,((19,(10,(9,(6,(8,17))))),((16,18),(20,(2,4)))))),(12,(13,(5,11)))),(1,(7,14))));
(21,((((4,(2,(16,18))),(3,(9,10))),((19,(6,(8,17))),(15,20))),((12,(5,(11,13))),(1,(7,14)))));
(21,((((4,(18,(2,16))),((6,(8,17)),((9,10),(3,19)))),(15,20)),((1,(7,14)),(12,(11,(5,13))))));
