(21,(((6,20),((5,18),(13,(3,8)))),(((7,14),((10,16),(11,(9,19)))),((4,17),(2,(12,(1,15)))))));
(21,(((12,(1,15)),(2,(4,17))),((13,(((3,8),(6,20)),(5,18))),(((10,16),(11,(9,19))),(7,14)))));
(21,(((3,8),(13,((6,20),(5,18)))),(((7,14),((11,(9,19)),(10,16))),((1,(12,15)),(2,(4,17))))));
(21,(((20,(3,(6,8))),(13,(5,18))),(((7,14),(9,((10,16),(11,19)))),((4,17),(2,(12,(1,15)))))));
(21,(((6,20),((5,18),(13,(3,8)))),(((7,14),((9,19),(11,(10,16)))),((12,(1,15)),(2,(4,17))))));
(21,(((12,(1,15)),((7,14),(9,((10,16),(11,19))))),(((5,18),(13,(20,(6,(3,8))))),(2,(4,17)))));
(21,(((12,(1,15)),(2,(4,17))),(((6,(20,(3,8))),(13,(5,18))),((7,14),((10,16),(11,(9,19)))))));
(21,(((12,(1,15)),(2,(4,17))),((((6,20),(3,8)),(13,(5,18))),(((10,16),(19,(9,11))),(7,14)))));
(21,((13,((8,(6,(3,20))),(5,18))),(((7,14),((10,16),(11,(9,19)))),((12,(1,15)),(2,(4,17))))));
(21,((13,((20,(6,(3,8))),(5,18))),(((7,14),((10,16),(11,(9,19)))),((1,(12,15)),(2,(4,17))))));
(21,(((6,(3,(8,20))),(13,(5,18))),(((7,14),((10,16),(11,(9,19)))),((12,(1,15)),(2,(4,17))))));
(21,(((7,14),(9,((11,19),(10,16)))),((12,(1,15)),((2,(4,17)),((20,(6,(3,8))),(13,(5,18)))))));
(21,((13,(((3,8),(6,20)),(5,18))),(((4,17),(2,(12,(1,15)))),((7,14),((10,16),(11,(9,19)))))));
(21,(((13,(3,(6,(8,20)))),(5,18)),(((1,(12,15)),(2,(4,17))),((7,14),((9,(10,16)),(11,19))))));
(21,((13,((5,18),(6,(3,(8,20))))),(((12,(1,15)),(2,(4,17))),((7,14),((10,16),(19,(9,11)))))));
(21,(((5,18),(13,((3,8),(6,20)))),(((12,(1,15)),(2,(4,17))),((7,14),((10,16),(11,(9,19)))))));
(21,(((7,14),((11,(9,19)),(10,16))),(((5,18),(13,(20,(6,(3,8))))),((12,(1,15)),(2,(4,17))))));
(21,(((6,(20,(3,8))),(13,(5,18))),(((7,14),((10,(9,19)),(11,16))),((12,(1,15)),(2,(4,17))))));
(21,(((8,(6,(3,20))),(13,(5,18))),(((12,(1,15)),(2,(4,17))),((7,14),((10,16),(11,(9,19)))))));
(21,(((5,18),(13,(20,(6,(3,8))))),(((7,14),((10,16),(11,(9,19)))),((4,17),(2,(12,(1,15)))))));
(21,((((3,20),(6,8)),(13,(5,18))),(((7,14),((11,(9,19)),(10,16))),((12,(1,15)),(2,(4,17))))));
(21,(((7,14),((10,16),(11,(9,19)))),(((20,(6,(3,8))),(13,(5,18))),((12,(1,15)),(2,(4,17))))));
(21,(((12,(1,15)),(2,(4,17))),((13,(((3,8),(6,20)),(5,18))),((7,14),((10,16),(11,(9,19)))))));
(21,((13,(((3,8),(6,20)),(5,18))),((2,((4,17),(12,(1,15)))),(((10,16),(19,(9,11))),(7,14)))));
(21,(((20,(6,(3,8))),(13,(5,18))),(((12,(1,15)),(2,(4,17))),((7,14),((11,(9,19)),(10,16))))));
(21,((1,(12,15)),((13,((3,(20,(6,8))),(5,18))),((2,(4,17)),((7,14),((9,19),(11,(10,16))))))));
(21,((((3,8),(6,20)),(13,(5,18))),(((12,(1,15)),(2,(4,17))),((7,14),((10,16),(11,(9,19)))))));
(21,(((5,18),(13,((3,8),(6,20)))),(((7,14),((10,16),(11,(9,19)))),((12,(1,15)),(2,(4,17))))));
(21,((13,((20,(6,(3,8))),(5,18))),(((7,14),((10,16),(11,(9,19)))),((12,(1,15)),(2,(4,17))))));
(21,((13,((20,(8,(3,6))),(5,18))),(((12,(1,15)),(2,(4,17))),((7,14),((10,16),(9,(11,19)))))));
(21,(((5,(6,(20,(3,8)))),(13,18)),(((7,14),((10,16),(11,(9,19)))),((12,(1,15)),(2,(4,17))))));
(21,(((6,(20,(3,8))),(13,(5,18))),(((7,14),(11,((9,19),(10,16)))),((12,(1,15)),(17,(2,4))))));
(21,((13,(18,(5,((3,8),(6,20))))),(((7,14),((10,16),(11,(9,19)))),((15,(1,12)),(2,(4,17))))));
(21,((13,(18,(5,((8,20),(3,6))))),(((12,(1,15)),(2,(4,17))),((7,14),((10,16),(19,(9,11)))))));
(21,(((5,18),(13,((3,8),(6,20)))),(((7,14),((10,16),(11,(9,19)))),((12,(1,15)),(2,(4,17))))));
(21,(((12,(1,15)),(2,(4,17))),(((5,(3,(8,(6,20)))),(13,18)),((7,14),(11,((10,16),(9,19)))))));
(21,((13,((20,(6,(3,8))),(5,18))),((((10,16),(11,(9,19))),(7,14)),((12,(1,15)),(2,(4,17))))));
(21,((18,(13,(5,(20,(6,(3,8)))))),(((7,14),(16,(10,(11,(9,19))))),((4,17),(2,(12,(1,15)))))));
(21,(((5,18),(13,(3,(8,(6,20))))),((2,((4,17),(12,(1,15)))),(((11,(9,19)),(10,16)),(7,14)))));
(21,(((7,14),((10,16),(11,(9,19)))),((18,((3,5),(13,(20,(6,8))))),((1,(12,15)),(2,(4,17))))));
(21,(((7,14),(2,(4,17))),((13,((5,18),((3,8),(6,20)))),((12,(1,15)),((11,(9,19)),(10,16))))));
(21,(((20,(6,(3,8))),(13,(5,18))),(((7,14),((10,16),(11,(9,19)))),((15,(1,12)),(2,(4,17))))));
(21,(((2,(4,17)),(12,(1,15))),((((10,16),(11,(9,19))),(7,14)),((8,13),((20,(3,6)),(5,18))))));
(21,((13,(18,(5,(3,(8,(6,20)))))),(((7,14),((10,16),(11,(9,19)))),((4,17),(2,(12,(1,15)))))));
(21,((13,((20,(6,(3,8))),(5,18))),((11,((9,19),(10,16))),((7,14),((12,(1,15)),(2,(4,17)))))));
(21,(((20,(6,(3,8))),(13,(5,18))),(((9,((10,16),(11,19))),(7,14)),((12,(1,15)),(2,(4,17))))));
(21,(((7,14),((19,(9,11)),(10,16))),((((8,20),(3,6)),(18,(5,13))),((12,(1,15)),(2,(4,17))))));
(21,(((6,(3,8)),(13,(20,(5,18)))),(((12,(1,15)),(2,(4,17))),((7,14),((10,16),(11,(9,19)))))));
(21,((((3,8),(6,20)),(13,(5,18))),(((15,(1,12)),(2,(4,17))),((7,14),((19,(9,11)),(10,16))))));
(21,(((5,18),(13,(6,(3,(8,20))))),(((7,14),(11,((9,19),(10,16)))),((12,(1,15)),(2,(4,17))))));
(21,(((13,(5,(3,6))),(18,(8,20))),(((7,14),(11,(16,(10,(9,19))))),((12,(1,15)),(2,(4,17))))));
(21,(((12,(1,15)),(2,(4,17))),((13,((20,(8,(3,6))),(5,18))),((7,14),((10,16),(11,(9,19)))))));
(21,(((15,(1,12)),(2,(4,17))),((18,(((3,8),(6,20)),(5,13))),((7,14),((10,16),(11,(9,19)))))));
(21,(((5,18),(13,((3,8),(6,20)))),(((12,(1,15)),(2,(4,17))),((7,14),((9,19),(11,(10,16)))))));
(21,(((6,(20,(3,8))),(13,(5,18))),(((7,14),((10,16),(19,(9,11)))),((15,(1,12)),(2,(4,17))))));
(21,((13,((6,(20,(3,8))),(5,18))),(((7,14),((10,16),(11,(9,19)))),((4,17),(2,(12,(1,15)))))));
(21,((13,((20,(6,(3,8))),(5,18))),(((7,14),((10,16),(9,(11,19)))),((12,(1,15)),(2,(4,17))))));
(21,((13,((6,(20,(3,8))),(5,18))),(((7,14),((10,16),(9,(11,19)))),((12,(1,15)),(2,(4,17))))));
(21,((((3,8),(6,20)),(13,(5,18))),(((7,14),((10,16),(11,(9,19)))),((12,(1,15)),(2,(4,17))))));
(21,((2,((12,(1,15)),(4,17))),((13,(18,(5,(3,(6,(8,20)))))),((7,14),((10,16),(11,(9,19)))))));
(21,((13,((6,(20,(3,8))),(5,18))),(((7,14),((9,19),(11,(10,16)))),((12,(1,15)),(2,(4,17))))));
(21,((13,(((3,8),(6,20)),(5,18))),(((7,14),(16,(10,(11,(9,19))))),((12,(1,15)),(2,(4,17))))));
(21,((2,((4,17),(12,(1,15)))),((5,(13,(18,((3,8),(6,20))))),((7,14),((10,16),(19,(9,11)))))));
(21,((((3,8),(6,20)),(13,(5,18))),((((10,16),(11,(9,19))),(7,14)),((12,(1,15)),(2,(4,17))))));
(21,(((8,(3,(6,20))),(13,(5,18))),(((7,14),(16,(10,(19,(9,11))))),((12,(1,15)),(2,(4,17))))));
(21,(((12,(1,15)),(2,(4,17))),(((8,(5,18)),(13,(6,(3,20)))),((7,14),(19,((9,11),(10,16)))))));
(21,(((5,18),(13,(6,(20,(3,8))))),(((7,14),((10,16),(19,(9,11)))),((12,(1,15)),(2,(4,17))))));
(21,((13,((20,(6,(3,8))),(5,18))),(((7,14),((10,16),(11,(9,19)))),((12,(1,15)),(2,(4,17))))));
(21,((13,((3,(20,(6,8))),(5,18))),(((12,(1,15)),(2,(4,17))),((7,14),((10,16),(11,(9,19)))))));
(21,(((5,18),(13,(20,(6,(3,8))))),(((15,(1,12)),(2,(4,17))),((7,14),((9,11),(10,(16,19)))))));
(21,(((5,18),(13,((3,8),(6,20)))),(((7,14),((10,16),(11,(9,19)))),((1,(12,15)),(2,(4,17))))));
(21,(((3,8),(13,((6,20),(5,18)))),(((12,(1,15)),(2,(4,17))),(((10,16),(11,(9,19))),(7,14)))));
(21,((((3,8),(6,20)),(13,(5,18))),(((7,14),((10,16),(11,(9,19)))),((12,(1,15)),(2,(4,17))))));
(21,(((6,(20,(3,8))),(13,(5,18))),(((7,14),(10,(16,(11,(9,19))))),((4,17),(2,(1,(12,15)))))));
(21,(((13,(5,18)),(3,(20,(6,8)))),(((7,14),((10,16),(11,(9,19)))),((12,(1,15)),(2,(4,17))))));
(21,(((6,(20,(3,8))),(13,(5,18))),(((12,(1,15)),(2,(4,17))),((7,14),((11,(9,19)),(10,16))))));
(21,((13,(((3,8),(6,20)),(5,18))),(((12,(1,15)),(2,(4,17))),((7,14),((10,16),(9,(11,19)))))));
((((7,14),(13,((20,(6,(3,8))),(5,18)))),(((10,16),(11,(9,19))),((12,(1,15)),(2,(4,17))))),21);
(21,(((12,(1,15)),(2,(4,17))),(((5,18),(13,((3,20),(6,8)))),((7,14),((9,19),(11,(10,16)))))));
(21,((13,((3,(20,(6,8))),(5,18))),(((12,(1,15)),(2,(4,17))),((11,((9,19),(10,16))),(7,14)))));
(21,(((12,(1,15)),(2,(4,17))),((13,((20,(3,(6,8))),(5,18))),((7,14),((10,16),(11,(9,19)))))));
(21,(((7,14),((10,16),(19,(9,11)))),((13,((5,18),((3,8),(6,20)))),((12,(1,15)),(2,(4,17))))));
(21,((((6,8),(3,20)),(13,(5,18))),((12,(1,15)),((2,(4,17)),((16,(10,(9,(11,19)))),(7,14))))));
(21,(((15,(1,12)),(2,(4,17))),((18,(5,(13,(8,(20,(3,6)))))),((7,14),((10,16),(11,(9,19)))))));
(21,((13,((6,(20,(3,8))),(5,18))),(((12,(1,15)),(2,(4,17))),((7,14),((10,16),(11,(9,19)))))));
(21,((13,((3,(8,(6,20))),(5,18))),(((12,(1,15)),(2,(4,17))),((7,14),(16,(10,(11,(9,19))))))));
(21,((13,((5,18),((6,8),(3,20)))),(((7,14),((10,16),(19,(9,11)))),((12,(1,15)),(2,(4,17))))));
(21,(((5,18),(13,((3,20),(6,8)))),(((7,14),((10,16),(11,(9,19)))),((12,(1,15)),(2,(4,17))))));
((((5,18),(13,(20,(6,(3,8))))),(((7,14),((10,16),(19,(9,11)))),((4,17),(2,(15,(1,12)))))),21);
(21,(((7,14),((10,16),(11,(9,19)))),(((20,(5,18)),(13,(6,(3,8)))),((1,(12,15)),(2,(4,17))))));
(21,((13,((5,18),(20,(6,(3,8))))),(((12,(1,15)),(2,(4,17))),((7,14),(19,((9,11),(10,16)))))));
(21,(((1,(12,15)),(2,(4,17))),((5,(18,(13,(20,(6,(3,8)))))),((7,14),(11,((9,19),(10,16)))))));
(21,((((3,8),(6,20)),(5,(13,18))),(((1,(12,15)),(2,(4,17))),((7,14),((10,16),(11,(9,19)))))));
(21,(((7,14),((10,16),(11,(9,19)))),(((5,18),(13,(20,(6,(3,8))))),((4,17),(2,(12,(1,15)))))));
(21,(((12,(1,15)),(2,(4,17))),((13,(((3,8),(6,20)),(5,18))),((7,14),(10,(16,(11,(9,19))))))));
(21,(((5,18),(13,(20,(6,(3,8))))),(((7,14),((11,(9,19)),(10,16))),((12,(1,15)),(2,(4,17))))));
(21,((((10,16),(11,(9,19))),((12,(1,15)),(2,(4,17)))),((7,14),(13,((20,(6,(3,8))),(5,18))))));
(21,((13,((3,20),(5,(18,(6,8))))),(((7,14),((11,(9,19)),(10,16))),((12,(1,15)),(2,(4,17))))));
(21,(((20,(6,(3,8))),(13,(5,18))),(((7,14),((11,19),(9,(10,16)))),((12,(1,15)),(2,(4,17))))));
(21,(((3,20),(13,((6,8),(5,18)))),(((7,14),((11,(9,19)),(10,16))),((12,(1,15)),(2,(4,17))))));
(21,(((5,(8,(20,(3,6)))),(13,18)),(((7,14),((10,16),(11,(9,19)))),((1,(12,15)),(2,(4,17))))));
(21,((13,(((3,6),(8,20)),(5,18))),(((7,14),((10,16),(11,(9,19)))),((12,(1,15)),(2,(4,17))))));
(21,((13,((8,(20,(3,6))),(5,18))),(((7,14),((10,16),(9,(11,19)))),((12,(1,15)),(2,(4,17))))));
(21,(((5,18),(13,((3,8),(6,20)))),(((12,(1,15)),(2,(4,17))),((7,14),((10,16),(11,(9,19)))))));
(21,((18,(13,(5,((3,8),(6,20))))),(((7,14),(11,((9,19),(10,16)))),((12,(1,15)),(2,(4,17))))));
(21,(((7,14),((10,16),(11,(9,19)))),((5,(13,(18,(6,(20,(3,8)))))),((15,(1,12)),(2,(4,17))))));
(21,((13,((6,(20,(3,8))),(5,18))),(((7,14),((10,16),(11,(9,19)))),((12,(1,15)),(2,(4,17))))));
(21,((13,((6,(20,(3,8))),(5,18))),(((15,(1,12)),(2,(4,17))),((7,14),((10,16),(11,(9,19)))))));
(21,((13,((5,18),(20,(6,(3,8))))),(((7,14),((11,19),(9,(10,16)))),((12,(1,15)),(2,(4,17))))));
(21,(((5,18),(13,(8,(20,(3,6))))),(((7,14),((10,16),(19,(9,11)))),((12,(1,15)),(2,(4,17))))));
(21,(((6,(20,(3,8))),(13,(5,18))),(((7,14),((11,(9,19)),(10,16))),(2,((1,(12,15)),(4,17))))));
(21,((2,((4,17),(12,(1,15)))),(((5,18),(13,(20,(6,(3,8))))),((7,14),((10,16),(19,(9,11)))))));
(21,(((12,(1,15)),(2,(4,17))),(((10,16),(11,(9,19))),((7,14),(13,((3,(20,(6,8))),(5,18)))))));
(21,((((3,8),(6,20)),(13,(5,18))),(((7,14),((10,16),(11,(9,19)))),((4,17),(2,(12,(1,15)))))));
(21,((18,((20,(8,(3,6))),(5,13))),(((12,(1,15)),(2,(4,17))),((7,14),((11,(9,19)),(10,16))))));
(21,((13,((6,(20,(3,8))),(5,18))),(((7,14),((11,(9,19)),(10,16))),((12,(1,15)),(2,(4,17))))));
(21,(((7,14),((10,16),(9,(11,19)))),(((5,18),(13,(6,(20,(3,8))))),((12,(1,15)),(2,(4,17))))));
(21,(((7,14),((11,(9,19)),(10,16))),((13,((20,(8,(3,6))),(5,18))),((12,(1,15)),(2,(4,17))))));
(21,(((12,(1,15)),(2,(4,17))),(((5,18),(13,((3,8),(6,20)))),((7,14),((10,16),(19,(9,11)))))));
(21,((5,(((3,6),(8,20)),(13,18))),(((7,14),(11,((9,19),(10,16)))),((12,(1,15)),(2,(4,17))))));
(21,((13,((5,18),((8,20),(3,6)))),(((10,16),(11,(9,19))),((7,14),((12,(1,15)),(2,(4,17)))))));
(21,(((12,(1,15)),((7,14),(11,((9,19),(10,16))))),((13,((20,(6,(3,8))),(5,18))),(2,(4,17)))));
(21,((13,((5,18),((3,8),(6,20)))),(((12,(1,15)),(2,(4,17))),((7,14),((11,(9,19)),(10,16))))));
(21,((((10,16),(11,(9,19))),(7,14)),(((15,(1,12)),(2,(4,17))),(((6,8),(3,20)),(13,(5,18))))));
(21,(((6,(20,(3,8))),(13,(5,18))),(((7,14),((10,16),(11,(9,19)))),((15,(1,12)),(2,(4,17))))));
(21,(((12,(1,15)),(2,(4,17))),(((7,14),((9,19),(11,(10,16)))),(13,((6,(20,(3,8))),(5,18))))));
(21,((13,((20,(6,(3,8))),(5,18))),(((12,(1,15)),(2,(4,17))),((7,14),((9,19),(11,(10,16)))))));
(21,((13,(((3,8),(6,20)),(5,18))),(((12,(1,15)),(2,(4,17))),((7,14),((10,16),(11,(9,19)))))));
(21,((13,(((3,6),(8,20)),(5,18))),((7,14),(((10,16),(9,(11,19))),((15,(1,12)),(2,(4,17)))))));
(21,((((3,20),(6,8)),(5,(13,18))),((1,(12,15)),((2,(4,17)),((7,14),((19,(9,11)),(10,16)))))));
(21,((13,((3,(6,(8,20))),(5,18))),((2,(4,17)),((12,(1,15)),((7,14),((10,(9,11)),(16,19)))))));
(21,((13,(18,(5,(20,(6,(3,8)))))),(((12,(1,15)),(2,(4,17))),((7,14),((10,16),(11,(9,19)))))));
(21,(((5,18),(13,(20,(8,(3,6))))),(((12,(1,15)),(2,(4,17))),((7,14),((9,19),(11,(10,16)))))));
(21,((13,((20,(6,(3,8))),(5,18))),(((12,(1,15)),(2,(4,17))),((7,14),(11,((10,16),(9,19)))))));
(21,((13,((5,18),(20,(6,(3,8))))),(((1,(12,15)),(2,(4,17))),((19,(9,11)),((10,16),(7,14))))));
(21,(((7,14),(11,(10,(16,(9,19))))),(((20,(6,(3,8))),(13,(5,18))),((12,(1,15)),(2,(4,17))))));
(21,(((20,(6,(3,8))),(13,(5,18))),(((7,14),((10,16),(11,(9,19)))),((12,(1,15)),(2,(4,17))))));
(21,((20,(6,(3,8))),((13,(5,18)),(((7,14),((10,16),(11,(9,19)))),((4,17),(2,(12,(1,15))))))));
(21,((13,((6,(3,(8,20))),(5,18))),(((7,14),((10,16),(11,(9,19)))),((12,(1,15)),(2,(4,17))))));
(21,((13,((5,18),((3,8),(6,20)))),(((10,16),(11,(9,19))),((7,14),((12,(1,15)),(2,(4,17)))))));
(21,(((5,18),(13,(6,(20,(3,8))))),(((1,(12,15)),(2,(4,17))),((7,14),((10,16),(11,(9,19)))))));
(21,(((20,(8,(3,6))),(18,(5,13))),((7,14),(((10,16),(11,(9,19))),((12,(1,15)),(2,(4,17)))))));
(21,(((2,(4,17)),((7,14),((10,16),(11,(9,19))))),((12,(1,15)),(13,((20,(3,(6,8))),(5,18))))));
(21,((13,(5,(18,((3,8),(6,20))))),(((10,16),(11,(9,19))),((7,14),((12,(1,15)),(2,(4,17)))))));
(21,((13,((3,(6,(8,20))),(5,18))),(((7,14),((10,16),(11,(9,19)))),((12,(1,15)),(2,(4,17))))));
(21,(((5,18),(13,(20,(6,(3,8))))),((1,(12,15)),((2,(4,17)),((7,14),((10,16),(19,(9,11))))))));
(21,((13,(((3,8),(6,20)),(5,18))),(((7,14),((10,16),(11,(9,19)))),((12,(1,15)),(2,(4,17))))));
(21,(((1,(12,15)),(2,(4,17))),(((5,18),(13,(8,(3,(6,20))))),((7,14),(11,((9,19),(10,16)))))));
(21,(((6,(20,(3,8))),(13,(5,18))),(((7,14),((10,16),(11,(9,19)))),((12,(1,15)),(2,(4,17))))));
(21,((2,((4,17),(12,(1,15)))),(((5,18),(13,(6,(20,(3,8))))),((7,14),((10,16),(19,(9,11)))))));
(21,((13,(((3,8),(6,20)),(5,18))),(((10,16),(11,(9,19))),((7,14),((12,(1,15)),(2,(4,17)))))));
(21,(((5,18),(13,(20,(6,(3,8))))),(((7,14),((10,16),(11,(9,19)))),((12,(1,15)),(2,(4,17))))));
(21,(((12,(1,15)),(2,(4,17))),(((7,14),(11,((10,16),(9,19)))),((5,18),(13,((3,8),(6,20)))))));
(21,((1,(12,15)),((13,(((3,8),(6,20)),(5,18))),((2,(4,17)),((7,14),((10,16),(11,(9,19))))))));
(21,(((6,(20,(3,8))),(13,(5,18))),(((7,14),((19,(9,11)),(10,16))),(2,((4,17),(12,(1,15)))))));
(21,((13,(6,((20,(3,8)),(5,18)))),(((4,17),(2,(12,(1,15)))),((7,14),((11,19),(9,(10,16)))))));
(21,((13,((5,18),((6,8),(3,20)))),(((7,14),(10,(16,(11,(9,19))))),((12,(1,15)),(2,(4,17))))));
(21,(((12,(1,15)),(2,(4,17))),(((5,18),(13,(8,(20,(3,6))))),((7,14),((10,16),(9,(11,19)))))));
(21,((5,(13,(18,((6,8),(3,20))))),(((7,14),((10,16),(19,(9,11)))),((12,(1,15)),(2,(4,17))))));
(21,(((3,(20,(6,8))),(13,(5,18))),(((7,14),(19,((9,11),(10,16)))),((12,(1,15)),(2,(4,17))))));
(21,((13,((3,(8,(6,20))),(5,18))),(((12,(1,15)),(2,(4,17))),((7,14),((10,16),(11,(9,19)))))));
(21,(((12,(1,15)),((7,14),((10,16),(11,(9,19))))),((13,((20,(6,(3,8))),(5,18))),(2,(4,17)))));
(21,(((5,18),(13,((8,20),(3,6)))),(((15,(1,12)),(2,(4,17))),((7,14),((11,(9,19)),(10,16))))));
(21,(((5,18),(13,((3,8),(6,20)))),(((7,14),((10,16),(9,(11,19)))),((12,(1,15)),(2,(4,17))))));
(21,(((12,(1,15)),((7,14),((10,16),(19,(9,11))))),((2,(4,17)),(((3,8),(6,20)),(13,(5,18))))));
(21,(((7,14),((10,16),(11,(9,19)))),((13,((6,(20,(3,8))),(5,18))),(2,((4,17),(12,(1,15)))))));
(21,((13,((8,(3,(6,20))),(5,18))),(((4,17),(2,(12,(1,15)))),((7,14),(11,((10,16),(9,19)))))));
(21,((13,((5,18),(6,(8,(3,20))))),(((2,(4,17)),(12,(1,15))),((16,(11,(9,19))),(10,(7,14))))));
(21,(((1,(12,15)),(2,(4,17))),((13,((5,18),(20,(6,(3,8))))),((7,14),(16,(10,(11,(9,19))))))));
(21,(((5,18),(13,(20,(6,(3,8))))),(((7,14),((10,16),(19,(9,11)))),((12,(1,15)),(2,(4,17))))));
(21,((((3,8),(6,20)),(13,(5,18))),(((7,14),((9,11),(19,(10,16)))),((12,(1,15)),(2,(4,17))))));
(21,((((3,8),(6,20)),(13,(5,18))),(((7,14),((10,16),(11,(9,19)))),((12,(1,15)),(2,(4,17))))));
(21,((13,(((6,8),(3,20)),(5,18))),(((7,14),(9,((10,16),(11,19)))),((12,(1,15)),(2,(4,17))))));
(21,((13,((8,(20,(3,6))),(5,18))),(((12,(1,15)),(2,(4,17))),((7,14),(10,(16,(11,(9,19))))))));
(21,(((7,14),((12,(1,15)),(2,(4,17)))),((11,((10,16),(9,19))),(13,((3,20),((6,8),(5,18)))))));
(21,(((20,(6,(3,8))),(13,(5,18))),(((7,14),((11,(9,19)),(10,16))),((12,(1,15)),(2,(4,17))))));
(21,(((5,18),(13,(20,(6,(3,8))))),(((7,14),((10,16),(11,(9,19)))),((12,(1,15)),(2,(4,17))))));
(21,((13,((20,(6,(3,8))),(5,18))),(((7,14),((10,16),(11,(9,19)))),((12,(1,15)),(2,(4,17))))));
(21,(((3,(8,(6,20))),(13,(5,18))),(((7,14),((10,16),(11,(9,19)))),((12,(1,15)),(2,(4,17))))));
(21,((13,((6,(20,(3,8))),(5,18))),(((7,14),((10,16),(11,(9,19)))),((2,(4,17)),(15,(1,12))))));
(21,(((7,14),((10,16),(11,(9,19)))),(((6,(20,(3,8))),(13,(5,18))),((12,(1,15)),(2,(4,17))))));
(21,((13,((20,(6,(3,8))),(5,18))),(((7,14),((10,16),(11,(9,19)))),((4,17),(2,(15,(1,12)))))));
(21,(((12,(1,15)),(2,(4,17))),(((7,14),((10,16),(19,(9,11)))),(13,(6,((20,(3,8)),(5,18)))))));
(21,((13,((5,18),((8,20),(3,6)))),(((4,17),(2,(12,(1,15)))),((7,14),((9,19),(16,(10,11)))))));
(21,(((7,14),(10,(16,(11,(9,19))))),(((12,(1,15)),(2,(4,17))),(5,(13,(18,((3,6),(8,20))))))));
(21,(((5,13),(18,((8,20),(3,6)))),(((12,(1,15)),(2,(4,17))),((7,14),(9,((10,16),(11,19)))))));
(21,((7,14),((5,(18,(13,(20,(6,(3,8)))))),(((9,19),(11,(10,16))),((4,17),(2,(15,(1,12))))))));
(21,(((5,18),(13,(20,(6,(3,8))))),(((4,17),(2,(12,(1,15)))),((7,14),((11,(9,19)),(10,16))))));
(21,(((5,18),(13,((3,8),(6,20)))),(((7,14),((10,16),(11,(9,19)))),((12,(1,15)),(2,(4,17))))));
(21,((13,((5,18),(8,(20,(3,6))))),(((10,(16,(11,(9,19)))),(7,14)),((12,(1,15)),(2,(4,17))))));
(21,((13,(18,(5,((3,8),(6,20))))),((7,14),(((10,16),(11,(9,19))),((12,(1,15)),(2,(4,17)))))));
(21,(((15,(1,12)),(2,(4,17))),(((20,(6,(3,8))),(13,(5,18))),((7,14),((9,19),(11,(10,16)))))));
(21,(((5,18),(13,(6,(3,(8,20))))),(((7,14),(10,(16,(9,(11,19))))),((1,(12,15)),(2,(4,17))))));
(21,((13,((8,(20,(3,6))),(5,18))),(((12,(1,15)),(2,(4,17))),((7,14),((10,16),(11,(9,19)))))));
(21,(((7,14),((10,16),(11,(9,19)))),((13,((20,(6,(3,8))),(5,18))),((12,(1,15)),(2,(4,17))))));
(21,(((5,18),(13,(6,(20,(3,8))))),(((12,(1,15)),(2,(4,17))),((7,14),((9,19),(11,(10,16)))))));
(21,((13,((20,(6,(3,8))),(5,18))),(((15,(1,12)),(2,(4,17))),((7,14),((10,16),(9,(11,19)))))));
(21,(((2,(4,17)),((7,14),((9,19),(11,(10,16))))),((12,(1,15)),((20,(6,(3,8))),(13,(5,18))))));
(21,(((4,17),(2,(12,(1,15)))),((18,(((3,8),(6,20)),(5,13))),((7,14),(19,((10,16),(9,11)))))));
(21,(((18,(6,(20,(3,8)))),(5,13)),(((12,(1,15)),(2,(4,17))),((11,(9,19)),((7,14),(10,16))))));
(21,((13,((5,18),(20,(6,(3,8))))),((12,(1,15)),((2,(4,17)),((7,14),((10,16),(19,(9,11))))))));
(21,((1,(12,15)),((2,(4,17)),(((5,18),(13,(6,(20,(3,8))))),((7,14),((10,16),(11,(9,19))))))));
(21,(((5,18),(13,((3,8),(6,20)))),(((10,16),(11,(9,19))),((7,14),((12,(1,15)),(2,(4,17)))))));
(21,(((1,(12,15)),(2,(4,17))),(((6,20),(13,((3,8),(5,18)))),((7,14),((10,16),(19,(9,11)))))));
(21,(((18,(6,(20,(3,8)))),(5,13)),(((7,14),((10,16),(11,(9,19)))),((15,(1,12)),(2,(4,17))))));
(21,((5,(13,(18,((3,8),(6,20))))),(((7,14),((10,16),(11,(9,19)))),((12,(1,15)),(2,(4,17))))));
(21,((4,17),((13,((20,(6,(3,8))),(5,18))),((2,(12,(1,15))),((7,14),((9,19),(11,(10,16))))))));
(21,(((6,(20,(3,8))),(13,(5,18))),(((7,14),((11,(9,19)),(10,16))),((12,(1,15)),(2,(4,17))))));
(21,((13,(((3,8),(6,20)),(5,18))),(((7,14),((10,16),(9,(11,19)))),(2,((12,(1,15)),(4,17))))));
(21,(((6,(20,(3,8))),(13,(5,18))),(((7,14),((10,16),(11,(9,19)))),((12,(1,15)),(2,(4,17))))));
(21,(((3,(6,(8,20))),(18,(5,13))),(((7,14),((10,16),(11,(9,19)))),((12,(1,15)),(2,(4,17))))));
(21,((13,(((3,8),(6,20)),(5,18))),(((10,16),(11,(9,19))),((7,14),((12,(1,15)),(2,(4,17)))))));
(21,((13,((5,18),(20,(6,(3,8))))),(((7,14),((10,16),(19,(9,11)))),((12,(1,15)),(2,(4,17))))));
(21,((13,((3,(20,(6,8))),(5,18))),(((12,(1,15)),(2,(4,17))),((7,14),((10,16),(11,(9,19)))))));
(21,((13,(((6,8),(3,20)),(5,18))),((12,(1,15)),((2,(4,17)),((7,14),((9,(11,19)),(10,16)))))));
(21,(((5,18),(13,((3,8),(6,20)))),(((7,14),(11,((9,19),(10,16)))),((15,(1,12)),(2,(4,17))))));
(21,(((4,17),(2,(12,(1,15)))),((13,((3,(20,(6,8))),(5,18))),((7,14),((9,11),(19,(10,16)))))));
(21,((13,((20,(6,(3,8))),(5,18))),(((7,14),(11,((10,16),(9,19)))),((12,(1,15)),(2,(4,17))))));
(21,(((5,18),(13,(20,(6,(3,8))))),(((7,14),((10,16),(11,(9,19)))),((12,(1,15)),(2,(4,17))))));
(21,((((6,20),(3,8)),(13,(5,18))),(((7,14),(10,(16,(11,(9,19))))),((4,17),(2,(15,(1,12)))))));
(21,((13,(((3,8),(6,20)),(5,18))),(((1,(12,15)),(2,(4,17))),((7,14),((9,(11,19)),(10,16))))));
(21,((((3,6),(8,20)),(13,(5,18))),((7,14),(((10,16),(9,(11,19))),(2,((4,17),(12,(1,15))))))));
(21,(((12,(1,15)),(2,(4,17))),(((7,14),((10,16),(11,(9,19)))),(13,((20,(6,(3,8))),(5,18))))));
(21,((((3,8),(6,20)),(13,(5,18))),(((7,14),((10,16),(11,(9,19)))),((12,(1,15)),(2,(4,17))))));
(21,((7,14),((13,((20,(6,(3,8))),(5,18))),(((10,16),(9,(11,19))),((15,(1,12)),(2,(4,17)))))));
(21,(((13,18),(5,(20,(6,(3,8))))),(((12,(1,15)),(2,(4,17))),(((11,(9,19)),(10,16)),(7,14)))));
(21,((13,((6,(3,(8,20))),(5,18))),(((7,14),(10,(16,(11,(9,19))))),((12,(1,15)),(2,(4,17))))));
(21,(((20,(6,(3,8))),(13,(5,18))),(((7,14),((10,16),(9,(11,19)))),((12,(1,15)),(2,(4,17))))));
(21,((13,((5,18),(6,(3,(8,20))))),(((11,((10,16),(9,19))),(7,14)),((12,(1,15)),(2,(4,17))))));
(21,(((4,17),(2,(12,(1,15)))),(((7,14),((10,16),(19,(9,11)))),((20,(6,(3,8))),(13,(5,18))))));
(21,(((12,(1,15)),(2,(4,17))),(((13,(6,(20,(3,8)))),(5,18)),(((10,16),(11,(9,19))),(7,14)))));
(21,(((7,14),(16,(10,(11,(9,19))))),((13,((6,(3,8)),(18,(5,20)))),((12,(1,15)),(2,(4,17))))));
(21,((13,((20,(6,(3,8))),(5,18))),(((7,14),((10,16),(11,(9,19)))),((12,(1,15)),(2,(4,17))))));
(21,((13,((5,18),(6,(8,(3,20))))),(((12,(1,15)),(2,(4,17))),((7,14),((11,(9,19)),(10,16))))));
(21,((13,((3,(20,(6,8))),(5,18))),(((4,17),(2,(12,(1,15)))),((7,14),((10,16),(11,(9,19)))))));
(21,((13,((5,18),(20,(6,(3,8))))),(((12,(1,15)),(2,(4,17))),((7,14),((11,(9,19)),(10,16))))));
(21,(((12,(1,15)),(17,(2,4))),((13,(((3,8),(6,20)),(5,18))),((7,14),((10,16),(11,(9,19)))))));
(21,(((5,18),(13,((3,6),(8,20)))),(((7,14),(16,(10,(11,(9,19))))),((1,(12,15)),(2,(4,17))))));
(21,((13,((5,18),((3,8),(6,20)))),(((7,14),((10,16),(11,(9,19)))),((12,(1,15)),(2,(4,17))))));
(21,((5,((6,(20,(3,8))),(13,18))),(((12,(1,15)),(7,14)),(((10,16),(11,(9,19))),(2,(4,17))))));
(21,(((12,(1,15)),(2,(4,17))),(((20,(6,(3,8))),(13,(5,18))),((7,14),((10,16),(11,(9,19)))))));
(21,(((18,(20,(8,(3,6)))),(5,13)),(((7,14),(10,(16,(11,(9,19))))),((12,(1,15)),(2,(4,17))))));
(21,(((18,(20,(6,(3,8)))),(5,13)),(((7,14),((10,16),(11,(9,19)))),((12,(1,15)),(2,(4,17))))));
(21,(((12,(1,15)),(2,(4,17))),((13,((5,18),(6,(20,(3,8))))),((7,14),((10,16),(19,(9,11)))))));
(21,(((6,(3,8)),(13,(20,(5,18)))),((10,(16,(11,(9,19)))),((7,14),((12,(1,15)),(2,(4,17)))))));
(21,((13,(6,((20,(3,8)),(5,18)))),(((7,14),((9,19),(11,(10,16)))),((12,(1,15)),(2,(4,17))))));
(21,(((5,18),(13,(20,(6,(3,8))))),(((12,(1,15)),(2,(4,17))),((7,14),((10,16),(9,(11,19)))))));
(21,((13,((20,(3,8)),(6,(5,18)))),(((12,(1,15)),(2,(4,17))),((7,14),((10,16),(9,(11,19)))))));
(21,(((12,(1,15)),(2,(4,17))),((((3,8),(6,20)),(13,(5,18))),((7,14),(16,(10,(19,(9,11))))))));
(21,(((13,((3,8),(6,20))),(5,18)),(((12,(1,15)),(2,(4,17))),((7,14),(19,(11,(9,(10,16))))))));
(21,((18,(13,(5,(20,(6,(3,8)))))),(((11,(10,16)),((9,19),(7,14))),((12,(1,15)),(2,(4,17))))));
(21,((13,((5,18),((6,20),(3,8)))),(((12,(1,15)),(2,(4,17))),((7,14),((10,16),(19,(9,11)))))));
(21,((13,((20,(6,(3,8))),(5,18))),(((7,14),((10,16),(9,(11,19)))),(2,((4,17),(12,(1,15)))))));
(21,((13,(5,(18,(8,(3,(6,20)))))),(((12,(1,15)),(2,(4,17))),((7,14),((10,16),(11,(9,19)))))));
(21,(((6,(20,(3,8))),(13,(5,18))),(((7,14),((10,16),(11,(9,19)))),((12,(1,15)),(2,(4,17))))));
(21,(((7,14),((12,(1,15)),(2,(4,17)))),(((11,19),(9,(10,16))),((20,(6,(3,8))),(13,(5,18))))));
(21,((((11,(9,19)),(10,16)),((12,(1,15)),(2,(4,17)))),((7,14),((8,(20,(3,6))),(13,(5,18))))));
(21,(((12,(1,15)),(2,(4,17))),((13,((20,(6,(3,8))),(5,18))),((7,14),((10,16),(19,(9,11)))))));
(21,((13,((5,18),(20,(6,(3,8))))),(((7,14),((11,(9,19)),(10,16))),((12,(1,15)),(2,(4,17))))));
(21,(((18,((8,20),(3,6))),(5,13)),(((7,14),(11,((9,19),(10,16)))),((12,(1,15)),(2,(4,17))))));
(21,((7,14),(((6,(20,(3,8))),(5,(13,18))),(((10,16),(11,(9,19))),(2,((12,(1,15)),(4,17)))))));
(21,(((12,(1,15)),(2,(4,17))),((18,(13,(5,(20,(6,(3,8)))))),((7,14),((10,16),(11,(9,19)))))));
(21,(((6,(20,(3,8))),(13,(5,18))),(((12,(1,15)),(2,(4,17))),((7,14),((9,(11,19)),(10,16))))));
(21,((13,((6,(20,(3,8))),(5,18))),(((12,(1,15)),(2,(4,17))),((7,14),((9,19),(11,(10,16)))))));
(21,((13,((3,(6,(8,20))),(5,18))),(((7,14),((10,16),(11,(9,19)))),((12,(1,15)),(2,(4,17))))));
(21,((13,(((8,20),(3,6)),(5,18))),(((1,12),(15,(2,(4,17)))),((7,14),((10,16),(11,(9,19)))))));
(21,(((5,18),(13,((3,6),(8,20)))),(((7,14),(10,(16,(11,(9,19))))),((12,(1,15)),(2,(4,17))))));
(21,(((5,18),(13,((3,8),(6,20)))),(((12,(1,15)),(2,(4,17))),((7,14),((10,16),(11,(9,19)))))));
(21,((13,(5,(18,(20,(6,(3,8)))))),(((7,14),((11,(9,19)),(10,16))),(2,((12,(1,15)),(4,17))))));
(21,((13,(8,(20,(3,6)))),((5,18),(((7,14),((10,16),(11,(9,19)))),((4,17),(2,(1,(12,15))))))));
(21,(((13,(6,8)),((3,20),(5,18))),(((12,(1,15)),(2,(4,17))),((7,14),((19,(9,11)),(10,16))))));
(21,(((8,(20,(3,6))),(13,(5,18))),(((7,14),((10,16),(11,(9,19)))),((12,(1,15)),(2,(4,17))))));
(21,(((6,(20,(3,8))),(13,(5,18))),(((12,(1,15)),(2,(4,17))),((7,14),((10,16),(11,(9,19)))))));
(21,((((3,6),(8,20)),(13,(5,18))),(((7,14),((11,(9,19)),(10,16))),((12,(1,15)),(2,(4,17))))));
(21,(((1,(12,15)),(2,(4,17))),((13,(((6,20),(3,8)),(5,18))),((7,14),((10,16),(11,(9,19)))))));
(21,(((12,(1,15)),(2,(4,17))),((13,(((3,6),(8,20)),(5,18))),((7,14),((10,16),(9,(11,19)))))));
(21,(((5,18),(13,(20,(6,(3,8))))),(((7,14),(19,((9,11),(10,16)))),((12,(1,15)),(2,(4,17))))));
(21,(((5,18),(13,(20,(6,(3,8))))),(((12,(1,15)),(2,(4,17))),((7,14),((10,16),(11,(9,19)))))));
(21,((13,((6,(20,(3,8))),(5,18))),(((7,14),(10,(16,(11,(9,19))))),((12,(1,15)),(2,(4,17))))));
(21,((5,(((3,8),(6,20)),(13,18))),(((7,14),((10,16),(11,(9,19)))),((12,(1,15)),(2,(4,17))))));
(21,((13,((6,(20,(3,8))),(5,18))),((((10,16),(11,(9,19))),(7,14)),((1,(12,15)),(2,(4,17))))));
(21,(((5,18),(13,((3,8),(6,20)))),(((10,16),(11,(9,19))),((12,(1,15)),((7,14),(2,(4,17)))))));
(21,(((6,(20,(3,8))),(13,(5,18))),(((7,14),((10,16),(11,(9,19)))),((12,(1,15)),(2,(4,17))))));
(21,((13,(((3,8),(6,20)),(5,18))),(((12,(1,15)),(2,(4,17))),(((10,16),(11,(9,19))),(7,14)))));
(21,((((7,14),((10,16),(11,(9,19)))),((1,(12,15)),(2,(4,17)))),((5,18),(13,((6,8),(3,20))))));
(21,(((5,18),(13,(20,(6,(3,8))))),((16,(10,(19,(9,11)))),((7,14),((12,(1,15)),(2,(4,17)))))));
(21,((13,((3,(20,(6,8))),(5,18))),(((7,14),(11,((9,19),(10,16)))),((12,(1,15)),(2,(4,17))))));
(21,(((6,(20,(3,8))),(13,(5,18))),(((15,(1,12)),(2,(4,17))),((7,14),((10,16),(11,(9,19)))))));
(21,(((3,8),(13,((6,20),(5,18)))),(((7,14),((10,16),(11,(9,19)))),((1,(12,15)),(2,(4,17))))));
(21,((13,(5,(18,((3,8),(6,20))))),(((7,14),(11,((9,19),(10,16)))),((15,(1,12)),(2,(4,17))))));
(21,(((18,(13,(3,20))),(5,(6,8))),(((7,14),((10,16),(11,(9,19)))),(2,((12,(1,15)),(4,17))))));
(21,((13,((6,(20,(3,8))),(5,18))),(((7,14),((10,16),(11,(9,19)))),((4,17),(2,(15,(1,12)))))));
(21,((((8,20),(3,6)),(13,(5,18))),(((7,14),((10,16),(11,(9,19)))),((12,(1,15)),(2,(4,17))))));
(21,(((20,(6,(3,8))),(13,(5,18))),(((12,(1,15)),(2,(4,17))),((7,14),(11,((9,19),(10,16)))))));
(21,((13,((20,(3,(6,8))),(5,18))),(((7,14),((10,16),(11,(9,19)))),((12,(1,15)),(2,(4,17))))));
(21,((((3,8),(6,20)),(13,(5,18))),(((7,14),((10,16),(11,(9,19)))),((12,(1,15)),(2,(4,17))))));
(21,((13,((20,(6,(3,8))),(5,18))),(((12,(1,15)),(2,(4,17))),((7,14),((11,(9,19)),(10,16))))));
(21,((((20,(3,8)),(5,18)),(6,13)),(((7,14),((10,16),(11,(9,19)))),((12,(1,15)),(2,(4,17))))));
(21,((13,(18,(5,(6,(20,(3,8)))))),((((11,(9,19)),(10,16)),(7,14)),((12,(1,15)),(2,(4,17))))));
(21,(((5,18),(13,(6,(20,(3,8))))),((2,((4,17),(12,(1,15)))),((7,14),((9,19),(11,(10,16)))))));
(21,((13,((3,(6,(8,20))),(5,18))),(((7,14),((10,16),(11,(9,19)))),((12,(1,15)),(2,(4,17))))));
(21,((((3,20),(6,8)),(13,(5,18))),(((4,17),(15,(1,12))),(2,((7,14),((10,16),(9,(11,19))))))));
(21,(((5,18),(13,(3,(8,(6,20))))),(((12,(1,15)),(2,(4,17))),((7,14),((11,(9,19)),(10,16))))));
(21,(((6,(20,(3,8))),(13,(5,18))),(((1,(12,15)),(2,(4,17))),((7,14),((9,19),(11,(10,16)))))));
(21,(((3,(20,(6,8))),(13,(5,18))),(((7,14),((9,11),(19,(10,16)))),((12,(1,15)),(2,(4,17))))));
(21,((18,((5,(6,(3,8))),(13,20))),(((7,14),(10,(16,(9,(11,19))))),((12,(1,15)),(2,(4,17))))));
(21,((13,(((6,8),(3,20)),(5,18))),(((7,14),((10,16),(9,(11,19)))),((12,(1,15)),(2,(4,17))))));
(21,(((10,16),(11,(9,19))),(((13,18),(5,(20,(6,(3,8))))),((7,14),((12,(1,15)),(2,(4,17)))))));
(21,((13,(((3,8),(6,20)),(5,18))),((12,(1,15)),((2,(4,17)),((7,14),(11,((9,19),(10,16))))))));
(21,((((3,20),(6,8)),(13,(5,18))),(((7,14),((10,16),(11,(9,19)))),((12,(1,15)),(2,(4,17))))));
(21,(((5,(20,(6,(3,8)))),(13,18)),(((7,14),((11,(9,19)),(10,16))),((12,(1,15)),(2,(4,17))))));
(21,(((((11,(9,19)),(10,16)),(7,14)),((12,(1,15)),(2,(4,17)))),(13,(((3,8),(6,20)),(5,18)))));
(21,((13,(((3,8),(6,20)),(5,18))),(((11,(9,19)),(10,16)),((7,14),((12,(1,15)),(2,(4,17)))))));
(21,(((12,(1,15)),(2,(4,17))),(((7,14),((10,16),(9,(11,19)))),((5,18),(13,((6,8),(3,20)))))));
(21,((13,((20,(6,(3,8))),(5,18))),(((7,14),((9,19),(11,(10,16)))),((12,(1,15)),(2,(4,17))))));
(21,(((5,18),(13,(20,(6,(3,8))))),(((7,14),(11,((10,16),(9,19)))),((1,(12,15)),(2,(4,17))))));
(21,((13,(((3,8),(6,20)),(5,18))),(((15,(1,12)),(2,(4,17))),((7,14),((11,(9,19)),(10,16))))));
(21,(((7,14),((10,16),(11,(9,19)))),((13,((20,(6,(3,8))),(5,18))),((12,(1,15)),(2,(4,17))))));
(21,((13,((6,(3,8)),(20,(5,18)))),(((7,14),(16,(10,(11,(9,19))))),((12,(1,15)),(2,(4,17))))));
(21,((2,(4,17)),(((5,(20,(6,(3,8)))),(13,18)),((1,(12,15)),((7,14),(16,(10,(9,(11,19)))))))));
(21,((13,(((3,8),(6,20)),(5,18))),(((7,14),(11,(10,(16,(9,19))))),((12,(1,15)),(2,(4,17))))));
(21,(((4,17),(2,(12,(1,15)))),((13,((8,(20,(3,6))),(5,18))),((7,14),((9,11),(19,(10,16)))))));
(21,((((3,6),(8,20)),(13,(5,18))),(((7,14),(16,(10,(11,(9,19))))),((12,(1,15)),(2,(4,17))))));
(21,((13,((5,18),(3,(20,(6,8))))),(((7,14),((10,16),(11,(9,19)))),((12,(1,15)),(2,(4,17))))));
(21,(((20,(6,(3,8))),(13,(5,18))),(((10,16),(19,(9,11))),((7,14),((12,(1,15)),(2,(4,17)))))));
(21,(((6,(20,(3,8))),(13,(5,18))),(((7,14),((10,16),(11,(9,19)))),((12,(1,15)),(2,(4,17))))));
(21,((((3,8),(6,20)),(13,(5,18))),(((7,14),((10,16),(19,(9,11)))),((12,(1,15)),(2,(4,17))))));
(21,(((5,(20,(3,(6,8)))),(13,18)),(((7,14),((10,16),(11,(9,19)))),((12,(1,15)),(2,(4,17))))));
(21,((13,((8,(6,(3,20))),(5,18))),(((7,14),(11,((9,19),(10,16)))),((12,(1,15)),(2,(4,17))))));
(21,((5,(13,(18,(20,(8,(3,6)))))),(((7,14),((10,16),(19,(9,11)))),((12,(1,15)),(2,(4,17))))));
(21,(((2,(4,17)),(12,(1,15))),(((5,18),(13,(20,(6,(3,8))))),((7,14),((10,16),(11,(9,19)))))));
(21,(((5,18),(13,(6,(20,(3,8))))),(((12,(1,15)),(2,(4,17))),((7,14),((19,(9,11)),(10,16))))));
(21,((13,((20,(6,(3,8))),(5,18))),(((7,14),((10,16),(11,(9,19)))),((12,(1,15)),(2,(4,17))))));
(21,(((5,18),(13,(20,(6,(3,8))))),(((12,(1,15)),(2,(4,17))),((7,14),((10,16),(9,(11,19)))))));
(21,((13,((20,(6,(3,8))),(5,18))),((12,(1,15)),(((7,14),((11,(9,19)),(10,16))),(2,(4,17))))));
(21,(((13,(20,(6,(3,8)))),(5,18)),(((7,14),((10,16),(11,(9,19)))),((12,(1,15)),(2,(4,17))))));
(21,(((20,(6,(3,8))),(13,(5,18))),(((7,14),((11,(9,19)),(10,16))),((15,(1,12)),(2,(4,17))))));
(21,(((20,(3,(6,8))),(13,(5,18))),(((7,14),(16,((9,11),(10,19)))),((4,17),(2,(12,(1,15)))))));
(21,((13,((20,(6,(3,8))),(5,18))),(((15,(1,12)),(2,(4,17))),((11,(9,19)),((7,14),(10,16))))));
(21,(((7,14),((10,16),(19,(9,11)))),(((5,18),(13,(6,(20,(3,8))))),((12,(1,15)),(2,(4,17))))));
(21,(((12,(1,15)),(2,(4,17))),((13,((6,(3,8)),(20,(5,18)))),((11,((9,19),(10,16))),(7,14)))));
(21,(((7,14),((10,16),(11,(9,19)))),((13,((8,(6,(3,20))),(5,18))),((12,(1,15)),(2,(4,17))))));
(21,((13,(5,(18,(20,(6,(3,8)))))),(((12,(1,15)),(2,(4,17))),((7,14),((10,16),(11,(9,19)))))));
(21,((13,((6,(20,(3,8))),(5,18))),((2,(4,17)),((12,(1,15)),((7,14),((10,16),(9,(11,19))))))));
(21,(((20,(3,(6,8))),(13,(5,18))),(((7,14),((10,16),(11,(9,19)))),((12,(1,15)),(2,(4,17))))));
(21,(13,((((3,8),(6,20)),(5,18)),(((7,14),((10,16),(11,(9,19)))),((1,(12,15)),(2,(4,17)))))));
(21,((((3,8),(6,20)),(13,(5,18))),(((7,14),((9,19),(11,(10,16)))),((12,(1,15)),(2,(4,17))))));
(21,((13,(((6,8),(3,20)),(5,18))),(((7,14),((10,16),(19,(9,11)))),((2,4),(17,(12,(1,15)))))));
(21,((((3,6),(8,20)),(13,(5,18))),(((7,14),((10,16),(11,(9,19)))),((12,(1,15)),(2,(4,17))))));
(21,((13,((20,(6,(3,8))),(5,18))),(((7,14),((9,19),(11,(10,16)))),(2,((4,17),(12,(1,15)))))));
(21,(((1,(12,15)),(2,(4,17))),((((3,8),(6,20)),(13,(5,18))),((11,((10,16),(9,19))),(7,14)))));
(21,((13,(((3,8),(6,20)),(5,18))),(((7,14),((10,16),(11,(9,19)))),((12,(1,15)),(2,(4,17))))));
(21,(((20,(6,(3,8))),(13,(5,18))),(((7,14),((10,16),(9,(11,19)))),((12,(1,15)),(2,(4,17))))));
(21,(((7,14),(19,((10,16),(9,11)))),((13,((5,18),(6,(3,(8,20))))),((12,(1,15)),(2,(4,17))))));
(21,(((5,18),(13,(20,(3,(6,8))))),(((12,(1,15)),(2,(4,17))),((7,14),((10,16),(11,(9,19)))))));
(21,((13,((5,18),(20,(6,(3,8))))),(((7,14),(9,((10,16),(11,19)))),((12,(1,15)),(2,(4,17))))));
(21,((13,((5,18),((3,6),(8,20)))),(((12,(1,15)),(2,(4,17))),((7,14),((9,19),(11,(10,16)))))));
(21,(((6,(20,(3,8))),(13,(5,18))),((2,((4,17),(12,(1,15)))),(((9,(11,19)),(10,16)),(7,14)))));
(21,(((5,18),(13,(20,(6,(3,8))))),(((7,14),((10,16),(11,(9,19)))),(2,((12,(1,15)),(4,17))))));
(21,(((5,18),(13,((3,6),(8,20)))),(((7,14),(10,(16,(11,(9,19))))),((4,17),(2,(12,(1,15)))))));
(21,(((5,18),(13,((3,8),(6,20)))),((((10,16),(11,(9,19))),(7,14)),((12,(1,15)),(2,(4,17))))));
(21,((13,((6,(20,(3,8))),(5,18))),(((7,14),(11,((9,19),(10,16)))),((12,(1,15)),(2,(4,17))))));
(21,(((7,14),((10,16),(9,(11,19)))),(((5,18),(13,(8,(20,(3,6))))),((4,17),(2,(12,(1,15)))))));
(21,(((5,18),(13,(3,(8,(6,20))))),(((7,14),(11,((10,16),(9,19)))),((12,(1,15)),(2,(4,17))))));
(21,((13,(((6,20),(3,8)),(5,18))),(((11,(9,19)),(10,16)),((7,14),((12,(1,15)),(2,(4,17)))))));
(21,(((12,(1,15)),(2,(4,17))),((13,(5,(18,((6,20),(3,8))))),((7,14),((10,16),(19,(9,11)))))));
(21,(((4,17),(2,(1,(12,15)))),((13,(5,(18,(6,(20,(3,8)))))),((7,14),(9,((11,19),(10,16)))))));
(21,((18,(13,(5,((8,20),(3,6))))),(((7,14),((11,(9,19)),(10,16))),((12,(1,15)),(2,(4,17))))));
(21,(((6,(20,(3,8))),(13,(5,18))),(((7,14),((10,16),(19,(9,11)))),(2,((4,17),(12,(1,15)))))));
(21,((13,((20,(6,(3,8))),(5,18))),(((7,14),((10,16),(11,(9,19)))),((12,(1,15)),(2,(4,17))))));
(21,((13,((20,(6,(3,8))),(5,18))),(((4,17),(2,(12,(1,15)))),((7,14),((10,16),(11,(9,19)))))));
(21,((13,((6,(20,(3,8))),(5,18))),((1,(12,15)),((2,(4,17)),((7,14),((10,16),(9,(11,19))))))));
(21,(((5,18),(13,((3,8),(6,20)))),(((7,14),((10,19),(16,(9,11)))),((12,(1,15)),(2,(4,17))))));
(21,((13,(5,(18,((6,8),(3,20))))),(((7,14),((9,19),(11,(10,16)))),((4,17),(2,(15,(1,12)))))));
(21,((13,((5,18),(20,(3,(6,8))))),(((4,17),(2,(15,(1,12)))),((7,14),((10,16),(11,(9,19)))))));
(21,(((6,(8,(3,20))),(13,(5,18))),(((7,14),((11,(9,19)),(10,16))),((12,(1,15)),(2,(4,17))))));
(21,((((3,8),(6,20)),(13,(5,18))),(((7,14),((10,16),(11,(9,19)))),((4,17),(2,(12,(1,15)))))));
(21,(((12,(1,15)),((7,14),((9,19),(11,(10,16))))),((2,(4,17)),((20,(6,(3,8))),(13,(5,18))))));
(21,(((20,(5,18)),(13,(6,(3,8)))),(((12,(1,15)),(2,(4,17))),((7,14),((10,16),(9,(11,19)))))));
(21,((((3,8),(6,20)),(13,(5,18))),(((7,14),((10,16),(11,(9,19)))),((1,(12,15)),(2,(4,17))))));
(21,(((7,14),((11,(9,19)),(10,16))),((13,((6,(20,(3,8))),(5,18))),((12,(1,15)),(2,(4,17))))));
(21,(((6,(20,(3,8))),(13,(5,18))),(((7,14),((10,16),(11,(9,19)))),((4,17),(2,(12,(1,15)))))));
(21,((((3,8),(6,20)),(13,(5,18))),(((12,(1,15)),(2,(4,17))),((7,14),((9,11),(19,(10,16)))))));
(21,((13,((20,(6,(3,8))),(5,18))),(((7,14),((10,16),(11,(9,19)))),((12,(1,15)),(2,(4,17))))));
(21,(((6,(20,(3,8))),(5,(13,18))),(((10,16),(19,(9,11))),((7,14),((12,(1,15)),(2,(4,17)))))));
(21,((13,((20,(6,(3,8))),(5,18))),((((10,16),(11,(9,19))),(7,14)),((12,(1,15)),(2,(4,17))))));
(21,((((3,8),(5,18)),(13,(6,20))),(((7,14),((10,16),(11,(9,19)))),((12,(1,15)),(2,(4,17))))));
(21,(((8,(3,(6,20))),(13,(5,18))),((14,(7,((9,19),(11,(10,16))))),((4,17),(2,(1,(12,15)))))));
(21,((13,((5,18),(20,(3,(6,8))))),(((7,14),((10,16),(11,(9,19)))),((12,(1,15)),(2,(4,17))))));
(21,(((5,18),(13,(6,(20,(3,8))))),(((7,14),((10,16),(11,(9,19)))),((15,(1,12)),(2,(4,17))))));
(21,(((5,18),(13,(20,(8,(3,6))))),(((7,14),((10,16),(11,(9,19)))),((12,(1,15)),(2,(4,17))))));
(21,(((5,(6,(8,(3,20)))),(13,18)),(((7,14),((10,16),(11,(9,19)))),((12,(1,15)),(2,(4,17))))));
(21,((13,((6,(20,(3,8))),(5,18))),(((7,14),((10,16),(11,(9,19)))),((12,(1,15)),(2,(4,17))))));
(21,((13,(((3,20),(6,8)),(5,18))),(((7,14),((11,(9,19)),(10,16))),((15,(1,12)),(2,(4,17))))));
(21,((13,((5,18),(20,(3,(6,8))))),(((7,14),((11,(9,19)),(10,16))),((12,(1,15)),(2,(4,17))))));
(21,((13,((3,(6,(8,20))),(5,18))),(((1,(12,15)),(2,(4,17))),((7,14),((11,(9,19)),(10,16))))));
(21,(((8,(3,(6,20))),(13,(5,18))),(((7,14),((10,16),(11,(9,19)))),((15,(1,12)),(2,(4,17))))));
(21,(((2,(4,17)),(12,(1,15))),(((20,(6,(3,8))),(13,(5,18))),((7,14),(10,(16,(11,(9,19))))))));
(21,((13,(((8,20),(3,6)),(5,18))),(((7,14),((10,16),(11,(9,19)))),((12,(1,15)),(2,(4,17))))));
(21,((((10,16),(11,(9,19))),((12,(1,15)),(2,(4,17)))),((7,14),(13,((20,(3,(6,8))),(5,18))))));
(21,(((6,(20,(3,8))),(13,(5,18))),(((7,14),((11,19),(9,(10,16)))),((4,17),(2,(12,(1,15)))))));
(21,((((3,8),(6,20)),(13,(5,18))),(((7,14),((11,19),(9,(10,16)))),((12,(1,15)),(2,(4,17))))));
(21,((13,((5,18),(20,(6,(3,8))))),(((7,14),((10,16),(11,(9,19)))),((12,(1,15)),(2,(4,17))))));
(21,(((12,(1,15)),(2,(4,17))),(((20,(6,(3,8))),(13,(5,18))),((7,14),((11,19),(9,(10,16)))))));
(21,(((7,14),(16,(10,(9,(11,19))))),((((3,8),(6,20)),(13,(5,18))),((12,(1,15)),(2,(4,17))))));
(21,(((6,(8,(3,20))),(13,(5,18))),((2,(4,17)),((12,(1,15)),((7,14),((11,19),(9,(10,16))))))));
(21,((13,((6,(20,(3,8))),(5,18))),(((7,14),(11,((10,16),(9,19)))),((12,(1,15)),(2,(4,17))))));
(21,((13,((5,18),((3,8),(6,20)))),(((7,14),((10,16),(19,(9,11)))),((12,(1,15)),(2,(4,17))))));
(21,((13,(((3,8),(6,20)),(5,18))),(((7,14),((10,16),(11,(9,19)))),((12,(1,15)),(2,(4,17))))));
(21,((13,(5,(18,(3,(20,(6,8)))))),(((7,14),((11,(9,19)),(10,16))),((12,(1,15)),(2,(4,17))))));
(21,(((5,18),(13,(6,(3,(8,20))))),((2,((4,17),(12,(1,15)))),(((9,19),(11,(10,16))),(7,14)))));
(21,((5,(13,(18,(3,(20,(6,8)))))),(((12,(1,15)),(2,(4,17))),((7,14),((10,16),(11,(9,19)))))));
(21,((12,(1,15)),(((20,(6,(3,8))),(13,(5,18))),((2,(4,17)),((7,14),((10,16),(19,(9,11))))))));
(21,(((15,(1,12)),(2,(4,17))),((13,((20,(8,(3,6))),(5,18))),((7,14),((10,11),(16,(9,19)))))));
(21,((13,((6,(20,(3,8))),(5,18))),(((12,(1,15)),(2,(4,17))),((7,14),((11,(9,19)),(10,16))))));
(21,(((12,(1,15)),(2,(4,17))),(((5,18),(13,(20,(6,(3,8))))),((7,14),((11,(9,19)),(10,16))))));
(21,((13,((20,(6,(3,8))),(5,18))),(((7,14),(11,((9,19),(10,16)))),((12,(1,15)),(2,(4,17))))));
(21,(((7,14),((12,(1,15)),(2,(4,17)))),((16,(10,(9,(11,19)))),((20,(5,18)),(13,(6,(3,8)))))));
(21,((13,(((3,8),(6,20)),(5,18))),((((10,16),(11,(9,19))),(7,14)),((15,(1,12)),(2,(4,17))))));
(21,((13,(((3,8),(6,20)),(5,18))),(((7,14),((9,19),(11,(10,16)))),((12,(1,15)),(2,(4,17))))));
(21,((13,((5,18),(6,(20,(3,8))))),(((12,(1,15)),(2,(4,17))),((7,14),(9,((10,16),(11,19)))))));
(21,((18,((20,(6,(3,8))),(5,13))),(((7,14),((11,(9,19)),(10,16))),((12,(1,15)),(2,(4,17))))));
(21,((13,(((3,8),(6,20)),(5,18))),(((7,14),((10,16),(11,(9,19)))),((12,(1,15)),(2,(4,17))))));
(21,(((5,18),(13,(20,(6,(3,8))))),(((7,14),((10,16),(11,(9,19)))),((4,17),(2,(12,(1,15)))))));
(21,((((3,6),(8,20)),(13,(5,18))),(((12,(1,15)),(2,(4,17))),((7,14),((10,16),(11,(9,19)))))));
(21,(((7,14),((10,16),(19,(9,11)))),((13,(((8,20),(3,6)),(5,18))),((12,(1,15)),(2,(4,17))))));
(21,(((7,14),((10,16),(11,(9,19)))),((13,((6,(20,(3,8))),(5,18))),((12,(1,15)),(2,(4,17))))));
(21,(((5,18),(13,(8,(3,(6,20))))),(((7,14),(11,(16,(10,(9,19))))),((12,(1,15)),(2,(4,17))))));
(21,((13,(((3,8),(6,20)),(5,18))),(((12,(1,15)),(2,(4,17))),((7,14),(11,((10,16),(9,19)))))));
(21,(((8,(3,(6,20))),(13,(5,18))),(((7,14),((10,16),(11,(9,19)))),((12,(1,15)),(2,(4,17))))));
(21,(((5,18),(13,(6,(20,(3,8))))),(((7,14),((10,16),(11,(9,19)))),((15,(1,12)),(2,(4,17))))));
(21,((13,(((3,8),(6,20)),(5,18))),((((10,16),(11,(9,19))),(7,14)),(2,((4,17),(12,(1,15)))))));
(21,(((12,(1,15)),(2,(4,17))),((((3,8),(6,20)),(13,(5,18))),((7,14),((11,(9,19)),(10,16))))));
(21,(((20,(6,(3,8))),(13,(5,18))),((17,(2,4)),((1,(12,15)),((7,14),((10,16),(11,(9,19))))))));
(21,(((12,(1,15)),(2,(4,17))),(((5,18),(13,(20,(6,(3,8))))),((7,14),(11,((10,16),(9,19)))))));
(21,((13,((20,(8,(3,6))),(5,18))),(((1,(12,15)),(2,(4,17))),((7,14),((10,16),(9,(11,19)))))));
(21,(((5,18),(13,(20,(3,(6,8))))),(((7,14),((10,16),(11,(9,19)))),((12,(1,15)),(2,(4,17))))));
(21,(((20,(6,(3,8))),(13,(5,18))),(((12,(1,15)),(7,14)),(((10,16),(11,(9,19))),(2,(4,17))))));
(21,(((3,(8,(6,20))),(13,(5,18))),(((15,(1,12)),(2,(4,17))),((7,14),((10,16),(11,(9,19)))))));
(21,((13,((5,18),(20,(6,(3,8))))),(((7,14),((10,16),(11,(9,19)))),((12,(1,15)),(2,(4,17))))));
(21,((5,(13,(18,(20,(6,(3,8)))))),(((7,14),((10,16),(11,(9,19)))),((12,(1,15)),(2,(4,17))))));
(21,((13,((8,(3,(6,20))),(5,18))),(((7,14),((10,16),(19,(9,11)))),((12,(1,15)),(2,(4,17))))));
(21,(((20,(6,(3,8))),(13,(5,18))),(((7,14),((10,16),(11,(9,19)))),((12,(1,15)),(2,(4,17))))));
(21,((13,((8,(20,(3,6))),(5,18))),(((7,14),((10,16),(11,(9,19)))),((12,(1,15)),(2,(4,17))))));
(21,(((1,(12,15)),(((10,16),(11,(9,19))),(7,14))),(((20,(3,(6,8))),(13,(5,18))),(2,(4,17)))));
(21,((7,14),((((20,(3,6)),(5,18)),(8,13)),(((10,16),(19,(9,11))),((12,(1,15)),(2,(4,17)))))));
(21,(((20,(3,(6,8))),(13,(5,18))),(((12,(1,15)),(2,(4,17))),((7,14),((10,16),(11,(9,19)))))));
(21,(((6,(20,(3,8))),(13,(5,18))),(((7,14),((10,16),(11,(9,19)))),((12,(1,15)),(2,(4,17))))));
(21,((13,((5,18),(20,(6,(3,8))))),(2,(((4,17),(12,(1,15))),((7,14),((10,16),(19,(9,11))))))));
(21,(((5,18),(13,(3,(8,(6,20))))),(((7,14),((10,16),(11,(9,19)))),(2,((1,(12,15)),(4,17))))));
(21,((13,((20,(6,(3,8))),(5,18))),(((7,14),((10,16),(9,(11,19)))),((15,(1,12)),(2,(4,17))))));
(21,(((12,(1,15)),(2,(4,17))),((13,((6,(20,(3,8))),(5,18))),((7,14),((10,16),(9,(11,19)))))));
(21,((((12,(1,15)),(2,(4,17))),((7,14),((10,16),(11,(9,19))))),(13,((3,(20,(6,8))),(5,18)))));
(21,((((10,16),(9,(11,19))),((4,17),(2,(12,(1,15))))),((7,14),((5,(6,(8,20))),(13,(3,18))))));
(21,(((12,(1,15)),(2,(4,17))),(((7,14),((10,16),(11,(9,19)))),(13,((8,(6,(3,20))),(5,18))))));
(21,((((3,8),(6,20)),(13,(5,18))),(((1,(12,15)),(2,(4,17))),((7,14),((10,16),(11,(9,19)))))));
(21,((5,((20,(8,(3,6))),(13,18))),(((7,14),((10,16),(11,(9,19)))),((12,(1,15)),(2,(4,17))))));
(21,(((6,(20,(3,8))),(13,(5,18))),(((12,(1,15)),(2,(4,17))),((7,14),((9,11),(19,(10,16)))))));
(21,(((20,(3,(6,8))),(13,(5,18))),(((12,(1,15)),(2,(4,17))),((7,14),((9,19),(11,(10,16)))))));
(21,((13,(((3,8),(6,20)),(5,18))),(((7,14),((10,16),(11,(9,19)))),((12,(1,15)),(2,(4,17))))));
(21,((13,(18,(5,((6,8),(3,20))))),(((7,14),((11,(9,19)),(10,16))),((12,(1,15)),(2,(4,17))))));
(21,(((5,18),(13,((8,20),(3,6)))),(((1,(12,15)),(2,(4,17))),((7,14),((10,16),(11,(9,19)))))));
(21,(((12,(1,15)),(2,(4,17))),((13,(((6,8),(3,20)),(5,18))),((7,14),((9,19),(11,(10,16)))))));
(21,(((12,(1,15)),(2,(4,17))),((13,(5,(18,(6,(20,(3,8)))))),((7,14),((10,16),(11,(9,19)))))));
(21,((13,((5,18),(6,(20,(3,8))))),((15,(1,12)),((2,(4,17)),((7,14),((9,(11,19)),(10,16)))))));
(21,((13,((6,(20,(3,8))),(5,18))),((7,14),((10,(16,(11,(9,19)))),((12,(1,15)),(2,(4,17)))))));
(21,(((12,(1,15)),(2,(4,17))),((13,((6,(20,(3,8))),(5,18))),((7,14),((10,16),(11,(9,19)))))));
(21,((5,(18,(13,(3,(20,(6,8)))))),(((12,(1,15)),(2,(4,17))),((7,14),((10,16),(11,(9,19)))))));
(21,(((18,(6,(20,(3,8)))),(5,13)),(((7,14),((10,16),(11,(9,19)))),((12,(1,15)),(2,(4,17))))));
(21,(((5,18),(13,((3,8),(6,20)))),(((7,14),((11,(9,19)),(10,16))),((12,(1,15)),(2,(4,17))))));
(21,((13,((20,(6,(3,8))),(5,18))),(((7,14),((10,16),(11,(9,19)))),(2,((4,17),(12,(1,15)))))));
(21,(((18,(20,(6,(3,8)))),(5,13)),(((7,14),((10,16),(11,(9,19)))),((12,(1,15)),(2,(4,17))))));
(21,(((1,(12,15)),(2,(4,17))),((13,((20,(6,(3,8))),(5,18))),((19,((10,16),(9,11))),(7,14)))));
(21,(((7,14),((10,16),(11,(9,19)))),(((20,(6,(3,8))),(13,(5,18))),((12,(1,15)),(2,(4,17))))));
(21,((13,((5,18),((3,8),(6,20)))),(((7,14),((10,16),(11,(9,19)))),((4,17),(2,(12,(1,15)))))));
(21,(((5,18),(13,(20,(6,(3,8))))),(((12,(1,15)),(2,(4,17))),((7,14),(19,(16,(10,(9,11))))))));
(21,((18,(13,(5,((6,8),(3,20))))),((((10,16),(9,(11,19))),(7,14)),((12,(1,15)),(2,(4,17))))));
(21,(((7,14),((12,(1,15)),(2,(4,17)))),(((10,16),(11,(9,19))),((20,(6,(3,8))),(13,(5,18))))));
(21,((13,((6,(20,(3,8))),(5,18))),(((7,14),((11,(9,19)),(10,16))),((12,(1,15)),(2,(4,17))))));
(21,(((4,17),(2,(1,(12,15)))),(((20,(6,(3,8))),(13,(5,18))),((7,14),((10,16),(11,(9,19)))))));
(21,(((20,(6,(3,8))),(13,(5,18))),(((7,14),((9,(11,19)),(10,16))),((2,(4,17)),(12,(1,15))))));
(21,(((7,14),((10,16),(11,(9,19)))),(((5,(6,(20,(3,8)))),(13,18)),((1,(12,15)),(2,(4,17))))));
(21,((((6,20),(3,8)),(13,(5,18))),(((7,14),(19,((10,16),(9,11)))),((1,(12,15)),(2,(4,17))))));
(21,((13,((5,18),((8,20),(3,6)))),(((12,(1,15)),(2,(4,17))),((7,14),((11,(9,19)),(10,16))))));
(21,(((15,(1,12)),(2,(4,17))),(((7,14),((10,16),(9,(11,19)))),(13,((6,(20,(3,8))),(5,18))))));
(21,((13,((20,(8,(3,6))),(5,18))),(((10,16),(9,(11,19))),((7,14),((1,(12,15)),(2,(4,17)))))));
(21,(((7,14),((11,19),(9,(10,16)))),((18,(13,(5,((3,8),(6,20))))),(2,((4,17),(12,(1,15)))))));
(21,((13,((20,(6,(3,8))),(5,18))),(((12,(1,15)),(2,(4,17))),((7,14),((10,16),(11,(9,19)))))));
(21,(((5,18),(13,(20,(6,(3,8))))),((12,(1,15)),((2,(4,17)),((7,14),((10,16),(11,(9,19))))))));
(21,(((3,(20,(6,8))),(13,(5,18))),(((4,17),(12,(1,15))),(2,((7,14),((10,16),(11,(9,19))))))));
(21,((13,((5,18),((6,8),(3,20)))),(((7,14),((11,19),(9,(10,16)))),((12,(1,15)),(2,(4,17))))));
(21,((13,(((3,8),(6,20)),(5,18))),(((7,14),((10,16),(11,(9,19)))),((12,(1,15)),(2,(4,17))))));
(21,(((12,(1,15)),(2,(4,17))),((((3,20),(6,8)),(13,(5,18))),((7,14),((10,16),(19,(9,11)))))));
(21,((18,(5,(13,(20,(6,(3,8)))))),(((7,14),((10,16),(19,(9,11)))),((12,(1,15)),(2,(4,17))))));
(21,((13,((3,8),((6,20),(5,18)))),(((7,14),((10,16),(11,(9,19)))),((12,(1,15)),(2,(4,17))))));
(21,((18,(13,((6,8),(5,(3,20))))),(((7,14),((19,(9,11)),(10,16))),((1,(12,15)),(2,(4,17))))));
(21,(((6,(20,(3,8))),(13,(5,18))),(((12,(1,15)),(2,(4,17))),((7,14),((9,(11,19)),(10,16))))));
(21,(((7,14),((12,(1,15)),(2,(4,17)))),(((11,(9,19)),(10,16)),(18,(13,(5,((3,8),(6,20))))))));
(21,(((5,18),(13,((3,8),(6,20)))),(((7,14),((11,(9,19)),(10,16))),((12,(1,15)),(2,(4,17))))));
(21,((13,((3,(20,(6,8))),(5,18))),((((10,16),(9,(11,19))),(7,14)),(2,((4,17),(12,(1,15)))))));
(21,(((18,((3,8),(6,20))),(5,13)),(((7,14),((10,16),(9,(11,19)))),((12,(1,15)),(2,(4,17))))));
(21,(((5,18),(13,((3,20),(6,8)))),(((7,14),((10,16),(11,(9,19)))),((12,(1,15)),(2,(4,17))))));
(21,((13,((20,(8,(3,6))),(5,18))),(((7,14),(10,(16,(11,(9,19))))),((15,(1,12)),(2,(4,17))))));
(21,(((5,18),(13,(20,(6,(3,8))))),((((10,16),(11,(9,19))),(7,14)),((12,(1,15)),(2,(4,17))))));
(21,(((7,14),(9,((10,16),(11,19)))),((13,((20,(6,(3,8))),(5,18))),((12,(1,15)),(2,(4,17))))));
(21,(((6,(20,(3,8))),(13,(5,18))),(((7,14),(10,(16,(11,(9,19))))),((12,(1,15)),(2,(4,17))))));
(21,((13,(((3,8),(6,20)),(5,18))),(((7,14),((10,16),(11,(9,19)))),((12,(1,15)),(2,(4,17))))));
(21,((13,((5,18),(8,(3,(6,20))))),(((7,14),((10,16),(11,(9,19)))),((12,(1,15)),(2,(4,17))))));
(21,((13,((5,18),(20,(3,(6,8))))),(((7,14),((11,(9,19)),(10,16))),((12,(1,15)),(2,(4,17))))));
(21,((13,((6,(20,(3,8))),(5,18))),(((4,17),(2,(15,(1,12)))),((7,14),(10,(16,(11,(9,19))))))));
(21,(((8,(20,(3,6))),(13,(5,18))),(((11,((9,19),(10,16))),((4,17),(15,(1,12)))),(2,(7,14)))));
(21,((13,(5,(18,((3,8),(6,20))))),(((7,14),((11,(9,19)),(10,16))),((12,(1,15)),(2,(4,17))))));
(21,(((5,18),(13,(6,(20,(3,8))))),(((7,14),((10,16),(11,(9,19)))),((1,(12,15)),(2,(4,17))))));
(21,(((5,18),(13,((6,8),(3,20)))),(((12,(1,15)),(2,(4,17))),((7,14),((10,16),(11,(9,19)))))));
(21,(((7,14),((9,19),(11,(10,16)))),((13,(((6,20),(3,8)),(5,18))),((15,(1,12)),(2,(4,17))))));
(21,((13,((6,(20,(3,8))),(5,18))),(((7,14),(19,((10,16),(9,11)))),((12,(1,15)),(2,(4,17))))));
(21,(((7,14),((9,11),(19,(10,16)))),(((12,(1,15)),(2,(4,17))),(((3,8),(6,20)),(13,(5,18))))));
(21,((13,((5,18),(20,(6,(3,8))))),(((12,(1,15)),(2,(4,17))),((7,14),(11,(10,(16,(9,19))))))));
(21,(((20,(3,(6,8))),(13,(5,18))),(((7,14),((10,16),(19,(9,11)))),((12,(1,15)),(2,(4,17))))));
(21,((13,((20,(3,(6,8))),(5,18))),(((12,(1,15)),(2,(4,17))),((7,14),((9,11),(19,(10,16)))))));
(21,(((12,(1,15)),(2,(4,17))),(((7,14),((11,(9,19)),(10,16))),((5,(20,(6,(3,8)))),(13,18)))));
(21,((13,((6,(20,(3,8))),(5,18))),(((12,(1,15)),(2,(4,17))),((7,14),((10,16),(11,(9,19)))))));
(21,((((3,6),(8,20)),(13,(5,18))),((12,(1,15)),((2,(4,17)),(((10,16),(11,(9,19))),(7,14))))));
(21,(((13,20),((6,(3,8)),(5,18))),(((7,14),((10,16),(19,(9,11)))),((12,(1,15)),(2,(4,17))))));
(21,(((6,(20,(3,8))),(13,(5,18))),(((10,16),(11,(9,19))),((7,14),((12,(1,15)),(2,(4,17)))))));
(21,(((2,(4,17)),((7,14),(11,((9,19),(10,16))))),((1,(12,15)),(20,((6,(3,8)),(13,(5,18)))))));
(21,(((7,14),(10,(16,(11,(9,19))))),(((5,18),(13,(20,(6,(3,8))))),(2,((4,17),(12,(1,15)))))));
(21,((13,(5,(18,(8,(20,(3,6)))))),(((7,14),((10,16),(11,(9,19)))),((12,(1,15)),(2,(4,17))))));
(21,((13,(((3,20),(6,8)),(5,18))),(((7,14),((11,(9,19)),(10,16))),((12,(1,15)),(2,(4,17))))));
(21,(((3,(6,(8,20))),(13,(5,18))),((2,(4,17)),((12,(1,15)),((7,14),((10,16),(11,(9,19))))))));
(21,((13,((20,(6,(3,8))),(5,18))),(((7,14),((10,16),(9,(11,19)))),((12,(1,15)),(2,(4,17))))));
(21,(((7,14),((10,16),(11,(9,19)))),((13,(((3,8),(6,20)),(5,18))),((1,(12,15)),(2,(4,17))))));
(21,(((20,(6,(3,8))),(13,(5,18))),(((12,(1,15)),(2,(4,17))),((7,14),((11,(9,19)),(10,16))))));
(21,(((7,14),(10,(16,(9,(11,19))))),(((5,18),(13,(8,(20,(3,6))))),(2,((4,17),(12,(1,15)))))));
(21,((13,(((3,8),(6,20)),(5,18))),(((7,14),((10,16),(11,(9,19)))),((12,(1,15)),(2,(4,17))))));
(21,(((9,19),(11,(10,16))),((18,(13,(5,(20,(6,(3,8)))))),((7,14),((12,(1,15)),(2,(4,17)))))));
(21,((13,((20,(3,8)),(6,(5,18)))),(((7,14),((9,(11,19)),(10,16))),((12,(1,15)),(2,(4,17))))));
(21,(((5,13),(18,(20,(6,(3,8))))),(((7,14),((10,16),(9,(11,19)))),((12,(1,15)),(2,(4,17))))));
(21,(((3,(8,(6,20))),(13,(5,18))),(((12,(1,15)),(2,(4,17))),(((9,19),(11,(10,16))),(7,14)))));
(21,((12,(1,15)),((13,((5,18),(8,(20,(3,6))))),((2,(4,17)),((7,14),(10,(16,(9,(11,19)))))))));
(21,(((12,(1,15)),(2,(4,17))),(((6,(20,(3,8))),(13,(5,18))),((7,14),((10,16),(9,(11,19)))))));
(21,((13,(((8,20),(3,6)),(5,18))),(((1,(12,15)),(2,(4,17))),((7,14),((9,19),(11,(10,16)))))));
(21,(((5,18),(13,(8,(6,(3,20))))),(((7,14),((10,16),(9,(11,19)))),((15,(1,12)),(2,(4,17))))));
(21,(((5,18),(13,(6,(20,(3,8))))),(((7,14),((10,16),(11,(9,19)))),((12,(1,15)),(2,(4,17))))));
(21,((13,((20,(8,(3,6))),(5,18))),(((1,(12,15)),(2,(4,17))),((10,16),((11,(9,19)),(7,14))))));
(21,((13,((6,(3,(8,20))),(5,18))),(((7,14),((9,19),(11,(10,16)))),(2,((4,17),(12,(1,15)))))));
(21,(((12,(1,15)),(2,(4,17))),(((5,18),(13,((3,8),(6,20)))),((7,14),(19,(10,(16,(9,11))))))));
(21,(((3,(6,8)),(20,(18,(5,13)))),(((7,14),((10,16),(11,(9,19)))),((12,(1,15)),(2,(4,17))))));
(21,((((6,20),(3,8)),(13,(5,18))),(((7,14),(10,((9,19),(11,16)))),((12,(1,15)),(2,(4,17))))));
(21,(((5,18),(13,(8,(3,(6,20))))),(((7,14),(10,(16,(9,(11,19))))),((1,(12,15)),(2,(4,17))))));
(21,(((7,14),(16,(10,(11,(9,19))))),(((5,18),(13,((3,8),(6,20)))),((12,(1,15)),(2,(4,17))))));
(21,(((12,(1,15)),(2,(4,17))),(((13,(5,(3,8))),(18,(6,20))),((7,14),((10,16),(9,(11,19)))))));
(21,(((13,18),(5,((3,8),(6,20)))),(((7,14),((10,16),(11,(9,19)))),((2,17),(4,(12,(1,15)))))));
(21,((13,(((8,20),(3,6)),(5,18))),(((12,(1,15)),(2,(4,17))),((11,(9,19)),((10,16),(7,14))))));
(21,((13,((6,(20,(3,8))),(5,18))),(((12,(1,15)),(2,(4,17))),((7,14),((10,16),(11,(9,19)))))));
(21,(((7,14),((10,16),(11,(9,19)))),(((5,((3,8),(6,20))),(13,18)),((4,17),(2,(12,(1,15)))))));
(21,((((3,8),(6,20)),(13,(5,18))),(((7,14),((10,16),(11,(9,19)))),((12,(1,15)),(2,(4,17))))));
(21,(((5,18),(13,(3,(20,(6,8))))),(((15,(1,12)),(2,(4,17))),((7,14),((11,(9,19)),(10,16))))));
(21,((13,((5,18),(3,(6,(8,20))))),(((7,14),((11,(9,19)),(10,16))),((12,(1,15)),(2,(4,17))))));
(21,((((3,8),(6,20)),(13,(5,18))),((((10,16),(9,(11,19))),(7,14)),((15,(1,12)),(2,(4,17))))));
(21,(((5,18),(13,(6,(20,(3,8))))),(((12,(1,15)),(2,(4,17))),((7,14),((10,16),(11,(9,19)))))));
(21,((13,(((3,8),(6,20)),(5,18))),(((7,14),((10,16),(19,(9,11)))),((12,(1,15)),(2,(4,17))))));
(21,(((20,(5,18)),(13,(8,(3,6)))),(((7,14),((10,16),(11,(9,19)))),((1,(12,15)),(2,(4,17))))));
(21,(((13,((6,8),(3,20))),(5,18)),(((7,14),((10,16),(9,(11,19)))),((4,17),(2,(12,(1,15)))))));
(21,(((20,(6,(3,8))),(13,(5,18))),(((7,14),((19,(9,11)),(10,16))),(2,((15,(1,12)),(4,17))))));
(21,(((13,(6,20)),((3,8),(5,18))),(((7,14),((11,(9,19)),(10,16))),((1,(12,15)),(2,(4,17))))));
(21,((13,((6,(20,(3,8))),(5,18))),((2,(4,17)),((12,(1,15)),((7,14),((19,(9,11)),(10,16)))))));
(21,(((5,18),(13,((3,6),(8,20)))),(((7,14),(11,((9,19),(10,16)))),((12,(1,15)),(2,(4,17))))));
(21,(((5,18),(13,((3,6),(8,20)))),(((7,14),((10,16),(11,(9,19)))),((1,(12,15)),(2,(4,17))))));
(21,((((6,8),(3,20)),(13,(5,18))),(((12,(1,15)),(2,(4,17))),((7,14),((10,16),(11,(9,19)))))));
(21,(((6,(20,(3,8))),(5,(13,18))),(((12,(1,15)),(2,(4,17))),((7,14),((10,16),(11,(9,19)))))));
(21,(((12,(1,15)),(2,(4,17))),((13,(5,(18,(3,(8,(6,20)))))),((7,14),((10,16),(9,(11,19)))))));
(21,((13,((3,(20,(6,8))),(5,18))),(((7,14),((10,16),(11,(9,19)))),((12,(1,15)),(2,(4,17))))));
(21,((13,((20,(6,(3,8))),(5,18))),(((7,14),((10,16),(11,(9,19)))),((12,(1,15)),(2,(4,17))))));
(21,((13,(5,(18,(20,(3,(6,8)))))),((12,(1,15)),((2,(4,17)),(((10,16),(11,(9,19))),(7,14))))));
(21,(((12,(1,15)),(2,(4,17))),((13,((5,18),(20,(6,(3,8))))),(((10,16),(11,(9,19))),(7,14)))));
(21,((((3,8),(6,20)),(18,(5,13))),((12,(1,15)),((2,(4,17)),((7,14),((9,(11,19)),(10,16)))))));
(21,((13,((5,18),(8,(6,(3,20))))),(((7,14),(11,((10,16),(9,19)))),((12,(1,15)),(2,(4,17))))));
(21,((18,(13,(5,(6,(20,(3,8)))))),(((12,(1,15)),(2,(4,17))),((7,14),(16,(10,(19,(9,11))))))));
(21,(((6,(20,(3,8))),(13,(5,18))),(((7,14),((9,19),(10,(11,16)))),((1,(12,15)),(2,(4,17))))));
(21,(((7,14),((10,16),(19,(9,11)))),((18,(13,(5,((6,8),(3,20))))),((15,(1,12)),(2,(4,17))))));
(21,(((7,14),((12,(1,15)),(2,(4,17)))),(((10,16),(11,(9,19))),((20,(6,(3,8))),(13,(5,18))))));
(21,(((6,(20,(3,8))),(13,(5,18))),(((7,14),((10,16),(11,(9,19)))),((12,(1,15)),(2,(4,17))))));
(21,(((5,18),(13,(6,(20,(3,8))))),(((12,(1,15)),(2,(4,17))),((7,14),(9,(16,(10,(11,19))))))));
(21,(((7,14),((10,16),(19,(9,11)))),(((3,(8,(6,20))),(13,(5,18))),((1,(12,15)),(2,(4,17))))));
(21,(((5,18),(13,((3,8),(6,20)))),(((7,14),((10,16),(11,(9,19)))),((12,(1,15)),(2,(4,17))))));
(21,(((2,(4,17)),((12,(1,15)),((7,14),((9,19),(11,(10,16)))))),((5,18),(13,((3,20),(6,8))))));
(21,(((20,(6,(3,8))),(13,(5,18))),(((7,14),(10,(16,(11,(9,19))))),((12,(1,15)),(2,(4,17))))));
(21,((13,((20,(6,(3,8))),(5,18))),(((7,14),((10,16),(11,(9,19)))),((12,(1,15)),(2,(4,17))))));
(21,(((5,18),(13,(6,(3,(8,20))))),(((12,(1,15)),(2,(4,17))),((7,14),(11,((10,16),(9,19)))))));
(21,((13,((5,18),(20,(6,(3,8))))),(((12,(1,15)),(2,(4,17))),((7,14),(11,((10,16),(9,19)))))));
(21,(((12,(1,15)),(2,(4,17))),((13,(((6,20),(3,8)),(5,18))),((7,14),((10,16),(11,(9,19)))))));
(21,(((6,(20,(3,8))),(13,(5,18))),(((10,16),(9,(11,19))),((7,14),((12,(1,15)),(2,(4,17)))))));
(21,((13,(((6,20),(3,8)),(5,18))),(((7,14),((10,16),(19,(9,11)))),((12,(1,15)),(2,(4,17))))));
(21,((((3,8),(6,20)),(13,(5,18))),(((7,14),((10,16),(11,(9,19)))),((1,(12,15)),(2,(4,17))))));
(21,((12,(1,15)),((13,(((3,8),(6,20)),(5,18))),((2,(4,17)),((7,14),((19,(9,11)),(10,16)))))));
(21,(((7,14),((10,16),(11,(9,19)))),(((5,18),(13,(20,(6,(3,8))))),((12,(1,15)),(2,(4,17))))));
(21,(((20,(6,(3,8))),(13,(5,18))),(((7,14),(10,(16,(11,(9,19))))),((12,(1,15)),(2,(4,17))))));
(21,(((7,14),((10,16),(11,(9,19)))),((((3,6),(8,20)),(13,(5,18))),(2,((4,17),(1,(12,15)))))));
(21,(((5,(20,(8,(3,6)))),(13,18)),(((12,(1,15)),(2,(4,17))),(((10,16),(9,(11,19))),(7,14)))));
(21,((13,((8,(3,(6,20))),(5,18))),(((12,(1,15)),(2,(4,17))),((7,14),((9,19),(11,(10,16)))))));
(21,((7,14),((13,((6,(20,(3,8))),(5,18))),(((11,(9,19)),(10,16)),((12,(1,15)),(2,(4,17)))))));
(21,((((3,8),(6,20)),(13,(5,18))),(((7,14),((10,16),(11,(9,19)))),((12,(1,15)),(2,(4,17))))));
(21,((13,(5,(18,((3,8),(6,20))))),(((7,14),((10,16),(11,(9,19)))),((12,(1,15)),(2,(4,17))))));
(21,(((5,(8,(20,(3,6)))),(13,18)),(((7,14),((10,16),(11,(9,19)))),((12,(1,15)),(2,(4,17))))));
(21,((13,((20,(6,(3,8))),(5,18))),(((12,(1,15)),(2,(4,17))),((7,14),((10,16),(11,(9,19)))))));
(21,(((5,18),(13,(6,(3,(8,20))))),(((7,14),(10,(16,(11,(9,19))))),((12,(1,15)),(2,(4,17))))));
(21,(((12,(1,15)),(17,(2,4))),(((5,18),(13,(20,(6,(3,8))))),((16,((9,11),(10,19))),(7,14)))));
(21,(((7,14),((11,(9,19)),(10,16))),((13,((6,(20,(3,8))),(5,18))),((12,(1,15)),(2,(4,17))))));
(21,((5,(13,(18,(20,(6,(3,8)))))),(((7,14),((10,16),(19,(9,11)))),((12,(1,15)),(2,(4,17))))));
(21,((((3,6),(8,20)),(13,(5,18))),(((12,(1,15)),(2,(4,17))),(((10,16),(11,(9,19))),(7,14)))));
(21,((13,((6,(20,(3,8))),(5,18))),(((7,14),((10,16),(11,(9,19)))),((12,(1,15)),(2,(4,17))))));
(21,((13,(((3,8),(6,20)),(5,18))),(((7,14),((9,19),(11,(10,16)))),((12,(1,15)),(2,(4,17))))));
(21,(2,((13,((5,18),((3,8),(6,20)))),(((7,14),((10,16),(11,(9,19)))),((1,(12,15)),(4,17))))));
(21,(((5,18),(13,(6,(20,(3,8))))),(((4,17),(2,(15,(1,12)))),((7,14),(9,((10,16),(11,19)))))));
(21,((5,(13,(18,(20,(3,(6,8)))))),(((1,15),(12,(2,(4,17)))),(((9,11),(19,(10,16))),(7,14)))));
(21,(((7,14),((10,16),(9,(11,19)))),((13,((20,(6,(3,8))),(5,18))),((12,(1,15)),(2,(4,17))))));
(21,((16,(10,(11,(9,19)))),((13,((3,(8,(6,20))),(5,18))),((7,14),((12,(1,15)),(2,(4,17)))))));
(21,((13,((3,(20,(6,8))),(5,18))),(((15,(1,12)),(2,(4,17))),((7,14),((11,(9,19)),(10,16))))));
(21,(((12,(1,15)),(2,(4,17))),((13,((20,(6,(3,8))),(5,18))),((7,14),((10,16),(11,(9,19)))))));
(21,(((5,18),(13,((3,8),(6,20)))),(((11,(10,(16,(9,19)))),(7,14)),((12,(1,15)),(2,(4,17))))));
(21,(((20,(6,(3,8))),(13,(5,18))),(((7,14),(16,(10,(9,(11,19))))),((12,(1,15)),(2,(4,17))))));
(21,((2,(4,17)),((13,(18,(5,(3,(20,(6,8)))))),((12,(1,15)),((7,14),((10,16),(11,(9,19))))))));
(21,(((18,(6,(20,(3,8)))),(5,13)),(((10,16),(9,(11,19))),((7,14),((15,(1,12)),(2,(4,17)))))));
(21,(((7,14),((10,16),(11,(9,19)))),((13,((20,(6,(3,8))),(5,18))),((12,(1,15)),(2,(4,17))))));
(21,((13,((5,18),(20,(3,(6,8))))),(((7,14),((10,16),(11,(9,19)))),((12,(1,15)),(2,(4,17))))));
(21,(((7,14),((10,16),(11,(9,19)))),(((20,(3,(6,8))),(13,(5,18))),((12,(1,15)),(2,(4,17))))));
(21,((13,(((3,8),(6,20)),(5,18))),(((7,14),((10,16),(11,(9,19)))),(2,((4,17),(12,(1,15)))))));
(21,(((20,(3,(6,8))),(13,(5,18))),(((4,17),(12,(1,15))),(2,((7,14),((10,16),(11,(9,19))))))));
(21,(((12,(1,15)),(2,(4,17))),(((20,(6,(3,8))),(13,(5,18))),((7,14),((10,16),(11,(9,19)))))));
(21,(((18,(20,(6,(3,8)))),(5,13)),(((7,14),(10,(16,(11,(9,19))))),((15,(1,12)),(2,(4,17))))));
(21,(((5,18),(13,(3,(6,(8,20))))),(((7,14),((10,16),(11,(9,19)))),((12,(1,15)),(2,(4,17))))));
(21,((13,((20,(6,(3,8))),(5,18))),(((7,14),((11,(9,19)),(10,16))),((4,17),(2,(12,(1,15)))))));
(21,((13,((6,(20,(3,8))),(5,18))),(((10,16),(11,(9,19))),((7,14),((12,(1,15)),(2,(4,17)))))));
(21,(((7,14),(11,((10,16),(9,19)))),((13,((6,(20,(3,8))),(5,18))),((1,(12,15)),(2,(4,17))))));
(21,((13,(((3,8),(6,20)),(5,18))),(((1,(12,15)),(2,(4,17))),((7,14),((10,16),(9,(11,19)))))));
(21,(((7,14),((10,16),(11,(9,19)))),((13,(((3,8),(6,20)),(5,18))),((12,(1,15)),(2,(4,17))))));
(21,(((20,(8,(3,6))),(13,(5,18))),(((7,14),(11,((10,16),(9,19)))),((12,(1,15)),(2,(4,17))))));
(21,(((12,(1,15)),(2,(4,17))),((13,((3,(8,(6,20))),(5,18))),((7,14),((10,16),(11,(9,19)))))));
(21,(((6,(20,(3,8))),(13,(5,18))),(((12,(1,15)),(2,(4,17))),((7,14),((9,11),(19,(10,16)))))));
(21,((((10,16),(11,(9,19))),(7,14)),(((20,(8,(3,6))),(13,(5,18))),((4,17),(2,(1,(12,15)))))));
(21,(((7,14),((10,16),(11,(9,19)))),((5,((20,(6,(3,8))),(13,18))),((15,(1,12)),(2,(4,17))))));
(21,((13,((8,(20,(3,6))),(5,18))),(((7,14),((10,16),(11,(9,19)))),((1,(12,15)),(2,(4,17))))));
(21,((13,((5,18),(6,(20,(3,8))))),(((7,14),((10,16),(11,(9,19)))),((12,(1,15)),(2,(4,17))))));
(21,((13,((5,18),(6,(20,(3,8))))),(((7,14),((10,16),(11,(9,19)))),(2,((4,17),(12,(1,15)))))));
(21,(((5,(3,(20,(6,8)))),(13,18)),(((7,14),((10,16),(11,(9,19)))),((12,(1,15)),(2,(4,17))))));
(21,(((4,17),(2,(12,(1,15)))),((13,((3,(20,(6,8))),(5,18))),((7,14),((19,(9,11)),(10,16))))));
(21,((2,(4,17)),(((6,(20,(3,8))),(13,(5,18))),((12,(1,15)),((7,14),((10,16),(11,(9,19))))))));
(21,(((5,18),(13,((6,20),(3,8)))),(((12,(1,15)),(2,(4,17))),((7,14),((10,16),(11,(9,19)))))));
(21,((13,(((3,8),(6,20)),(5,18))),(((7,14),((10,16),(19,(9,11)))),((12,(1,15)),(2,(4,17))))));
(21,((13,((6,(20,(3,8))),(5,18))),(((1,(12,15)),(2,(4,17))),((7,14),(11,(10,(16,(9,19))))))));
(21,(((7,14),((10,16),(11,(9,19)))),((13,((6,(20,(3,8))),(5,18))),((12,(1,15)),(2,(4,17))))));
(21,((13,((20,(8,(3,6))),(5,18))),(((7,14),((10,16),(9,(11,19)))),((1,(12,15)),(2,(4,17))))));
(21,(((5,13),(18,((3,6),(8,20)))),(((7,14),((10,16),(19,(9,11)))),((15,(1,12)),(2,(4,17))))));
(21,((13,((3,8),((6,20),(5,18)))),((12,(1,15)),((2,(4,17)),((7,14),((10,16),(9,(11,19))))))));
(21,((((3,8),(6,20)),(13,(5,18))),(((12,(1,15)),(2,(4,17))),((7,14),(19,((10,16),(9,11)))))));
(21,((13,((6,(20,(3,8))),(5,18))),(((7,14),((9,19),(10,(11,16)))),((12,(1,15)),(2,(4,17))))));
(21,((18,(13,(5,((3,8),(6,20))))),(((7,14),((10,16),(11,(9,19)))),((4,17),(2,(12,(1,15)))))));
(21,((13,((5,18),((3,8),(6,20)))),(((7,14),(11,((10,16),(9,19)))),((12,(1,15)),(2,(4,17))))));
(21,((4,17),(((5,18),(13,((3,6),(8,20)))),((2,(1,(12,15))),((7,14),((9,19),(11,(10,16))))))));
(21,(((7,14),(11,((10,16),(9,19)))),(((6,(8,(3,20))),(13,(5,18))),((4,17),(2,(15,(1,12)))))));
(21,((18,(13,(5,((6,20),(3,8))))),(((15,(1,12)),(2,(4,17))),((7,14),((10,16),(11,(9,19)))))));
(21,(((5,18),(13,(20,(6,(3,8))))),(((12,(1,15)),(2,(4,17))),((7,14),((10,16),(11,(9,19)))))));
(21,(((5,18),(13,(6,(20,(3,8))))),(((7,14),((10,16),(9,(11,19)))),((12,(1,15)),(2,(4,17))))));
(21,(((5,18),(13,((3,8),(6,20)))),(((12,(1,15)),(2,(4,17))),((7,14),((9,19),(11,(10,16)))))));
(21,((2,(4,17)),((13,((8,(3,(6,20))),(5,18))),((1,(12,15)),((7,14),((10,16),(19,(9,11))))))));
(21,((((6,(3,8)),(5,18)),(13,20)),(((7,14),((9,(11,19)),(10,16))),((12,(1,15)),(2,(4,17))))));
(21,(((12,(1,15)),(2,(4,17))),((13,((20,(8,(3,6))),(5,18))),((7,14),((10,16),(11,(9,19)))))));
(21,(((20,(6,(3,8))),(13,(5,18))),(((17,(12,(1,15))),(2,4)),((7,14),((10,16),(9,(11,19)))))));
(21,(((18,(3,(20,(6,8)))),(5,13)),(((7,14),((10,16),(11,(9,19)))),((4,17),(2,(12,(1,15)))))));
(21,(((5,18),(13,(6,(8,(3,20))))),(((7,14),((11,(9,19)),(10,16))),((12,(1,15)),(2,(4,17))))));
(21,((13,(((3,8),(6,20)),(5,18))),(((12,(1,15)),(2,(4,17))),((7,14),((9,19),(11,(10,16)))))));
(21,(((7,14),((10,16),(19,(9,11)))),(((5,(20,(6,(3,8)))),(13,18)),((12,(1,15)),(2,(4,17))))));
(21,(((5,18),(13,((3,8),(6,20)))),(((7,14),((10,16),(9,(11,19)))),((4,17),(2,(12,(1,15)))))));
(21,((13,((6,(20,(3,8))),(5,18))),(((7,14),((10,16),(9,(11,19)))),((12,(1,15)),(2,(4,17))))));
(21,(((20,(6,(3,8))),(13,(5,18))),(((7,14),((10,16),(11,(9,19)))),((12,(1,15)),(2,(4,17))))));
(21,((((3,8),(6,20)),(13,(5,18))),(((7,14),((10,16),(11,(9,19)))),((12,(1,15)),(2,(4,17))))));
(21,((13,((5,18),(20,(6,(3,8))))),(((12,(1,15)),(2,(4,17))),(((10,16),(11,(9,19))),(7,14)))));
(21,(((4,17),(2,(12,(1,15)))),(((7,14),((9,19),(11,(10,16)))),(5,(13,(18,(6,(20,(3,8)))))))));
(21,(((5,(20,(6,(3,8)))),(13,18)),(((7,14),((9,19),(11,(10,16)))),((12,(1,15)),(2,(4,17))))));
(21,(((5,18),(13,(6,(8,(3,20))))),(((7,14),((10,16),(11,(9,19)))),((4,17),(2,(12,(1,15)))))));
(21,((18,(13,(5,(6,(20,(3,8)))))),(((7,14),((10,16),(11,(9,19)))),((12,(1,15)),(2,(4,17))))));
(21,(((13,18),(5,((6,8),(3,20)))),(((7,14),((10,16),(9,(11,19)))),((1,(12,15)),(2,(4,17))))));
(21,(((5,18),(13,(6,(20,(3,8))))),(((7,14),((10,16),(11,(9,19)))),((12,(1,15)),(2,(4,17))))));
(21,(((5,13),(18,((3,6),(8,20)))),(((12,(1,15)),(2,(4,17))),((7,14),((10,16),(11,(9,19)))))));
(21,((13,((5,18),((6,8),(3,20)))),(((7,14),((19,(9,11)),(10,16))),((12,(1,15)),(2,(4,17))))));
(21,((13,((3,8),((6,20),(5,18)))),(((7,14),((10,16),(11,(9,19)))),((15,(1,12)),(2,(4,17))))));
(21,((((3,6),(8,20)),(13,(5,18))),((((10,16),(19,(9,11))),(7,14)),((4,17),(2,(12,(1,15)))))));
(21,((13,((3,(6,(8,20))),(5,18))),(((7,14),((10,16),(11,(9,19)))),((12,(1,15)),(2,(4,17))))));
(21,(((5,18),(13,((3,8),(6,20)))),(((12,(1,15)),(2,(4,17))),((7,14),((10,16),(11,(9,19)))))));
(21,((13,((6,(20,(3,8))),(5,18))),(((12,(1,15)),(2,(4,17))),((7,14),(10,(16,(11,(9,19))))))));
(21,((13,((5,18),((3,8),(6,20)))),(((19,((10,16),(9,11))),(7,14)),((4,17),(2,(12,(1,15)))))));
(21,(((15,(1,12)),(2,(4,17))),(((5,18),(13,((6,8),(3,20)))),((7,14),((11,(9,19)),(10,16))))));
(21,((((3,6),(8,20)),(13,(5,18))),(((7,14),((10,16),(11,(9,19)))),(2,((4,17),(15,(1,12)))))));
(21,(((5,18),(13,(3,(6,(8,20))))),((12,(1,15)),((2,(4,17)),((7,14),((10,16),(19,(9,11))))))));
(21,(((5,18),(13,(6,(20,(3,8))))),(((7,14),((10,(9,19)),(11,16))),((12,(1,15)),(2,(4,17))))));
(21,((13,((5,18),(3,(20,(6,8))))),(((12,(1,15)),(2,(4,17))),((7,14),(11,((10,16),(9,19)))))));
(((13,((20,(8,(3,6))),(5,18))),(((7,14),((11,(9,19)),(10,16))),((4,17),(2,(12,(1,15)))))),21);
(21,((13,((6,(20,(3,8))),(5,18))),(((7,14),((10,16),(19,(9,11)))),((12,(1,15)),(2,(4,17))))));
(21,(((16,(10,(11,(9,19)))),(7,14)),(((3,13),((20,(6,8)),(5,18))),((12,(1,15)),(2,(4,17))))));
(21,(((3,8),((5,18),(13,(6,20)))),(((12,(1,15)),(2,(4,17))),(((11,(9,19)),(10,16)),(7,14)))));
(21,((((3,8),(6,20)),(13,(5,18))),((2,(4,17)),((12,(1,15)),((7,14),((11,(9,19)),(10,16)))))));
(21,(((3,(6,(8,20))),(13,(5,18))),(((7,14),((19,(9,11)),(10,16))),((12,(1,15)),(2,(4,17))))));
(21,(((5,18),(13,(3,(20,(6,8))))),(((12,(1,15)),(2,(4,17))),((7,14),(16,(10,(11,(9,19))))))));
(21,(((5,18),(13,((3,8),(6,20)))),(((7,14),((9,19),(11,(10,16)))),(2,((4,17),(12,(1,15)))))));
(21,((2,(12,(1,15))),(((20,(3,(6,8))),(13,(5,18))),((4,17),((7,14),((11,(9,19)),(10,16)))))));
(21,((13,((6,(8,(3,20))),(5,18))),(((7,14),((11,(9,19)),(10,16))),((12,(1,15)),(2,(4,17))))));
(21,((((3,8),(6,20)),(13,(5,18))),((12,(1,15)),((2,(4,17)),((7,14),((10,16),(11,(9,19))))))));
(21,(((7,14),((10,16),(9,(11,19)))),(((6,(20,(3,8))),(13,(5,18))),((4,17),(2,(12,(1,15)))))));
((((12,(1,15)),(2,(4,17))),(((5,18),(13,((3,8),(6,20)))),((7,14),((10,16),(11,(9,19)))))),21);
(21,((2,(4,17)),(((5,18),(13,((3,8),(6,20)))),((12,(1,15)),((7,14),((10,16),(19,(9,11))))))));
(21,(((6,8),(13,((3,20),(5,18)))),((2,((4,17),(12,(1,15)))),((7,14),((10,16),(11,(9,19)))))));
(21,(((5,18),(13,((3,8),(6,20)))),(((7,14),((10,16),(11,(9,19)))),((12,(1,15)),(2,(4,17))))));
(21,(((7,14),((10,16),(9,(11,19)))),(((5,18),(13,(6,(20,(3,8))))),((12,(1,15)),(2,(4,17))))));
(21,(((6,20),(13,((3,8),(5,18)))),((4,((12,(1,15)),(2,17))),((7,14),((10,16),(11,(9,19)))))));
(21,(((20,(6,(3,8))),(13,(5,18))),(((7,14),((11,(9,19)),(10,16))),((12,(1,15)),(2,(4,17))))));
(21,((13,((8,(6,(3,20))),(5,18))),(((7,14),((10,16),(11,(9,19)))),((12,(1,15)),(2,(4,17))))));
(21,((13,(((3,8),(6,20)),(5,18))),(((12,(1,15)),(2,(4,17))),((7,14),((10,16),(19,(9,11)))))));
(21,((13,((6,(8,(3,20))),(5,18))),(((7,14),(10,(16,(11,(9,19))))),((12,(1,15)),(2,(4,17))))));
(21,((13,(((3,20),(6,8)),(5,18))),(((7,14),((11,(9,19)),(10,16))),((12,(1,15)),(2,(4,17))))));
(21,(((5,18),(13,(20,(8,(3,6))))),((2,((4,17),(12,(1,15)))),((7,14),((10,16),(11,(9,19)))))));
(21,((((3,8),(6,20)),(13,(5,18))),((2,((4,17),(15,(1,12)))),((7,14),((10,16),(9,(11,19)))))));
(21,((13,((20,(6,(3,8))),(5,18))),(((7,14),((10,16),(11,(9,19)))),((12,(1,15)),(2,(4,17))))));
(21,((13,((6,(3,8)),(20,(5,18)))),(((12,(1,15)),(2,(4,17))),((7,14),((10,16),(9,(11,19)))))));
(21,(((6,(20,(3,8))),(13,(5,18))),(((7,14),((10,16),(11,(9,19)))),((12,(1,15)),(2,(4,17))))));
(21,(((7,14),((10,16),(19,(9,11)))),((13,(18,(5,(20,(6,(3,8)))))),((4,17),(2,(12,(1,15)))))));
(21,(((5,18),(13,(20,(6,(3,8))))),(((15,(1,12)),(2,(4,17))),((7,14),((10,16),(11,(9,19)))))));
(21,(((18,((6,8),(3,20))),(5,13)),(((15,(1,12)),(2,(4,17))),((7,14),((11,(9,19)),(10,16))))));
(21,(((5,18),(13,(20,(3,(6,8))))),(((7,14),(11,((10,16),(9,19)))),((15,(1,12)),(2,(4,17))))));
(21,((13,((20,(6,(3,8))),(5,18))),(((12,(1,15)),(2,(4,17))),((7,14),((10,16),(19,(9,11)))))));
(21,((18,((20,(8,(3,6))),(5,13))),(((7,14),((11,(9,19)),(10,16))),((15,(1,12)),(2,(4,17))))));
(21,(((7,14),((11,(9,19)),(10,16))),(((5,18),(13,(20,(6,(3,8))))),((2,(4,17)),(12,(1,15))))));
(21,(((5,18),(13,((3,8),(6,20)))),(((7,14),(19,((10,16),(9,11)))),((12,(1,15)),(2,(4,17))))));
(21,(((5,18),(13,((3,8),(6,20)))),((12,(1,15)),((2,(4,17)),((7,14),((11,(9,19)),(10,16)))))));
(21,((13,(((3,8),(6,20)),(5,18))),(((7,14),((10,16),(11,(9,19)))),((12,(1,15)),(2,(4,17))))));
(21,(((5,18),(13,((3,8),(6,20)))),((((10,16),(11,(9,19))),(7,14)),((12,(1,15)),(2,(4,17))))));
(21,((13,((20,(6,(3,8))),(5,18))),(((12,(1,15)),(2,(4,17))),((7,14),((10,16),(11,(9,19)))))));
(21,(((20,(6,(3,8))),(13,(5,18))),(((12,(1,15)),(2,(4,17))),((7,14),((10,16),(19,(9,11)))))));
(21,(((18,(20,(8,(3,6)))),(5,13)),(((12,(1,15)),(2,(4,17))),((7,14),((11,(9,19)),(10,16))))));
(21,(((5,18),(13,(8,(6,(3,20))))),(((7,14),((10,16),(11,(9,19)))),((1,(12,15)),(2,(4,17))))));
(21,(((20,(3,(6,8))),(13,(5,18))),(((7,14),((11,(9,19)),(10,16))),((12,(1,15)),(2,(4,17))))));
(21,((13,(5,(18,(6,(20,(3,8)))))),(((7,14),(16,(10,(9,(11,19))))),((1,(12,15)),(2,(4,17))))));
(21,((13,((6,(20,(3,8))),(5,18))),(((7,14),((10,16),(11,(9,19)))),((12,(1,15)),(2,(4,17))))));
(21,(((7,14),((10,16),(19,(9,11)))),((13,(5,(18,(20,(8,(3,6)))))),((12,(1,15)),(2,(4,17))))));
(21,(((20,(6,(3,8))),(13,(5,18))),((((10,16),(9,(11,19))),(7,14)),((12,(1,15)),(2,(4,17))))));
(21,((13,(((3,6),(8,20)),(5,18))),(((7,14),((10,16),(11,(9,19)))),((12,(1,15)),(2,(4,17))))));
(21,(((5,18),((8,(3,6)),(13,20))),(((12,(1,15)),(2,(4,17))),((7,14),((11,(9,19)),(10,16))))));
(21,((13,((6,(3,(8,20))),(5,18))),((2,(4,17)),((12,(1,15)),(((10,16),(11,(9,19))),(7,14))))));
(21,((13,((3,(20,(6,8))),(5,18))),((2,((15,(1,12)),(4,17))),((7,14),((11,19),(16,(9,10)))))));
(21,((13,((8,(6,(3,20))),(5,18))),(((12,(1,15)),(2,(4,17))),((7,14),((10,16),(19,(9,11)))))));
(21,((((6,8),(5,18)),(13,(3,20))),((1,(12,15)),((2,(4,17)),((7,14),((10,16),(11,(9,19))))))));
(21,(((5,18),(13,(6,(3,(8,20))))),(((7,14),((10,16),(19,(9,11)))),((12,(1,15)),(2,(4,17))))));
(21,((13,((5,18),(20,(6,(3,8))))),(((7,14),((10,16),(11,(9,19)))),((12,(1,15)),(2,(4,17))))));
(21,(((20,(6,(3,8))),(13,(5,18))),(((1,(12,15)),(2,(4,17))),((7,14),((10,16),(11,(9,19)))))));
(21,(((12,(1,15)),(2,(4,17))),(((5,18),(13,(6,(20,(3,8))))),((7,14),((10,16),(11,(9,19)))))));
(21,(((6,(20,(3,8))),(5,(13,18))),(((7,14),((10,16),(11,(9,19)))),((12,(1,15)),(2,(4,17))))));
(21,((13,(5,(18,(8,(3,(6,20)))))),((2,(4,17)),((12,(1,15)),((10,16),((7,14),(11,(9,19))))))));
(21,(((12,(1,15)),(2,(4,17))),((13,((6,(20,(3,8))),(5,18))),((7,14),((10,16),(11,(9,19)))))));
(21,((13,((5,18),((3,8),(6,20)))),(((7,14),((10,16),(9,(11,19)))),((4,17),(2,(12,(1,15)))))));
(21,((13,(18,(5,(6,(3,(8,20)))))),(((7,14),((10,16),(11,(9,19)))),((12,(1,15)),(2,(4,17))))));
(21,(((7,14),((10,16),(11,(9,19)))),((13,(18,(5,(6,(8,(3,20)))))),((12,(1,15)),(2,(4,17))))));
(21,(((5,18),(13,((3,6),(8,20)))),(((7,14),((10,16),(19,(9,11)))),((12,(1,15)),(2,(4,17))))));
(21,(((15,(1,12)),(2,(4,17))),((13,(((3,6),(8,20)),(5,18))),((7,14),((10,16),(11,(9,19)))))));
(21,((13,((20,(6,(3,8))),(5,18))),(((12,(1,15)),(2,(4,17))),((7,14),((10,16),(11,(9,19)))))));
(21,((((7,14),((10,16),(11,(9,19)))),((12,(1,15)),(2,(4,17)))),((20,(6,(3,8))),(13,(5,18)))));
(21,(((6,(20,(3,8))),(13,(5,18))),(((7,14),(16,(10,(11,(9,19))))),((12,(1,15)),(2,(4,17))))));
(21,(((7,14),((10,11),(16,(9,19)))),(((5,18),(13,((3,8),(6,20)))),((12,(1,15)),(2,(4,17))))));
(21,(((5,18),(13,(6,(20,(3,8))))),(((7,14),((10,16),(11,(9,19)))),(2,((15,(1,12)),(4,17))))));
(21,((13,((8,20),((3,6),(5,18)))),(((12,(1,15)),(2,(4,17))),((7,14),((11,(9,19)),(10,16))))));
(21,(((5,18),(13,(20,(3,(6,8))))),(((7,14),((10,16),(11,(9,19)))),((12,(1,15)),(2,(4,17))))));
(21,(((20,(6,(3,8))),(13,(5,18))),(((11,((9,19),(10,16))),(7,14)),((12,(1,15)),(2,(4,17))))));
(21,((13,((20,(6,(3,8))),(5,18))),(((10,16),(11,(9,19))),((7,14),((12,(1,15)),(2,(4,17)))))));
(21,(((2,(4,17)),((7,14),((10,16),(11,(9,19))))),((12,(1,15)),(13,(((3,8),(6,20)),(5,18))))));
(21,((13,((3,(20,(6,8))),(5,18))),(((12,(1,15)),(2,(4,17))),((7,14),(16,(10,(11,(9,19))))))));
(21,(((4,17),(12,(1,15))),(((7,14),((9,19),(11,(10,16)))),(2,(13,((6,(20,(3,8))),(5,18)))))));
(21,((13,((5,18),(6,(8,(3,20))))),(((12,(1,15)),(2,(4,17))),((7,14),((10,16),(11,(9,19)))))));
(21,((13,((5,18),(20,(6,(3,8))))),(((7,14),((9,(11,19)),(10,16))),((12,(1,15)),(2,(4,17))))));
(21,((((3,8),(6,20)),(13,(5,18))),((2,((4,17),(15,(1,12)))),((7,14),((10,16),(11,(9,19)))))));
(21,((13,((20,(6,(3,8))),(5,18))),(((7,14),((10,16),(11,(9,19)))),(2,((4,17),(12,(1,15)))))));
(21,(((6,(20,(3,8))),(13,(5,18))),((11,((10,16),(9,19))),(((12,(1,15)),(4,17)),(2,(7,14))))));
(21,(((7,14),(10,(16,(11,(9,19))))),((5,(13,(18,(3,(20,(6,8)))))),((1,(12,15)),(2,(4,17))))));
(21,(((5,18),(13,(6,(20,(3,8))))),(((7,14),((10,16),(11,(9,19)))),((12,(1,15)),(2,(4,17))))));
(21,(((6,(20,(3,8))),(13,(5,18))),(((12,(1,15)),(4,(2,17))),((7,14),(10,(16,(11,(9,19))))))));
(21,(((20,(6,(3,8))),(13,(5,18))),(((7,14),((10,16),(19,(9,11)))),((15,(1,12)),(2,(4,17))))));
(21,((13,((20,(6,(3,8))),(5,18))),(((7,14),((9,19),(11,(10,16)))),((12,(1,15)),(2,(4,17))))));
(21,((7,14),(((20,(6,(3,8))),(13,(5,18))),(((11,(9,19)),(10,16)),((12,(1,15)),(2,(4,17)))))));
(21,(((12,(1,15)),(2,(4,17))),((13,((20,(6,(3,8))),(5,18))),((7,14),((10,16),(11,(9,19)))))));
(21,((2,((12,(1,15)),(4,17))),(((5,18),(13,(6,(20,(3,8))))),((7,14),((10,16),(11,(9,19)))))));
(21,((13,((20,(8,(3,6))),(5,18))),(((7,14),(11,((9,19),(10,16)))),((1,(12,15)),(2,(4,17))))));
(21,((13,((20,(6,(3,8))),(5,18))),(((12,(1,15)),(2,(4,17))),((7,14),((10,16),(11,(9,19)))))));
(21,(((7,14),((9,19),(11,(10,16)))),((5,((3,6),((8,20),(13,18)))),((1,(12,15)),(2,(4,17))))));
(21,(((13,18),(5,(3,(20,(6,8))))),((11,((10,16),(9,19))),((7,14),((12,(1,15)),(2,(4,17)))))));
(21,(((7,14),((10,16),(11,(9,19)))),((13,(((6,8),(3,20)),(5,18))),((12,(1,15)),(2,(4,17))))));
(21,(((5,18),(13,(6,(20,(3,8))))),(((7,14),((10,16),(19,(9,11)))),((12,(1,15)),(2,(4,17))))));
(21,((13,((5,18),(20,(6,(3,8))))),(((7,14),((10,16),(19,(9,11)))),((12,(1,15)),(2,(4,17))))));
(21,((13,((5,18),((6,8),(3,20)))),(((7,14),((10,16),(11,(9,19)))),((1,(12,15)),(2,(4,17))))));
(21,(((5,18),(13,((3,20),(6,8)))),(((12,(1,15)),(2,(4,17))),((7,14),((10,16),(11,(9,19)))))));
(21,(((6,(3,(8,20))),(13,(5,18))),((2,(4,17)),((12,(1,15)),((7,14),((19,(9,11)),(10,16)))))));
(21,((((3,6),(8,20)),(13,(5,18))),(((7,14),(11,((9,19),(10,16)))),((1,(12,15)),(2,(4,17))))));
(21,((13,(5,(18,(8,(6,(3,20)))))),((((11,(9,19)),(10,16)),(7,14)),((12,(1,15)),(2,(4,17))))));
(21,(((7,14),((10,16),(11,(9,19)))),((13,(((3,8),(6,20)),(5,18))),((12,(1,15)),(2,(4,17))))));
(21,((((3,8),(6,20)),(13,(5,18))),(((2,(4,17)),(12,(1,15))),((7,14),(19,((9,11),(10,16)))))));
(21,(((5,18),(13,(6,(20,(3,8))))),(((7,14),(10,(16,(11,(9,19))))),((1,(12,15)),(2,(4,17))))));
(21,(((12,(1,15)),(2,(4,17))),(((5,18),(13,(6,(20,(3,8))))),((7,14),((10,16),(11,(9,19)))))));
(21,((18,(5,(13,(20,(6,(3,8)))))),(((12,(1,15)),(2,(4,17))),((7,14),(11,((10,16),(9,19)))))));
(21,((13,((5,18),(20,(6,(3,8))))),(((7,14),((10,16),(19,(9,11)))),((12,(1,15)),(2,(4,17))))));
(21,(((8,20),((5,18),(13,(3,6)))),(((12,(1,15)),(2,(4,17))),((7,14),((10,16),(11,(9,19)))))));
(21,(((5,13),(18,(20,(6,(3,8))))),(((12,(1,15)),(2,(4,17))),((7,14),((10,16),(11,(9,19)))))));
(21,((13,((8,(20,(3,6))),(5,18))),(((4,17),(2,(12,(1,15)))),((7,14),((10,16),(11,(9,19)))))));
(21,((13,(((3,6),(8,20)),(5,18))),(((7,14),((9,19),(11,(10,16)))),((4,17),(2,(12,(1,15)))))));
(21,((7,14),((((6,20),(3,8)),(13,(5,18))),(((10,16),(11,(9,19))),((4,17),(2,(12,(1,15))))))));
(21,(((10,16),(11,(9,19))),((13,(((8,20),(3,6)),(5,18))),((7,14),((1,(12,15)),(2,(4,17)))))));
(21,(((5,18),(13,(20,(6,(3,8))))),(((7,14),((9,11),(19,(10,16)))),((4,17),(2,(12,(1,15)))))));
(21,((13,(((3,8),(6,20)),(5,18))),(((7,14),((10,16),(11,(9,19)))),((12,(1,15)),(2,(4,17))))));
(21,(((13,18),((3,8),(5,(6,20)))),(((7,14),(11,((9,19),(10,16)))),((12,(1,15)),(2,(4,17))))));
(21,(((5,(3,(20,(6,8)))),(13,18)),(((7,14),(11,((9,19),(10,16)))),((15,(1,12)),(2,(4,17))))));
(21,((13,((6,(20,(3,8))),(5,18))),(((7,14),((10,16),(11,(9,19)))),((12,(1,15)),(2,(4,17))))));
(21,(((7,14),((10,16),(11,(9,19)))),(((5,18),(13,((6,8),(3,20)))),(2,((4,17),(12,(1,15)))))));
(21,((((3,8),(6,20)),(13,(5,18))),(((7,14),((10,16),(11,(9,19)))),((12,(1,15)),(2,(4,17))))));
(21,(((5,18),(13,(6,(20,(3,8))))),(((7,14),((10,16),(19,(9,11)))),(2,((12,(1,15)),(4,17))))));
(21,(((5,18),(13,(20,(6,(3,8))))),((2,((4,17),(12,(1,15)))),((7,14),((9,19),(11,(10,16)))))));
(21,((13,((20,(8,(3,6))),(5,18))),(((7,14),((10,16),(11,(9,19)))),((12,(1,15)),(2,(4,17))))));
(21,(((15,(1,12)),(2,(4,17))),(((18,((3,20),(6,8))),(5,13)),(((10,16),(19,(9,11))),(7,14)))));
(21,((13,((20,(6,(3,8))),(5,18))),((7,14),(((9,11),(19,(10,16))),((12,(1,15)),(2,(4,17)))))));
(21,((13,((3,(20,(6,8))),(5,18))),(((7,14),((9,19),(11,(10,16)))),((12,(1,15)),(2,(4,17))))));
(21,(((5,18),(13,((3,8),(6,20)))),(((12,(1,15)),(2,(4,17))),((7,14),((10,16),(19,(9,11)))))));
(21,(((10,16),((7,14),(11,(9,19)))),(((12,(1,15)),(2,(4,17))),(18,(5,(13,(20,(6,(3,8)))))))));
(21,(((20,(6,(3,8))),(13,(5,18))),(((12,(1,15)),(2,(4,17))),((7,14),((10,16),(11,(9,19)))))));
(21,((13,((6,(20,(3,8))),(5,18))),(((7,14),((10,16),(9,(11,19)))),((1,(12,15)),(2,(4,17))))));
(21,((13,((5,18),((6,20),(3,8)))),(((7,14),((10,16),(19,(9,11)))),(2,((4,17),(12,(1,15)))))));
(21,(((5,18),(13,(20,(6,(3,8))))),(((12,(1,15)),(2,(4,17))),((7,14),((10,16),(11,(9,19)))))));
(21,((13,((20,(6,(3,8))),(5,18))),(((7,14),((11,(9,19)),(10,16))),((12,(1,15)),(2,(4,17))))));
(21,(((7,14),((10,16),(11,(9,19)))),((13,(((6,8),(3,20)),(5,18))),((12,(1,15)),(2,(4,17))))));
(21,((13,((20,(6,(3,8))),(5,18))),(((12,(1,15)),(2,(4,17))),((7,14),(16,(10,(11,(9,19))))))));
(21,(((3,(8,(6,20))),(13,(5,18))),((2,(4,17)),((12,(1,15)),((7,14),((11,(9,19)),(10,16)))))));
(21,(((13,(6,(20,(3,8)))),(5,18)),(((7,14),((10,16),(11,(9,19)))),((4,17),(2,(12,(1,15)))))));
(21,((13,((20,(6,(3,8))),(5,18))),(((7,14),((10,16),(11,(9,19)))),((12,(1,15)),(2,(4,17))))));
(21,(((5,18),(13,(20,(6,(3,8))))),(((12,(1,15)),(2,(4,17))),(((10,16),(9,(11,19))),(7,14)))));
(21,(((6,20),(13,((3,8),(5,18)))),(((7,14),((10,16),(19,(9,11)))),((12,(1,15)),(2,(4,17))))));
(21,(((6,(20,(3,8))),(13,(5,18))),(((7,14),(11,((9,19),(10,16)))),(2,((4,17),(15,(1,12)))))));
(21,(((5,18),(13,((8,20),(3,6)))),(((7,14),(19,((10,16),(9,11)))),((4,17),(2,(12,(1,15)))))));
(21,(((6,(20,(3,8))),(13,(5,18))),(((7,14),((19,(9,11)),(10,16))),(2,((4,17),(12,(1,15)))))));
(21,(((5,18),(13,((3,8),(6,20)))),(((12,(1,15)),(2,(4,17))),((10,16),((7,14),(11,(9,19)))))));
(21,((13,(((3,8),(6,20)),(5,18))),(((7,14),((10,16),(11,(9,19)))),((12,(1,15)),(2,(4,17))))));
(21,((13,((20,(8,(3,6))),(5,18))),(((7,14),((9,19),(11,(10,16)))),((12,(1,15)),(2,(4,17))))));
(21,(((7,14),(16,(11,(10,(9,19))))),((13,(((3,8),(6,20)),(5,18))),((12,(1,15)),(2,(4,17))))));
(21,((13,((6,(20,(3,8))),(5,18))),(((7,14),(11,((10,16),(9,19)))),((1,(12,15)),(2,(4,17))))));
(21,(((6,(20,(3,8))),(13,(5,18))),(((2,(4,17)),(12,(1,15))),((7,14),((11,(9,19)),(10,16))))));
(21,((1,(12,15)),(((7,14),((10,16),(11,(9,19)))),((2,(4,17)),(((3,8),(6,20)),(13,(5,18)))))));
(21,(((5,18),(13,(20,(6,(3,8))))),(((7,14),((19,(9,11)),(10,16))),(2,((4,17),(12,(1,15)))))));
(21,(((6,(20,(3,8))),(13,(5,18))),(((7,14),(9,((11,19),(10,16)))),((12,(1,15)),(2,(4,17))))));
(21,((13,((6,(20,(3,8))),(5,18))),(((7,14),((10,16),(11,(9,19)))),((12,(1,15)),(2,(4,17))))));
(21,((13,((20,(6,(3,8))),(5,18))),(((7,14),(9,((10,16),(11,19)))),((12,(1,15)),(2,(4,17))))));
(21,((13,((6,(8,(3,20))),(5,18))),(((7,14),((10,16),(11,(9,19)))),((12,(1,15)),(2,(4,17))))));
(21,((13,((20,(6,(3,8))),(5,18))),(((12,(1,15)),(2,(4,17))),((7,14),(10,(16,(11,(9,19))))))));
(21,((13,(5,(18,(20,(6,(3,8)))))),(((7,14),(11,((10,16),(9,19)))),((12,(1,15)),(2,(4,17))))));
(21,((13,(((3,8),(6,20)),(5,18))),(((12,(1,15)),(2,(4,17))),((7,14),((10,16),(19,(9,11)))))));
(21,((13,(((3,20),(6,8)),(5,18))),(((7,14),((10,16),(9,(11,19)))),((4,17),(2,(12,(1,15)))))));
(21,((13,((5,18),((6,20),(3,8)))),(((7,14),((9,19),(11,(10,16)))),((12,(1,15)),(2,(4,17))))));
(21,(((7,14),((10,16),(11,(9,19)))),((5,(13,(18,(6,(20,(3,8)))))),((12,(1,15)),(2,(4,17))))));
(21,(((7,14),(2,(12,(1,15)))),((4,17),((16,(10,(11,(9,19)))),(((8,(6,20)),(5,18)),(3,13))))));
(21,(((20,(6,(3,8))),(13,(5,18))),(((7,14),((10,16),(19,(9,11)))),((12,(1,15)),(2,(4,17))))));
(21,((13,((8,(20,(3,6))),(5,18))),(((7,14),((11,(9,19)),(10,16))),((12,(1,15)),(2,(4,17))))));
(21,((13,((20,(3,8)),(6,(5,18)))),((((10,16),(11,(9,19))),(7,14)),((1,(12,15)),(2,(4,17))))));
(21,(((5,18),(13,((3,6),(8,20)))),(((7,14),((11,(9,19)),(10,16))),((15,(1,12)),(2,(4,17))))));
(21,((13,((6,(20,(3,8))),(5,18))),(((7,14),((10,16),(11,(9,19)))),((12,(1,15)),(2,(4,17))))));
(21,((((6,8),(3,20)),(13,(5,18))),(((1,(12,15)),(2,(4,17))),((7,14),((10,16),(11,(9,19)))))));
(21,((((3,6),(8,20)),(13,(5,18))),(((7,14),((10,16),(11,(9,19)))),((4,17),(2,(12,(1,15)))))));
(21,(((20,(8,(3,6))),(13,(5,18))),(((7,14),((10,16),(9,(11,19)))),((12,(1,15)),(2,(4,17))))));
(21,(((7,14),((9,19),(11,(10,16)))),(((6,(20,(3,8))),(13,(5,18))),((1,(12,15)),(2,(4,17))))));
(21,((13,((5,18),((3,8),(6,20)))),((2,(12,(1,15))),((4,17),((7,14),(16,((9,19),(10,11))))))));
(21,(((12,(1,15)),(2,(4,17))),(((18,(3,(20,(6,8)))),(5,13)),((7,14),(11,((9,19),(10,16)))))));
(21,(((12,(1,15)),(2,(4,17))),((13,((8,(6,(3,20))),(5,18))),((7,14),((10,16),(9,(11,19)))))));
(21,(((5,18),(13,(8,(20,(3,6))))),(((7,14),((11,(9,19)),(10,16))),((4,17),(2,(12,(1,15)))))));
(21,((5,(18,(13,((3,20),(6,8))))),((2,(4,17)),((12,(1,15)),((11,(9,19)),((10,16),(7,14)))))));
(21,((1,(12,15)),(((5,((6,20),(3,8))),(13,18)),((2,(4,17)),((7,14),((10,16),(11,(9,19))))))));
(21,((13,((20,(6,(3,8))),(5,18))),(((12,(1,15)),(2,(4,17))),((7,14),((10,16),(11,(9,19)))))));
(21,((18,((5,(3,8)),(13,(6,20)))),((2,((12,(1,15)),(4,17))),((7,14),(10,(16,(11,(9,19))))))));
(21,(((5,18),(13,(20,(3,(6,8))))),(((7,14),((10,16),(11,(9,19)))),((2,(4,17)),(12,(1,15))))));
(21,(((7,14),((10,16),(11,(9,19)))),(((5,18),(13,(20,(8,(3,6))))),((2,(4,17)),(12,(1,15))))));
(21,((13,((6,(20,(3,8))),(5,18))),(((12,(1,15)),(2,(4,17))),((7,14),((10,16),(11,(9,19)))))));
(21,(((3,(6,(8,20))),(18,(5,13))),(((7,14),((10,16),(11,(9,19)))),((15,(1,12)),(2,(4,17))))));
(21,(((6,(20,(3,8))),(13,(5,18))),(((7,14),((11,(9,19)),(10,16))),((4,17),(2,(12,(1,15)))))));
(21,(((5,18),(13,((3,8),(6,20)))),(((7,14),((10,16),(11,(9,19)))),((12,(1,15)),(2,(4,17))))));
(21,(((7,14),(11,((9,19),(10,16)))),(((6,(20,(3,8))),(13,(5,18))),((12,(1,15)),(2,(4,17))))));
(21,(((7,14),((10,16),(11,(9,19)))),((13,(18,(5,(6,(20,(3,8)))))),((12,(1,15)),(2,(4,17))))));
(21,((13,(((3,8),(6,20)),(5,18))),(((7,14),(11,((9,19),(10,16)))),((12,(1,15)),(2,(4,17))))));
(21,(((18,((3,8),(6,20))),(5,13)),(((7,14),((11,(9,19)),(10,16))),((12,(1,15)),(2,(4,17))))));
(21,(((7,14),((10,16),(11,(9,19)))),(((20,(6,(3,8))),(13,(5,18))),((12,(1,15)),(2,(4,17))))));
(21,(((7,14),((10,16),(11,(9,19)))),(((12,(1,15)),(2,(4,17))),(((3,6),(8,20)),(13,(5,18))))));
(21,((13,((6,8),((3,20),(5,18)))),(((7,14),((10,16),(9,(11,19)))),((12,(1,15)),(2,(4,17))))));
(21,(((20,(8,(3,6))),(13,(5,18))),(((7,14),((10,16),(11,(9,19)))),((12,(1,15)),(2,(4,17))))));
(21,((13,((20,(6,(3,8))),(5,18))),(((7,14),(16,(10,(9,(11,19))))),(2,((12,(1,15)),(4,17))))));
(21,((13,((20,(6,(3,8))),(5,18))),(((7,14),((10,16),(11,(9,19)))),((4,17),(2,(12,(1,15)))))));
(21,((13,((5,18),(6,(20,(3,8))))),((7,14),(((10,16),(11,(9,19))),((12,(1,15)),(2,(4,17)))))));
(21,(((20,(6,(3,8))),(13,(5,18))),(((15,(1,12)),(2,(4,17))),((7,14),((10,16),(11,(9,19)))))));
(21,((13,(((3,8),(6,20)),(5,18))),(((7,14),((10,16),(9,(11,19)))),(2,((4,17),(12,(1,15)))))));
(21,(((5,(20,(8,(3,6)))),(13,18)),(((12,(1,15)),(2,(4,17))),((7,14),((11,(9,19)),(10,16))))));
(21,(((20,(6,(3,8))),(13,(5,18))),(((1,(12,15)),(2,(4,17))),((7,14),((10,16),(11,(9,19)))))));
(21,(((1,(12,15)),(2,(4,17))),(((5,18),(13,(3,(20,(6,8))))),((7,14),((10,16),(11,(9,19)))))));
(21,(((4,17),(2,(12,(1,15)))),(((6,(20,(3,8))),(13,(5,18))),((7,14),((10,16),(19,(9,11)))))));
(21,((13,((8,(20,(3,6))),(5,18))),(((7,14),((11,(9,19)),(10,16))),((4,17),(2,(12,(1,15)))))));
(21,(((7,14),((11,(9,19)),(10,16))),(((6,(20,(3,8))),(13,(5,18))),((4,17),(2,(12,(1,15)))))));
(21,(((6,(20,(3,8))),(5,(13,18))),(((7,14),((11,(9,19)),(10,16))),((1,(12,15)),(2,(4,17))))));
(21,(((20,(6,(3,8))),(13,(5,18))),(((7,14),((10,16),(11,(9,19)))),((12,(1,15)),(2,(4,17))))));
(21,(((13,((6,20),(3,8))),(5,18)),(((12,(1,15)),(2,(4,17))),(((10,16),(9,(11,19))),(7,14)))));
(21,(((5,18),(13,(8,(20,(3,6))))),(((12,(1,15)),(2,(4,17))),((7,14),((10,16),(11,(9,19)))))));
(21,(((20,(6,(3,8))),(13,(5,18))),(((15,(1,12)),(2,(4,17))),((7,14),((11,(9,19)),(10,16))))));
(21,(((3,(6,(8,20))),(13,(5,18))),(((12,(1,15)),(2,(4,17))),((7,14),((9,19),(11,(10,16)))))));
(21,(((4,17),(2,(12,(1,15)))),((13,(((6,20),(3,8)),(5,18))),((7,14),((10,16),(11,(9,19)))))));
(21,((18,(13,(5,((3,8),(6,20))))),(((12,(1,15)),(17,(2,4))),((7,14),((10,16),(11,(9,19)))))));
(21,(((5,18),(13,(8,(6,(3,20))))),(((7,14),((10,16),(11,(9,19)))),(2,((12,(1,15)),(4,17))))));
(21,((13,((6,(3,8)),(20,(5,18)))),(((7,14),(10,(16,(11,(9,19))))),((12,(1,15)),(2,(4,17))))));
(21,(((12,(1,15)),(2,(4,17))),((((6,(3,8)),(5,18)),(13,20)),((7,14),(9,((10,16),(11,19)))))));
(21,(((11,((10,16),(9,19))),((12,(1,15)),(2,(4,17)))),((7,14),(5,((8,(20,(3,6))),(13,18))))));
(21,(((8,(20,(3,6))),(13,(5,18))),(((12,(1,15)),(2,(4,17))),((7,14),((9,11),(19,(10,16)))))));
(21,(((5,18),(13,((8,20),(3,6)))),((2,((12,(1,15)),(4,17))),((7,14),(16,(10,(11,(9,19))))))));
(21,(((5,18),(13,(20,(6,(3,8))))),((7,14),(((10,16),(19,(9,11))),((12,(1,15)),(2,(4,17)))))));
(21,((((3,6),(8,20)),(13,(5,18))),(((7,14),((10,16),(19,(9,11)))),((15,(1,12)),(2,(4,17))))));
(21,((13,(5,(18,((3,8),(6,20))))),(((7,14),((11,(9,19)),(10,16))),((12,(1,15)),(2,(4,17))))));
(21,(((5,18),(13,((3,8),(6,20)))),(((10,(16,(11,(9,19)))),(7,14)),(2,((4,17),(12,(1,15)))))));
(21,(((12,(1,15)),(2,(4,17))),((13,((20,(6,(3,8))),(5,18))),(((10,16),(11,(9,19))),(7,14)))));
(21,(((7,14),((10,16),(11,(9,19)))),(((6,(20,(3,8))),(13,(5,18))),((4,17),(2,(12,(1,15)))))));
(21,(((8,(5,(3,(6,20)))),(13,18)),(((10,16),((7,14),(11,(9,19)))),((12,(1,15)),(2,(4,17))))));
(21,((((6,20),(3,8)),(5,(13,18))),(((7,14),((9,(11,19)),(10,16))),((12,(1,15)),(2,(4,17))))));
(21,((13,(((6,20),(3,8)),(5,18))),(((7,14),((10,16),(9,(11,19)))),((12,(1,15)),(2,(4,17))))));
(21,(((20,(6,(3,8))),(13,(5,18))),(((10,(16,(11,(9,19)))),(7,14)),((12,(1,15)),(2,(4,17))))));
(21,(((5,18),(13,((3,8),(6,20)))),(((10,16),(19,(9,11))),((7,14),((15,(1,12)),(2,(4,17)))))));
(21,(((7,14),(10,(16,(19,(9,11))))),((13,(18,(5,(6,(8,(3,20)))))),((12,(1,15)),(2,(4,17))))));
(21,(((20,(8,(3,6))),(13,(5,18))),(((7,14),((10,16),(11,(9,19)))),((12,(1,15)),(2,(4,17))))));
(21,(2,(((5,18),(13,(20,(6,(3,8))))),(((7,14),((10,16),(11,(9,19)))),((4,17),(12,(1,15)))))));
(21,((((3,8),(6,20)),(13,(5,18))),(((7,14),(10,(16,(19,(9,11))))),((12,(1,15)),(4,(2,17))))));
(21,((18,(13,(5,(6,(20,(3,8)))))),(((7,14),((10,16),(11,(9,19)))),((12,(1,15)),(2,(4,17))))));
(21,(((12,(1,15)),(2,(4,17))),((13,((5,18),(20,(6,(3,8))))),((7,14),(11,((9,19),(10,16)))))));
(21,(((3,(20,(6,8))),(13,(5,18))),(((7,14),((10,16),(11,(9,19)))),((15,(1,12)),(2,(4,17))))));
(21,(((6,(3,(8,20))),(13,(5,18))),(((12,(1,15)),(2,(4,17))),((7,14),((11,19),(9,(10,16)))))));
(21,((((10,16),(11,(9,19))),(7,14)),(((5,18),(13,(6,(20,(3,8))))),((12,(1,15)),(2,(4,17))))));
(21,((((12,(1,15)),(2,(4,17))),((7,14),((10,16),(11,(9,19))))),((20,(6,(3,8))),(5,(13,18)))));
(21,(((1,(12,15)),(2,(4,17))),((13,(5,(18,(20,(6,(3,8)))))),((7,14),((19,(9,11)),(10,16))))));
(21,((13,((6,(20,(3,8))),(5,18))),((((10,16),(9,(11,19))),(7,14)),((12,(1,15)),(2,(4,17))))));
(21,((13,((6,(8,(3,20))),(5,18))),(((7,14),(16,(11,(10,(9,19))))),((12,(1,15)),(2,(4,17))))));
(21,(((12,(1,15)),(2,(4,17))),(((6,(20,(3,8))),(13,(5,18))),(((10,16),(11,(9,19))),(7,14)))));
(21,((((3,8),(6,20)),(13,(5,18))),(((7,14),((10,16),(11,(9,19)))),((12,(1,15)),(2,(4,17))))));
(21,(((5,18),(13,((3,8),(6,20)))),(((7,14),((11,(9,19)),(10,16))),((15,(1,12)),(2,(4,17))))));
(21,(((18,((6,20),(3,8))),(5,13)),(((12,(1,15)),(2,(4,17))),((7,14),((10,16),(11,(9,19)))))));
(21,(((12,(1,15)),(2,(4,17))),(((5,18),(13,(20,(6,(3,8))))),((7,14),((10,16),(11,(9,19)))))));
(21,((13,((6,(20,(3,8))),(5,18))),((12,(1,15)),((2,(4,17)),((7,14),(11,((10,16),(9,19))))))));
(21,(((7,14),((11,(9,19)),(10,16))),(((5,18),(13,((3,8),(6,20)))),((4,17),(2,(12,(1,15)))))));
(21,(((12,(1,15)),(2,(4,17))),(((5,18),(13,(6,(20,(3,8))))),((7,14),((10,16),(19,(9,11)))))));
(21,(((7,14),((10,16),(11,(9,19)))),(((5,18),(13,(20,(6,(3,8))))),(2,((4,17),(15,(1,12)))))));
(21,(((5,18),(13,((3,8),(6,20)))),(((12,(1,15)),(2,(4,17))),(((10,16),(11,(9,19))),(7,14)))));
(21,(((10,16),(11,(9,19))),((13,(((8,20),(3,6)),(5,18))),((15,(1,12)),((7,14),(2,(4,17)))))));
(21,((13,((20,(6,(3,8))),(5,18))),(((7,14),((19,(9,11)),(10,16))),((15,(1,12)),(2,(4,17))))));
(21,((6,(13,((20,(3,8)),(5,18)))),(((7,14),(16,(10,(11,(9,19))))),((12,(1,15)),(2,(4,17))))));
(21,(((5,18),(13,((3,8),(6,20)))),(((15,(1,12)),(2,(4,17))),((11,((9,19),(10,16))),(7,14)))));
(21,(((18,(20,(8,(3,6)))),(5,13)),((7,14),(((11,(9,19)),(10,16)),(2,((4,17),(12,(1,15))))))));
(21,((13,((20,(6,(3,8))),(5,18))),(((7,14),((10,16),(11,(9,19)))),((12,(1,15)),(2,(4,17))))));
(21,(((5,18),(13,(20,(6,(3,8))))),(((12,(1,15)),(2,(4,17))),((7,14),((9,11),(19,(10,16)))))));
(21,(((7,14),((9,(11,19)),(10,16))),(((20,(8,(3,6))),(13,(5,18))),((12,(1,15)),(2,(4,17))))));
(21,(((7,14),(19,((10,16),(9,11)))),((13,((6,(20,(3,8))),(5,18))),((1,(12,15)),(2,(4,17))))));
(21,(((4,17),(2,(12,(1,15)))),(((10,16),(11,(9,19))),((7,14),((20,(6,(3,8))),(13,(5,18)))))));
(21,((13,(((3,8),(6,20)),(5,18))),((15,(1,12)),((7,14),((10,(16,(11,(9,19)))),(2,(4,17)))))));
(21,((5,(18,(13,(6,(20,(3,8)))))),(((7,14),(11,((9,19),(10,16)))),((12,(1,15)),(2,(4,17))))));
(21,(((18,(3,(20,(6,8)))),(5,13)),(((12,(1,15)),(2,(4,17))),((7,14),((10,16),(11,(9,19)))))));
(21,(((20,(6,(3,8))),(13,(5,18))),((((10,16),(11,(9,19))),(7,14)),((12,(1,15)),(2,(4,17))))));
(21,(((5,18),(13,((3,8),(6,20)))),(((12,(1,15)),(2,(4,17))),((7,14),((10,16),(9,(11,19)))))));
(21,((13,(((3,8),(6,20)),(5,18))),(((7,14),((10,16),(11,(9,19)))),((12,(1,15)),(2,(4,17))))));
(21,(((5,18),(13,((8,20),(3,6)))),((2,(4,17)),((12,(1,15)),((7,14),((10,16),(11,(9,19))))))));
(21,((18,(13,(5,(8,(20,(3,6)))))),((2,((12,(1,15)),(4,17))),((7,14),((10,16),(11,(9,19)))))));
(21,(((6,(3,8)),(13,(20,(5,18)))),(((7,14),((10,16),(9,(11,19)))),((15,(1,12)),(2,(4,17))))));
(21,((((3,8),(6,20)),(13,(5,18))),(((12,(1,15)),(2,(4,17))),((7,14),((10,16),(11,(9,19)))))));
(21,(((5,18),(13,(20,(8,(3,6))))),((12,(1,15)),(((7,14),((10,16),(11,(9,19)))),(2,(4,17))))));
(21,(((3,(20,(6,8))),(13,(5,18))),(((7,14),(16,(10,(11,(9,19))))),((12,(1,15)),(2,(4,17))))));
(21,(13,(((7,14),((9,19),(11,(10,16)))),((((3,8),(6,20)),(5,18)),((15,(1,12)),(2,(4,17)))))));
(21,((13,((20,(6,(3,8))),(5,18))),(((12,(1,15)),(2,(4,17))),((7,14),((10,16),(11,(9,19)))))));
(21,((13,((6,(3,(8,20))),(5,18))),((12,(1,15)),((2,(4,17)),((7,14),((10,16),(11,(9,19))))))));
(21,((13,(((6,8),(3,20)),(5,18))),(((7,14),((10,16),(11,(9,19)))),((12,(1,15)),(2,(4,17))))));
(21,((((3,8),(6,20)),(13,(5,18))),(((7,14),((10,16),(11,(9,19)))),(2,((4,17),(12,(1,15)))))));
(21,(((7,14),((10,16),(19,(9,11)))),((13,(((3,8),(6,20)),(5,18))),((15,(1,12)),(2,(4,17))))));
(21,(((20,(8,(3,6))),(5,(13,18))),(((12,(1,15)),(2,(4,17))),((7,14),((10,11),(16,(9,19)))))));
(21,((13,((8,(20,(3,6))),(5,18))),(((7,14),((11,(9,19)),(10,16))),((12,(1,15)),(2,(4,17))))));
(21,(((7,14),((10,16),(11,(9,19)))),((13,((20,(6,(3,8))),(5,18))),((12,(1,15)),(2,(4,17))))));
(21,((7,14),(((12,(1,15)),(2,(4,17))),(((10,16),(19,(9,11))),((20,(3,(6,8))),(13,(5,18)))))));
(21,(((7,14),((10,16),(19,(9,11)))),((5,((20,(6,(3,8))),(13,18))),((12,(1,15)),(2,(4,17))))));
(21,((13,((6,(20,(3,8))),(5,18))),(((7,14),((10,16),(9,(11,19)))),((4,17),(2,(12,(1,15)))))));
(21,(((5,18),(13,(6,(20,(3,8))))),(((12,(1,15)),(2,(4,17))),((7,14),(19,((10,16),(9,11)))))));
(21,(((13,(6,(20,(3,8)))),(5,18)),(((7,14),((10,16),(11,(9,19)))),((12,(1,15)),(2,(4,17))))));
(21,(((7,14),((10,16),(11,(9,19)))),((((3,8),(6,20)),(13,(5,18))),((12,(1,15)),(2,(4,17))))));
(21,((13,((20,(6,(3,8))),(5,18))),(((7,14),((10,16),(11,(9,19)))),((12,(1,15)),(2,(4,17))))));
(21,(((12,(1,15)),(2,(4,17))),(((5,18),(13,(6,(8,(3,20))))),((7,14),((10,16),(11,(9,19)))))));
(21,((13,(((3,8),(6,20)),(5,18))),(((7,14),((10,16),(19,(9,11)))),((4,17),(2,(1,(12,15)))))));
(21,(((7,14),((9,(11,19)),(10,16))),((13,((3,(20,(6,8))),(5,18))),((12,(1,15)),(2,(4,17))))));
(21,(((5,18),(13,(3,(20,(6,8))))),((2,(4,17)),((12,(1,15)),((7,14),((10,16),(9,(11,19))))))));
(21,((((3,8),(6,20)),(13,(5,18))),((2,(4,17)),((12,(1,15)),((7,14),((10,16),(11,(9,19))))))));
(21,(((3,(20,(6,8))),(13,(5,18))),((2,(4,17)),((12,(1,15)),((7,14),((10,16),(11,(9,19))))))));
(21,((13,(18,(5,(20,(8,(3,6)))))),(((7,14),((10,16),(9,(11,19)))),((12,(1,15)),(2,(4,17))))));
(21,(((5,13),(18,(8,(20,(3,6))))),(((7,14),((11,(9,19)),(10,16))),((1,(12,15)),(2,(4,17))))));
(21,(((6,(20,(3,8))),(13,(5,18))),(((7,14),((10,16),(11,(9,19)))),((12,(1,15)),(2,(4,17))))));
(21,((13,((5,18),(8,(20,(3,6))))),((2,(4,17)),((12,(1,15)),((7,14),((10,16),(11,(9,19))))))));
(21,(((5,18),(13,((6,8),(3,20)))),(((1,(12,15)),(2,(4,17))),((7,14),((10,16),(11,(9,19)))))));
