(21,((14,(6,(10,19))),((11,18),(((2,12),(1,8)),(((4,((7,20),(15,16))),(5,9)),(3,(13,17)))))));
(21,((3,(13,17)),((19,(14,(6,10))),((9,(5,(7,(4,(20,(15,16)))))),((11,18),((1,8),(2,12)))))));
(21,((19,(10,(6,14))),(((5,(9,((20,(7,16)),(4,15)))),((11,18),((1,8),(2,12)))),(3,(13,17)))));
(21,(3,(((6,10),(14,19)),((13,17),(((11,18),((2,12),(1,8))),(20,((4,(7,(15,16))),(5,9))))))));
(21,(((6,10),(14,19)),(3,(((20,(5,(9,((15,16),(4,7))))),((11,18),((1,8),(2,12)))),(13,17)))));
(21,(3,(((14,19),(6,10)),((((2,12),(1,8)),((11,18),((4,(7,(15,16))),(20,(5,9))))),(13,17)))));
(21,((14,(19,(6,10))),((20,((9,(5,(4,(7,(15,16))))),((11,18),((2,12),(1,8))))),(3,(13,17)))));
(21,(((6,10),(14,19)),((3,(13,17)),(((4,(16,(20,(7,15)))),(5,9)),(((1,8),(2,12)),(11,18))))));
(21,((10,(6,(14,19))),(3,((13,17),(((11,18),((2,12),(1,8))),(20,((4,(7,(15,16))),(5,9))))))));
(21,(((14,19),(6,10)),(3,((13,17),(((4,(20,(7,(15,16)))),(5,9)),((11,18),((1,8),(2,12))))))));
(21,((19,(14,(6,10))),(((11,18),((2,12),(1,8))),((13,17),(3,(20,((4,(7,(15,16))),(5,9))))))));
(21,(((6,19),(10,14)),(3,(((11,18),((2,12),(1,8))),((13,17),((15,(7,16)),(20,(5,(4,9)))))))));
(21,((19,(14,(6,10))),(((2,12),(1,8)),(((11,18),(((7,20),(4,(15,16))),(5,9))),(3,(13,17))))));
(21,(((6,10),(14,19)),(((20,(5,(9,(4,(7,(15,16)))))),((11,18),((2,12),(1,8)))),(3,(13,17)))));
(21,(((6,10),(14,19)),(((11,18),(((1,8),(2,12)),(20,((7,16),((4,15),(5,9)))))),(3,(13,17)))));
(21,((14,(19,(6,10))),((13,17),(3,(((2,12),(1,8)),((11,18),(20,((4,(7,(15,16))),(5,9)))))))));
(21,(((((11,18),((2,12),(1,8))),((4,(7,(15,16))),(20,(5,9)))),(3,17)),(13,((14,19),(6,10)))));
(21,(((14,19),(6,10)),((17,((5,(9,(4,(20,(7,(15,16)))))),((11,18),((2,12),(1,8))))),(3,13))));
(21,(((6,19),(10,14)),((((11,18),((2,12),(1,8))),(20,((4,(7,(15,16))),(5,9)))),(3,(13,17)))));
(21,(((6,10),(14,19)),((13,17),(3,((20,((4,(7,(15,16))),(5,9))),((11,18),((2,12),(1,8))))))));
(21,((10,(14,(6,19))),((20,((4,16),(9,(5,(7,15))))),(3,((13,17),((11,18),((2,12),(1,8))))))));
(21,((((1,8),(2,12)),((4,(7,20)),((15,16),(5,9)))),((10,(6,(14,19))),((11,18),(3,(13,17))))));
(21,((10,(6,(14,19))),((20,((11,18),((1,8),(2,12)))),((9,(5,(4,(7,(15,16))))),(3,(13,17))))));
(21,(((6,10),(14,19)),(((11,18),((1,8),(2,12))),((13,17),(3,(20,((4,(15,(7,16))),(5,9))))))));
(21,(((6,14),(10,19)),(((20,((4,(15,(7,16))),(5,9))),((11,18),((2,12),(1,8)))),(3,(13,17)))));
(21,(((6,10),(14,19)),((20,(9,(5,(4,(7,(15,16)))))),((13,17),(3,((11,18),((2,12),(1,8))))))));
(21,(((14,19),(6,10)),((((11,18),((2,12),(1,8))),(5,(20,((7,(15,16)),(4,9))))),(3,(13,17)))));
(21,(((6,10),(14,19)),(13,(17,(3,((20,(5,(9,(4,(7,(15,16)))))),((8,(2,12)),(1,(11,18)))))))));
(21,((19,(14,(6,10))),((13,17),(3,(((11,18),(2,(12,(1,8)))),(20,(9,(5,(4,(7,(15,16)))))))))));
(21,((19,(14,(6,10))),((13,17),(3,((20,((4,(7,(15,16))),(5,9))),((11,18),(1,(8,(2,12)))))))));
(21,(((10,14),(6,19)),((13,17),(3,(((4,(7,(20,(15,16)))),(5,9)),((11,18),((2,12),(1,8))))))));
(21,((10,(6,(14,19))),((13,17),(3,(((11,18),((1,8),(2,12))),((9,(4,(7,(15,16)))),(5,20)))))));
(((6,(10,(14,19))),(((1,8),(2,12)),(((11,18),(20,(5,(9,(4,(7,(15,16))))))),(3,(13,17))))),21);
(21,((3,((11,18),((2,12),(1,8)))),((19,(14,(6,10))),((13,17),(20,(4,((7,(15,16)),(5,9))))))));
(21,(((6,10),(14,19)),(3,((13,17),((11,18),(((2,12),(1,8)),(20,(9,(5,(4,(7,(15,16))))))))))));
(21,(((6,19),(10,14)),((13,17),(((11,18),((1,8),(2,12))),(3,((5,9),(20,((15,16),(4,7)))))))));
(21,(((6,10),(14,19)),(((5,(4,(20,(7,(15,16))))),(9,((11,18),((2,12),(1,8))))),(3,(13,17)))));
(21,(((6,10),(14,19)),(((20,(7,(9,(5,(4,(15,16)))))),((11,18),((1,8),(2,12)))),(3,(13,17)))));
(21,(((6,10),(14,19)),(3,((13,17),(((4,((15,16),(7,20))),(5,9)),((11,18),((1,8),(2,12))))))));
(21,(((6,10),(14,19)),(3,(((11,18),(((2,12),(1,8)),(20,(5,(9,(4,(7,(15,16)))))))),(13,17)))));
(21,((14,(10,(6,19))),(((11,18),(((2,12),(1,8)),(20,(5,(9,((15,16),(4,7))))))),(3,(13,17)))));
(21,(((10,14),(6,19)),(3,((13,17),(((2,12),(1,8)),((11,18),((5,9),(20,(4,(16,(7,15)))))))))));
(21,((19,(10,(6,14))),(3,((13,17),((20,((4,(7,(15,16))),(5,9))),((11,18),((2,12),(1,8))))))));
(21,((10,(19,(6,14))),((20,(((4,(7,(15,16))),(5,9)),((11,18),((1,8),(2,12))))),(3,(13,17)))));
(21,((13,(3,17)),((10,(6,(14,19))),((8,(1,(2,12))),(20,((11,18),((4,(7,(15,16))),(5,9))))))));
(21,(((10,14),(6,19)),((20,(((4,(7,(15,16))),(5,9)),((11,18),((2,12),(1,8))))),(3,(13,17)))));
(21,(((6,19),(10,14)),((((1,8),(2,12)),((4,(15,(20,(7,16)))),(5,9))),(3,((11,18),(13,17))))));
(21,((10,(6,(14,19))),(((20,(4,(5,(9,(7,(15,16)))))),((11,18),((1,8),(2,12)))),(3,(13,17)))));
(21,(((14,19),(6,10)),((13,17),(3,((20,((15,(4,(7,16))),(5,9))),((11,18),((1,8),(2,12))))))));
(21,(((14,19),(6,10)),(((11,18),((2,12),(1,8))),(((4,(20,(7,(15,16)))),(5,9)),(3,(13,17))))));
(21,((10,(6,(14,19))),((3,13),(17,((11,18),(((2,12),(1,8)),(20,((4,(7,(15,16))),(5,9)))))))));
(21,((19,(14,(6,10))),((((11,18),((2,12),(1,8))),((5,((7,16),(4,15))),(9,20))),(3,(13,17)))));
(21,((14,(19,(6,10))),(((11,18),(5,(9,(4,(20,(7,(15,16))))))),(3,(13,(17,((2,12),(1,8))))))));
(21,(((6,10),(14,19)),((((4,((15,16),(7,20))),(5,9)),((11,18),((2,12),(1,8)))),(3,(13,17)))));
(21,((6,(14,(10,19))),(3,((13,17),(((11,18),((1,8),(2,12))),(20,((4,(7,(15,16))),(5,9))))))));
(21,((10,(6,(14,19))),((((11,18),((2,12),(1,8))),(20,((4,(7,(15,16))),(5,9)))),(3,(13,17)))));
(21,((19,(14,(6,10))),((((15,16),(5,9)),(20,(4,7))),(3,(((1,8),((2,12),(11,18))),(13,17))))));
(21,((14,(6,(10,19))),((13,17),(3,(((11,18),((2,12),(1,8))),(20,((4,(7,(15,16))),(5,9))))))));
(21,(((6,10),(14,19)),(((13,17),(((4,(7,(15,16))),(5,9)),((1,8),((11,18),(2,12))))),(3,20))));
(21,(((13,17),((9,(5,((20,(15,16)),(4,7)))),((11,18),((2,12),(1,8))))),(3,(14,(10,(6,19))))));
(21,((10,(14,(6,19))),((((2,12),(1,8)),(20,((4,(7,(15,16))),(5,9)))),((11,18),(3,(13,17))))));
(21,((((2,12),(1,8)),(20,(5,(9,(4,(7,(15,16))))))),((6,(10,(14,19))),(3,((11,18),(13,17))))));
(21,((10,(6,(14,19))),((11,18),((((2,12),(1,8)),(20,(9,(5,(4,(16,(7,15))))))),(3,(13,17))))));
(21,(((14,19),(6,10)),((13,(((4,(7,(15,16))),(20,(5,9))),((11,18),((1,8),(2,12))))),(3,17))));
(21,((19,(14,(6,10))),((13,17),(3,((9,(5,((16,20),(4,(7,15))))),((11,18),(2,(12,(1,8)))))))));
(21,((6,(10,(14,19))),(3,((13,17),((11,18),(((2,12),(1,8)),((5,9),(20,(4,(7,(15,16)))))))))));
(21,(((6,10),(14,19)),(((20,(5,((4,7),(9,(15,16))))),((11,18),((1,8),(2,12)))),(3,(13,17)))));
(21,((10,(6,(14,19))),(((20,(5,(9,(4,(7,(15,16)))))),((11,18),((1,8),(2,12)))),(3,(13,17)))));
(21,((10,(6,(14,19))),((13,17),(3,((((2,12),(1,8)),(5,(9,(4,(7,(15,16)))))),(20,(11,18)))))));
(21,((19,(6,(10,14))),((13,17),(3,((11,18),(((1,8),(2,12)),(20,(5,(9,(4,(7,(15,16))))))))))));
(21,((19,(14,(6,10))),((13,17),(3,(((11,18),((1,8),(2,12))),(20,((4,(7,(15,16))),(5,9))))))));
(21,((6,(10,(14,19))),((3,(13,17)),((5,(9,(4,(20,(7,(15,16)))))),((11,18),(1,(8,(2,12))))))));
(21,((14,(19,(6,10))),(3,(17,(13,((((1,8),(2,12)),(11,18)),(20,((4,(7,(15,16))),(5,9)))))))));
(21,((14,(19,(6,10))),(((20,((7,(4,(15,16))),(5,9))),((11,18),((1,8),(2,12)))),(3,(13,17)))));
(21,(((6,10),(14,19)),((3,(20,(9,(5,(15,(4,(7,16))))))),(((11,18),((1,8),(2,12))),(13,17)))));
(21,((19,(10,(6,14))),(3,((13,17),((20,((4,(7,(15,16))),(5,9))),((11,18),((2,12),(1,8))))))));
(21,((19,(14,(6,10))),((3,((11,18),(20,(5,9)))),((13,17),((4,(7,(15,16))),((1,8),(2,12)))))));
(21,(((10,14),(6,19)),((13,17),(3,(20,(((4,(7,(15,16))),(5,9)),((11,18),((1,8),(2,12)))))))));
(21,(((6,10),(14,19)),(((20,(9,(5,((15,16),(4,7))))),((11,18),(1,(8,(2,12))))),(3,(13,17)))));
(21,((19,(14,(6,10))),((((11,18),((1,8),(2,12))),(20,((4,(7,(15,16))),(5,9)))),(3,(13,17)))));
(21,((((1,8),(2,12)),((11,18),(20,((4,(7,(15,16))),(5,9))))),((14,(19,(6,10))),(3,(13,17)))));
(21,((14,(19,(6,10))),((13,17),(3,((20,((4,(7,(15,16))),(5,9))),((11,18),((2,12),(1,8))))))));
(21,((19,(14,(6,10))),(3,((13,17),(((2,12),(1,8)),((11,18),(20,((5,9),(4,(7,(15,16)))))))))));
(21,(3,(((6,10),(14,19)),((20,((2,12),(1,8))),((13,17),((11,18),(9,(5,(4,(7,(15,16)))))))))));
(21,(((6,10),(14,19)),(((9,(5,(4,(20,(7,(15,16)))))),((11,18),(1,(8,(2,12))))),(3,(13,17)))));
(21,((14,(6,(10,19))),((20,(9,(5,(4,(15,(7,16)))))),(((11,18),((1,8),(2,12))),(3,(13,17))))));
(21,(((6,10),(14,19)),(((11,18),(((2,12),(1,8)),(20,((4,(7,(15,16))),(5,9))))),(3,(13,17)))));
(21,((14,(19,(6,10))),(((11,18),((2,12),(1,8))),(3,(((5,9),((7,15),(4,(16,20)))),(13,17))))));
(21,((19,(14,(6,10))),(((9,(5,((15,16),(4,(7,20))))),((11,18),((2,12),(1,8)))),(3,(13,17)))));
(21,((14,(19,(6,10))),((3,13),(17,((((7,16),(4,15)),(5,9)),(20,((11,18),((2,12),(1,8)))))))));
(21,(((6,10),(14,19)),(3,((13,17),(((4,(15,(7,16))),(20,(5,9))),(((2,12),(1,8)),(11,18)))))));
(21,(((6,10),(14,19)),((20,((5,9),(15,(4,(7,16))))),(3,(((11,18),((2,12),(1,8))),(13,17))))));
(21,((10,(6,(14,19))),((13,17),(3,((11,18),((8,(1,(2,12))),((4,(7,(15,16))),(20,(5,9)))))))));
(21,((10,(19,(6,14))),(3,((13,17),((2,12),(((4,(20,(7,(15,16)))),(5,9)),((11,18),(1,8))))))));
(21,((6,(10,(14,19))),(((11,18),(1,(8,(2,12)))),(((5,9),(20,(4,(7,(15,16))))),(3,(13,17))))));
(21,(((14,19),(6,10)),((3,(20,((4,(16,(7,15))),(5,9)))),(((11,18),((1,8),(2,12))),(13,17)))));
(21,((10,(14,(6,19))),((13,(11,18)),(3,(17,(((2,12),(1,8)),(5,(9,((7,(15,16)),(4,20))))))))));
(21,(((6,10),(14,19)),((13,17),(3,(((4,((15,16),(7,20))),(5,9)),((11,18),((2,12),(1,8))))))));
(21,((19,(6,(10,14))),(3,((13,17),((20,((4,(7,(15,16))),(5,9))),((11,18),((1,8),(2,12))))))));
(21,(((6,10),(14,19)),((13,17),((11,18),(3,((1,(8,(2,12))),(5,(9,((7,(15,16)),(4,20))))))))));
(21,((6,(19,(10,14))),((13,17),(3,((11,18),(((2,12),(1,8)),(20,((4,(7,(15,16))),(5,9)))))))));
(21,((3,(((9,(7,(4,(15,16)))),(5,20)),((11,18),((2,12),(1,8))))),(((6,10),(14,19)),(13,17))));
(21,((19,(14,(6,10))),(3,((13,17),((5,(9,(20,(4,(7,(15,16)))))),((11,18),((2,12),(1,8))))))));
(21,(((6,14),(10,19)),((13,17),(3,(((20,(4,(7,(15,16)))),(5,9)),((11,18),((1,8),(2,12))))))));
(21,((10,(6,(14,19))),((13,17),(3,((20,(4,(7,(15,16)))),(((1,8),(2,12)),((11,18),(5,9))))))));
(21,((19,(14,(6,10))),(((20,(4,((7,(15,16)),(5,9)))),((11,18),((2,12),(1,8)))),(3,(13,17)))));
(21,(((20,((2,12),((1,8),(11,18)))),(13,17)),((19,(10,(6,14))),(3,(5,(9,(4,(7,(15,16)))))))));
(21,((14,(19,(6,10))),(((20,((4,(7,(15,16))),(5,9))),((11,18),(2,(12,(1,8))))),(13,(3,17)))));
(21,(((10,14),(6,19)),(13,(3,(17,((20,(9,((4,(15,16)),(5,7)))),((11,18),((2,12),(1,8)))))))));
(21,((19,(6,(10,14))),(3,((((2,12),(11,18)),((1,8),(20,(5,(9,(4,(7,(15,16)))))))),(13,17)))));
(21,((13,((11,18),(((2,12),(1,8)),(20,(9,(5,(4,(7,(15,16))))))))),(((6,10),(14,19)),(3,17))));
(21,((14,(19,(6,10))),(((4,(7,(15,16))),(20,(5,9))),((13,17),(3,((11,18),((2,12),(1,8))))))));
(21,((6,(19,(10,14))),(((20,(9,(5,(4,(7,(15,16)))))),((11,18),((1,8),(2,12)))),(3,(13,17)))));
(21,(((10,19),(6,14)),((3,((11,18),(((2,12),(1,8)),(7,((4,(15,16)),(5,9)))))),(20,(13,17)))));
(21,((19,(10,(6,14))),((3,(20,(5,(9,(4,(15,(7,16))))))),((13,17),((11,18),((2,12),(1,8)))))));
(21,(((10,14),(6,19)),(3,((13,17),((20,(5,(9,(4,(7,(15,16)))))),((11,18),((2,12),(1,8))))))));
(21,(((6,19),(10,14)),((20,(((2,12),(1,8)),((11,18),((4,(7,(15,16))),(5,9))))),(17,(3,13)))));
(21,((19,(14,(6,10))),(3,((13,17),(((11,18),((2,12),(1,8))),(20,((4,(7,(15,16))),(5,9))))))));
(21,((((5,(4,(7,(15,16)))),(9,20)),(3,((11,18),((2,12),(1,8))))),((10,(19,(6,14))),(13,17))));
(21,((19,(14,(6,10))),((13,17),(3,((9,(5,(4,((15,16),(7,20))))),((11,18),((2,12),(1,8))))))));
(21,(13,(((14,19),(6,10)),((((11,18),((2,12),(1,8))),(20,(5,(9,(4,(7,(15,16))))))),(3,17)))));
(21,(((6,14),(10,19)),(3,(((1,8),(2,12)),(((11,18),(20,(9,(5,(4,(16,(7,15))))))),(13,17))))));
(21,((13,17),(((14,19),(6,10)),(3,(5,((9,(4,(20,(7,(15,16))))),((2,12),((1,8),(11,18)))))))));
(21,(((13,17),(((11,18),((1,8),(2,12))),((5,9),(20,(4,(7,(15,16))))))),(3,(10,(6,(14,19))))));
(21,(((6,10),(14,19)),(((20,((4,(7,(15,16))),(5,9))),((11,18),((2,12),(1,8)))),(3,(13,17)))));
(21,((6,(19,(10,14))),((13,17),(3,((11,18),((1,(8,(2,12))),(5,((4,(16,(7,15))),(9,20)))))))));
(21,(((6,10),(14,19)),(((20,((4,9),(5,(7,(15,16))))),(((2,12),(1,8)),(11,18))),(3,(13,17)))));
(21,((3,((2,(12,(1,8))),(20,((7,(4,(15,16))),(5,9))))),((19,(14,(6,10))),((11,18),(13,17)))));
(21,(((14,19),(6,10)),((((16,(4,(7,15))),(20,(5,9))),((11,18),((1,8),(2,12)))),(3,(13,17)))));
(21,(((6,19),(10,14)),((13,17),(3,((20,((7,(15,16)),(5,(4,9)))),((11,18),((2,12),(1,8))))))));
(21,((9,(5,((15,16),(4,7)))),(((6,10),(14,19)),((20,((11,18),((1,8),(2,12)))),(17,(3,13))))));
(21,((14,(19,(6,10))),((((11,18),((2,12),(1,8))),(20,((4,(7,(15,16))),(5,9)))),(3,(13,17)))));
(21,(((14,19),(6,10)),(((11,18),(20,(5,(9,(4,(7,(15,16))))))),(3,(((1,8),(2,12)),(13,17))))));
(21,((14,(19,(6,10))),((13,17),(3,(((5,9),(20,(4,(7,(15,16))))),((11,18),((1,8),(2,12))))))));
(21,((6,(10,(14,19))),(((2,12),((1,8),(11,18))),(3,((20,(9,(5,(7,(4,(15,16)))))),(13,17))))));
(21,(((6,14),(10,19)),(((20,((4,(7,(15,16))),(5,9))),((11,18),((2,12),(1,8)))),(3,(13,17)))));
(21,(((6,10),(14,19)),((3,(13,17)),((1,(8,(2,12))),((11,18),((9,20),(5,(4,(7,(15,16))))))))));
(21,(((6,19),(10,14)),(((13,17),(20,((11,18),((2,12),(1,8))))),(3,((4,(7,(15,16))),(5,9))))));
(21,((6,(10,(14,19))),(3,((13,17),((((15,16),(7,20)),(4,(5,9))),((11,18),((1,8),(2,12))))))));
(21,((((11,18),((2,12),(1,8))),(3,(20,(5,(9,(4,(7,(15,16)))))))),((10,(6,(14,19))),(13,17))));
(21,(((10,19),(6,14)),((13,17),(3,((9,(20,(5,(4,(7,(15,16)))))),((11,18),((2,12),(1,8))))))));
(21,(((14,19),(6,10)),((3,17),(13,((20,((4,(7,(15,16))),(5,9))),((11,18),(1,(8,(2,12)))))))));
(21,((10,(6,(14,19))),(17,((((4,20),(9,(5,(7,(15,16))))),((11,18),((2,12),(1,8)))),(3,13)))));
(21,(((6,14),(10,19)),((13,17),(3,((20,((4,(7,(15,16))),(5,9))),((11,18),((2,12),(1,8))))))));
(21,((14,(19,(6,10))),((13,17),(3,(((11,18),((1,8),(2,12))),(20,((5,9),(4,(7,(15,16))))))))));
(21,((10,(19,(6,14))),(((11,18),(((1,8),(2,12)),(20,(5,(9,(4,(7,(15,16)))))))),(3,(13,17)))));
(21,((19,(14,(6,10))),(((1,8),(2,12)),(((11,18),(20,((4,(16,(7,15))),(5,9)))),(3,(13,17))))));
(21,((19,(14,(6,10))),(13,(3,(17,((20,(((15,16),(4,7)),(5,9))),((11,18),((2,12),(1,8)))))))));
(21,((10,(6,(14,19))),((5,(20,(9,(4,(16,(7,15)))))),(3,((13,17),((11,18),((2,12),(1,8))))))));
(21,((3,((20,(5,(9,(4,(7,(15,16)))))),((11,18),((2,12),(1,8))))),((19,(14,(6,10))),(13,17))));
(21,(((6,14),(10,19)),((3,(13,17)),((20,(5,(4,(9,(7,(15,16)))))),((11,18),((2,12),(1,8)))))));
(21,(((14,19),(6,10)),(3,((11,18),((13,17),(20,(((2,12),(1,8)),(5,(9,(4,(7,(15,16))))))))))));
(21,(((6,10),(14,19)),(3,((13,17),(((11,18),((2,12),(1,8))),(20,(9,(5,(4,(7,(15,16)))))))))));
(21,((19,(10,(6,14))),((3,((11,18),((2,12),(1,8)))),(((4,((15,16),(7,20))),(5,9)),(13,17)))));
(21,(((11,18),((2,12),(1,8))),((19,(14,(6,10))),((13,17),(3,(20,((7,(4,(15,16))),(5,9))))))));
(21,((19,(14,(6,10))),((((2,12),(1,8)),((11,18),(20,((4,(7,(15,16))),(5,9))))),(3,(13,17)))));
(21,(((20,((7,(15,16)),(4,(5,9)))),((11,18),(2,(12,(1,8))))),((19,(14,(6,10))),(17,(3,13)))));
(21,((14,(19,(6,10))),(((4,((15,16),(7,20))),(5,9)),(3,(((11,18),((1,8),(2,12))),(13,17))))));
(21,(((14,19),(6,10)),(3,((13,17),((20,((4,(7,(15,16))),(5,9))),((11,18),((2,12),(1,8))))))));
(21,(((6,10),(14,19)),(((4,(7,(15,16))),((20,(5,9)),((11,18),((2,12),(1,8))))),(3,(13,17)))));
(21,((19,(14,(6,10))),(3,((13,17),(((2,12),(1,8)),((11,18),((5,9),((7,(15,16)),(4,20)))))))));
(21,((14,(19,(6,10))),((3,(13,17)),(20,(((9,(7,(15,16))),(4,5)),((11,18),((2,12),(1,8))))))));
(21,((14,(6,(10,19))),((13,17),((20,(11,18)),(3,(((2,12),(1,8)),(5,(9,(4,(7,(15,16)))))))))));
(21,(((6,10),(14,19)),((3,(((1,8),(2,12)),(20,(5,(9,(4,(7,(15,16)))))))),((11,18),(13,17)))));
(21,(((6,10),(14,19)),((13,17),(3,(((5,9),(20,(4,(7,(15,16))))),((11,18),((1,8),(2,12))))))));
(21,((6,(10,(14,19))),(3,((5,((20,(9,(4,(7,(15,16))))),((11,18),((1,8),(2,12))))),(13,17)))));
(21,((3,((((7,15),(5,9)),(20,(4,16))),((11,18),((2,12),(1,8))))),((14,(19,(6,10))),(13,17))));
(21,(3,(((10,14),(6,19)),((13,17),(((9,(4,5)),(20,(7,(15,16)))),((2,12),((1,8),(11,18))))))));
(21,((14,(10,(6,19))),((13,17),(3,((20,(((4,15),(7,16)),(5,9))),((11,18),((2,12),(1,8))))))));
(21,(((6,14),(10,19)),((((11,18),((4,(7,(15,16))),(5,9))),(20,((2,12),(1,8)))),(17,(3,13)))));
(21,((10,(6,(14,19))),((13,17),(3,(((4,(7,(15,16))),(5,9)),((11,18),(20,((2,12),(1,8)))))))));
(21,((10,(6,(14,19))),((13,17),((20,((4,(7,(15,16))),(5,9))),(3,((11,18),((2,12),(1,8))))))));
(21,(((6,10),(14,19)),(((20,(9,(5,((15,16),(4,7))))),((11,18),(8,(1,(2,12))))),(3,(13,17)))));
(21,(((6,10),(14,19)),((((2,12),(1,8)),((11,18),(20,((4,(7,(15,16))),(5,9))))),(3,(13,17)))));
(21,((10,(6,(14,19))),((13,17),(((2,12),((1,8),(11,18))),(3,(20,((4,5),(9,(7,(15,16))))))))));
(21,(((14,19),(6,10)),(3,((13,17),((20,(((15,16),(4,7)),(5,9))),((11,18),((1,8),(2,12))))))));
(21,(((6,10),(14,19)),(3,((13,17),((8,(1,(2,12))),((11,18),(20,((4,(7,(15,16))),(5,9)))))))));
(21,(((6,10),(14,19)),((13,17),(3,((11,18),(((1,8),(2,12)),((5,(4,(7,(15,16)))),(9,20))))))));
(21,(((14,19),(6,10)),((13,17),(3,(((11,18),((1,8),(2,12))),(20,(9,(5,(4,(7,(15,16)))))))))));
(21,((14,(19,(6,10))),((13,17),(3,(((11,18),((2,12),(1,8))),(20,((4,(7,(15,16))),(5,9))))))));
(21,((19,(14,(6,10))),((13,17),(3,(((4,(20,(7,(15,16)))),(5,9)),((11,18),(1,(8,(2,12)))))))));
(21,((13,(3,((20,(5,(9,(4,(7,(15,16)))))),((11,18),((2,12),(1,8)))))),(17,(19,(14,(6,10))))));
(21,((20,(11,18)),(((6,10),(14,19)),((((2,12),(1,8)),((5,9),((7,16),(4,15)))),(3,(13,17))))));
(21,((19,(14,(6,10))),(3,((20,(((15,16),(4,7)),(5,9))),((13,17),((11,18),((1,8),(2,12))))))));
(21,((19,(10,(6,14))),(((11,18),((2,12),(1,8))),((((7,(15,16)),(5,9)),(4,20)),(3,(13,17))))));
(21,((19,(14,(6,10))),((13,17),(3,(((4,(20,(7,(15,16)))),(5,9)),((11,18),((1,8),(2,12))))))));
(21,((19,(14,(6,10))),(((((1,8),(2,12)),((15,(4,(7,16))),(5,9))),(20,(11,18))),(3,(13,17)))));
(21,((14,(19,(6,10))),((3,(13,17)),((20,(11,18)),(((2,12),(1,8)),((4,(7,(15,16))),(5,9)))))));
(21,(((6,10),(14,19)),(3,((13,17),((20,(9,(5,(4,(7,(15,16)))))),((11,18),((1,8),(2,12))))))));
(21,(((6,10),(14,19)),(((5,(9,(4,(7,(15,16))))),((11,18),((2,12),(1,8)))),((13,17),(3,20)))));
(21,(((6,10),(14,19)),(((9,(5,(4,(20,(16,(7,15)))))),((11,18),((2,12),(1,8)))),(17,(3,13)))));
(21,((6,(10,(14,19))),(((20,(5,(9,(4,(7,(15,16)))))),((11,18),((1,8),(2,12)))),(3,(13,17)))));
(21,((14,(19,(6,10))),((((2,12),(1,8)),((20,(4,(7,(15,16)))),(5,9))),(3,((11,18),(13,17))))));
(21,((19,(14,(6,10))),(((20,((4,(7,(15,16))),(5,9))),((11,18),(12,(2,(1,8))))),(3,(13,17)))));
(21,((6,(10,(14,19))),((3,((11,18),(20,(((15,16),(4,7)),(5,9))))),(((1,8),(2,12)),(13,17)))));
(21,((14,(19,(6,10))),((13,17),(((20,(5,9)),((11,18),((1,8),(2,12)))),(3,(4,(7,(15,16))))))));
(21,(((6,10),(14,19)),((((11,18),((2,12),(1,8))),(20,(((15,16),(4,7)),(5,9)))),(3,(13,17)))));
(21,(3,((19,(14,(6,10))),((13,17),(((11,18),((1,8),(2,12))),(5,(9,((7,20),(4,(15,16))))))))));
(21,((14,(19,(6,10))),((13,17),(3,(((11,18),((2,12),(1,8))),(20,((4,(7,(15,16))),(5,9))))))));
(21,((19,(14,(6,10))),((13,17),(3,(20,(((4,(15,(7,16))),(5,9)),((11,18),((1,8),(2,12)))))))));
(21,((13,(3,(((2,12),(1,8)),(11,18)))),((14,(10,(6,19))),(17,(20,((4,(7,(15,16))),(5,9)))))));
(21,(((6,10),(14,19)),(3,((13,17),((9,20),((5,((15,16),(4,7))),((11,18),((2,12),(1,8)))))))));
(21,((19,(14,(6,10))),(((11,18),((2,12),(1,8))),((13,17),(3,(20,(4,((7,(15,16)),(5,9)))))))));
(21,((19,(14,(6,10))),((5,20),((13,17),(3,((9,(15,(4,(7,16)))),((11,18),((1,8),(2,12)))))))));
(21,((((14,19),(6,10)),(13,17)),(((11,18),((1,8),(2,12))),(3,(20,((4,(15,(7,16))),(5,9)))))));
(21,(((6,10),(14,19)),((20,(((7,15),(4,16)),(5,9))),((13,17),(3,((11,18),((2,12),(1,8))))))));
(21,((10,(6,(14,19))),(((11,18),(20,((15,(4,(7,16))),(5,9)))),((13,17),(3,((2,12),(1,8)))))));
(21,((14,(6,(10,19))),(3,((13,17),(((15,16),(4,(7,20))),((5,9),(((2,12),(1,8)),(11,18))))))));
(21,(3,((14,(19,(6,10))),((13,17),((20,(5,(9,(16,(4,(7,15)))))),((11,18),((2,12),(1,8))))))));
(21,(((14,19),(6,10)),((13,17),(3,((20,(5,(9,(4,(7,(15,16)))))),((11,18),((1,8),(2,12))))))));
(21,((3,(((2,12),(1,8)),((11,18),(20,(4,((7,(15,16)),(5,9))))))),((10,(14,(6,19))),(13,17))));
(21,(((6,10),(14,19)),(3,((20,((5,9),(4,(15,(7,16))))),(((11,18),((2,12),(1,8))),(13,17))))));
(21,((10,(6,(14,19))),((13,17),(3,(((5,(7,(4,(15,16)))),(9,20)),((11,18),((2,12),(1,8))))))));
(21,((((11,18),(((2,12),(1,8)),(20,(5,(9,(4,(15,(7,16)))))))),(3,13)),(17,(6,(10,(14,19))))));
(21,((10,(14,(6,19))),((3,(13,17)),(((4,(7,16)),((5,9),(15,20))),((11,18),((2,12),(1,8)))))));
(21,((14,(19,(6,10))),((((11,18),((2,12),(1,8))),(20,((5,9),((15,16),(4,7))))),(3,(13,17)))));
(21,(((6,10),(14,19)),((3,((11,18),((2,12),(1,8)))),((13,17),(20,(5,(9,(4,(15,(7,16))))))))));
(21,(((6,10),(14,19)),((3,((11,18),((2,12),(1,8)))),((13,17),(20,(9,(5,(4,(7,(15,16))))))))));
(21,(((10,19),(6,14)),((13,17),(3,(((15,(4,(7,16))),(20,(5,9))),((1,8),((11,18),(2,12))))))));
(21,((19,(14,(6,10))),((13,17),(3,((20,((7,(15,16)),(4,(5,9)))),((11,18),((1,8),(2,12))))))));
(21,((14,(19,(6,10))),(((5,(9,((15,16),(4,7)))),(20,((11,18),((2,12),(1,8))))),(3,(13,17)))));
(21,((19,(14,(6,10))),((((5,(15,16)),(20,(9,(4,7)))),((11,18),((2,12),(1,8)))),(3,(13,17)))));
(21,(((6,10),(14,19)),((3,13),(17,(((9,(4,(7,(15,16)))),(5,20)),(((2,12),(1,8)),(11,18)))))));
(21,((13,(3,(20,((11,18),(((2,12),(1,8)),(9,(5,(4,(7,(15,16)))))))))),(17,((6,10),(14,19)))));
(21,(3,((6,(14,(10,19))),((20,((11,18),((2,12),(1,8)))),(((4,(7,(15,16))),(5,9)),(13,17))))));
(21,((19,(6,(10,14))),(((11,18),((2,12),(1,8))),(3,((20,((4,(15,(7,16))),(5,9))),(13,17))))));
(21,(((6,10),(14,19)),(3,((13,17),(((4,(7,(16,(15,20)))),(5,9)),((11,18),((2,12),(1,8))))))));
(21,(((14,19),(6,10)),(3,((13,17),((11,18),(((2,12),(1,8)),(20,((15,(4,(7,16))),(5,9)))))))));
(21,((14,(19,(6,10))),((((11,18),((1,8),(2,12))),(((15,16),(4,7)),(20,(5,9)))),(3,(13,17)))));
(21,((6,(10,(14,19))),((17,(((4,(7,(15,16))),(5,9)),((11,18),((2,12),(1,8))))),(20,(3,13)))));
(21,((((5,(9,(4,(20,(7,(15,16)))))),((1,8),((11,18),(2,12)))),(3,(13,17))),((6,10),(14,19))));
(21,((3,(13,17)),((19,(14,(6,10))),((20,(5,(9,(4,(7,(15,16)))))),(((2,12),(1,8)),(11,18))))));
(21,((10,(14,(6,19))),((13,17),(3,((20,(5,(9,(4,(7,(15,16)))))),((11,18),((2,12),(1,8))))))));
(21,(((5,(9,(4,((15,16),(7,20))))),(((1,8),(2,12)),(11,18))),((19,(14,(6,10))),(13,(3,17)))));
(21,((((11,18),((2,12),(1,8))),(20,((4,(16,(7,15))),(5,9)))),(((6,10),(14,19)),(3,(13,17)))));
(21,((10,(6,(14,19))),(((11,18),((2,12),(1,8))),(3,((20,((4,(7,(15,16))),(5,9))),(13,17))))));
(21,((6,(10,(14,19))),((13,17),(((1,8),(11,18)),(3,((2,12),(20,(9,(5,(4,(7,(15,16))))))))))));
(21,((14,(19,(6,10))),((3,(13,17)),((20,(11,18)),(((1,8),(2,12)),(9,(5,(7,(4,(15,16))))))))));
(21,(((6,10),(14,19)),((((2,12),(1,8)),((11,18),(20,(9,(5,((15,16),(4,7))))))),(3,(13,17)))));
(21,(((10,19),(6,14)),(3,((13,17),((20,((4,(7,(15,16))),(5,9))),((11,18),((1,8),(2,12))))))));
(21,((19,(10,(6,14))),(13,(17,(3,((5,(9,(4,(7,(15,16))))),(20,((11,18),((1,8),(2,12))))))))));
(21,((3,(13,17)),((6,(10,(14,19))),((20,((4,(7,(15,16))),(5,9))),((11,18),((2,12),(1,8)))))));
(21,(((14,19),(6,10)),((13,17),(3,(((11,18),((1,8),(2,12))),(20,((5,9),((15,16),(4,7)))))))));
(21,(((6,10),(14,19)),((11,18),((((2,12),(1,8)),(20,(9,(5,(4,(7,(15,16))))))),(3,(13,17))))));
(21,((19,(14,(6,10))),((13,17),(3,((20,((4,(7,(15,16))),(5,9))),((11,18),((1,8),(2,12))))))));
(21,(((10,14),(6,19)),((13,17),(3,(((11,18),((1,8),(2,12))),(20,((4,(7,(15,16))),(5,9))))))));
(21,((6,(10,(14,19))),(3,((13,17),((1,8),((11,18),((2,12),(20,(((15,16),(4,7)),(5,9))))))))));
(21,((6,(14,(10,19))),((11,18),(3,((20,((4,(7,(15,16))),(5,9))),((8,(1,(2,12))),(13,17)))))));
(21,(((14,19),(6,10)),((13,((20,(9,(5,(4,(16,(7,15)))))),((11,18),((2,12),(1,8))))),(3,17))));
(21,((14,(6,(10,19))),((13,17),(3,((20,(5,(9,(4,(7,(15,16)))))),((11,18),((1,8),(2,12))))))));
(21,((3,(((7,(15,16)),(5,9)),((11,18),((2,12),(1,8))))),((19,(14,(6,10))),((4,20),(13,17)))));
(21,((19,(14,(6,10))),(3,((5,(20,(9,(4,(7,(15,16)))))),((((2,12),(1,8)),(11,18)),(13,17))))));
(21,((6,(19,(10,14))),((11,18),(3,((13,17),(((1,8),(2,12)),(20,((4,(16,(7,15))),(5,9)))))))));
(21,((14,(19,(6,10))),(((13,17),((11,18),(12,(2,(1,8))))),(3,(20,((4,(7,(15,16))),(5,9)))))));
(21,(((6,14),(10,19)),(((11,18),(12,(2,(1,8)))),((13,17),(3,(20,((5,9),(4,(7,(15,16))))))))));
(21,(((6,10),(14,19)),((3,((11,18),((1,8),(2,12)))),((9,(5,(4,(20,(7,(15,16)))))),(13,17)))));
(21,((19,(14,(6,10))),((3,13),(17,((20,(9,(5,(7,(4,(15,16)))))),((11,18),((2,12),(1,8))))))));
(21,((6,(19,(10,14))),((((4,(7,(15,16))),(5,9)),(20,((2,12),(1,8)))),(3,((11,18),(13,17))))));
(21,((19,(14,(6,10))),((20,((4,(7,(15,16))),(5,9))),(((11,18),(1,(8,(2,12)))),(3,(13,17))))));
(21,(((6,10),(14,19)),(3,((13,17),((20,(9,(5,(4,(7,(15,16)))))),((2,12),((1,8),(11,18))))))));
(21,((6,(10,(14,19))),((13,17),((20,(5,(9,(4,(7,(15,16)))))),(3,((11,18),((1,8),(2,12))))))));
(21,(((14,19),(6,10)),((3,(11,18)),((13,17),(((1,8),(2,12)),((4,(7,(15,16))),(20,(5,9))))))));
(21,(((3,17),(13,(((2,12),(1,8)),(20,(9,(5,(4,(7,(15,16))))))))),((11,18),((10,14),(6,19)))));
(21,(3,(((6,10),(14,19)),((13,17),(((1,8),(2,12)),((11,18),((4,(20,(7,(15,16)))),(5,9))))))));
(21,((10,(14,(6,19))),(((20,((4,(7,(15,16))),(5,9))),((11,18),((1,8),(2,12)))),(3,(13,17)))));
(21,((14,(19,(6,10))),(((9,(5,(4,(20,(7,(15,16)))))),((11,18),((2,12),(1,8)))),(3,(13,17)))));
(21,(((6,10),(14,19)),((3,((11,18),((2,12),(1,8)))),((9,(5,(20,(4,(7,(15,16)))))),(13,17)))));
(21,((19,(14,(6,10))),(3,((13,17),((5,(9,(4,((15,16),(7,20))))),((11,18),((2,12),(1,8))))))));
(21,((14,(19,(6,10))),(17,(((11,18),((20,((7,(4,(15,16))),(5,9))),((2,12),(1,8)))),(3,13)))));
(21,((6,(10,(14,19))),((13,17),(3,(((2,12),(1,8)),((11,18),(20,((4,(15,(7,16))),(5,9)))))))));
(21,((10,(6,(14,19))),((13,17),(3,(((7,(4,(15,16))),(5,9)),(20,((11,18),((2,12),(1,8)))))))));
(21,(((20,((11,18),((2,12),(1,8)))),(3,(13,17))),(((6,10),(14,19)),(9,(5,(4,(15,(7,16))))))));
(21,(((14,19),(6,10)),(9,((((2,12),(1,8)),((11,18),(5,(4,(20,(7,(15,16))))))),(3,(13,17))))));
(21,((14,(6,(10,19))),(3,((13,17),((20,(5,(9,(4,(16,(7,15)))))),((11,18),((1,8),(2,12))))))));
(21,(((20,(5,(9,(4,(7,(15,16)))))),((11,18),((2,12),(1,8)))),((14,(19,(6,10))),(3,(13,17)))));
(21,(((14,19),(6,10)),((13,17),(3,((20,((4,(7,(15,16))),(5,9))),((11,18),((1,8),(2,12))))))));
(21,(((6,19),(10,14)),((13,17),(3,((20,((2,12),(1,8))),((11,18),(9,(5,(4,(15,(7,16)))))))))));
(21,(((6,10),(14,19)),(3,(((20,(5,(9,(7,(4,(15,16)))))),((11,18),(2,(12,(1,8))))),(13,17)))));
(21,(((6,10),(14,19)),((3,((2,12),(1,8))),((20,((7,(15,16)),(4,(5,9)))),((11,18),(13,17))))));
(21,((19,(14,(6,10))),((3,(((1,8),(2,12)),(9,(5,(4,(7,(20,(15,16)))))))),((11,18),(13,17)))));
(21,((10,(6,(14,19))),((((5,9),(4,(7,(15,16)))),((11,18),((2,12),(1,8)))),(20,(3,(13,17))))));
(21,((10,(6,(14,19))),((3,(13,17)),(((4,((15,16),(7,20))),(5,9)),((11,18),(12,(2,(1,8))))))));
(21,((6,(10,(14,19))),((3,(13,17)),(((4,(16,(7,15))),(5,9)),(20,((11,18),((1,8),(2,12))))))));
(21,(((6,10),(14,19)),(((13,17),((20,(4,(7,(15,16)))),((11,18),((2,12),(1,8))))),(3,(5,9)))));
(21,((14,(19,(6,10))),((13,17),(3,((20,((2,12),(1,8))),((11,18),(9,(5,(4,(7,(15,16)))))))))));
(21,((3,((20,((4,(16,(7,15))),(5,9))),((11,18),((2,12),(1,8))))),(((6,10),(14,19)),(13,17))));
(21,((10,(19,(6,14))),(((20,((4,(7,(15,16))),(5,9))),((11,18),((1,8),(2,12)))),(3,(13,17)))));
(21,(((6,10),(14,19)),(3,((13,17),((11,18),(((1,8),(2,12)),(20,(9,(5,(7,(4,(15,16))))))))))));
(21,(((6,10),(14,19)),((13,17),(((1,8),(2,12)),(3,((11,18),((4,(20,(7,(15,16)))),(5,9))))))));
(21,(((14,19),(6,10)),((13,17),(3,(9,((5,((15,20),(4,(7,16)))),((11,18),((2,12),(1,8)))))))));
(21,(((6,10),(14,19)),(17,((((1,8),(2,12)),((((7,(15,16)),(4,20)),(5,9)),(11,18))),(3,13)))));
(21,(((11,18),((9,(5,(4,(7,(15,16))))),(20,((2,12),(1,8))))),(((6,10),(14,19)),(3,(13,17)))));
(21,(((6,10),(14,19)),((20,(9,(5,(4,(7,(15,16)))))),(((11,18),((2,12),(1,8))),(3,(13,17))))));
(21,(((6,10),(14,19)),((13,17),(3,((20,(9,(5,(4,(7,(15,16)))))),((11,18),((2,12),(1,8))))))));
(21,(((6,10),(14,19)),((((5,9),(4,(7,(20,(15,16))))),((11,18),((2,12),(1,8)))),(3,(13,17)))));
(21,((14,(19,(6,10))),((((2,12),(1,8)),(20,((4,(7,(15,16))),(5,9)))),((11,18),(3,(13,17))))));
(21,((6,(10,(14,19))),(((5,(9,(4,(20,(16,(7,15)))))),((11,18),((2,12),(1,8)))),(3,(13,17)))));
(21,(((6,10),(14,19)),(3,(((20,((16,(4,(7,15))),(5,9))),(((1,8),(2,12)),(11,18))),(13,17)))));
(21,(((14,19),(6,10)),(((5,(9,(4,(20,(7,(15,16)))))),((11,18),((1,8),(2,12)))),(3,(13,17)))));
(21,((13,17),((10,(6,(14,19))),(3,(((4,((7,16),(15,20))),(5,9)),((11,18),((2,12),(1,8))))))));
(21,(((6,10),(14,19)),(3,((20,((4,(7,(15,16))),(5,9))),((13,17),((11,18),((2,12),(1,8))))))));
(21,((6,(10,(14,19))),(3,((13,17),((11,18),(((7,(4,(15,16))),(5,9)),(20,((1,8),(2,12)))))))));
(21,(((14,19),(6,10)),(3,((13,17),(((2,12),(1,8)),((11,18),(20,(9,(5,(4,(15,(7,16))))))))))));
(21,((19,(14,(6,10))),((13,17),(3,(((11,18),((2,12),(1,8))),(20,(9,(5,(7,(4,(15,16)))))))))));
(21,((3,((20,((2,12),(1,8))),((11,18),(9,(5,(4,(15,(7,16)))))))),((14,(19,(6,10))),(13,17))));
(21,((14,(19,(6,10))),((13,17),(3,((20,((4,(7,(15,16))),(5,9))),((11,18),((2,12),(1,8))))))));
(21,(((6,10),(14,19)),(((12,(2,(1,8))),((11,18),(20,((4,(7,(15,16))),(5,9))))),(3,(13,17)))));
(21,((14,(19,(6,10))),(((5,(4,(7,(15,16)))),((9,20),((11,18),((2,12),(1,8))))),(17,(3,13)))));
(21,((14,(6,(10,19))),((13,17),(3,((20,((5,9),(4,(7,(15,16))))),((11,18),((2,12),(1,8))))))));
(21,(((6,10),(14,19)),(((11,18),(13,17)),(3,((9,(5,((15,16),(4,7)))),(20,((2,12),(1,8))))))));
(21,(((10,19),(6,14)),(3,((13,17),(((11,18),(8,(1,(2,12)))),(20,(((15,16),(4,7)),(5,9))))))));
(21,((3,(13,17)),((19,(14,(6,10))),((20,((4,(7,(15,16))),(5,9))),((11,18),((2,12),(1,8)))))));
(21,((19,(14,(6,10))),(((11,18),((2,12),(1,8))),(3,((20,((4,(7,(15,16))),(5,9))),(13,17))))));
(21,(((10,19),(6,14)),(3,(17,(13,((4,(7,(15,16))),(((11,18),((1,8),(2,12))),(20,(5,9)))))))));
(21,(((6,10),(14,19)),((((11,18),((2,12),(1,8))),(15,((16,(4,(7,20))),(5,9)))),(3,(13,17)))));
(21,(((14,19),(6,10)),(3,(13,(17,((20,(((7,15),(4,16)),(5,9))),((11,18),(12,(2,(1,8))))))))));
(21,(((14,19),(6,10)),((((11,18),((2,12),(1,8))),(20,(5,(9,(4,(7,(15,16))))))),(3,(13,17)))));
(21,((3,(17,(((5,9),(20,(4,(7,(15,16))))),((11,18),((1,8),(2,12)))))),(13,((6,10),(14,19)))));
(21,(((14,19),(6,10)),((((11,18),((2,12),(1,8))),(20,(5,(9,(4,(7,(15,16))))))),(3,(13,17)))));
(21,(((14,19),(6,10)),((13,17),(3,(20,(((4,(7,(15,16))),(5,9)),((11,18),((2,12),(1,8)))))))));
(21,(((6,10),(14,19)),(3,((13,17),(((2,12),(1,8)),((11,18),(20,(9,(5,(4,(15,(7,16))))))))))));
(21,(((20,(9,(5,(4,(7,(15,16)))))),((11,18),((2,12),(1,8)))),(((6,19),(10,14)),(3,(13,17)))));
(21,((14,(19,(6,10))),(((20,((4,(7,(15,16))),(5,9))),(13,17)),(3,((11,18),((2,12),(1,8)))))));
(21,(3,(((6,10),(14,19)),((13,17),((20,((4,(7,(15,16))),(5,9))),((11,18),((2,12),(1,8))))))));
(21,(((14,19),(6,10)),(((9,(5,(4,(20,(7,(15,16)))))),((11,18),((1,8),(2,12)))),(3,(13,17)))));
(21,((14,(19,(6,10))),(3,((13,17),((11,18),(((2,12),(1,8)),(20,(7,((4,(15,16)),(5,9))))))))));
(21,((14,(19,(6,10))),(3,((13,17),((11,18),(((2,12),(1,8)),(20,(5,(9,(7,(4,(15,16))))))))))));
(21,((10,(6,(14,19))),((((11,18),(2,12)),((1,8),(5,(9,((16,20),(4,(7,15))))))),(3,(13,17)))));
(21,(((6,10),(14,19)),((20,(5,(9,(4,(7,(15,16)))))),(((11,18),((1,8),(2,12))),(3,(13,17))))));
(21,((6,(10,(14,19))),(((11,18),(13,17)),(3,(((1,8),(2,12)),((9,(4,5)),(20,(16,(7,15)))))))));
(21,((14,(10,(6,19))),((13,17),(3,(((11,18),((2,12),(1,8))),(20,((5,9),(4,(7,(15,16))))))))));
(21,((14,(19,(6,10))),(3,((13,17),((11,18),(((1,8),(2,12)),(20,((4,(7,(15,16))),(5,9)))))))));
(21,(((10,19),(6,14)),(((20,(((7,16),(4,15)),(5,9))),((11,18),(1,(8,(2,12))))),(3,(13,17)))));
(21,(((6,10),(14,19)),((((11,18),((2,12),(1,8))),(20,(9,(5,(4,(7,(15,16))))))),(3,(13,17)))));
(21,((6,(10,(14,19))),(((4,(20,(7,(15,16)))),(5,9)),(3,(((11,18),((2,12),(1,8))),(13,17))))));
(21,((14,(19,(6,10))),(3,(20,((((4,(7,(15,16))),(5,9)),(((2,12),(1,8)),(11,18))),(13,17))))));
(21,(((6,10),(14,19)),(((11,18),((2,12),(1,8))),((13,17),(3,((5,((15,16),(7,20))),(4,9)))))));
(21,((6,(14,(10,19))),(((5,(9,(4,(20,(7,(15,16)))))),(13,17)),(3,((11,18),((1,8),(2,12)))))));
(21,(((6,10),(14,19)),((13,17),(3,((20,((7,(15,16)),(4,(5,9)))),((11,18),((2,12),(1,8))))))));
(21,(((6,10),(14,19)),(3,((13,17),((20,(((15,16),(4,7)),(5,9))),((11,18),((2,12),(1,8))))))));
(21,((10,(6,(14,19))),((3,((2,12),(1,8))),((20,((11,18),((16,(7,(4,15))),(5,9)))),(13,17)))));
(21,(((6,10),(14,19)),(3,((13,17),(((20,(7,(15,16))),(5,9)),(4,((11,18),((1,8),(2,12)))))))));
(21,((6,(14,(10,19))),(3,((13,17),((5,(20,(9,(4,(7,(15,16)))))),((11,18),((2,12),(1,8))))))));
(21,((10,(14,(6,19))),((((11,18),((2,12),(1,8))),(20,(5,(9,(4,(15,(7,16))))))),(3,(13,17)))));
(21,(((6,10),(14,19)),((((4,(16,(7,15))),(5,9)),(20,((2,12),(1,8)))),((11,18),(3,(13,17))))));
(21,((10,(6,(14,19))),((17,(11,18)),(3,(13,(((1,8),(2,12)),((5,9),(20,((15,16),(4,7))))))))));
(21,((3,((((2,12),(1,8)),(9,(4,(7,(15,16))))),((11,18),(5,20)))),(((6,10),(14,19)),(13,17))));
(21,(((6,10),(14,19)),((((11,18),((2,12),(1,8))),(20,(9,(5,(16,(4,(7,15))))))),(3,(13,17)))));
(21,(((6,19),(10,14)),((3,(20,((4,(7,(15,16))),(5,9)))),((13,17),((11,18),((1,8),(2,12)))))));
(21,((13,17),((14,(19,(6,10))),(3,((20,((4,(7,(15,16))),(5,9))),((11,18),((2,12),(1,8))))))));
(21,((3,((20,(4,(7,(15,16)))),((5,9),(((2,12),(1,8)),(11,18))))),(((6,10),(14,19)),(13,17))));
(21,((19,(10,(6,14))),(((20,((4,(7,(15,16))),(5,9))),((11,18),((1,8),(2,12)))),(3,(13,17)))));
(21,(3,(((6,10),(14,19)),((13,17),((((15,16),(4,7)),(5,9)),(20,((11,18),((2,12),(1,8)))))))));
(21,(((6,10),(14,19)),((13,17),(3,((20,((4,(15,(7,16))),(5,9))),((11,18),((2,12),(1,8))))))));
(21,((6,(10,(14,19))),(3,(17,(13,((20,((4,(7,(15,16))),(5,9))),((11,18),((2,12),(1,8)))))))));
(21,(((6,10),(14,19)),((13,17),(3,((20,((4,(7,(15,16))),(5,9))),((11,18),((1,8),(2,12))))))));
(21,(((6,10),(14,19)),((13,17),(3,(((2,12),(1,8)),((11,18),(9,(5,((7,(15,16)),(4,20))))))))));
(21,((19,(14,(6,10))),(((11,18),((2,12),(1,8))),((20,((4,(7,(15,16))),(5,9))),(3,(13,17))))));
(21,(((6,10),(14,19)),((((2,12),(11,18)),(20,(9,(5,(15,(4,(7,16))))))),(3,((1,8),(13,17))))));
(21,(((13,17),((20,((7,16),(4,15))),((11,18),((1,8),(2,12))))),((14,(19,(6,10))),(3,(5,9)))));
(21,(((14,19),(6,10)),(((11,18),((1,8),(2,12))),((20,((4,(7,(15,16))),(5,9))),(3,(13,17))))));
(21,((19,(14,(6,10))),(((11,18),((1,8),(2,12))),(3,((20,(((15,16),(4,7)),(5,9))),(13,17))))));
(21,((10,(6,(14,19))),((3,(11,18)),((13,17),((1,(8,(2,12))),(20,((4,(7,(15,16))),(5,9))))))));
(21,(((14,19),(6,10)),((13,17),(3,((20,((4,(7,(15,16))),(5,9))),((11,18),((2,12),(1,8))))))));
(21,((6,(10,(14,19))),(3,((13,17),((1,(8,(2,12))),((11,18),((9,(7,(15,16))),(20,(4,5)))))))));
(21,((10,(6,(14,19))),(3,((20,((4,(7,(15,16))),(5,9))),((13,17),((11,18),((2,12),(1,8))))))));
(21,(((6,10),(14,19)),(17,(3,(13,((20,((15,16),((4,7),(5,9)))),((11,18),((1,8),(2,12)))))))));
(21,((14,(19,(6,10))),((13,17),(3,((11,18),(((2,12),(1,8)),(20,((4,(7,(15,16))),(5,9)))))))));
(21,(((6,10),(14,19)),(((20,(5,(9,(4,(7,(15,16)))))),((11,18),((1,8),(2,12)))),(3,(13,17)))));
(21,((6,(10,(14,19))),(((20,(9,(5,(7,(4,(15,16)))))),((11,18),((1,8),(2,12)))),(3,(13,17)))));
(21,((10,(6,(14,19))),((13,17),(3,((20,(9,(5,(4,(15,(7,16)))))),((11,18),((2,12),(1,8))))))));
(21,((10,(14,(6,19))),((13,17),(3,((11,18),((1,(8,(2,12))),(20,((4,(7,(15,16))),(5,9)))))))));
(21,((6,(19,(10,14))),(((13,17),((11,18),((5,9),(20,(4,(7,(15,16))))))),(3,((1,8),(2,12))))));
(21,(((6,10),(14,19)),((3,((8,(1,(2,12))),(9,(5,(4,(20,(7,(15,16)))))))),((11,18),(13,17)))));
(21,((3,(((2,12),(1,8)),(11,18))),((10,(6,(14,19))),(((4,(20,(7,(15,16)))),(5,9)),(13,17)))));
(21,((14,(6,(10,19))),(((2,12),(1,8)),((13,17),(3,((5,(9,(4,(7,(15,16))))),(20,(11,18))))))));
(21,((19,(14,(6,10))),((((2,12),(1,8)),((11,18),(20,((4,(7,(15,16))),(5,9))))),(3,(13,17)))));
(21,((14,(10,(6,19))),((13,17),(3,(((11,18),((2,12),(1,8))),(20,((7,(4,(15,16))),(5,9))))))));
(21,(((6,10),(14,19)),(((9,(5,(4,((15,16),(7,20))))),((11,18),((2,12),(1,8)))),(3,(13,17)))));
(21,(((10,19),(6,14)),((3,(13,17)),(((1,8),(2,12)),((11,18),(20,((4,(7,(15,16))),(5,9))))))));
(21,(((6,10),(14,19)),(3,((13,17),((5,9),((20,(4,(7,(15,16)))),((11,18),((2,12),(1,8)))))))));
(21,(((6,10),(14,19)),(3,(13,(17,((20,((4,(15,(7,16))),(5,9))),((11,18),((2,12),(1,8)))))))));
(21,((10,(19,(6,14))),(((20,((15,16),(5,(9,(4,7))))),((11,18),((2,12),(1,8)))),(3,(13,17)))));
(21,(((6,14),(10,19)),((20,((7,(15,16)),(5,(4,9)))),(((11,18),((2,12),(1,8))),(3,(13,17))))));
(21,((10,(14,(6,19))),(((20,(((15,16),(4,7)),(5,9))),((11,18),((2,12),(1,8)))),(3,(13,17)))));
(21,((14,(19,(6,10))),(17,(3,(13,((11,18),((20,(4,(5,9))),((7,(15,16)),((1,8),(2,12))))))))));
(21,((3,(((11,18),((1,8),(2,12))),(20,(5,(4,(9,(16,(7,15)))))))),((19,(14,(6,10))),(13,17))));
(21,((14,(19,(6,10))),((13,17),((9,((2,12),(1,8))),(3,((11,18),(5,((7,20),(4,(15,16))))))))));
(21,(((6,10),(14,19)),(3,((13,17),((20,((7,(15,16)),(4,(5,9)))),((2,12),((1,8),(11,18))))))));
(21,((6,(10,(14,19))),(((1,8),(11,18)),(((9,(4,(7,(15,16)))),((2,12),(5,20))),(3,(13,17))))));
(21,((19,(14,(6,10))),(((13,17),((11,18),(12,(2,(1,8))))),(3,(9,(5,(4,(7,(20,(15,16))))))))));
(21,((19,(14,(6,10))),(((20,((5,9),(7,(4,(15,16))))),((1,8),((11,18),(2,12)))),(3,(13,17)))));
((((6,10),(14,19)),((3,((11,18),((1,8),(2,12)))),((20,((5,9),(4,(7,(15,16))))),(13,17)))),21);
(21,(3,((19,(14,(6,10))),((13,17),((((2,12),(1,8)),((15,(7,16)),(4,(5,9)))),(20,(11,18)))))));
(21,((10,(14,(6,19))),(((20,((4,(7,(15,16))),(5,9))),(3,((11,18),((1,8),(2,12))))),(13,17))));
(21,((14,(19,(6,10))),((((12,(2,(1,8))),(20,((4,9),(5,(15,(7,16)))))),(13,17)),(3,(11,18)))));
(21,((19,(10,(6,14))),(((11,18),((1,8),(2,12))),((20,(9,(5,(7,(4,(15,16)))))),(3,(13,17))))));
(21,((19,(14,(6,10))),(3,((13,17),(((11,18),((2,12),(1,8))),(5,(20,(9,(4,(7,(15,16)))))))))));
(21,(((6,14),(10,19)),(3,((13,17),(((11,18),((2,12),(1,8))),(20,((4,(7,(15,16))),(5,9))))))));
(21,((19,(6,(10,14))),((13,17),(3,(((11,18),((1,8),(2,12))),(20,((4,(7,(15,16))),(5,9))))))));
(21,((19,(14,(6,10))),(3,((13,17),((11,18),(((2,12),(1,8)),((20,(7,(15,16))),(4,(5,9)))))))));
(21,((20,(((4,(7,(15,16))),(5,9)),((11,18),((2,12),(1,8))))),(((10,14),(6,19)),(3,(13,17)))));
(21,((19,(14,(6,10))),((13,(3,(20,(9,(4,(7,(15,16))))))),(17,(5,((11,18),((1,8),(2,12))))))));
(21,((19,(14,(6,10))),(((5,(9,((20,(15,16)),(4,7)))),((11,18),((2,12),(1,8)))),(3,(13,17)))));
(21,((19,(14,(6,10))),((((20,((4,(15,16)),(5,9))),((1,8),(11,18))),(7,(2,12))),(3,(13,17)))));
(21,(((14,19),(6,10)),((20,((4,(7,(15,16))),(5,9))),(((11,18),(8,(1,(2,12)))),(3,(13,17))))));
(21,((19,(10,(6,14))),((13,17),(3,(((11,18),((2,12),(1,8))),(20,(((7,16),(4,15)),(5,9))))))));
((((3,(13,17)),(((11,18),((2,12),(1,8))),((5,9),(20,(4,(7,(15,16))))))),((6,10),(14,19))),21);
(21,((19,(14,(6,10))),(13,((11,18),((((2,12),(1,8)),(20,((4,(7,(15,16))),(5,9)))),(3,17))))));
(21,((14,(19,(6,10))),((((1,8),(2,12)),((5,9),(4,(20,(15,(7,16)))))),((13,17),(3,(11,18))))));
(21,((19,(14,(6,10))),((13,17),(3,(20,((9,(5,(4,(16,(7,15))))),((11,18),(8,(1,(2,12))))))))));
(21,((14,(19,(6,10))),(3,(((11,18),((2,12),(1,8))),(17,(13,(20,((4,(7,(15,16))),(5,9)))))))));
(21,((13,17),((10,(19,(6,14))),(3,((20,((7,(15,16)),(4,(5,9)))),(((2,12),(1,8)),(11,18)))))));
(21,(((14,19),(6,10)),(((1,8),(2,12)),(3,(((11,18),(20,((4,(7,(15,16))),(5,9)))),(13,17))))));
(21,(((6,19),(10,14)),(3,((13,17),((20,(5,(9,(4,(7,(15,16)))))),((11,18),((1,8),(2,12))))))));
(21,(3,(((6,10),(14,19)),(13,(17,((20,(9,(4,(5,(7,(15,16)))))),((11,18),((1,8),(2,12)))))))));
(21,((3,(13,17)),((14,(19,(6,10))),((20,(5,(9,((15,16),(4,7))))),(((1,8),(2,12)),(11,18))))));
(21,(((11,18),((2,12),(1,8))),(((14,19),(6,10)),((13,17),(3,((5,9),(20,(4,(7,(15,16))))))))));
(21,((6,(10,(14,19))),((13,17),(3,((2,(12,(1,8))),((11,18),(20,(5,(9,(4,(7,(15,16))))))))))));
(21,((10,(6,(14,19))),(3,((13,17),((20,((5,9),(4,(16,(7,15))))),((11,18),((2,12),(1,8))))))));
(21,((14,(19,(6,10))),(((20,((5,9),((15,16),(4,7)))),((11,18),((2,12),(1,8)))),(3,(13,17)))));
(21,((14,(19,(6,10))),((13,17),(3,((20,(5,(9,(4,(7,(15,16)))))),((11,18),((2,12),(1,8))))))));
(21,(3,((14,(19,(6,10))),((13,17),(20,(((4,(16,(7,15))),(5,9)),((11,18),((1,8),(2,12)))))))));
(21,((10,(14,(6,19))),((13,17),(3,((20,(9,(4,(5,(16,(7,15)))))),((11,18),((2,12),(1,8))))))));
(21,((14,(10,(6,19))),(((11,18),(((1,8),(2,12)),(20,(((15,16),(4,7)),(5,9))))),(3,(13,17)))));
(21,(((6,10),(14,19)),(((9,(5,((7,(15,16)),(4,20)))),((11,18),((2,12),(1,8)))),(3,(13,17)))));
(21,((10,(19,(6,14))),(((4,((15,(7,16)),(5,9))),((11,18),((2,12),(1,8)))),(20,(3,(13,17))))));
(21,(((6,10),(14,19)),((((4,(7,(15,16))),(5,9)),(20,((11,18),((2,12),(1,8))))),(3,(13,17)))));
(21,((14,(19,(6,10))),(((9,(5,(7,(4,(20,(15,16)))))),(((2,12),(1,8)),(11,18))),(3,(13,17)))));
(21,((14,(19,(6,10))),(((20,((4,(7,(15,16))),(5,9))),((11,18),((1,8),(2,12)))),(3,(13,17)))));
(21,((6,(10,(14,19))),((3,(13,17)),(20,((9,(4,(5,(7,(15,16))))),((11,18),(1,(8,(2,12)))))))));
(21,((19,(14,(6,10))),(((5,(9,(7,(4,(20,(15,16)))))),((11,18),((2,12),(1,8)))),(3,(13,17)))));
(21,((19,(14,(6,10))),((((11,18),((2,12),(1,8))),(20,((4,(16,(7,15))),(5,9)))),(3,(13,17)))));
(21,(((14,19),(6,10)),((20,((11,18),((2,12),(1,8)))),((13,17),(3,((4,(7,(15,16))),(5,9)))))));
(21,((19,(14,(6,10))),(3,((13,17),(((4,(20,(7,(15,16)))),(5,9)),((11,18),((1,8),(2,12))))))));
(21,(((14,19),(6,10)),(((11,18),((2,12),(1,8))),(3,((20,(9,(5,(4,(7,(15,16)))))),(13,17))))));
(21,((14,(19,(6,10))),(3,(17,(13,(20,((((15,16),(4,7)),(5,9)),((11,18),((2,12),(1,8))))))))));
(21,((14,(19,(6,10))),((3,((2,12),(1,8))),((13,17),((11,18),(20,((15,(4,(7,16))),(5,9))))))));
(21,(((6,10),(14,19)),((13,17),(3,((20,((5,9),(4,(7,(15,16))))),((11,18),((1,8),(2,12))))))));
(21,((14,(6,(10,19))),((3,(20,((4,16),((7,15),(5,9))))),((11,18),(((1,8),(2,12)),(13,17))))));
(21,((10,(6,(14,19))),((13,17),(3,((20,((4,(7,(15,16))),(5,9))),((11,18),((2,12),(1,8))))))));
(21,((10,(6,(14,19))),(((1,8),(2,12)),((13,17),(3,((11,18),(20,(9,((7,(15,16)),(4,5))))))))));
(21,(((14,19),(6,10)),((13,17),(3,(((2,12),(1,8)),((11,18),(20,(5,(9,(7,(4,(15,16))))))))))));
(21,((10,(14,(6,19))),((3,17),(13,((20,((2,12),(1,8))),((11,18),((7,(4,(15,16))),(5,9))))))));
(21,((14,(19,(6,10))),((3,(((2,12),(1,8)),(5,(9,(4,(7,(15,16))))))),((13,17),(20,(11,18))))));
(21,((6,(10,(14,19))),(17,(((5,(9,(4,(20,(7,(15,16)))))),((11,18),((2,12),(1,8)))),(3,13)))));
(21,(((6,10),(14,19)),(3,((13,17),(((2,12),(1,8)),((11,18),(20,((4,(7,(15,16))),(5,9)))))))));
(21,(((6,10),(14,19)),((13,17),(3,((20,((4,(7,(15,16))),(5,9))),((11,18),((1,8),(2,12))))))));
(21,(((6,10),(14,19)),((3,((16,(4,(7,15))),(5,9))),((13,17),(20,((11,18),((2,12),(1,8))))))));
(21,((14,(19,(6,10))),(((20,(5,(9,(4,(15,(7,16)))))),((11,18),((1,8),(2,12)))),(3,(13,17)))));
(21,((19,(14,(6,10))),(((5,(9,(16,(15,(4,7))))),((11,18),((1,8),(2,12)))),(3,(20,(13,17))))));
(21,((10,(6,(14,19))),(3,((13,17),(((1,8),((2,12),(11,18))),(20,((4,(7,(15,16))),(5,9))))))));
(21,(3,((14,(19,(6,10))),((13,17),(((11,18),((2,12),(1,8))),(20,((4,(7,(15,16))),(5,9))))))));
(21,(((13,17),(((4,(15,(7,16))),(5,9)),(3,((11,18),((1,8),(2,12)))))),(20,((6,10),(14,19)))));
(21,(((14,19),(6,10)),((13,17),(3,((9,(5,(4,(20,(7,(15,16)))))),((11,18),((2,12),(1,8))))))));
(21,((10,(6,(14,19))),((((4,(15,(7,16))),(20,(5,9))),((11,18),((2,12),(1,8)))),(3,(13,17)))));
(21,((3,(13,17)),(((6,10),(14,19)),(((11,18),((2,12),(1,8))),(((7,15),(4,16)),(20,(5,9)))))));
(21,((14,(19,(6,10))),(((20,((5,(4,(15,16))),(7,9))),((11,18),((2,12),(1,8)))),(3,(13,17)))));
(21,(((14,19),(6,10)),(3,((9,(5,(4,(7,(15,16))))),((13,17),((11,18),(20,((1,8),(2,12)))))))));
(21,(((6,10),(14,19)),(17,(13,(3,(((11,18),((2,12),(1,8))),(20,((4,(7,(15,16))),(5,9)))))))));
(21,(((6,10),(14,19)),((13,17),(3,((12,(2,(1,8))),((11,18),(9,(5,(4,(20,(7,(15,16))))))))))));
(21,((14,(19,(6,10))),(((20,((4,(15,(7,16))),(5,9))),((11,18),((2,12),(1,8)))),(3,(13,17)))));
(21,((3,((5,9),((20,(4,(7,(15,16)))),((11,18),((2,12),(1,8)))))),(((14,19),(6,10)),(13,17))));
(21,(((6,10),(14,19)),(3,(((((7,20),(4,(15,16))),(5,9)),(((1,8),(2,12)),(11,18))),(13,17)))));
(21,((14,(6,(10,19))),((13,17),(3,((20,(5,(9,(4,(7,(15,16)))))),((11,18),((2,12),(1,8))))))));
(21,((19,(14,(6,10))),(3,((13,17),((20,(5,(9,(4,(15,(7,16)))))),((11,18),((2,12),(1,8))))))));
(21,(((6,10),(14,19)),((13,17),(3,((20,(5,(9,(4,(7,(15,16)))))),((11,18),((2,12),(1,8))))))));
(21,(((6,10),(14,19)),((20,((((7,15),(4,16)),(5,9)),(((2,12),(1,8)),(11,18)))),(3,(13,17)))));
(21,((19,(14,(6,10))),(((5,9),(20,(4,(7,(15,16))))),((3,17),(((1,8),(2,12)),(13,(11,18)))))));
(21,((14,(19,(6,10))),((((1,8),(2,12)),((11,18),((20,(4,(7,(15,16)))),(5,9)))),(3,(13,17)))));
(21,(((6,14),(10,19)),((13,17),(3,(((4,(7,(16,(15,20)))),(5,9)),((11,18),(8,(1,(2,12)))))))));
(21,((14,(10,(6,19))),(((11,18),((2,12),(1,8))),((20,((7,(4,(15,16))),(5,9))),(3,(13,17))))));
(21,((19,(10,(6,14))),((((1,8),(2,12)),((11,18),(5,(9,(7,(4,(20,(15,16)))))))),(3,(13,17)))));
(21,(((6,10),(14,19)),((((4,(20,(7,(15,16)))),(5,9)),((11,18),((2,12),(1,8)))),(3,(13,17)))));
(21,(((6,10),(14,19)),((11,18),(((2,(12,(1,8))),(20,((4,(7,(15,16))),(5,9)))),(3,(13,17))))));
(21,((14,(19,(6,10))),((20,(((5,(15,16)),(9,(4,7))),((11,18),((2,8),(1,12))))),(3,(13,17)))));
(21,(((((2,12),(1,8)),(20,(5,(9,(4,(7,(15,16))))))),(3,(13,17))),(((6,19),(10,14)),(11,18))));
(21,((19,(14,(6,10))),((5,(9,(4,(20,(16,(7,15)))))),(3,((13,17),((11,18),((1,8),(2,12))))))));
(21,((14,(19,(6,10))),((((5,9),(20,(4,(7,(15,16))))),((11,18),((2,12),(1,8)))),(3,(13,17)))));
(21,((14,(19,(6,10))),((((11,18),((1,8),(2,12))),((9,(4,(7,(15,16)))),(5,20))),(3,(13,17)))));
(21,((6,(14,(10,19))),(((20,(9,(5,(4,(7,(15,16)))))),((11,18),((2,12),(1,8)))),(3,(13,17)))));
(21,((14,(6,(10,19))),((3,13),(17,(((4,(20,(7,(15,16)))),(5,9)),((8,(1,(2,12))),(11,18)))))));
(21,(((6,10),(14,19)),(3,((13,17),((20,(4,(9,(5,(7,(15,16)))))),((11,18),((2,12),(1,8))))))));
(21,(((6,19),(10,14)),(3,((13,17),(((11,18),((2,12),(1,8))),(20,((4,(16,(7,15))),(5,9))))))));
(21,(((13,17),((11,18),(20,((5,9),(4,(7,(15,16))))))),((14,(19,(6,10))),(3,(8,(1,(2,12)))))));
(21,((6,(10,(14,19))),((3,((2,12),(1,8))),((13,17),((11,18),((4,(7,(15,16))),(20,(5,9))))))));
(21,(((6,10),(14,19)),(((1,8),(11,18)),(3,((13,17),((2,12),(20,((5,9),(4,(7,(15,16)))))))))));
(21,((19,(6,(10,14))),((13,17),(3,((20,(9,(5,(4,(7,(15,16)))))),((11,18),((1,8),(2,12))))))));
(21,((10,(19,(6,14))),((3,(11,18)),(((2,12),(1,8)),((20,(9,(5,(4,(7,(15,16)))))),(13,17))))));
(21,(((6,14),(10,19)),((20,((7,(4,(15,16))),(5,9))),(((11,18),((1,8),(2,12))),(3,(13,17))))));
(21,((10,(6,(14,19))),(13,(3,(17,((20,((4,7),((15,16),(5,9)))),((11,18),((1,8),(2,12)))))))));
(21,(((14,19),(6,10)),((3,(20,((4,(15,(7,16))),(5,9)))),(((11,18),((2,12),(1,8))),(13,17)))));
(21,((19,(14,(6,10))),(17,(13,(3,((11,18),(((2,12),(1,8)),(20,((16,(4,(7,15))),(5,9))))))))));
(21,((19,(14,(6,10))),(3,((13,17),(((11,18),((2,12),(1,8))),(20,((4,(7,(15,16))),(5,9))))))));
(21,(((6,10),(14,19)),(((20,(5,(9,(4,(7,(15,16)))))),((11,18),((2,12),(1,8)))),(17,(3,13)))));
(21,(((6,10),(14,19)),(((11,18),(20,((4,(7,(15,16))),(5,9)))),(((2,12),(1,8)),(3,(13,17))))));
(21,((19,(14,(6,10))),(3,((13,17),(((4,((15,16),(7,20))),(5,9)),((11,18),((2,12),(1,8))))))));
(21,((6,(10,(14,19))),(((20,((5,9),(4,(15,(7,16))))),((11,18),((2,12),(1,8)))),(3,(13,17)))));
(21,(((6,10),(14,19)),((3,((11,18),((2,12),(1,8)))),((5,(9,((7,(15,16)),(4,20)))),(13,17)))));
(21,((14,(19,(6,10))),((((11,18),(5,(9,(7,(4,(20,(15,16))))))),(3,((2,12),(1,8)))),(13,17))));
(21,((19,(14,(6,10))),((((11,18),((2,12),(1,8))),(3,5)),((20,(9,(4,(7,(15,16))))),(13,17)))));
(21,(((14,19),(6,10)),(((13,17),((11,18),(20,(5,(9,(4,(7,(15,16)))))))),(3,((2,12),(1,8))))));
(21,((3,(((2,12),(1,8)),(11,18))),(((6,10),(14,19)),((13,17),(20,((5,9),(4,(15,(7,16)))))))));
(21,(((6,10),(14,19)),(17,(3,(13,(((11,18),((2,12),(1,8))),(20,((4,(15,16)),(5,(7,9))))))))));
(21,(((14,19),(6,10)),((13,17),((20,((5,9),(4,(16,(7,15))))),(3,((11,18),((1,8),(2,12))))))));
(21,(((6,10),(14,19)),((20,(5,(9,(7,(4,(15,16)))))),((13,17),(3,((11,18),((2,12),(1,8))))))));
(21,(3,((14,(19,(6,10))),((13,17),(((5,9),(20,(4,(7,(15,16))))),((11,18),((1,8),(2,12))))))));
(21,(((6,10),(14,19)),((3,(13,17)),(((11,18),((2,12),(1,8))),(20,((4,(7,(15,16))),(5,9)))))));
(21,((14,(19,(6,10))),((((11,18),((2,12),(1,8))),(20,(9,(5,(4,(15,(7,16))))))),(3,(13,17)))));
(21,(((10,14),(6,19)),((13,17),(3,((11,18),(((2,12),(1,8)),(20,((16,(7,15)),(9,(4,5))))))))));
(21,(((14,19),(6,10)),(((20,((4,(7,(15,16))),(5,9))),((11,18),((2,12),(1,8)))),(3,(13,17)))));
(21,((14,(19,(6,10))),((13,17),(3,((11,18),(((1,8),(2,12)),(20,(5,(9,(4,(7,(15,16))))))))))));
(21,(((6,10),(14,19)),(((11,18),(((1,8),(2,12)),(20,((4,(7,(15,16))),(5,9))))),(3,(13,17)))));
(21,((3,(((4,(20,(7,(15,16)))),(5,9)),((11,18),((2,12),(1,8))))),(((14,19),(6,10)),(13,17))));
(21,((3,(13,17)),((10,(6,(14,19))),(((7,(20,(15,16))),(9,(4,5))),((11,18),((2,12),(1,8)))))));
(21,((6,(10,(14,19))),(3,(((4,(7,(15,16))),(5,9)),((13,17),(((1,8),(2,12)),(20,(11,18))))))));
(21,(((6,10),(14,19)),(5,(((20,(9,(4,(16,(7,15))))),((11,18),((2,12),(1,8)))),(3,(13,17))))));
(21,(((13,17),((20,((4,(7,(15,16))),(5,9))),(((1,8),(2,12)),(11,18)))),(3,((14,19),(6,10)))));
(21,((6,(10,(14,19))),((13,17),(3,(((11,18),((2,12),(1,8))),(20,((4,(7,(15,16))),(5,9))))))));
(21,(((13,17),((11,18),(5,(9,((15,16),(4,7)))))),(3,(((6,14),(10,19)),(20,((1,8),(2,12)))))));
(21,(((10,14),(6,19)),((20,((4,(7,(15,16))),(5,9))),(3,(((11,18),((1,8),(2,12))),(13,17))))));
(21,(((14,19),(6,10)),(((11,18),(((2,12),(1,8)),(20,(5,(9,(4,(7,(15,16)))))))),(3,(13,17)))));
(21,(((6,10),(14,19)),((((2,12),(1,8)),((11,18),(20,(9,(5,(4,(7,(15,16)))))))),(3,(13,17)))));
(21,((3,(13,17)),((19,(6,(10,14))),(((11,18),((2,12),(1,8))),(20,(5,(9,(4,(7,(15,16))))))))));
(21,(((6,10),(14,19)),(((11,18),((2,12),(1,8))),(3,((20,((4,(7,(15,16))),(5,9))),(13,17))))));
(21,(((6,10),(14,19)),(3,(((11,18),(2,12)),((13,17),((1,8),(20,((4,(7,(15,16))),(5,9)))))))));
(21,(((14,19),(6,10)),(3,((13,17),(((2,12),(1,8)),((11,18),(20,((5,9),(4,(7,(15,16)))))))))));
(21,((((5,9),(20,(4,(7,(15,16))))),((11,18),((2,12),(1,8)))),(((6,10),(14,19)),(3,(13,17)))));
(21,((13,17),(((6,10),(14,19)),(3,(((2,12),(1,8)),((11,18),(20,((4,(7,(15,16))),(5,9)))))))));
(21,((19,(6,(10,14))),(3,((((11,18),((2,12),(1,8))),(20,(9,((7,(15,16)),(4,5))))),(13,17)))));
(21,(((6,10),(14,19)),((13,17),((20,((11,18),((2,12),(1,8)))),(3,(((15,16),(4,7)),(5,9)))))));
(21,(((6,10),(14,19)),(3,((13,17),(((11,18),((1,8),(2,12))),(20,(9,(5,(15,(4,(7,16)))))))))));
(21,((((11,18),((1,8),(2,12))),(3,(20,((4,(7,(15,16))),(5,9))))),((19,(14,(6,10))),(13,17))));
(21,((14,(19,(6,10))),((20,((9,(5,(4,(7,(15,16))))),((11,18),((2,12),(1,8))))),(3,(13,17)))));
(21,((19,(14,(6,10))),(3,((13,17),(((11,18),((1,8),(2,12))),(20,(((15,16),(4,7)),(5,9))))))));
(21,(((14,19),(6,10)),((3,(20,(4,((15,(7,16)),(5,9))))),((13,17),((11,18),((2,12),(1,8)))))));
(21,((((4,(7,(15,16))),(5,9)),(20,(((1,8),(2,12)),(11,18)))),((19,(10,(6,14))),(3,(13,17)))));
(21,((19,(14,(6,10))),((20,(9,(5,(4,(15,(7,16)))))),(((11,18),((2,12),(1,8))),(3,(13,17))))));
(21,((19,(14,(6,10))),((((4,(15,(7,16))),(5,9)),(20,(((2,12),(1,8)),(11,18)))),(3,(13,17)))));
(21,((6,(10,(14,19))),((((11,18),((1,8),(2,12))),(13,17)),(3,(20,(5,(9,(4,(7,(15,16))))))))));
(21,((14,(10,(6,19))),(3,(17,(13,((20,((5,9),(4,(7,(15,16))))),((11,18),((2,12),(1,8)))))))));
(21,(((14,19),(6,10)),(((20,(5,(9,(4,(16,(7,15)))))),((11,18),((2,12),(1,8)))),(3,(13,17)))));
(21,(((14,19),(6,10)),((13,17),(3,((20,((4,(7,(15,16))),(5,9))),((11,18),(12,(2,(1,8)))))))));
(21,(((14,19),(6,10)),((((1,8),(2,12)),((11,18),(20,(4,(7,(15,16)))))),(17,(3,(13,(5,9)))))));
(21,(((14,19),(6,10)),(((13,17),(20,((4,(16,(7,15))),(5,9)))),(3,((11,18),((1,8),(2,12)))))));
(21,(((6,10),(14,19)),(3,(((11,18),((1,8),(2,12))),((9,(5,(7,(4,(20,(15,16)))))),(13,17))))));
(21,((10,(14,(6,19))),(((20,((4,(7,(15,16))),(5,9))),((1,8),((2,12),(11,18)))),(3,(13,17)))));
(21,((10,(6,(14,19))),((11,18),((((2,12),(1,8)),(5,(9,(4,((15,16),(7,20)))))),(3,(13,17))))));
(21,((10,(6,(14,19))),((((11,18),((2,12),(1,8))),(20,(((15,16),(4,7)),(5,9)))),(17,(3,13)))));
(21,((14,(19,(6,10))),(((20,(9,(5,(7,(4,(15,16)))))),((11,18),(1,(8,(2,12))))),(3,(13,17)))));
(21,((6,(10,(14,19))),(3,((13,17),(((11,18),((1,8),(2,12))),(20,((4,(7,(15,16))),(5,9))))))));
(21,(((6,10),(14,19)),((13,17),((20,((5,(7,(15,16))),(4,9))),(3,((11,18),(1,(8,(2,12)))))))));
(21,(((14,19),(6,10)),(((5,9),(20,(4,(7,(15,16))))),(((11,18),((2,12),(1,8))),(3,(13,17))))));
(21,(((6,10),(14,19)),((3,(13,17)),(((1,8),(2,12)),(9,((11,18),(20,(5,(4,(16,(7,15)))))))))));
(21,(((14,19),(6,10)),((20,((5,9),(4,(7,(15,16))))),((17,((11,18),((1,8),(2,12)))),(3,13)))));
(21,((19,(6,(10,14))),(13,(((11,18),((2,12),(1,8))),(3,(17,((4,5),(20,(9,(7,(15,16)))))))))));
(21,((6,(19,(10,14))),(3,((13,17),(((4,(15,(7,16))),(20,(5,9))),((11,18),((1,8),(2,12))))))));
(21,((6,(10,(14,19))),(3,((13,17),(((4,(7,(15,16))),(20,(5,9))),((11,18),((2,12),(1,8))))))));
(21,((14,(19,(6,10))),((13,17),(3,((5,(9,(4,(16,(7,(15,20)))))),((11,18),((1,8),(2,12))))))));
(21,((19,(14,(6,10))),(((13,17),(((2,12),(1,8)),(20,(5,(9,(4,(7,(15,16)))))))),(3,(11,18)))));
(21,(((6,10),(14,19)),((3,(13,17)),(((4,5),(9,(7,(15,16)))),(20,((11,18),((1,8),(2,12))))))));
(21,(((6,10),(14,19)),((13,17),(3,((11,18),(((2,12),(1,8)),((4,(7,(15,16))),(20,(5,9)))))))));
(21,((3,((20,(5,(9,(4,(7,(15,16)))))),((11,18),((2,12),(1,8))))),(((10,19),(6,14)),(13,17))));
(21,(((13,17),((20,((5,9),((15,16),(4,7)))),(((2,12),(1,8)),(11,18)))),(3,(14,(19,(6,10))))));
(21,((3,(13,17)),((10,(6,(14,19))),(((11,18),((2,12),(1,8))),(20,(9,(5,(4,(16,(7,15))))))))));
(21,(((6,10),(14,19)),((13,17),(3,((20,((4,(15,(7,16))),(5,9))),((11,18),((2,12),(1,8))))))));
(21,((10,(6,(14,19))),(3,((13,17),(((11,18),((2,12),(1,8))),((4,7),(5,(9,(20,(15,16))))))))));
(21,((14,(19,(6,10))),((13,17),(3,(((11,18),((2,12),(1,8))),(20,((4,(15,(7,16))),(5,9))))))));
(21,(((20,((4,(16,(7,15))),(5,9))),((11,18),((1,8),(2,12)))),(((6,10),(14,19)),(3,(13,17)))));
(21,((6,(10,(14,19))),((11,18),((13,17),(3,(((2,12),(1,8)),(20,(5,(9,(4,(7,(15,16))))))))))));
(21,(((13,17),((2,(12,(1,8))),(5,(9,(4,(7,(20,(15,16)))))))),(((14,19),(6,10)),(3,(11,18)))));
(21,(((14,19),(6,10)),((13,17),(3,((20,((4,(7,(15,16))),(5,9))),((11,18),((1,8),(2,12))))))));
(21,((19,(14,(6,10))),((3,17),(13,(20,(((2,12),(1,8)),((11,18),(5,(9,(7,(4,(15,16))))))))))));
(21,(((14,19),(6,10)),((11,18),((13,17),(3,(((2,12),(1,8)),(4,(20,((7,(15,16)),(5,9))))))))));
(21,((19,(14,(6,10))),((3,(1,8)),(((11,18),(2,12)),((20,(9,(16,(5,(4,(7,15)))))),(13,17))))));
(21,((13,17),(((6,10),(14,19)),(3,((20,(5,(9,(4,(7,(15,16)))))),((11,18),((2,12),(1,8))))))));
(21,(((3,(11,18)),((13,17),(((1,8),(2,12)),(5,9)))),(((6,10),(14,19)),(20,(4,(7,(15,16)))))));
(21,((19,(14,(6,10))),(((20,((5,(4,(15,16))),(7,9))),((11,18),((1,8),(2,12)))),(3,(13,17)))));
(21,((10,(6,(14,19))),(((7,(4,(15,16))),((11,18),(((2,12),(1,8)),(20,(5,9))))),(3,(13,17)))));
(21,(((14,19),(6,10)),(13,((17,((11,18),((2,12),(1,8)))),(3,(20,(5,(9,(4,(7,(15,16)))))))))));
(21,(((14,19),(6,10)),(20,((((4,9),(5,(7,(15,16)))),((1,8),((11,18),(2,12)))),(3,(13,17))))));
(21,(((6,10),(14,19)),((13,17),(3,(((2,12),(1,8)),((11,18),(5,(20,(9,(4,(7,(15,16))))))))))));
(21,((14,(10,(6,19))),((13,17),(3,((20,(9,(5,(4,(7,(15,16)))))),((11,18),(1,(8,(2,12)))))))));
(21,(((6,10),(14,19)),(((20,(5,(9,(4,(7,(15,16)))))),(13,17)),(3,((11,18),((2,12),(1,8)))))));
(21,((19,(14,(6,10))),(3,((13,17),((20,(11,18)),(((2,12),(1,8)),((4,(7,(15,16))),(5,9))))))));
(21,((10,(14,(6,19))),(17,((20,((11,18),(((1,8),(2,12)),((4,(7,(15,16))),(5,9))))),(3,13)))));
(21,(((6,10),(14,19)),((3,13),(17,(20,(((7,(4,(15,16))),(5,9)),((11,18),((1,8),(2,12)))))))));
(21,((13,17),((10,(6,(14,19))),(3,((20,(9,(5,(4,(7,(15,16)))))),(((1,8),(2,12)),(11,18)))))));
(21,((10,(14,(6,19))),(3,((20,((11,18),((2,12),(1,8)))),(((4,(7,(15,16))),(5,9)),(13,17))))));
(21,((6,(19,(10,14))),(17,(((5,(4,(7,(15,16)))),(9,20)),(((11,18),((2,12),(1,8))),(3,13))))));
(21,(((6,10),(14,19)),(3,((13,17),(((2,12),(1,8)),((11,18),(20,((9,(7,(15,16))),(4,5)))))))));
(21,((19,(10,(6,14))),((13,17),(3,(((11,18),((1,8),(2,12))),(20,((5,(4,7)),(9,(15,16)))))))));
(21,((10,(14,(6,19))),((((2,12),(1,8)),(5,(20,(9,(4,(7,(15,16))))))),((13,17),(3,(11,18))))));
(21,((6,(10,(14,19))),((3,(20,((7,(4,(15,16))),(5,9)))),(((1,8),((2,12),(11,18))),(13,17)))));
(21,((10,(6,(14,19))),(((11,18),(((2,12),(1,8)),(20,(5,(9,(4,(7,(15,16)))))))),(3,(13,17)))));
(21,((13,17),((10,(6,(14,19))),(((4,(7,(15,16))),(5,9)),(3,(((2,12),(1,8)),(20,(11,18))))))));
(21,(((6,10),(14,19)),((13,17),((20,(9,(5,(4,(7,(15,16)))))),(3,((11,18),((1,8),(2,12))))))));
(21,((10,(14,(6,19))),(((4,(20,(7,(15,16)))),(5,9)),((13,17),(3,((11,18),((2,12),(1,8))))))));
(21,((14,(19,(6,10))),(3,((13,17),((20,((4,(7,(15,16))),(5,9))),((11,18),((1,8),(2,12))))))));
(21,(((6,10),(14,19)),((20,(5,(9,(4,(7,(15,16)))))),((13,17),(3,((11,18),((2,12),(1,8))))))));
(((3,(((8,(1,(2,12))),(((4,(7,(15,16))),(5,9)),(20,(11,18)))),(13,17))),(6,(10,(14,19)))),21);
(21,((((4,((15,16),(7,20))),(5,9)),(((2,12),(1,8)),(11,18))),((6,(10,(14,19))),(3,(13,17)))));
(21,((10,(14,(6,19))),((((4,(20,(7,(15,16)))),(5,9)),((11,18),((2,12),(1,8)))),(3,(13,17)))));
(21,(3,((19,(14,(6,10))),((13,17),(((9,((15,16),(4,7))),(5,20)),((11,18),((2,12),(1,8))))))));
(21,((19,(14,(6,10))),(((20,((7,(4,(15,16))),(5,9))),((11,18),((1,8),(2,12)))),(3,(13,17)))));
(21,((6,(10,(14,19))),((((11,18),((1,8),(2,12))),(20,(9,(5,((15,16),(4,7)))))),(3,(13,17)))));
(21,((6,(10,(14,19))),((((1,8),((2,12),(11,18))),(13,17)),(3,((20,(4,(16,(7,15)))),(5,9))))));
(21,(((6,10),(14,19)),((13,17),(3,((20,((4,(7,(15,16))),(5,9))),((11,18),((1,8),(2,12))))))));
(21,((14,(6,(10,19))),((13,17),(3,((20,(4,((7,(15,16)),(5,9)))),((11,18),((2,12),(1,8))))))));
(21,((19,(14,(6,10))),(((11,18),((2,12),(1,8))),((20,((4,(7,(15,16))),(5,9))),(3,(13,17))))));
(21,((6,(10,(14,19))),(3,((13,17),((20,((4,(7,(15,16))),(5,9))),(((2,12),(1,8)),(11,18)))))));
(21,((10,(6,(14,19))),(((11,18),((2,12),(1,8))),(3,((9,(20,(5,(4,(7,(15,16)))))),(13,17))))));
(21,((3,(((11,18),((1,8),(2,12))),((7,(4,(15,16))),(20,(5,9))))),((6,(14,(10,19))),(13,17))));
(21,(((6,10),(14,19)),(((((20,(7,16)),(4,15)),(5,9)),((11,18),((2,12),(1,8)))),(3,(13,17)))));
(21,(((6,10),(14,19)),(13,((20,(5,(9,((15,16),(4,7))))),(((11,18),(8,(1,(2,12)))),(3,17))))));
(21,(((10,19),(6,14)),((20,(((7,(15,16)),(4,(5,9))),(((1,8),(2,12)),(11,18)))),(3,(13,17)))));
(21,((14,(19,(6,10))),(((11,18),((1,8),(2,12))),((20,(4,(7,(15,16)))),((5,9),(3,(13,17)))))));
(21,((3,((20,((4,(16,(7,15))),(5,9))),(((1,8),(2,12)),(11,18)))),(((6,10),(14,19)),(13,17))));
(21,((14,(6,(10,19))),(3,((13,17),(((8,(1,(2,12))),(11,18)),(((20,(7,15)),(4,16)),(5,9)))))));
(21,(((((16,20),(4,(7,15))),(5,9)),(3,(13,17))),(((6,10),(14,19)),((11,18),((2,12),(1,8))))));
(21,((10,(6,(14,19))),(((11,18),((1,8),(2,12))),(3,((13,17),(20,((4,(15,(7,16))),(5,9))))))));
(21,((6,(10,(14,19))),((((11,18),((1,8),(2,12))),(20,((7,15),((4,16),(5,9))))),(3,(13,17)))));
(21,(((6,10),(14,19)),(((5,20),((9,(4,(15,(7,16)))),((11,18),((2,12),(1,8))))),(3,(13,17)))));
(21,(((14,19),(6,10)),((13,17),(3,((11,18),((2,(12,(1,8))),(((20,(15,16)),(4,7)),(5,9))))))));
(21,((3,20),((10,(6,(14,19))),((13,17),(((2,12),(1,8)),((11,18),((4,(7,(15,16))),(5,9))))))));
(21,(((14,19),(6,10)),(3,((13,17),(20,(((7,(4,(15,16))),(5,9)),((11,18),(8,(1,(2,12))))))))));
(21,((6,(14,(10,19))),((13,17),(3,((11,18),(((1,8),(2,12)),(((7,20),(4,(15,16))),(5,9))))))));
(21,((14,(19,(6,10))),(((20,((4,(7,(15,16))),(5,9))),((11,18),((2,12),(1,8)))),(3,(13,17)))));
(21,(((6,19),(10,14)),(((4,(7,(15,16))),(20,(5,9))),((13,17),(3,((11,18),((1,8),(2,12))))))));
(21,((14,(19,(6,10))),((20,(9,(5,(4,(7,(15,16)))))),(((11,18),((1,8),(2,12))),(3,(13,17))))));
(21,(((14,19),(6,10)),(3,((13,17),(((11,18),((2,12),(1,8))),(20,((7,(4,(15,16))),(5,9))))))));
(21,((19,(14,(6,10))),((5,(20,(9,(4,(7,(15,16)))))),(3,(((11,18),((1,8),(2,12))),(13,17))))));
(((((9,(5,((7,(15,16)),(4,20)))),((11,18),((2,12),(1,8)))),(3,(13,17))),(14,(19,(6,10)))),21);
(21,((14,(19,(6,10))),(17,(((5,(9,(4,((15,16),(7,20))))),((11,18),((1,8),(2,12)))),(3,13)))));
(21,(((6,14),(10,19)),(((4,(7,(15,16))),(5,9)),(3,((13,17),(20,((11,18),((1,8),(2,12)))))))));
(21,((6,(10,(14,19))),(3,((13,17),(20,((5,(9,(4,(7,(15,16))))),((11,18),((1,8),(2,12)))))))));
(21,(((14,19),(6,10)),(((20,(5,(9,(4,(7,(15,16)))))),(((1,8),(2,12)),(11,18))),(3,(13,17)))));
(21,((19,(14,(6,10))),(((11,18),((2,12),(1,8))),(((4,((15,16),(7,20))),(5,9)),(3,(13,17))))));
(21,(((6,10),(14,19)),(3,((20,(9,(5,(4,(7,(15,16)))))),((13,17),((11,18),((1,8),(2,12))))))));
(21,((3,(13,17)),(((14,19),(6,10)),((20,(5,(9,(4,(7,(15,16)))))),((11,18),((2,12),(1,8)))))));
(21,((19,(14,(6,10))),((((4,(7,(15,16))),(5,9)),(20,((11,18),((2,12),(1,8))))),(3,(13,17)))));
(21,(((14,19),(6,10)),(3,((13,17),(((2,12),(1,8)),((11,18),(20,((4,(7,(15,16))),(5,9)))))))));
(21,(((10,14),(6,19)),((13,17),(3,((20,((4,(7,(15,16))),(5,9))),((11,18),((2,12),(1,8))))))));
(21,((14,(19,(6,10))),(13,(17,(3,(((11,18),((1,8),(2,12))),(20,((4,(7,(15,16))),(5,9)))))))));
(21,(((6,19),(10,14)),(3,((13,17),((5,(9,(4,((15,16),(7,20))))),((11,18),((2,12),(1,8))))))));
(21,(((6,10),(14,19)),((13,17),(3,((20,(5,((15,16),(4,7)))),(9,((11,18),((2,12),(1,8)))))))));
(21,((((11,18),((2,12),(1,8))),((20,(9,(5,(4,(7,(15,16)))))),(13,17))),(3,(14,(19,(6,10))))));
(21,((14,(19,(6,10))),(3,((13,17),((11,18),(((1,8),(2,12)),(20,((4,(7,(15,16))),(5,9)))))))));
(21,(((6,10),(14,19)),((13,17),(3,(((11,18),(8,(1,(2,12)))),(20,(9,(5,(4,(7,(15,16)))))))))));
(21,((6,(14,(10,19))),((13,17),(3,((20,((4,(16,(7,15))),(5,9))),((2,12),((1,8),(11,18))))))));
(21,((14,(19,(6,10))),((3,(13,17)),((9,(4,(5,(15,(7,16))))),(20,((11,18),((2,12),(1,8))))))));
(21,(((10,19),(6,14)),(3,(((9,(5,((15,16),(4,(7,20))))),((11,18),((2,12),(1,8)))),(13,17)))));
(((((2,12),(1,8)),(20,(5,(9,((15,16),(4,7)))))),(((6,10),(14,19)),((11,18),(3,(13,17))))),21);
(21,(((6,19),(10,14)),(((11,18),(8,(1,(2,12)))),((20,((4,7),(9,(5,(15,16))))),(3,(13,17))))));
(21,(((6,10),(14,19)),(3,((13,17),((20,(5,(9,(4,(7,(15,16)))))),((11,18),((1,8),(2,12))))))));
(21,(((14,19),(6,10)),((3,(13,17)),((11,18),(((1,8),(2,12)),(20,(((15,16),(4,7)),(5,9))))))));
(21,((10,(6,(14,19))),((20,(9,(5,(4,(7,(15,16)))))),((3,(13,17)),((11,18),((2,12),(1,8)))))));
(21,(((14,19),(6,10)),((20,((4,(7,(15,16))),(5,9))),((3,13),(17,((11,18),((2,12),(1,8))))))));
(21,((13,17),((6,(10,(14,19))),(3,(((11,18),(1,(8,(2,12)))),(20,(9,(5,(4,(7,(15,16)))))))))));
(21,((19,(14,(6,10))),(((4,((7,(15,16)),(5,9))),(20,((11,18),((1,8),(2,12))))),(3,(13,17)))));
(21,((14,(10,(6,19))),((13,17),(3,(((11,18),((2,12),(1,8))),((5,9),(20,((7,16),(4,15)))))))));
(21,(((13,17),(20,(((15,16),(4,7)),(5,9)))),((19,(14,(6,10))),(3,((11,18),((1,8),(2,12)))))));
(21,((19,(14,(6,10))),((20,(((4,(7,(15,16))),(5,9)),(((2,12),(1,8)),(11,18)))),(3,(13,17)))));
(21,(((6,10),(14,19)),(((20,((4,(7,(15,16))),(5,9))),((11,18),(2,(12,(1,8))))),(3,(13,17)))));
(21,((14,(6,(10,19))),(3,((13,17),(((4,(7,(15,16))),(5,9)),(20,((11,18),((2,12),(1,8)))))))));
(21,(((6,10),(14,19)),((((11,18),((2,12),(1,8))),(20,(5,(9,(4,(7,(15,16))))))),(3,(13,17)))));
(21,((6,(10,(14,19))),(3,((20,((11,18),((2,12),(1,8)))),((9,((7,(15,16)),(4,5))),(13,17))))));
(21,(((6,10),(14,19)),((13,17),(3,(((1,8),(2,12)),((11,18),(9,(5,(4,((15,16),(7,20)))))))))));
(21,((14,(19,(6,10))),((((11,18),((2,12),(1,8))),(20,((4,(7,(15,16))),(5,9)))),(3,(13,17)))));
(21,((19,(14,(6,10))),((9,(5,((7,(15,16)),(4,20)))),(3,(((11,18),((1,8),(2,12))),(13,17))))));
(21,((19,(14,(6,10))),((3,(13,17)),((2,12),(((4,(15,(7,16))),(5,(9,20))),((1,8),(11,18)))))));
(21,(((6,10),(14,19)),((13,17),(((1,8),(2,12)),(3,((11,18),(20,((5,9),(4,(7,(15,16)))))))))));
(21,(((6,10),(14,19)),(3,((13,17),((11,18),(((2,12),(1,8)),(20,(5,(9,(7,(4,(15,16))))))))))));
(21,(((6,19),(10,14)),(((20,(((4,16),(7,15)),(5,9))),((11,18),((2,12),(1,8)))),(3,(13,17)))));
(21,(((10,19),(6,14)),((3,(13,17)),((20,((4,(7,(15,16))),(5,9))),((11,18),((2,12),(1,8)))))));
(21,((10,(6,(14,19))),(((20,((4,(16,(7,15))),(5,9))),((11,18),((2,12),(1,8)))),(3,(13,17)))));
(21,((14,(19,(6,10))),(((5,(9,(4,(7,(15,16))))),(((2,12),(1,8)),(20,(11,18)))),(3,(13,17)))));
(21,((10,(14,(6,19))),(((20,(5,(9,((15,16),(4,7))))),((11,18),((1,8),(2,12)))),(3,(13,17)))));
(21,(((10,14),(6,19)),((((11,18),((1,8),(2,12))),((5,9),(20,(7,(4,(15,16)))))),(3,(13,17)))));
(21,((19,(14,(6,10))),((3,((20,((4,(16,(7,15))),(5,9))),((2,12),((11,18),(1,8))))),(13,17))));
(21,((10,(6,(14,19))),((13,17),(3,(((11,18),(8,(1,(2,12)))),(4,(20,(9,(5,(7,(15,16)))))))))));
(21,(((6,10),(14,19)),(3,((13,17),(((11,18),((1,8),(2,12))),(20,(5,(9,((7,16),(4,15))))))))));
(21,((19,(14,(6,10))),((13,17),(3,(((11,18),((1,8),(2,12))),(20,(9,(5,(4,(7,(15,16)))))))))));
(21,(((10,19),(6,14)),(((20,((4,(7,(15,16))),(5,9))),((11,18),(12,(2,(1,8))))),(3,(13,17)))));
(21,(((6,14),(10,19)),((13,17),(((11,18),((2,12),(1,8))),(3,(20,((4,(7,16)),(15,(5,9)))))))));
(21,(((6,10),(14,19)),(((4,(20,(7,(15,16)))),(5,9)),(((11,18),((1,8),(2,12))),(3,(13,17))))));
(21,(((14,19),(6,10)),(3,((13,17),(((2,12),(1,8)),((11,18),((4,(15,(7,16))),(20,(5,9)))))))));
(21,((19,(14,(6,10))),((3,(13,17)),((5,(9,(4,(16,(20,(7,15)))))),((11,18),((2,12),(1,8)))))));
(21,((14,(19,(6,10))),(((20,((4,(7,(15,16))),(5,9))),((1,8),((2,12),(11,18)))),(3,(13,17)))));
(21,(((6,10),(14,19)),((((4,(7,(15,16))),(5,9)),(20,((11,18),(2,(12,(1,8)))))),(3,(13,17)))));
(21,((10,(6,(14,19))),(3,((13,17),(((5,(4,(7,(15,16)))),(9,20)),((11,18),((1,8),(2,12))))))));
(21,((19,(14,(6,10))),(((20,(5,9)),((4,(7,(15,16))),((11,18),((1,8),(2,12))))),(3,(13,17)))));
(21,((19,(14,(6,10))),(3,((13,17),(((5,((15,16),(4,7))),(9,20)),((11,18),((2,12),(1,8))))))));
(21,(((6,10),(14,19)),(((2,12),(1,8)),((11,18),((20,(9,(4,(5,(7,(15,16)))))),(3,(13,17)))))));
(21,(((11,18),((2,12),(1,8))),((6,(10,(14,19))),((20,((4,(7,(15,16))),(5,9))),(3,(13,17))))));
(21,((19,(6,(10,14))),(((20,(9,(5,(7,(4,(15,16)))))),((2,12),((11,18),(1,8)))),(3,(13,17)))));
(21,((14,(19,(6,10))),(3,((13,17),((20,(5,(9,(4,(7,(15,16)))))),((11,18),((2,12),(1,8))))))));
(21,((14,(19,(6,10))),((13,17),(3,((9,(20,(5,(4,(7,(15,16)))))),((11,18),((1,8),(2,12))))))));
(21,(((13,17),(((9,(4,(16,(7,15)))),(5,20)),((11,18),((2,12),(1,8))))),(3,(19,(14,(6,10))))));
(21,(((14,19),(6,10)),(((11,18),(20,((4,(7,(15,16))),(5,9)))),(((1,8),(2,12)),(3,(13,17))))));
(21,(((6,10),(14,19)),((13,17),(3,(((11,18),((4,(7,(15,16))),(5,9))),(20,((2,12),(1,8))))))));
(21,(((6,10),(14,19)),((3,((9,20),((5,(4,(7,(15,16)))),((11,18),((2,12),(1,8)))))),(13,17))));
(21,(((20,((4,(7,(15,16))),(5,9))),(13,17)),(((6,10),(14,19)),(3,((11,18),((2,12),(1,8)))))));
(21,(((6,10),(14,19)),((13,17),(3,(((4,(7,(15,16))),(20,(5,9))),((11,18),((2,12),(1,8))))))));
(21,((10,(19,(6,14))),((13,17),(3,(((4,(15,(20,(7,16)))),(5,9)),((11,18),(2,(12,(1,8)))))))));
(21,((19,(14,(6,10))),(13,((20,(((4,(7,(15,16))),(5,9)),((11,18),((1,8),(2,12))))),(3,17)))));
(21,((6,(19,(10,14))),((13,17),(3,((20,(((15,16),(4,7)),(5,9))),((11,18),(8,(1,(2,12)))))))));
(21,((14,(19,(6,10))),(((4,(7,(15,16))),(20,(5,9))),((11,18),((13,17),(3,((2,12),(1,8))))))));
(21,(3,((14,(19,(6,10))),((13,17),(((1,8),(2,12)),((11,18),(20,(9,(5,(4,(7,(15,16))))))))))));
(21,((19,(10,(6,14))),(((11,18),(((1,8),(2,12)),(20,(((15,16),(4,7)),(5,9))))),(3,(13,17)))));
(21,((((5,9),(20,(4,(7,(15,16))))),((11,18),((2,12),(1,8)))),((6,(14,(10,19))),(3,(13,17)))));
(21,(((14,19),(6,10)),(3,((13,17),((20,(5,(9,(4,(7,(15,16)))))),((11,18),((1,8),(2,12))))))));
(21,(((9,(5,(4,(7,(15,16))))),(20,((11,18),((2,12),(1,8))))),((14,(19,(6,10))),(3,(13,17)))));
(21,(((10,14),(6,19)),(3,((13,17),(9,((20,(5,(4,(7,(15,16))))),((11,18),((2,12),(1,8)))))))));
(21,(((6,10),(14,19)),((13,17),(3,((20,((4,7),((15,16),(5,9)))),(((1,8),(2,12)),(11,18)))))));
(21,((19,(14,(6,10))),(((20,(5,(9,((15,16),(4,7))))),((11,18),((2,12),(1,8)))),(3,(13,17)))));
(21,((19,(6,(10,14))),((13,(((1,8),(2,12)),((11,18),(5,(9,(4,((15,16),(7,20)))))))),(3,17))));
(21,((6,(19,(10,14))),((((11,18),((1,8),(2,12))),(20,(9,(5,(4,(7,(15,16))))))),(3,(13,17)))));
(21,((14,(19,(6,10))),(3,(17,(((11,18),(1,8)),(13,((2,12),(20,(5,(9,(7,(4,(15,16)))))))))))));
(21,(((6,10),(14,19)),(((20,(5,(9,(4,(7,(15,16)))))),((11,18),((2,12),(1,8)))),(3,(13,17)))));
(21,(((6,10),(14,19)),((13,17),(3,(((11,18),((2,12),(1,8))),(5,(20,(9,(4,(16,(7,15)))))))))));
(21,(((10,14),(6,19)),(3,((13,17),(((4,(20,(7,(15,16)))),(5,9)),((11,18),((1,8),(2,12))))))));
(21,(((6,10),(14,19)),(((((4,16),(15,(7,20))),(5,9)),(((2,12),(1,8)),(11,18))),(3,(13,17)))));
(21,(((6,10),(14,19)),((11,18),(3,((13,17),(((5,(7,(15,16))),(9,(4,20))),((2,12),(1,8))))))));
(21,((19,(14,(6,10))),((13,17),(3,(20,((11,18),(((2,12),(1,8)),((4,(7,(15,16))),(5,9)))))))));
(21,(((6,14),(10,19)),((((2,12),(1,8)),((11,18),(20,((4,(15,(7,16))),(5,9))))),(13,(3,17)))));
(21,(((6,10),(14,19)),(3,((13,17),(20,(((4,(7,(15,16))),(5,9)),((11,18),((2,12),(1,8)))))))));
(21,(((6,19),(10,14)),((((11,18),((4,(7,(15,16))),(5,9))),(20,((2,12),(1,8)))),(3,(13,17)))));
(21,(((((2,12),(1,8)),(20,(5,(9,(16,(4,(7,15))))))),((11,18),(3,(13,17)))),(19,(14,(6,10)))));
(21,(3,((19,(14,(6,10))),((13,17),((20,(9,(5,((15,16),(4,7))))),((11,18),((1,8),(2,12))))))));
(21,(((6,10),(14,19)),((13,17),(3,((11,18),(((4,((15,16),(7,20))),(5,9)),((2,12),(1,8))))))));
(21,((13,17),((14,(10,(6,19))),(((4,(7,(15,16))),(20,(5,9))),(3,((11,18),((2,12),(1,8))))))));
(21,((14,(19,(6,10))),(3,((13,17),(((11,18),((2,12),(1,8))),(20,(9,(5,(4,(7,(15,16)))))))))));
(21,((10,(14,(6,19))),((((15,16),(4,(7,20))),(5,9)),(3,(((11,18),((1,8),(2,12))),(13,17))))));
(21,((10,(6,(14,19))),(((20,(9,(5,(4,(7,(15,16)))))),((11,18),((2,12),(1,8)))),(3,(13,17)))));
(21,((10,(6,(14,19))),((20,(9,(5,(4,(7,(15,16)))))),((13,17),(3,((11,18),((2,12),(1,8))))))));
(21,(((6,10),(14,19)),((13,17),(3,((((1,8),(2,12)),(11,18)),(5,(20,(9,(4,(7,(15,16)))))))))));
(21,((14,(19,(6,10))),((17,(20,((9,(5,(7,(4,(15,16))))),((11,18),((1,8),(2,12)))))),(3,13))));
(21,(((14,19),(6,10)),((13,17),(3,(((4,(7,(15,16))),(5,9)),(20,((11,18),((1,8),(2,12)))))))));
(21,(((14,19),(6,10)),(((11,18),(20,(9,(5,(7,(4,(15,16))))))),(((1,8),(2,12)),(3,(13,17))))));
(21,(((6,14),(10,19)),(3,((13,17),((11,18),(((2,12),(1,8)),(20,(4,((7,(15,16)),(5,9))))))))));
(21,((14,(6,(10,19))),((20,(((4,(7,(15,16))),(5,9)),((11,18),((2,12),(1,8))))),(3,(13,17)))));
(21,(((13,17),((((20,(7,16)),(4,15)),(5,9)),((11,18),((2,12),(1,8))))),(3,((14,19),(6,10)))));
(21,((14,(19,(6,10))),(3,((13,17),((20,(9,((4,(7,15)),(5,16)))),((11,18),((1,8),(2,12))))))));
(21,(((6,19),(10,14)),(3,((13,17),((5,(9,((7,(15,16)),(4,20)))),((11,18),((1,8),(2,12))))))));
(21,(((14,19),(6,10)),((13,17),(3,(((11,18),((2,12),(1,8))),(20,((4,(7,(15,16))),(5,9))))))));
(21,(((14,19),(6,10)),(3,((13,17),((11,18),(((1,8),(2,12)),((4,(7,(20,(15,16)))),(5,9))))))));
(21,(((6,10),(14,19)),(3,((13,17),(((11,18),((2,12),(1,8))),(20,(9,(5,((15,16),(4,7))))))))));
(21,((3,(13,17)),((19,(14,(6,10))),((11,18),(((2,12),(1,8)),(20,(9,(5,(4,(7,(15,16)))))))))));
(21,(((6,19),(10,14)),(((5,(9,(4,((15,16),(7,20))))),(((2,12),(1,8)),(11,18))),(3,(13,17)))));
(21,(((6,10),(14,19)),(13,(17,(3,(((4,((7,15),(16,20))),(5,9)),((11,18),((1,8),(2,12)))))))));
(21,((19,(14,(6,10))),((13,17),(3,((20,(((15,16),(4,7)),(5,9))),((11,18),((2,12),(1,8))))))));
(21,(((((2,12),(1,8)),(5,(9,(4,(7,(20,(15,16))))))),(3,(13,17))),((11,18),(19,(14,(6,10))))));
(21,(((6,10),(14,19)),(3,((13,17),(((11,18),((2,12),(1,8))),(20,(15,(9,(5,(4,(7,16)))))))))));
(21,(((6,10),(14,19)),(((20,((4,(7,(15,16))),(5,9))),((11,18),((2,12),(1,8)))),(3,(13,17)))));
(21,((19,(14,(6,10))),((((4,(7,(20,(15,16)))),(5,9)),((11,18),((1,8),(2,12)))),(3,(13,17)))));
(21,((6,(10,(14,19))),((13,17),(3,(((7,(4,(15,16))),(20,(5,9))),((11,18),((2,12),(1,8))))))));
(21,(((6,10),(14,19)),((((5,(4,(7,(15,16)))),(9,20)),((1,8),((2,12),(11,18)))),(13,(3,17)))));
(21,(((6,10),(14,19)),(((11,18),(20,((4,(7,(15,16))),(5,9)))),((13,17),(3,((1,8),(2,12)))))));
((((6,10),(14,19)),(((20,((4,(7,(15,16))),(5,9))),((11,18),((2,12),(1,8)))),(3,(13,17)))),21);
(21,((14,(19,(6,10))),((13,17),(((2,12),(1,8)),(3,((11,18),(20,((4,(7,(15,16))),(5,9)))))))));
(21,((3,(((11,18),((2,12),(1,8))),(20,((5,9),(4,(15,(7,16))))))),(((6,19),(10,14)),(13,17))));
(21,((13,17),((6,(10,(14,19))),(3,((20,(9,(5,(4,(7,(15,16)))))),((11,18),((1,8),(2,12))))))));
(21,(((6,19),(10,14)),((17,(((4,(20,(7,(15,16)))),(5,9)),((11,18),((2,12),(1,8))))),(3,13))));
(21,(((10,19),(6,14)),((20,(5,(9,(7,(4,(15,16)))))),(((11,18),((1,8),(2,12))),(3,(13,17))))));
(21,((14,(19,(6,10))),(3,((13,17),((11,18),((8,(1,(2,12))),(20,((4,(15,(7,16))),(5,9)))))))));
(21,((19,(6,(10,14))),(3,((13,17),((20,((4,(7,(15,16))),(5,9))),((11,18),(12,(2,(1,8)))))))));
(21,(3,(((6,10),(14,19)),((((1,8),(2,12)),(20,(5,(9,(4,(7,(15,16))))))),((11,18),(13,17))))));
(21,((19,(14,(6,10))),(13,((3,17),((9,(4,(7,(20,(15,16))))),(5,((11,18),((2,12),(1,8)))))))));
(21,((14,(19,(6,10))),((3,17),(((11,18),(20,(4,(7,(15,16))))),(13,(((1,8),(2,12)),(5,9)))))));
(21,(((6,10),(14,19)),(3,(((2,12),(1,8)),((13,17),((11,18),(20,((7,(15,16)),(4,(5,9))))))))));
(21,((6,(10,(14,19))),((13,17),(3,(((15,(4,(7,16))),(20,(5,9))),((11,18),((1,8),(2,12))))))));
(21,((6,(19,(10,14))),((((2,12),(1,8)),((11,18),(20,(9,(5,((15,16),(4,7))))))),(3,(13,17)))));
(21,(((6,10),(14,19)),(3,((13,17),(20,(((4,(7,(15,16))),(5,9)),((11,18),((2,12),(1,8)))))))));
(21,((10,(6,(14,19))),(((11,18),((2,12),(1,8))),((13,17),(3,((4,(7,(15,16))),(20,(5,9))))))));
(21,(3,(((6,10),(14,19)),(((20,((5,9),(4,(7,(15,16))))),((11,18),((1,8),(2,12)))),(13,17)))));
(21,((6,(10,(14,19))),((13,17),(3,(((11,18),((2,12),(1,8))),(20,((4,(7,(15,16))),(5,9))))))));
(21,(((13,17),(5,(((11,18),((2,8),(1,12))),(20,(9,(4,(7,(15,16)))))))),(3,((6,14),(10,19)))));
(21,((14,(10,(6,19))),(3,(((5,(20,(9,(4,(7,(15,16)))))),((11,18),((1,8),(2,12)))),(13,17)))));
(21,((6,(10,(14,19))),(3,((13,17),((((2,12),(1,8)),(11,18)),(20,(5,(9,((7,15),(4,16))))))))));
(21,((10,(14,(6,19))),((13,17),(3,((20,((4,(7,(15,16))),(5,9))),((11,18),((2,12),(1,8))))))));
(21,(((6,10),(14,19)),(3,((((2,12),(1,8)),(11,18)),((20,((15,16),((4,7),(5,9)))),(13,17))))));
(21,((14,(19,(6,10))),(((11,18),(20,((4,(7,(15,16))),(5,9)))),((13,17),(3,((1,8),(2,12)))))));
(21,((19,(14,(6,10))),(3,((13,17),((20,((5,9),(4,(7,(15,16))))),((11,18),((2,12),(1,8))))))));
(21,(((10,14),(6,19)),(((5,9),((20,(4,(7,(15,16)))),((11,18),((1,8),(2,12))))),(3,(13,17)))));
(21,((19,(14,(6,10))),(((20,(4,((7,(15,16)),(5,9)))),((11,18),((1,8),(2,12)))),(3,(13,17)))));
(21,(((6,10),(14,19)),((13,17),(3,(((4,(5,(7,(15,16)))),(9,20)),((11,18),((2,12),(1,8))))))));
(21,(((6,10),(14,19)),(3,((13,17),((20,((4,(7,(15,16))),(5,9))),((11,18),((1,8),(2,12))))))));
(21,((19,(14,(6,10))),(3,((((4,(7,(15,16))),(5,9)),(20,((11,18),((1,8),(2,12))))),(13,17)))));
(21,(((14,19),(6,10)),(3,((13,17),((5,(9,((7,20),(4,(15,16))))),((11,18),((2,12),(1,8))))))));
(21,((14,(19,(6,10))),((((11,18),(8,(1,(2,12)))),(20,(9,(5,(4,(7,(15,16))))))),(3,(13,17)))));
(21,(((6,10),(14,19)),(3,(((20,((4,(15,16)),(7,(5,9)))),((11,18),((1,8),(2,12)))),(13,17)))));
(21,((((11,18),(9,(5,(4,(7,(20,(15,16))))))),(3,(13,17))),(((6,10),(14,19)),((1,8),(2,12)))));
(21,(((6,10),(14,19)),((((11,18),((2,12),(1,8))),(20,((4,(7,(15,16))),(5,9)))),(3,(13,17)))));
(21,((13,17),(((6,10),(14,19)),(3,((20,(5,(9,(4,(15,(7,16)))))),((11,18),(1,(8,(2,12)))))))));
(21,(((14,19),(6,10)),((((4,(20,(15,(7,16)))),(5,9)),(((2,12),(1,8)),(11,18))),(13,(3,17)))));
(21,((10,(6,(14,19))),(((20,((5,9),(4,(7,(15,16))))),((11,18),((2,12),(1,8)))),(3,(13,17)))));
(21,((13,17),((6,(10,(14,19))),(3,(((4,(7,(15,16))),(5,9)),(20,((11,18),((2,12),(1,8)))))))));
(21,((20,((((15,16),(4,7)),(5,9)),(((2,12),(1,8)),(11,18)))),(((6,10),(14,19)),(3,(13,17)))));
(21,((19,(14,(6,10))),((((4,20),((7,(15,16)),(5,9))),((11,18),((2,12),(1,8)))),(3,(13,17)))));
(21,((10,(14,(6,19))),((13,17),(3,((11,18),(((1,8),(2,12)),(4,(20,((7,(15,16)),(5,9))))))))));
(21,(((14,19),(6,10)),((3,((11,18),((1,8),(2,12)))),((13,17),(20,(9,(5,(4,(7,(15,16))))))))));
(21,((10,(6,(14,19))),(((11,18),((1,8),(2,12))),(((9,(7,(4,(15,16)))),(13,17)),(3,(5,20))))));
(21,((3,(13,17)),(((6,10),(14,19)),(((11,18),((2,12),(1,8))),(20,(5,(9,(7,(4,(15,16))))))))));
(21,(((14,19),(6,10)),((((9,(4,(7,(15,16)))),(5,20)),((11,18),((1,8),(2,12)))),(3,(13,17)))));
(21,((14,(6,(10,19))),(((11,18),((2,12),(1,8))),((9,(20,(5,(4,(7,(15,16)))))),(3,(13,17))))));
(21,((19,(10,(6,14))),(((11,18),((16,(4,(7,15))),(20,(5,9)))),(((1,8),(2,12)),(3,(13,17))))));
(21,(3,((6,(10,(14,19))),(((20,(((15,16),(4,7)),(5,9))),((11,18),((2,12),(1,8)))),(13,17)))));
(21,((14,(19,(6,10))),((((11,18),((2,12),(1,8))),(20,(9,(5,(7,(4,(15,16))))))),(3,(13,17)))));
(((3,(17,(13,(((7,(15,16)),(20,(4,(5,9)))),((11,18),(1,(8,(2,12)))))))),((10,14),(6,19))),21);
(21,((14,(10,(6,19))),((((11,18),((2,12),(1,8))),((5,9),(20,((15,16),(4,7))))),(3,(13,17)))));
(21,((3,((20,(9,(5,(4,(15,(7,16)))))),((11,18),((1,8),(2,12))))),(((14,19),(6,10)),(13,17))));
(21,((14,(19,(6,10))),(((20,((7,(4,(15,16))),(5,9))),((11,18),((1,8),(2,12)))),(3,(13,17)))));
(21,(((6,10),(14,19)),(((5,9),(4,(7,(15,16)))),((20,((11,18),((1,8),(2,12)))),(3,(13,17))))));
(21,(3,((19,(10,(6,14))),((13,17),(((11,18),((2,12),(1,8))),(20,((4,(7,(15,16))),(5,9))))))));
(21,((14,(19,(6,10))),(((20,(5,(9,(7,(4,(15,16)))))),((11,18),((2,12),(1,8)))),(3,(13,17)))));
(21,(((14,19),(6,10)),(3,((((15,16),(4,7)),(20,(5,9))),((13,17),((11,18),((2,12),(1,8))))))));
(21,(((6,10),(14,19)),((20,(13,17)),(3,((1,8),(((4,(7,(15,16))),(5,9)),((2,12),(11,18))))))));
(21,(((10,14),(6,19)),(3,((13,17),(((4,((15,16),(7,20))),(5,9)),((11,18),((2,12),(1,8))))))));
(21,((3,(13,17)),((6,(10,(14,19))),((20,((4,(7,(15,16))),(5,9))),((11,18),((1,8),(2,12)))))));
(21,(((6,10),(14,19)),(3,((13,17),(((11,18),((2,12),(1,8))),((7,(4,(15,16))),(20,(5,9))))))));
(21,(((6,10),(14,19)),(3,((13,17),(((1,8),(2,12)),((11,18),(9,(20,(5,(4,(7,(15,16))))))))))));
(21,(((6,10),(14,19)),(20,(3,((13,17),(((4,(7,(15,16))),(5,9)),((2,12),((11,18),(1,8)))))))));
(21,(((13,17),(20,((((15,16),(4,7)),(5,9)),((11,18),((1,8),(2,12)))))),(3,(6,(19,(10,14))))));
(21,(((6,19),(10,14)),((13,17),(3,(((11,18),((2,12),(1,8))),(20,(5,(9,(7,(4,(15,16)))))))))));
(21,(((6,10),(14,19)),((13,17),(3,((9,(5,((15,16),(4,(7,20))))),((2,(12,(1,8))),(11,18)))))));
(21,(((6,10),(14,19)),(3,((13,17),((20,((4,(7,(15,16))),(5,9))),((11,18),((2,12),(1,8))))))));
(21,(((10,14),(6,19)),(3,((13,17),(((1,8),(2,12)),((11,18),(20,(9,(5,(4,(7,(15,16))))))))))));
(21,((14,(19,(6,10))),((((11,18),((2,12),(1,8))),(20,((7,(4,(15,16))),(5,9)))),(3,(13,17)))));
(21,((3,((13,17),(((2,12),(1,8)),(20,((16,(4,(7,15))),(5,9)))))),((11,18),(14,(19,(6,10))))));
(21,((19,(14,(6,10))),(((9,(5,(4,(7,(15,16))))),(20,((11,18),((1,8),(2,12))))),(3,(13,17)))));
(21,((6,(10,(14,19))),(3,((13,17),((20,(5,(9,(4,(7,(15,16)))))),((11,18),((2,12),(1,8))))))));
(21,((10,(6,(14,19))),((20,(5,(9,(4,(7,(15,16)))))),((13,17),(3,((11,18),((2,12),(1,8))))))));
(21,(((14,19),(6,10)),((13,17),(3,((((1,8),(2,12)),(11,18)),(20,(9,(5,(4,(7,(15,16)))))))))));
(21,((19,(14,(6,10))),(3,((11,(((12,(2,(1,8))),(5,(9,((15,16),(4,7))))),(18,20))),(13,17)))));
(21,(((6,10),(14,19)),((17,(3,13)),((2,(12,(1,8))),((11,18),(20,((4,(7,(15,16))),(5,9))))))));
(21,(17,((10,(19,(6,14))),(3,((20,(9,((7,(15,16)),(4,5)))),(13,((11,18),((2,12),(1,8)))))))));
(21,((14,(19,(6,10))),((13,17),((20,(9,(5,(4,(15,(7,16)))))),(3,((11,18),((2,12),(1,8))))))));
(21,(((6,14),(10,19)),(3,((13,17),((20,((4,(7,(15,16))),(5,9))),((11,18),((2,12),(1,8))))))));
(21,(((6,10),(14,19)),(((20,((4,(15,(7,16))),(5,9))),(13,17)),(3,((11,18),((2,12),(1,8)))))));
(21,((3,(13,17)),((10,(6,(14,19))),((20,((4,(7,(15,16))),(5,9))),((11,18),((2,12),(1,8)))))));
(21,((14,(6,(10,19))),(3,((13,17),(((11,18),((2,12),(1,8))),((4,((15,16),(7,20))),(5,9)))))));
(21,((6,(10,(14,19))),((((11,18),((2,12),(1,8))),(20,(5,(9,(15,(4,(7,16))))))),(3,(13,17)))));
(21,((20,(((15,16),(4,7)),(5,9))),((14,(19,(6,10))),(((1,8),((2,12),(11,18))),(3,(13,17))))));
(21,(((10,19),(6,14)),(3,((20,(5,(9,(4,(7,(15,16)))))),((13,17),((11,18),(2,(12,(1,8)))))))));
(21,((((11,18),((2,12),(1,8))),(20,((4,7),((15,16),(5,9))))),((19,(6,(10,14))),(3,(13,17)))));
(21,(((6,10),(14,19)),((13,17),(3,((9,(20,(5,(4,(7,(15,16)))))),((11,18),((2,12),(1,8))))))));
(21,((19,(14,(6,10))),(3,((13,17),((11,18),(((2,12),(1,8)),(20,((4,(7,(15,16))),(5,9)))))))));
(21,(((6,10),(14,19)),((((11,18),((2,12),(1,8))),(20,(5,(9,(4,(7,(15,16))))))),(3,(13,17)))));
(21,(3,((6,(10,(14,19))),((13,17),((20,(9,(5,((15,16),(4,7))))),((11,18),((2,12),(1,8))))))));
(21,(((6,10),(14,19)),((13,17),(3,((20,(4,((16,(7,15)),(5,9)))),((1,8),((2,12),(11,18))))))));
(21,(((13,17),((20,((4,(7,(15,16))),(5,9))),((11,18),((2,12),(1,8))))),(3,(14,(19,(6,10))))));
(21,(((14,19),(6,10)),((20,(((4,(7,(15,16))),(5,9)),((11,18),(1,(8,(2,12)))))),(3,(13,17)))));
(21,(((6,10),(14,19)),(((11,18),(20,(((2,12),(1,8)),(4,((7,(15,16)),(5,9)))))),(3,(13,17)))));
(21,(((6,10),(14,19)),(3,(((11,18),(((2,12),(1,8)),(20,((4,(7,(15,16))),(5,9))))),(13,17)))));
(21,(((6,10),(14,19)),(3,((13,17),(((1,8),((2,12),(11,18))),((4,(7,(15,16))),(20,(5,9))))))));
(21,(((10,14),(6,19)),(3,((20,((11,18),((4,(7,(15,16))),(5,9)))),(((1,8),(2,12)),(13,17))))));
(21,(((6,10),(14,19)),(((11,18),((2,12),(1,8))),((20,((4,(7,(15,16))),(5,9))),(3,(13,17))))));
(21,(((5,(4,(20,(7,(15,16))))),(9,((11,18),((2,12),(1,8))))),((6,(19,(10,14))),(3,(13,17)))));
(21,(((6,10),(14,19)),(3,((13,17),(9,((5,(20,(4,(7,(15,16))))),((11,18),((2,12),(1,8)))))))));
(21,(((6,10),(14,19)),(((13,17),(((1,8),(2,12)),(4,(20,((16,(7,15)),(5,9)))))),(3,(11,18)))));
(21,((14,(6,(10,19))),(((11,18),(20,((5,(16,(7,15))),(4,9)))),((13,17),(3,((2,12),(1,8)))))));
(21,((14,(6,(10,19))),((((2,12),(1,8)),(20,((5,(15,16)),(9,(4,7))))),((11,18),(3,(13,17))))));
(21,((3,(13,17)),((19,(14,(6,10))),(((5,9),((2,12),(1,8))),((11,18),(20,(4,(7,(15,16)))))))));
(21,(((14,19),(6,10)),((13,17),(3,((((2,12),(1,8)),(11,18)),(20,((4,(7,(15,16))),(5,9))))))));
(21,((10,(19,(6,14))),(((11,18),((1,8),(2,12))),((20,((4,(7,(15,16))),(5,9))),(3,(13,17))))));
(21,((14,(19,(6,10))),((3,(13,17)),((11,18),(((2,12),(1,8)),(20,(5,(9,(4,(7,(15,16)))))))))));
(21,((((11,18),(20,(5,9))),(13,17)),((6,(19,(10,14))),(3,((4,(7,(15,16))),((1,8),(2,12)))))));
(21,(((14,19),(6,10)),((5,(((11,18),((2,12),(1,8))),(20,(9,(4,(7,(15,16))))))),(3,(13,17)))));
(21,((14,(19,(6,10))),(3,((13,17),((5,(20,(9,(4,(7,(15,16)))))),((11,18),((2,12),(1,8))))))));
(21,((3,((20,((4,(7,(15,16))),(5,9))),((11,18),((2,12),(1,8))))),((14,(19,(6,10))),(13,17))));
(21,(((10,14),(6,19)),(((20,((4,9),(5,(7,(15,16))))),(13,17)),(3,((11,18),((2,12),(1,8)))))));
(21,(((6,10),(14,19)),(3,((13,17),((20,(9,(5,(15,(4,(7,16)))))),((11,18),(1,(8,(2,12)))))))));
(21,(((6,10),(14,19)),((13,17),(3,(9,((5,(20,(4,(7,(15,16))))),((11,18),((2,12),(1,8)))))))));
(((3,(13,17)),((19,(14,(6,10))),((5,(9,((20,(15,16)),(4,7)))),((11,18),(12,(2,(1,8))))))),21);
(21,((10,(19,(6,14))),(3,((13,17),(((11,18),((2,12),(1,8))),(20,((7,(15,16)),(9,(4,5)))))))));
(21,((3,(13,17)),(((6,14),(10,19)),((20,(4,((7,(15,16)),(5,9)))),((11,18),((1,8),(2,12)))))));
(21,((19,(14,(6,10))),((13,17),(3,((20,(9,(4,(5,(16,(7,15)))))),((11,18),((2,12),(1,8))))))));
(21,((14,(10,(6,19))),(3,((13,17),((11,18),((2,(12,(1,8))),(20,(9,(5,(4,(7,(15,16))))))))))));
(21,((14,(10,(6,19))),(((20,(5,(9,((15,16),(4,7))))),((11,18),((2,12),(1,8)))),(3,(13,17)))));
(21,((19,(10,(6,14))),(3,((13,17),(((2,12),(1,8)),((11,18),(20,((4,16),((7,15),(5,9))))))))));
(21,(((6,10),(14,19)),((13,17),(3,((9,(5,(4,((7,15),(16,20))))),((11,18),((2,12),(1,8))))))));
(21,((10,(6,(14,19))),(((2,12),((20,((4,(7,(15,16))),(5,9))),((1,8),(11,18)))),(3,(13,17)))));
(21,((3,((20,(9,(5,(4,(7,(15,16)))))),(((1,8),(2,12)),(11,18)))),((14,(10,(6,19))),(13,17))));
(21,((19,(14,(6,10))),(((20,(4,((7,(15,16)),(5,9)))),((11,18),((2,12),(1,8)))),(3,(13,17)))));
(21,(((6,10),(14,19)),(20,((3,(((2,12),(1,8)),((11,18),((4,9),(5,(7,(15,16))))))),(13,17)))));
(21,(((14,19),(6,10)),((11,18),((((1,8),(2,12)),(9,(5,(4,(20,(7,(15,16))))))),(3,(13,17))))));
(21,((3,((9,(20,(5,(4,(7,(15,16)))))),((11,18),((2,12),(1,8))))),((14,(19,(6,10))),(13,17))));
(21,(((14,19),(6,10)),((((2,12),(1,8)),(((16,(7,15)),(5,9)),(4,20))),((11,18),(3,(13,17))))));
(21,(((6,10),(14,19)),(3,((13,17),(((11,18),(9,20)),((5,((15,16),(4,7))),((2,12),(1,8))))))));
(21,(((6,10),(14,19)),(3,((13,17),((20,((15,(4,(7,16))),(5,9))),((1,8),((11,18),(2,12))))))));
(21,(((6,10),(14,19)),((13,17),(3,((20,((4,(7,(15,16))),(5,9))),((11,18),((1,8),(2,12))))))));
(21,(((6,10),(14,19)),(3,((((4,(7,(15,16))),(5,9)),((11,18),((2,12),(1,8)))),(20,(13,17))))));
(21,(((6,10),(14,19)),(((1,8),(2,12)),(((11,18),(20,((4,(7,(15,16))),(5,9)))),(3,(13,17))))));
(21,(((6,10),(14,19)),(((20,((4,(7,(15,16))),(5,9))),((11,18),((1,8),(2,12)))),(3,(13,17)))));
(21,(((10,14),(6,19)),(((4,(7,(15,16))),((11,18),((1,8),(2,12)))),(3,((13,17),(20,(5,9)))))));
(21,(((4,(5,(9,(20,(7,(15,16)))))),(3,(13,17))),((6,(10,(14,19))),((11,18),((1,8),(2,12))))));
(21,((10,(6,(14,19))),((((7,(15,16)),(20,(4,(5,9)))),((11,18),((2,12),(1,8)))),(3,(13,17)))));
(21,((10,(6,(14,19))),((13,17),(3,(9,((20,(5,(4,(7,(15,16))))),((11,18),((2,12),(1,8)))))))));
(21,((6,(10,(14,19))),(((20,(7,(9,(5,(4,(15,16)))))),((11,18),((1,8),(2,12)))),(3,(13,17)))));
(21,((19,(6,(10,14))),((11,18),((((2,12),(1,8)),(20,(5,(9,(4,(7,(15,16))))))),(3,(13,17))))));
(21,((14,(19,(6,10))),(3,((20,((4,(15,(7,16))),(5,9))),((13,17),((11,18),(2,(12,(1,8)))))))));
(21,(((6,10),(14,19)),(((13,17),((11,18),((1,8),(2,12)))),(3,(20,(5,(4,(9,(16,(7,15))))))))));
(21,((3,(13,17)),(((6,10),(14,19)),(((11,18),((2,12),(1,8))),(20,((7,(4,(15,16))),(5,9)))))));
(21,((19,(14,(6,10))),((20,(5,(9,(4,(15,(7,16)))))),(3,(((1,8),(2,12)),((11,18),(13,17)))))));
(21,((19,(14,(6,10))),(3,((13,17),(((4,(7,(15,16))),(5,9)),(20,((11,18),((1,8),(2,12)))))))));
(21,(((6,10),(14,19)),((11,18),((((2,12),(1,8)),(9,(5,((16,(7,15)),(4,20))))),(3,(13,17))))));
(21,((19,(14,(6,10))),((((4,(7,(15,16))),(5,9)),(20,((11,18),((2,12),(1,8))))),(3,(13,17)))));
(21,((10,(6,(14,19))),(3,((13,17),((9,(5,(20,(4,(7,(15,16)))))),((11,18),((2,12),(1,8))))))));
(21,((6,(10,(14,19))),((13,17),(3,((11,18),((4,(7,(15,16))),(20,(((2,12),(1,8)),(5,9)))))))));
(21,((19,(14,(6,10))),(3,((13,17),((20,(9,(5,(4,(16,(7,15)))))),((11,18),((2,12),(1,8))))))));
(21,((6,(10,(14,19))),((13,17),(3,((20,((4,(7,(15,16))),(5,9))),((11,18),((1,8),(2,12))))))));
(21,((6,(10,(14,19))),((13,17),(3,((20,((4,(7,(15,16))),(5,9))),((11,18),((2,12),(1,8))))))));
(21,(((14,19),(6,10)),((13,17),(3,((20,((4,(7,(15,16))),(5,9))),((11,18),(1,(8,(2,12)))))))));
(21,((14,(19,(6,10))),(((5,(9,(4,(20,(15,(7,16)))))),((11,18),(1,(8,(2,12))))),(3,(13,17)))));
(21,(((14,19),(6,10)),((13,17),(3,((11,18),(((1,8),(2,12)),(20,(5,(9,(4,(16,(7,15))))))))))));
(21,(((6,10),(14,19)),((11,18),((((2,12),(1,8)),(20,(9,(5,(4,(7,(15,16))))))),(3,(13,17))))));
(21,(3,(((10,14),(6,19)),((13,17),(9,((20,(5,(4,(7,(15,16))))),((11,18),((1,8),(2,12)))))))));
(21,((10,(19,(6,14))),(3,((13,17),((((1,8),(2,12)),(11,18)),(20,((4,(15,(7,16))),(5,9))))))));
(21,((19,(14,(6,10))),(((20,((15,16),((4,7),(5,9)))),((11,18),((2,12),(1,8)))),(3,(13,17)))));
(21,(((14,19),(6,10)),(3,((13,17),((20,(5,(9,(4,(15,(7,16)))))),((11,18),((2,12),(1,8))))))));
(21,(((14,19),(6,10)),(((20,((4,(7,(15,16))),(5,9))),((11,18),((2,12),(1,8)))),(3,(13,17)))));
(21,(((9,(4,(7,(15,16)))),(5,20)),((19,(14,(6,10))),((3,(((2,12),(1,8)),(11,18))),(13,17)))));
(21,(((6,10),(14,19)),(((15,(4,(7,16))),(5,9)),((13,17),(3,(20,((11,18),((2,12),(1,8)))))))));
(21,((20,((11,18),((2,12),(1,8)))),(((6,10),(14,19)),((5,(9,(4,(7,(15,16))))),(3,(13,17))))));
(21,((10,(6,(14,19))),((20,(((15,16),(4,7)),(5,9))),((((2,12),(1,8)),(11,18)),(3,(13,17))))));
(21,(((6,10),(14,19)),((13,17),(3,((20,((4,(15,(7,16))),(5,9))),((11,18),((1,8),(2,12))))))));
(21,((14,(19,(6,10))),(((11,18),(20,((2,12),(1,8)))),(((4,(7,(15,16))),(5,9)),(3,(13,17))))));
(21,((19,(6,(10,14))),(((20,(((15,16),(4,7)),(5,9))),((11,18),((1,8),(2,12)))),(3,(13,17)))));
(21,((6,(10,(14,19))),(3,((((11,18),((2,12),(1,8))),(20,((4,(7,(15,16))),(5,9)))),(13,17)))));
(21,((14,(6,(10,19))),((((7,(15,16)),(4,20)),(5,9)),((13,17),(3,((11,18),((1,8),(2,12))))))));
(21,(((6,10),(14,19)),(((((20,(15,16)),(4,7)),(5,9)),((11,18),(2,(12,(1,8))))),(3,(13,17)))));
(21,((13,17),(((6,10),(14,19)),((((2,12),(1,8)),((4,(7,(15,16))),(20,(5,9)))),(3,(11,18))))));
(21,((14,(6,(10,19))),((17,((20,(9,(5,(4,(7,(15,16)))))),((11,18),(2,(12,(1,8)))))),(3,13))));
(21,((10,(6,(14,19))),(17,(3,(((11,18),(20,(5,(9,(4,(7,(15,16))))))),(13,((2,12),(1,8))))))));
(21,(((6,10),(14,19)),(3,((13,17),((((7,(15,16)),(4,20)),(5,9)),((11,18),(8,(1,(2,12)))))))));
(21,((6,(10,(14,19))),(((5,(9,((15,16),(4,7)))),(20,((11,18),((2,12),(1,8))))),(3,(13,17)))));
(21,((10,(14,(6,19))),(((11,18),(20,(9,(5,(4,(7,(15,16))))))),(((1,8),(2,12)),(3,(13,17))))));
(21,((14,(19,(6,10))),(((20,((4,(7,(15,16))),(5,9))),((11,18),((1,8),(2,12)))),(3,(13,17)))));
(21,((((11,18),((1,8),(2,12))),((9,(5,(4,16))),(20,(7,15)))),((6,(10,(14,19))),(3,(13,17)))));
(21,((19,(14,(6,10))),(17,(13,(3,(((11,18),((2,12),(1,8))),(20,(5,(9,(4,(16,(7,15))))))))))));
(21,((19,(14,(6,10))),(((11,18),(5,(9,(4,(20,(7,(15,16))))))),(((1,8),(2,12)),(3,(13,17))))));
(21,(((14,19),(6,10)),(3,(((20,(5,(9,(4,(7,(15,16)))))),((11,18),((2,12),(1,8)))),(13,17)))));
(21,(((14,19),(6,10)),((3,(20,(9,(4,(5,(7,(15,16))))))),(((11,18),((1,8),(2,12))),(13,17)))));
(21,(((6,10),(14,19)),((13,17),(3,((9,(5,(4,(7,(15,16))))),(20,(((2,12),(1,8)),(11,18))))))));
(21,(((14,19),(6,10)),(((9,(5,(4,(20,(7,(15,16)))))),(13,17)),(3,((2,12),((1,8),(11,18)))))));
(21,((14,(19,(6,10))),(((20,((4,(7,(15,16))),(5,9))),((1,8),((2,12),(11,18)))),(3,(13,17)))));
(21,((10,(19,(6,14))),(3,((13,17),((20,(5,(9,(4,(7,(15,16)))))),((11,18),((2,12),(1,8))))))));
(21,((10,(6,(14,19))),((13,17),(3,((5,(9,((16,20),(4,(7,15))))),((11,18),((1,8),(2,12))))))));
(21,((14,(19,(6,10))),((3,((11,18),((1,8),(2,12)))),((20,(5,(9,(4,(7,(15,16)))))),(13,17)))));
(21,(((6,10),(14,19)),(3,((13,17),((20,((7,(4,(15,16))),(5,9))),((11,18),((2,12),(1,8))))))));
(21,((3,(((2,12),(1,8)),(20,((11,18),((4,(7,(15,16))),(5,9)))))),((14,(6,(10,19))),(13,17))));
(21,((19,(14,(6,10))),((13,17),(3,(((1,8),(2,12)),((11,18),(20,((4,(7,(15,16))),(5,9)))))))));
(21,(((10,19),(6,14)),((3,(13,17)),(((11,18),((1,8),(2,12))),((5,9),(20,(4,(7,(15,16)))))))));
(21,((14,(19,(6,10))),(3,((13,17),((20,((4,(7,(15,16))),(5,9))),((11,18),((2,12),(1,8))))))));
(21,((19,(14,(6,10))),((13,17),(3,((11,18),(20,((9,(5,((7,16),(4,15)))),((1,8),(2,12)))))))));
(21,((6,(14,(10,19))),((13,17),(3,((2,12),(((1,8),(11,18)),(20,((15,(16,(4,7))),(5,9)))))))));
(21,((14,(10,(6,19))),(((20,((7,(15,16)),(4,(5,9)))),(13,17)),(3,((11,18),(1,(8,(2,12))))))));
(21,((6,(14,(10,19))),(3,((13,17),((20,((5,9),((7,16),(4,15)))),((11,18),((1,8),(2,12))))))));
(21,((10,(14,(6,19))),(3,((13,17),((20,((16,(4,(7,15))),(5,9))),((11,18),((1,8),(2,12))))))));
(21,(((6,10),(14,19)),(3,((13,17),(((4,(7,(20,(15,16)))),(5,9)),((11,18),((2,12),(1,8))))))));
(21,(((6,10),(14,19)),((((15,(7,16)),(5,9)),(4,20)),((13,17),(3,((11,18),((2,12),(1,8))))))));
(21,((19,(14,(6,10))),(13,(3,((20,((4,(7,(15,16))),(5,9))),(17,((11,18),(8,(1,(2,12))))))))));
(21,((19,(14,(6,10))),(3,((13,17),(20,((4,((7,(15,16)),(5,9))),((11,18),((1,8),(2,12)))))))));
(21,((10,(6,(14,19))),(3,((4,(7,(15,16))),((13,17),((20,(5,9)),((11,18),(12,(2,(1,8))))))))));
(21,(((6,10),(14,19)),(((20,(4,(9,(5,(7,(15,16)))))),((11,18),((2,12),(1,8)))),(3,(13,17)))));
(21,((14,(19,(6,10))),((3,(13,17)),((20,((4,(7,(15,16))),(5,9))),((11,18),((2,12),(1,8)))))));
(21,(((6,10),(14,19)),(((13,17),(20,(4,((16,(7,15)),(5,9))))),(3,((11,18),((1,8),(2,12)))))));
(21,((10,(6,(14,19))),((13,(((15,(20,(4,(7,16)))),(5,9)),((11,18),((2,12),(1,8))))),(3,17))));
(21,(((6,10),(14,19)),(((2,12),(1,8)),(3,((13,17),((11,18),(20,((4,(7,(15,16))),(5,9)))))))));
(21,(((6,10),(14,19)),((13,17),(3,(((9,(7,(15,16))),(4,5)),((11,18),(20,((2,12),(1,8)))))))));
(21,((19,(14,(6,10))),((13,17),(3,((9,(5,(4,(20,(16,(7,15)))))),((11,18),(12,(2,(1,8)))))))));
(21,((6,(10,(14,19))),(3,((20,((4,(16,(7,15))),(5,9))),((13,17),((11,18),((2,12),(1,8))))))));
(21,((3,((20,((15,16),(9,(5,(4,7))))),((11,18),((1,8),(2,12))))),((6,(14,(10,19))),(13,17))));
(21,(((6,10),(14,19)),(3,((13,17),(((11,18),((1,8),(2,12))),(20,((4,(7,(15,16))),(5,9))))))));
(21,((((1,8),(2,12)),((11,18),(20,((4,(16,(7,15))),(5,9))))),(((6,10),(14,19)),(13,(3,17)))));
(21,(((6,10),(14,19)),(3,(17,(13,((20,(9,(5,(4,(7,(15,16)))))),((11,18),((1,8),(2,12)))))))));
(21,((19,(14,(6,10))),(17,(13,(3,((20,((4,(7,(15,16))),(5,9))),(((1,8),(2,12)),(11,18))))))));
(21,((14,(19,(6,10))),(3,(13,(17,((20,((4,(7,(15,16))),(5,9))),((11,18),((1,8),(2,12)))))))));
(21,((6,(10,(14,19))),((13,17),(3,(((11,18),((1,8),(2,12))),(20,((4,(7,(15,16))),(5,9))))))));
(21,((3,((13,17),((11,18),(1,(8,(2,12)))))),((6,(10,(14,19))),(((4,(15,16)),(7,20)),(5,9)))));
(21,(3,((((2,12),(1,8)),(13,17)),((14,(19,(6,10))),((11,18),(20,((4,(7,(15,16))),(5,9))))))));
(21,((3,((5,(9,(4,(7,(15,16))))),(20,((11,18),((1,8),(2,12)))))),(((6,10),(14,19)),(13,17))));
(21,(3,((10,(6,(14,19))),((13,17),((11,18),(((1,8),(2,12)),(20,(5,(9,(4,(7,(15,16))))))))))));
(21,(((6,10),(14,19)),((13,17),(3,(((1,8),(2,12)),((11,18),((9,(4,(7,(15,16)))),(5,20))))))));
(21,(((6,10),(14,19)),(((5,(20,(9,(4,(7,(15,16)))))),((11,18),((1,8),(2,12)))),(3,(13,17)))));
(21,(((6,10),(14,19)),((13,17),(3,(((4,(7,(15,16))),(5,9)),(20,((11,18),((1,8),(2,12)))))))));
(21,(((14,19),(6,10)),(3,(13,(((11,18),((1,8),(2,12))),(17,(20,(9,(5,(4,(7,(15,16))))))))))));
(21,(((20,(5,(9,(15,(4,(7,16)))))),(((2,12),(1,8)),(11,18))),(((6,14),(10,19)),(3,(13,17)))));
(21,((((11,18),((2,12),(1,8))),((5,(9,(4,((15,16),(7,20))))),(13,17))),(3,((6,10),(14,19)))));
(21,((6,(10,(14,19))),(3,((13,17),((20,((4,(7,(15,16))),(5,9))),(((1,8),(2,12)),(11,18)))))));
(21,(((14,19),(6,10)),(3,((13,17),(((11,18),((1,8),(2,12))),(20,(4,((7,(15,16)),(5,9)))))))));
(21,(((6,10),(14,19)),((((4,(7,(15,16))),(5,9)),((11,18),((2,12),(1,8)))),((13,20),(3,17)))));
(21,((19,(14,(6,10))),(((((2,12),(1,8)),((4,(7,(15,16))),(5,9))),(20,(11,18))),(3,(13,17)))));
(21,((19,(14,(6,10))),((13,17),(3,((20,((4,(7,(15,16))),(5,9))),((11,18),((2,12),(1,8))))))));
(21,((14,(19,(6,10))),((13,17),(((11,18),((2,12),(1,8))),(3,((20,(7,(15,16))),(9,(4,5))))))));
(21,(((14,19),(6,10)),((13,17),(3,(((7,(15,16)),(4,(5,9))),((11,18),(20,((2,12),(1,8)))))))));
(21,(((20,(((7,15),(4,16)),(5,9))),(((2,12),(1,8)),(11,18))),((19,(14,(6,10))),(3,(13,17)))));
(21,((6,(14,(10,19))),(3,((13,17),(((11,18),((2,12),(1,8))),(20,((4,(7,(15,16))),(5,9))))))));
(21,((19,(14,(6,10))),(3,((((1,8),(2,12)),((11,18),(20,((4,(7,(15,16))),(5,9))))),(13,17)))));
