(((1,(7,14)),((((13,5),11),12)#H1)),(((3,((6,(17,8)),(19,(10,9)))),(15,((4,(2,(16,18))),20))),#H1));
((((18,6),20),((((((11,17),(13,10)),14),2),(((9,(12,5)),(4,(((8,15),16),#H1))),((3,7)#H1))),1)),19);
((((((5,15),(6,4)),(9,13)),(((8,(11,(2,12))),(1,(7,14))),#H1)),((16,20)#H1)),((19,18),(17,(3,10))));
(((((17,(10,19)),18),1),(3,7)),(((15,((20,11),13)),((2,16),5)),((((9,14)#H1),6),(4,((8,12),#H1)))));
(((((8,18),(2,13)),((9,(4,12)),(15,3))),#H1),(((5,14),((17,16)#H1)),((1,(((10,6),(11,19)),20)),7)));
((8,((1,#H1),(14,((15,20)#H1)))),((17,(12,(16,9))),((13,((((3,(11,4)),10),7),(2,5))),((19,18),6))));
((((19,(9,17))#H1),(((20,(15,((5,7),2))),((14,#H1),(12,18))),(((16,3),10),8))),((6,(11,(1,13))),4));
(((((19,(8,18)),((((14,(4,10)),(11,12)),#H1),(7,2))),((3,17),9)),(1,(5,15))),((20,6),((16,13)#H1)));
(((((7,9)#H1),((3,8),(11,(19,(12,16))))),((17,20),(1,6))),((4,((14,(5,#H1)),(18,(10,(13,15))))),2));
((((18,5),(((8,3),6),20)),13),(((14,7),((16,10),(11,(9,19)))),((((4,17),2)#H1),((12,(1,15)),#H1))));
(((12,13),3),((((15,2),((16,9),(17,4))),((6,14),20)),(19,(((5)#H1,1),((8,(18,11)),((10,7),#H1))))));
((((((((12,2),11),7),((20,1),17)),6),(((9,8)#H1),19)),(((((4,3),15),10),(((13,18),16),#H1)),14)),5);
((((((14,5),(12,10)),((13,#H1),(8,7))),16),(2,9)),((3,(1,(((17,(15,6)),(18,11)),4))),((19,20)#H1)));
((((12)#H1,(17,2)),((7,((((3,15),6),(1,16)),(13,11))),(((10,4),8),#H1))),((5,19),(20,(14,(9,18)))));
(((((((5,17),15),19),((4,11),(1,12))),#H1),((6,3),((16,((8,13),10)),(14,2)))),(((7,(18,9)),20)#H1));
((((19,(16,17))#H1),((12,(6,1)),(9,13))),(((14,(4,7)),((10,2),18)),(((5,8),((15,(11,3)),#H1)),20)));
(((10,6),(19,14)),(((13,17),3),(((11,18),((1,8),(12,2))),(((5,9),((((15,16),7),#H1),4)),(20)#H1))));
(19,(((((((10,11),6),(5,1)),(13,15)),(14,((8,7),17))),#H1),(16,(((18,20),9),(((2,3),(4,12))#H1)))));
((5,(12,(9,7))),((((17,14),(3,16)),(((8,4)#H1),(6,((10,15),#H1)))),((2,(1,11)),((13,18),(19,20)))));
((9,16),((8,19),((18)#H1,(((11,(((7,6),(2,1)),(20,4))),((12,((17,10),5)),((13,15),#H1))),(14,3)))));
