(21,((19,20),((3,(1,((15,(11,18)),(6,(4,17))))),((9,(13,((7,8),((10,12),(5,14))))),(2,16)))));
(21,((19,20),((3,(18,(1,((6,(11,15)),(4,17))))),(((13,(7,8)),((10,12),(5,14))),(9,(2,16))))));
(21,((3,(1,(4,((6,15),(17,(11,18)))))),((19,20),((2,9),(16,(13,((7,8),((10,12),(5,14)))))))));
(21,((19,20),((3,(1,(4,(17,((11,18),(6,15)))))),((16,(((10,12),(5,14)),(13,(7,8)))),(2,9)))));
(21,((2,9),((16,((13,(7,8)),((5,14),(10,12)))),((19,20),(3,((1,(11,18)),(4,(17,(6,15)))))))));
(21,((3,((4,(18,(17,(11,15)))),(1,6))),((19,20),(9,(2,(16,(((10,12),(5,14)),(13,(7,8)))))))));
(21,(((3,(1,(17,(15,(4,(18,(6,11))))))),(16,(2,9))),((19,20),((13,(7,8)),((10,12),(5,14))))));
(21,(((16,(((10,12),(5,14)),(13,(7,8)))),(2,9)),((19,20),(3,(1,(4,(17,(6,(15,(11,18))))))))));
(21,((16,(3,(1,(4,((11,18),(6,(15,17))))))),((19,20),((((10,12),(5,14)),(13,(7,8))),(2,9)))));
(21,((19,20),((((10,12),(5,14)),(13,(7,8))),((3,(1,(4,((11,(15,18)),(6,17))))),(16,(2,9))))));
(21,((16,(9,(2,(((10,12),(5,14)),(13,(7,8)))))),((19,20),(3,(1,(11,((15,17),(4,(6,18)))))))));
(21,((19,20),((1,(3,(4,((17,(11,18)),(6,15))))),(((10,12),(5,14)),(9,(2,(16,(13,(7,8)))))))));
(21,(((2,8),(9,(((5,14),(10,12)),(16,(7,13))))),((19,20),(3,((4,15),(1,(6,(18,(11,17)))))))));
(21,((19,20),((3,(1,(15,((6,17),(4,(11,18)))))),((16,(((5,14),(10,12)),(13,(7,8)))),(2,9)))));
(21,((2,9),((((10,12),(13,(7,8))),(16,(5,14))),((19,20),(3,(1,(4,((6,17),(11,(15,18))))))))));
(21,((3,(1,((11,(6,15)),(4,(17,18))))),((19,20),((13,(7,((10,12),(5,14)))),(16,(9,(2,8)))))));
(21,((9,(2,(16,((13,(7,8)),(5,(12,(10,14))))))),((19,20),(3,(1,(4,(17,((11,18),(6,15)))))))));
(21,((3,(1,(4,(15,((11,18),(6,17)))))),(2,((19,20),(9,(16,((13,(7,8)),((10,12),(5,14)))))))));
(21,((3,(1,((11,(15,17)),(4,(6,18))))),((((7,13),((10,12),(5,14))),(9,(2,8))),(16,(19,20)))));
(21,(((2,((13,(7,8)),(5,(10,(12,14))))),(9,16)),((19,20),(3,(1,(18,(4,(17,(11,(6,15))))))))));
(21,((3,(1,((17,(6,15)),(4,(11,18))))),((16,(((5,14),(10,12)),(13,(7,8)))),((19,20),(2,9)))));
(21,((((2,8),(9,((10,12),(5,14)))),(16,(7,13))),((19,20),(3,(1,(4,(15,((11,18),(6,17)))))))));
(21,(16,((((5,(10,(12,14))),(13,(7,8))),(2,9)),(1,((19,20),(3,(18,((4,(11,17)),(6,15)))))))));
(21,((19,20),((2,8),((3,(11,(1,(4,(18,(15,(6,17))))))),(9,(16,(((10,12),(5,14)),(7,13))))))));
(21,(((16,((5,(12,(10,14))),(13,(7,8)))),(2,9)),((19,20),(3,(((15,18),(17,(6,11))),(1,4))))));
(21,((16,(((7,8),(13,((10,12),(5,14)))),(2,9))),((19,20),(3,(1,(4,((6,15),(18,(11,17)))))))));
(21,((3,((4,(11,(6,15))),(1,(17,18)))),(16,((19,20),((2,8),(9,(((10,12),(5,14)),(7,13))))))));
(21,((16,(((5,14),(10,12)),(13,(7,8)))),((2,9),((19,20),(3,(1,(4,(17,((11,18),(6,15))))))))));
(21,((19,20),((1,(3,((17,(11,18)),(4,(6,15))))),((2,8),(9,(((10,12),(5,14)),(16,(7,13))))))));
(21,((3,(1,(4,(6,((11,18),(15,17)))))),((19,20),(2,(9,(16,((5,(14,(10,12))),(13,(7,8)))))))));
(21,((16,(5,((10,(12,14)),(13,(7,8))))),((2,9),((19,20),(3,((11,(18,(17,(6,15)))),(1,4)))))));
(21,((16,(2,9)),((3,(1,((6,(11,18)),(4,(15,17))))),((19,20),(((5,14),(10,12)),(13,(7,8)))))));
(21,(((19,20),(2,9)),((1,(3,(4,(17,((11,18),(6,15)))))),(16,(((10,12),(5,14)),(13,(7,8)))))));
(21,((16,((((10,12),(5,14)),(13,(7,8))),(2,9))),((19,20),(3,(1,(11,(4,(18,(17,(6,15))))))))));
(21,((19,20),(((2,9),(16,(((10,12),(5,14)),(13,(7,8))))),(3,((17,(4,(6,(11,15)))),(1,18))))));
(21,((((11,18),(4,(17,(6,15)))),(1,3)),((16,((5,(10,(12,14))),(13,(7,8)))),((19,20),(2,9)))));
(21,((3,(1,(((11,18),(6,15)),(4,17)))),((19,20),(16,((7,(13,((5,14),(10,12)))),(9,(2,8)))))));
(21,((3,(1,((4,18),((6,11),(15,17))))),((((10,12),(13,(7,8))),(2,9)),((19,20),(16,(5,14))))));
(21,((2,9),((16,(13,((7,8),((10,12),(5,14))))),((19,20),(3,(1,(11,(4,((6,15),(17,18))))))))));
(21,((19,20),((3,(1,((18,(6,17)),(4,(11,15))))),(2,(16,(9,((10,12),((7,8),(13,(5,14))))))))));
(21,((2,(16,((10,12),(13,(7,8))))),((9,(5,14)),((19,20),(3,(((11,(6,15)),(17,18)),(1,4)))))));
(21,((16,((((10,12),(5,14)),(13,(7,8))),(2,9))),((19,20),(3,(1,(18,((11,(15,17)),(4,6))))))));
(21,((19,20),((9,16),((3,(1,((11,(6,(15,17))),(4,18)))),(2,((5,(14,(10,12))),(13,(7,8))))))));
(21,(((2,(((10,12),(5,14)),(13,(7,8)))),(9,16)),((19,20),(1,(3,((15,(11,(6,17))),(4,18)))))));
(21,(2,((9,(16,(((10,12),(5,14)),(13,(7,8))))),((19,20),((1,(4,(11,(15,(6,18))))),(3,17))))));
(21,(((2,9),(16,(((10,12),(5,14)),(13,(7,8))))),((19,20),(3,((4,(17,18)),(1,(15,(6,11))))))));
(21,(((16,(10,12)),(((5,14),(13,(7,8))),(2,9))),((19,20),(3,(1,(4,(11,(18,(17,(6,15))))))))));
(21,((((13,(7,8)),(5,(10,(12,14)))),(2,16)),((3,(1,(11,(4,((6,17),(15,18)))))),(9,(19,20)))));
(21,(((2,9),(13,(16,((7,8),((5,14),(10,12)))))),((19,20),(3,(1,(4,((11,18),(17,(6,15)))))))));
(21,((19,20),((3,(1,((17,(6,11)),(4,(15,18))))),((16,(7,(13,((10,12),(5,14))))),(9,(2,8))))));
(((3,(1,(4,((11,18),(6,(15,17)))))),((19,20),((2,9),((13,(7,8)),(16,((10,12),(5,14))))))),21);
(21,(((16,(((10,12),(5,14)),(7,13))),(9,(2,8))),((19,20),(3,(1,(4,((11,18),(17,(6,15)))))))));
(21,(((2,16),(9,(5,((12,(10,14)),(13,(7,8)))))),((19,20),(3,(((11,17),(18,(6,15))),(1,4))))));
(21,((3,(1,(4,((11,18),(17,(6,15)))))),((19,20),((9,(2,8)),(16,((5,(10,(12,14))),(7,13)))))));
(21,((3,(1,(4,(17,((6,15),(11,18)))))),((19,20),((2,9),(16,((10,(12,(5,14))),(13,(7,8))))))));
(21,((2,(9,(16,(((10,12),(5,14)),(13,(7,8)))))),((19,20),(3,(4,(1,((11,18),(17,(6,15)))))))));
(21,((19,20),(((16,((7,8),(13,(10,12)))),((5,14),(2,9))),(3,(1,(4,(6,(17,(15,(11,18))))))))));
(21,((3,(1,(4,((6,15),(17,(11,18)))))),((19,20),(16,((((10,12),(5,14)),(13,(7,8))),(2,9))))));
(21,(((2,9),(16,(((5,14),(10,12)),(13,(7,8))))),((19,20),(3,(1,((6,(17,(11,18))),(4,15)))))));
(21,((3,(1,(15,(4,(6,(17,(11,18))))))),((19,20),((16,((10,12),(5,14))),((13,(7,8)),(2,9))))));
(21,((19,20),((((5,(12,(10,14))),(7,13)),(16,(9,(2,8)))),(3,(1,((4,(15,17)),(6,(11,18))))))));
(21,((3,((4,17),(1,(6,(15,(11,18)))))),((19,20),(16,(2,(9,(((5,14),(10,12)),(13,(7,8)))))))));
(21,((19,20),((3,(4,(1,(15,(6,(11,(17,18))))))),((16,((13,(7,8)),(5,(14,(10,12))))),(2,9)))));
(21,((19,20),((3,((4,11),(1,(17,(18,(6,15)))))),((2,9),(16,(((10,12),(5,14)),(13,(7,8))))))));
(21,((19,20),((3,(4,(1,(18,(15,(17,(6,11))))))),((((10,12),(5,14)),(16,(13,(7,8)))),(2,9)))));
(21,((3,(1,(4,((15,(11,18)),(6,17))))),((19,20),((16,(((10,12),(5,14)),(13,(7,8)))),(2,9)))));
(21,((1,(3,(4,(15,((6,11),(17,18)))))),((19,20),((16,(((5,14),(10,12)),(13,(7,8)))),(2,9)))));
(21,(((9,(2,8)),((7,13),(16,((10,12),(5,14))))),((19,20),(3,(1,((15,(6,17)),(4,(11,18))))))));
(21,(((13,(7,8)),((2,9),(16,((10,12),(5,14))))),((19,20),(3,(1,(4,(6,(17,(15,(11,18))))))))));
(21,(((16,((13,(7,8)),(5,(14,(10,12))))),(2,9)),((19,20),(3,(1,(4,(6,(15,(17,(11,18))))))))));
(21,((9,(2,((5,(10,(12,14))),(16,(13,(7,8)))))),((19,20),(3,(1,(4,(17,((11,18),(6,15)))))))));
(21,((3,((18,(11,(17,(6,15)))),(1,4))),((19,20),(9,(2,(16,((13,(7,8)),((10,12),(5,14)))))))));
(21,((3,(1,(4,((15,(6,17)),(11,18))))),((19,20),((9,(2,8)),(16,(13,(7,((5,14),(10,12)))))))));
(21,(((19,20),(2,9)),((3,(1,((11,18),(4,(6,(15,17)))))),(16,((13,(7,8)),(12,(10,(5,14))))))));
(21,((9,((((10,12),(5,14)),(7,13)),(16,(2,8)))),((19,20),(3,(1,(4,((11,15),(6,(17,18)))))))));
(21,((2,(9,(16,((7,8),(13,(5,(14,(10,12)))))))),((19,20),(3,(1,((6,(11,18)),(4,(15,17))))))));
(21,((19,20),((3,(1,((4,6),(18,(15,(11,17)))))),((16,((13,(7,8)),(10,(12,(5,14))))),(2,9)))));
(21,((3,(1,(4,((11,18),(17,(6,15)))))),((9,(((10,12),(5,14)),(13,(7,8)))),((19,20),(2,16)))));
(21,((19,20),((1,(3,((17,(6,15)),(4,(11,18))))),((2,9),(16,(((5,14),(10,12)),(13,(7,8))))))));
(21,((3,(1,(4,(6,((11,18),(15,17)))))),((19,20),((16,((13,(7,8)),(5,(10,(12,14))))),(2,9)))));
(21,((19,20),((3,(1,(4,(18,(11,(15,(6,17))))))),((2,9),(16,(((5,14),(10,12)),(13,(7,8))))))));
(21,((9,(2,(16,(((5,14),(7,8)),(13,(10,12)))))),((19,20),(3,(1,(4,((15,17),(6,(11,18)))))))));
(21,(((16,((7,8),(13,((10,12),(5,14))))),(2,9)),((19,20),(3,((18,(11,(6,15))),(1,(4,17)))))));
(21,((19,20),((3,(4,(1,(15,(17,(6,(11,18))))))),((2,9),(16,((5,14),((10,12),(13,(7,8)))))))));
(21,((19,20),((3,(1,(4,((17,(11,18)),(6,15))))),(2,(9,(16,((13,(7,8)),((10,12),(5,14)))))))));
(21,((19,20),((3,(1,((15,(6,17)),(4,(11,18))))),((2,9),(16,(13,((10,12),((5,14),(7,8)))))))));
(21,(((19,20),(((10,12),(5,14)),(13,(7,8)))),((3,((6,15),((17,(11,18)),(1,4)))),(16,(2,9)))));
(21,(((19,20),(16,((13,(7,8)),((10,12),(5,14))))),((3,(1,(4,((11,18),(17,(6,15)))))),(2,9))));
(21,(((5,14),((10,12),(13,(7,8)))),((9,(2,16)),((19,20),(3,(1,(4,((11,18),(17,(6,15))))))))));
(21,((19,20),((3,(1,(((15,17),(11,18)),(4,6)))),(2,(16,(9,(((10,12),(5,14)),(13,(7,8)))))))));
(21,((9,(16,(((10,12),(5,14)),(13,(7,8))))),((3,(1,((15,(11,18)),(4,(6,17))))),(2,(19,20)))));
(21,(((2,8),(9,(16,((5,(14,(10,12))),(7,13))))),((19,20),(3,(1,((18,(15,(6,17))),(4,11)))))));
(21,((19,20),((3,((15,17),(1,(4,(6,(11,18)))))),(16,(((10,12),((5,14),(13,(7,8)))),(2,9))))));
(21,(((19,20),(16,(2,9))),((3,(1,(4,((6,17),(15,(11,18)))))),((5,14),((10,12),(13,(7,8)))))));
(21,(((19,20),(3,((4,18),(1,(15,(6,(11,17))))))),(16,((((10,12),(5,14)),(13,(7,8))),(2,9)))));
(21,(((2,((7,8),(13,((10,12),(5,14))))),(9,16)),((19,20),((4,(17,((6,15),(11,18)))),(1,3)))));
(21,((19,20),((3,(1,((17,(11,(6,15))),(4,18)))),((((10,12),(5,14)),(7,13)),(16,(9,(2,8)))))));
((((2,9),(16,((10,(5,14)),(12,(13,(7,8)))))),((19,20),(3,((4,6),(1,(11,(15,(17,18)))))))),21);
(21,(((2,9),((13,(7,8)),(16,(5,(10,(12,14)))))),((19,20),(3,(1,((17,18),(4,(11,(6,15)))))))));
(21,(((2,9),(((5,14),(10,12)),(16,(13,(7,8))))),((19,20),(3,(1,(4,((11,18),(17,(6,15)))))))));
(21,((3,(1,(4,((17,(6,15)),(11,18))))),((19,20),((16,(((10,12),(5,14)),(13,(7,8)))),(2,9)))));
(21,((19,20),((3,(1,(15,(4,(11,(17,(6,18))))))),((16,(((10,12),(5,14)),(13,(7,8)))),(2,9)))));
(21,(((19,20),(3,(1,((4,17),((11,18),(6,15)))))),(16,(2,(9,(((10,12),(5,14)),(13,(7,8))))))));
(21,(((((10,12),(5,14)),(7,13)),(16,(9,(2,8)))),((19,20),(3,(1,(17,(18,(4,(11,(6,15))))))))));
(21,(((2,9),(16,(((10,12),(5,14)),(13,(7,8))))),((19,20),(3,(1,((11,18),(4,(17,(6,15)))))))));
(21,(((19,20),(3,(1,(4,((17,(6,15)),(11,18)))))),(9,(2,((10,(12,14)),(16,(5,(13,(7,8)))))))));
(21,((16,(((10,12),(5,14)),(7,13))),((9,(2,8)),((19,20),(((11,18),(6,15)),(3,(1,(4,17))))))));
(21,(((2,9),(16,((7,8),(13,((5,14),(10,12)))))),((19,20),(3,((4,(15,(11,18))),(1,(6,17)))))));
(21,((3,(1,(6,(4,(17,(15,(11,18))))))),((19,20),(9,(16,(2,(13,((7,8),(5,(10,(12,14)))))))))));
(21,((19,20),((2,9),((3,(1,((15,17),(4,(6,(11,18)))))),(16,((13,(7,8)),((5,14),(10,12))))))));
(21,((19,20),((3,((6,(4,(11,17))),(1,(15,18)))),((16,((7,13),((10,12),(5,14)))),(9,(2,8))))));
(21,((2,(9,(16,((13,(7,8)),((10,12),(5,14)))))),((19,20),(1,(3,((11,15),(4,(6,(17,18)))))))));
(21,((19,20),((16,(((10,12),(5,14)),(13,(7,8)))),((3,(4,(1,((6,15),(17,(11,18)))))),(2,9)))));
(21,(((16,((13,(7,8)),((10,12),(5,14)))),(2,9)),((19,20),(3,(1,(4,(17,((6,15),(11,18)))))))));
(21,(((3,(1,(4,(6,(18,(11,(15,17))))))),(9,(2,8))),((19,20),(16,((7,13),(10,(12,(5,14))))))));
(21,((19,20),((2,16),((3,(1,(4,(11,((15,17),(6,18)))))),(9,((13,(7,8)),((10,12),(5,14))))))));
(21,((9,((2,8),(16,(((10,12),(5,14)),(7,13))))),((19,20),(3,(1,(4,((11,18),(6,(15,17)))))))));
(21,((19,20),((2,9),((3,(1,(4,(15,((11,18),(6,17)))))),(16,(13,((7,8),((10,12),(5,14)))))))));
(21,((3,(1,((15,17),(4,(6,(11,18)))))),((19,20),((9,(2,8)),(16,((7,13),((10,12),(5,14))))))));
(21,((2,9),((16,((13,(7,8)),((10,12),(5,14)))),((19,20),((17,(4,(11,(18,(6,15))))),(1,3))))));
(21,((((14,(5,(10,12))),(13,(7,8))),(2,9)),(16,((19,20),((4,(17,((11,18),(6,15)))),(1,3))))));
(21,(((3,((15,(6,18)),(1,(4,(11,17))))),(16,(9,((7,13),((10,12),(5,14)))))),((19,20),(2,8))));
(21,(((3,(1,(4,(11,(17,(18,(6,15))))))),(2,9)),((19,20),(16,(((10,12),(5,14)),(13,(7,8)))))));
(21,((19,20),((3,(1,(4,((6,15),(17,(11,18)))))),((16,((8,(7,13)),((5,14),(10,12)))),(2,9)))));
(21,((1,(3,((6,17),(4,(15,(11,18)))))),((19,20),(16,((((10,12),(5,14)),(13,(7,8))),(2,9))))));
(21,((((13,(7,8)),((10,12),(5,14))),(16,(2,9))),((19,20),(3,(1,(((6,11),(15,18)),(4,17)))))));
(21,(((9,(((10,12),(5,14)),(7,13))),(16,(2,8))),((19,20),(3,(1,(17,(4,((11,18),(6,15)))))))));
(21,((19,20),((3,(1,(((11,18),(15,17)),(4,6)))),((9,(2,8)),(16,(((5,14),(10,12)),(7,13)))))));
(21,((3,(1,((11,15),(4,(17,(6,18)))))),((19,20),(((7,13),((10,12),(5,14))),(9,(16,(2,8)))))));
(21,((19,20),((3,(1,((15,(6,(11,18))),(4,17)))),((9,(2,8)),(16,((7,13),((5,14),(10,12))))))));
(21,(((16,((10,12),((5,14),(13,(7,8))))),(2,9)),((19,20),(3,(1,((15,(17,(11,18))),(4,6)))))));
(21,((3,((6,17),(1,(4,(15,(11,18)))))),((19,20),((16,((13,(7,8)),((10,12),(5,14)))),(2,9)))));
(21,((2,(9,(16,((13,(7,8)),((5,14),(10,12)))))),((19,20),(3,(1,(4,(11,((6,15),(17,18)))))))));
(21,(((3,(1,(4,((6,17),(15,(11,18)))))),(9,(16,(10,(12,(13,(7,8))))))),((19,20),(2,(5,14)))));
(21,((3,(1,(17,(4,(15,(6,(11,18))))))),((19,20),(2,(16,(9,(((5,14),(10,12)),(13,(7,8)))))))));
(21,((3,(1,(4,((6,15),(17,(11,18)))))),((19,20),((16,(13,((10,12),(5,14)))),(2,(9,(7,8)))))));
(21,((19,20),((3,(1,((15,(6,(11,18))),(4,17)))),(9,((2,8),(16,(((10,12),(5,14)),(7,13))))))));
(21,((19,20),((3,(1,((6,17),(4,(15,(11,18)))))),((2,9),(16,(5,((10,(12,14)),(13,(7,8)))))))));
(21,((3,(1,(6,(4,((11,18),(15,17)))))),(2,((19,20),(9,(16,((5,14),((10,12),(13,(7,8))))))))));
(21,((19,20),((3,(1,(4,(17,(6,(15,(11,18))))))),((2,9),(16,(((10,12),(5,14)),(13,(7,8))))))));
(21,(((16,((10,(12,(5,14))),(13,(7,8)))),(2,9)),((19,20),(1,(3,(4,((6,15),(17,(11,18)))))))));
(21,((3,(1,(11,(4,((15,17),(6,18)))))),((19,20),((9,(10,12)),((2,8),(16,(7,(13,(5,14)))))))));
(21,(16,((19,20),((3,(1,(4,((6,15),(17,(11,18)))))),(((5,(10,(12,14))),(13,(7,8))),(2,9))))));
(21,((1,(3,((17,(6,15)),(4,(11,18))))),((19,20),((2,8),(9,(16,(((5,14),(10,12)),(7,13))))))));
(21,(((16,((13,(7,8)),((5,14),(10,12)))),(2,9)),((19,20),(3,(1,(((11,18),(6,17)),(4,15)))))));
(21,((19,20),((3,((17,(15,(6,(11,18)))),(1,4))),(2,(9,(((10,12),(5,14)),(16,(13,(7,8)))))))));
(21,(((19,20),(3,(1,((17,(6,15)),(4,(11,18)))))),((9,(2,8)),(16,(((10,12),(5,14)),(7,13))))));
(21,((3,((4,((6,15),(11,17))),(1,18))),((19,20),((2,9),(16,((10,12),((5,14),(13,(7,8)))))))));
(21,((3,(1,(4,((6,17),(15,(11,18)))))),((19,20),((2,9),(16,(((10,12),(5,14)),(13,(7,8))))))));
(21,((3,(1,((17,(6,15)),(4,(11,18))))),((2,9),((19,20),(16,((5,14),((10,12),(13,(7,8)))))))));
(21,((3,(1,(15,(4,(6,(17,(11,18))))))),((19,20),(16,(2,(9,(((10,12),(5,14)),(13,(7,8)))))))));
(21,(3,((1,((15,(11,18)),(4,(6,17)))),((2,(16,((13,(7,8)),((5,14),(10,12))))),(9,(19,20))))));
(21,((3,(1,(((6,15),(11,17)),(4,18)))),((19,20),(9,(2,(16,((7,8),(13,((10,12),(5,14))))))))));
(21,((3,(1,(4,(17,((15,18),(6,11)))))),((19,20),((9,((7,13),((10,12),(5,14)))),(16,(2,8))))));
(21,((3,(1,(4,((11,15),(18,(6,17)))))),((19,20),(16,(((7,8),(13,((10,12),(5,14)))),(2,9))))));
(21,((3,(1,(4,(6,((15,17),(11,18)))))),((19,20),((2,8),(((7,13),((10,12),(5,14))),(9,16))))));
(21,((2,(9,16)),((3,(1,(4,((17,(6,15)),(11,18))))),((19,20),(((10,12),(5,14)),(13,(7,8)))))));
(21,((16,((2,9),((13,(7,8)),(5,(10,(12,14)))))),((19,20),(3,(1,(4,((6,17),(15,(11,18)))))))));
(21,(((16,((13,(7,8)),((10,12),(5,14)))),(2,9)),((19,20),(3,(1,(4,(18,(15,(11,(6,17))))))))));
(21,((19,20),((3,(1,((11,18),(4,(17,(6,15)))))),((((5,14),(10,12)),(7,13)),(9,(16,(2,8)))))));
(21,((2,9),((19,20),((3,(1,((15,(17,(11,18))),(4,6)))),(16,((13,(7,8)),((5,14),(10,12))))))));
(21,((2,9),((16,((13,(7,8)),((5,14),(10,12)))),((19,20),(3,(1,((17,(6,15)),(4,(11,18)))))))));
(21,((19,20),((3,(1,(4,((6,11),(17,(15,18)))))),(2,((13,(7,8)),(9,(16,((5,14),(10,12)))))))));
(21,((3,(1,(11,(4,(6,(18,(15,17))))))),((19,20),((2,((8,(7,13)),((5,14),(10,12)))),(9,16)))));
(21,((19,20),((16,((10,12),((5,14),(13,(7,8))))),((3,(4,(1,(15,(18,(11,(6,17))))))),(2,9)))));
(21,((19,20),((3,(1,(4,(15,((11,18),(6,17)))))),((16,((13,(7,8)),((5,14),(10,12)))),(2,9)))));
(21,((19,20),((3,((4,15),(1,(18,(11,(6,17)))))),((13,((7,8),((10,12),(5,14)))),(16,(2,9))))));
(21,((((4,(17,(11,18))),(3,(1,(6,15)))),(2,(13,((7,8),((5,14),(10,12)))))),((19,20),(9,16))));
(21,((19,20),((16,(13,((7,8),((5,14),(10,12))))),((3,((6,(4,11)),(1,(18,(15,17))))),(2,9)))));
(21,((19,20),((3,(1,(4,((11,18),(17,(6,15)))))),((2,9),(16,((5,14),((10,12),(13,(7,8)))))))));
(21,(16,((19,20),(((6,(4,((11,18),(15,17)))),(1,3)),(2,(9,(((5,14),(10,12)),(13,(7,8)))))))));
(21,((16,((((5,14),(10,12)),(13,(7,8))),(2,9))),((19,20),(3,(1,((17,(18,(6,15))),(4,11)))))));
(21,(((19,20),(((13,(7,8)),((10,12),(5,14))),(2,9))),(16,(3,(1,((4,(17,(6,15))),(11,18)))))));
(21,(((16,((5,(10,(12,14))),(13,(7,8)))),(2,9)),((19,20),(3,(1,(11,(4,(15,(18,(6,17))))))))));
(21,(((16,((13,(7,8)),((5,14),(10,12)))),(2,9)),((19,20),(3,((6,((11,18),(15,17))),(1,4))))));
(21,((3,((17,((11,18),(6,15))),(1,4))),((19,20),(16,(((13,(7,8)),((10,12),(5,14))),(2,9))))));
(21,((16,(((7,13),((10,12),(5,14))),(9,(2,8)))),((19,20),(3,(1,(15,(4,((11,18),(6,17)))))))));
(21,((16,(2,9)),((13,((7,8),((10,12),(5,14)))),((19,20),(3,((18,((6,15),(11,17))),(1,4)))))));
(21,((2,9),((((11,(6,15)),(4,(17,18))),(1,3)),((19,20),(16,(((10,12),(5,14)),(7,(8,13))))))));
(21,((3,(1,(((6,15),(11,17)),(4,18)))),((19,20),((16,(((10,12),(5,14)),(13,(7,8)))),(2,9)))));
(21,((16,((((5,14),(10,12)),(13,(7,8))),(2,9))),((19,20),(3,(1,(4,(17,((11,18),(6,15)))))))));
(21,((16,(9,(2,((13,(7,8)),(5,(10,(12,14))))))),((19,20),(3,(1,(4,((6,17),(15,(11,18)))))))));
((((19,20),((2,9),(16,((13,(7,8)),((10,12),(5,14)))))),(3,(1,((6,18),(4,(11,(15,17))))))),21);
(21,((2,(9,(16,((13,(7,8)),((5,14),(10,12)))))),((19,20),(3,(1,(4,(6,((11,18),(15,17)))))))));
(21,(((2,9),(16,((13,(7,8)),((10,12),(5,14))))),((19,20),(3,(1,((6,15),(4,(17,(11,18)))))))));
(21,((1,(3,((6,(15,(11,17))),(4,18)))),((19,20),((16,(13,(7,((10,12),(5,14))))),(9,(2,8))))));
(21,(((16,((13,(7,8)),((5,14),(10,12)))),(2,9)),((3,(1,((11,(17,(6,15))),(4,18)))),(19,20))));
(21,((19,20),((3,(1,((4,(15,(11,18))),(6,17)))),(((5,14),(16,((10,12),(8,(7,13))))),(2,9)))));
(21,((((7,8),(13,((10,12),(5,14)))),(9,16)),((19,20),(2,(3,(1,(4,((6,15),(11,(17,18))))))))));
(21,(((16,(((10,12),(5,14)),(13,(7,8)))),(2,9)),((19,20),(3,(1,(4,((15,17),(6,(11,18)))))))));
(21,((19,20),((3,(1,((11,18),(4,(6,(15,17)))))),(((13,(7,8)),(16,((10,12),(5,14)))),(2,9)))));
(21,(((1,4),(3,(17,(6,(15,(11,18)))))),((19,20),(((13,(7,8)),((5,14),(10,12))),(16,(2,9))))));
(21,(((16,(((5,14),(10,12)),(13,(7,8)))),(2,9)),((19,20),(3,(1,(18,(4,(17,(11,(6,15))))))))));
(21,((((13,(7,8)),(5,(10,(12,14)))),(16,(2,9))),((19,20),(3,(1,(4,((17,(6,15)),(11,18))))))));
(21,(((2,9),(((5,10),(12,14)),(16,(13,(7,8))))),((19,20),(3,(4,(1,(15,((11,18),(6,17)))))))));
(21,((3,(1,(4,((11,18),(6,(15,17)))))),((19,20),((2,9),(16,(((5,14),(10,12)),(13,(7,8))))))));
(21,((19,20),((3,((4,(15,(11,18))),(1,(6,17)))),((((10,12),(5,14)),(13,(7,8))),(16,(2,9))))));
(21,((19,20),((3,(1,((6,15),(18,(4,(11,17)))))),((16,((7,13),(5,(10,(12,14))))),(9,(2,8))))));
(21,((2,9),(((19,20),(3,(1,(4,(6,((11,15),(17,18))))))),(((5,14),(10,12)),(16,(13,(7,8)))))));
(21,((9,((2,8),(16,(13,(7,(5,(10,(12,14)))))))),((19,20),(3,(1,(4,(18,(11,(17,(6,15))))))))));
(21,(((16,(((5,14),(10,12)),(13,(7,8)))),(2,9)),((19,20),(3,((6,15),(1,(4,(17,(11,18)))))))));
(21,(((16,(((10,12),(5,14)),(13,(7,8)))),(2,9)),((19,20),(3,(1,(4,((6,17),(15,(11,18)))))))));
(21,((16,(3,(1,(4,((11,18),(17,(6,15))))))),((19,20),(((13,(7,8)),((5,14),(10,12))),(2,9)))));
(21,((9,((5,((10,(12,14)),(13,(7,8)))),(2,16))),((19,20),(3,(1,(4,(15,(17,(6,(11,18))))))))));
(21,(((2,9),(16,((13,(7,8)),(14,(5,(10,12)))))),((19,20),(3,(1,(4,((11,18),(15,(6,17)))))))));
(21,((19,20),((3,(1,(4,((6,15),(17,(11,18)))))),(16,((((10,12),(5,14)),(7,13)),(9,(2,8)))))));
(21,((2,9),((16,(((5,14),(10,12)),(13,(7,8)))),((19,20),(3,(1,(4,((11,(6,17)),(15,18)))))))));
(21,((3,(1,(4,(17,(6,(15,(11,18))))))),((19,20),(9,(2,(16,((13,(7,8)),(5,(10,(12,14))))))))));
(21,((((13,(7,8)),(5,(12,(10,14)))),(16,(2,9))),((19,20),(3,(1,(11,((15,(6,17)),(4,18))))))));
(21,((9,(2,(16,((13,(7,8)),((5,14),(10,12)))))),((19,20),(3,(1,(4,((15,17),(6,(11,18)))))))));
(21,((19,20),((3,(1,(4,(15,(6,(17,(11,18))))))),((2,9),(16,((5,14),((10,12),(13,(7,8)))))))));
(21,(((2,((13,(7,8)),(5,(14,(10,12))))),(9,16)),((19,20),(3,(1,((6,18),(17,(4,(11,15)))))))));
(21,(((2,9),(16,(((10,12),(5,14)),(13,(7,8))))),((19,20),(3,(1,(4,(17,((11,18),(6,15)))))))));
(21,(((((5,14),(10,12)),(13,(7,8))),(16,(2,9))),((19,20),(3,(1,(15,(4,(11,(17,(6,18))))))))));
(21,((((6,17),(18,(4,(11,15)))),(1,3)),((19,20),(((13,(7,8)),((10,12),(5,14))),(16,(2,9))))));
(21,((9,(3,(1,(4,((17,(11,18)),(6,15)))))),((19,20),(2,(13,(16,((7,8),((10,12),(5,14)))))))));
(21,(((9,(2,8)),(16,(((5,14),(10,12)),(7,13)))),((19,20),(3,(1,((15,18),(4,(11,(6,17)))))))));
(21,((19,20),((((6,(11,18)),(15,(4,17))),(1,3)),(9,((2,8),(((10,12),(5,14)),(16,(7,13))))))));
(21,((9,(19,20)),((3,(1,(4,((6,15),(17,(11,18)))))),(2,(16,((7,8),(13,((10,12),(5,14)))))))));
(21,((19,20),((3,(1,(4,(11,(6,(18,(15,17))))))),(16,((2,9),((7,8),(13,((5,14),(10,12)))))))));
(21,((19,20),((3,((6,((15,18),(11,17))),(1,4))),((2,9),(16,((13,(7,8)),(5,(14,(10,12)))))))));
(21,(((((10,12),(5,14)),(13,(7,8))),(3,(1,((17,(6,15)),(4,(11,18)))))),((19,20),(2,(9,16)))));
(21,(((16,(((10,12),(5,14)),(13,(7,8)))),(2,9)),((19,20),(3,(4,(1,((6,15),(18,(11,17)))))))));
(21,((19,20),((3,(1,((6,(11,18)),(4,(15,17))))),(9,((((5,14),(10,12)),(13,(7,8))),(2,16))))));
(21,(((2,9),(16,((5,(10,(12,14))),(13,(7,8))))),((19,20),(3,(1,(4,(11,(6,(17,(15,18))))))))));
(21,((19,20),((3,(1,(4,((17,(11,18)),(6,15))))),(9,(((13,(7,8)),((5,14),(10,12))),(2,16))))));
(21,((2,(9,(16,((12,(5,(10,14))),(7,(8,13)))))),((19,20),(3,(1,((15,(6,17)),(4,(11,18))))))));
(21,((9,(((5,14),(13,(7,8))),(2,(16,(10,12))))),((19,20),(3,(1,(4,((11,18),(15,(6,17)))))))));
(21,(((2,9),(16,((5,14),((10,12),(13,(7,8)))))),((19,20),(3,(1,(4,(6,(17,(15,(11,18))))))))));
(21,(((9,(2,8)),(16,((5,14),((10,12),(7,13))))),((19,20),(3,(4,(1,((6,15),(17,(11,18)))))))));
(21,(((9,(2,8)),(16,((7,13),(5,(12,(10,14)))))),((19,20),(3,(1,(17,(4,((6,15),(11,18)))))))));
(21,((3,(1,(4,((6,(11,18)),(15,17))))),((19,20),((5,16),(((10,(12,14)),(7,13)),(9,(2,8)))))));
(21,((3,(1,(18,(11,(4,(15,(6,17))))))),((19,20),((9,(2,8)),(16,((7,13),((5,14),(10,12))))))));
(21,((2,(16,((13,(7,8)),(9,((10,12),(5,14)))))),((19,20),(3,(1,((15,17),(4,(18,(6,11)))))))));
(21,((19,20),((((15,17),(4,(6,(11,18)))),(1,3)),(((13,(7,8)),(16,((5,14),(10,12)))),(2,9)))));
(21,((16,(((7,13),((10,12),(5,14))),(9,(2,8)))),((19,20),(3,((17,((11,18),(6,15))),(1,4))))));
(21,((19,20),((3,(1,(4,(15,((11,18),(6,17)))))),((2,((7,8),((10,12),(5,14)))),(9,(13,16))))));
(21,(((2,9),(16,(((10,12),(5,14)),(13,(7,8))))),((19,20),(3,(1,((18,(17,(6,15))),(4,11)))))));
(21,((3,(1,(4,((11,(6,17)),(15,18))))),((19,20),((2,9),(16,((13,(7,8)),((10,12),(5,14))))))));
(21,((3,(1,(4,(15,(18,(17,(6,11))))))),((19,20),(2,(9,(16,(13,((7,8),((10,12),(5,14))))))))));
(21,((3,((15,(11,17)),(1,(4,(6,18))))),((19,20),((2,9),(16,((13,(7,8)),((10,12),(5,14))))))));
(21,((3,(1,(15,(4,(6,(17,(11,18))))))),((19,20),(9,(16,(2,(((5,14),(10,12)),(13,(7,8)))))))));
(21,(((13,((7,8),((10,12),(5,14)))),(16,(2,9))),((19,20),(3,(4,(1,((11,18),(6,(15,17)))))))));
(21,(((2,9),(16,((8,(7,13)),((10,12),(5,14))))),((19,20),(3,(1,(4,(17,((6,15),(11,18)))))))));
(21,((19,20),((3,((4,(11,18)),(1,(17,(6,15))))),((16,((7,8),(13,((10,12),(5,14))))),(2,9)))));
(21,(((16,(((10,12),(5,14)),(13,(7,8)))),(2,9)),((19,20),(3,((6,(11,(18,(15,17)))),(1,4))))));
(21,((9,(2,(16,((13,(7,8)),((5,14),(10,12)))))),((19,20),(3,(1,(4,((15,17),(11,(6,18)))))))));
(21,((19,20),((3,(1,(4,((15,17),(6,(11,18)))))),(16,((((10,12),(5,14)),(7,13)),(9,(2,8)))))));
(21,(((13,(7,8)),(16,((5,14),(10,12)))),((2,9),((19,20),(3,((4,6),(1,((11,18),(15,17)))))))));
(21,((2,(16,((10,(5,14)),(12,(13,(7,8)))))),(((4,((17,18),(11,(6,15)))),(1,3)),(9,(19,20)))));
(21,(((16,(((5,14),(10,12)),(13,(7,8)))),(2,9)),((19,20),(3,(1,(4,((11,18),(15,(6,17)))))))));
(21,((4,(3,(1,(11,(15,(18,(6,17))))))),((19,20),((2,9),(16,((5,14),((10,12),(13,(7,8)))))))));
(21,(((16,((7,13),((5,14),(10,12)))),(9,(2,8))),((19,20),(3,(1,((17,(6,15)),(4,(11,18))))))));
(21,((3,(1,(4,(6,((11,18),(15,17)))))),((2,9),((19,20),(16,((13,(7,8)),(5,(14,(10,12)))))))));
(21,((19,20),((3,((6,11),(1,(4,(15,(17,18)))))),(((13,(7,8)),(2,9)),(16,((10,12),(5,14)))))));
(21,((2,9),((16,((13,(7,8)),((5,14),(10,12)))),((19,20),(3,(1,(4,(15,((11,18),(6,17))))))))));
(21,((19,20),(((1,(4,((11,15),(6,(17,18))))),(9,(2,8))),(3,(16,((7,13),((10,12),(5,14))))))));
(21,((3,(1,(4,((11,18),(17,(6,15)))))),((19,20),((16,(((10,12),(5,14)),(13,(7,8)))),(2,9)))));
(21,((13,((2,9),(16,((7,8),((5,14),(10,12)))))),((19,20),(3,((15,(6,(11,18))),(1,(4,17)))))));
(21,(((2,9),(16,((5,(10,(12,14))),(8,(7,13))))),((19,20),(3,(1,((6,(11,15)),(4,(17,18))))))));
(21,(((16,(((10,12),(5,14)),(13,(7,8)))),(2,9)),((19,20),(1,(3,((6,(11,18)),(4,(15,17))))))));
(21,((19,20),((3,(1,(4,(17,((11,18),(6,15)))))),((16,(13,((7,8),((10,12),(5,14))))),(2,9)))));
(21,((1,(3,(4,((15,(6,18)),(11,17))))),((19,20),(16,(((5,(10,(12,14))),(13,(7,8))),(2,9))))));
(21,((3,(1,((17,(6,15)),(4,(11,18))))),((19,20),(2,(16,(9,((7,8),(13,((10,12),(5,14))))))))));
(21,(((2,8),(9,(16,(13,(7,((10,12),(5,14))))))),((19,20),(3,(1,(((11,18),(6,17)),(4,15)))))));
(21,((16,((19,20),(3,(((11,18),(17,(6,15))),(1,4))))),(2,(9,(((10,12),(5,14)),(13,(7,8)))))));
(21,(16,((19,20),(((1,(4,(6,18))),(3,(15,(11,17)))),(2,(9,(((10,12),(5,14)),(13,(7,8)))))))));
(21,(((2,8),(9,(16,(((10,12),(5,14)),(7,13))))),((19,20),(3,(1,(4,((11,(6,17)),(15,18))))))));
(21,((19,20),((3,(1,((4,15),((11,18),(6,17))))),((2,9),(16,((13,(7,8)),(5,(14,(10,12)))))))));
(21,(((2,9),((13,(10,12)),(16,((5,14),(7,8))))),((19,20),(3,(1,(4,(6,((11,17),(15,18)))))))));
(21,((19,20),((3,(1,((17,(6,15)),(4,(11,18))))),(16,(((13,(7,8)),((5,14),(10,12))),(2,9))))));
(21,((19,20),((3,(1,(4,(6,((11,17),(15,18)))))),((((5,14),(10,12)),(16,(13,(7,8)))),(2,9)))));
(21,(((2,9),(16,(((5,14),(10,12)),(13,(7,8))))),((19,20),(3,((4,(17,(6,15))),(1,(11,18)))))));
(21,(((16,((13,(7,8)),(5,(14,(10,12))))),(2,9)),((19,20),(3,(1,((11,15),(4,(18,(6,17)))))))));
(21,((19,20),((3,(1,(4,(6,(15,(17,(11,18))))))),((16,(((10,12),(5,14)),(13,(7,8)))),(2,9)))));
(21,(((19,20),(3,(1,((4,(18,(11,15))),(6,17))))),((16,(13,(7,8))),(((10,12),(5,14)),(2,9)))));
(21,((2,(16,(13,((7,8),(5,(10,(12,14))))))),((3,(1,(4,((11,17),(18,(6,15)))))),(9,(19,20)))));
(21,(((9,(2,8)),(16,(((10,12),(5,14)),(7,13)))),((19,20),(3,((15,(6,17)),(1,(4,(11,18))))))));
(21,((16,(2,(9,((5,14),((10,12),(13,(7,8))))))),((19,20),(3,(1,((17,(11,18)),(4,(6,15))))))));
(21,((((7,13),(16,((5,14),(10,12)))),(9,(2,8))),((19,20),((1,4),(3,((6,15),(17,(11,18))))))));
(21,((9,(((13,(7,8)),((10,12),(5,14))),(2,16))),((19,20),((4,(17,(11,(18,(6,15))))),(1,3)))));
(21,((3,(1,(17,(4,(18,(11,(6,15))))))),((19,20),(2,(9,(16,((7,8),(13,((10,12),(5,14))))))))));
(21,((3,(4,(1,((17,(11,18)),(6,15))))),((19,20),((16,((13,(7,8)),(5,(10,(12,14))))),(2,9)))));
(21,(((3,(1,(18,(4,(11,(17,(6,15))))))),((19,20),(9,16))),(2,((13,(7,8)),((10,12),(5,14))))));
(21,((19,20),(((4,((11,(6,15)),(17,18))),(1,3)),(16,((((5,14),(10,12)),(7,13)),(9,(2,8)))))));
(21,((3,(1,(17,(4,(18,(11,(6,15))))))),((19,20),((16,((13,(10,12)),((5,14),(7,8)))),(2,9)))));
(21,((3,(1,(4,(18,((6,15),(11,17)))))),((19,20),(9,((13,(7,8)),(2,(16,((10,12),(5,14)))))))));
(21,(((16,(((10,12),(5,14)),(13,(7,8)))),(2,9)),((19,20),((1,(17,((11,18),(6,15)))),(3,4)))));
(21,((2,(16,(((10,12),(5,14)),(7,(8,13))))),(9,((19,20),(3,(1,(4,(6,((11,18),(15,17))))))))));
(21,(((2,16),(9,(((10,12),(5,14)),(13,(7,8))))),((19,20),(3,(1,((6,17),(4,(11,(15,18)))))))));
(21,((9,(16,(((10,12),(5,14)),(13,(7,8))))),(2,((19,20),(3,(1,(4,(6,(15,(18,(11,17)))))))))));
(21,((2,9),((3,(15,(1,(4,(17,(6,(11,18))))))),((19,20),(16,((5,(10,(12,14))),(13,(7,8))))))));
(21,((19,20),((3,(1,(4,((6,15),(17,(11,18)))))),(2,(9,(16,((7,8),(13,(5,(12,(10,14)))))))))));
(21,((19,20),((3,((11,17),(1,(4,(18,(6,15)))))),(9,((2,8),(16,(((5,14),(10,12)),(7,13))))))));
(21,((19,20),((3,(1,(4,((6,15),(17,(11,18)))))),((16,((5,(10,(12,14))),(13,(7,8)))),(2,9)))));
(21,((3,((17,(6,15)),(1,(4,(11,18))))),((19,20),((((10,12),(5,14)),(13,(7,8))),(16,(2,9))))));
(21,((2,(9,(16,(((10,12),(5,14)),(13,(7,8)))))),((19,20),((4,(11,(6,(18,(15,17))))),(1,3)))));
(21,((16,(9,(2,(13,((7,8),(5,(10,(12,14)))))))),((19,20),(3,(1,((6,15),(4,(17,(11,18)))))))));
(21,((3,(1,((11,(6,(15,17))),(4,18)))),((19,20),((16,((13,(7,8)),(5,(10,(12,14))))),(2,9)))));
(21,((3,(1,(4,(6,((11,18),(15,17)))))),((19,20),((2,9),(16,((5,(10,(12,14))),(13,(7,8))))))));
(21,((19,20),((3,((11,(18,(6,15))),(1,(4,17)))),(((13,(7,8)),((5,14),(10,12))),(16,(2,9))))));
(21,(((2,9),(16,(((5,14),(10,12)),(13,(7,8))))),((19,20),(3,(1,((15,17),(4,(6,(11,18)))))))));
(21,(9,((3,(1,(4,(6,(15,(17,(11,18))))))),((19,20),(2,(16,(5,((14,(10,12)),(13,(7,8))))))))));
(21,((16,(((7,13),(5,(14,(10,12)))),(9,(2,8)))),((19,20),((4,(6,(15,(17,(11,18))))),(1,3)))));
(21,(((16,(((7,8),(5,14)),(13,(10,12)))),(2,9)),((19,20),(3,((11,18),(1,(4,(17,(6,15)))))))));
(21,((2,(9,(16,(((10,12),(5,14)),(13,(7,8)))))),((19,20),(3,(1,((18,(17,(4,6))),(11,15)))))));
(21,(((19,20),(3,(1,(4,((11,18),(17,(6,15))))))),((((10,12),(5,14)),(13,(7,8))),(2,(9,16)))));
(21,(((((10,12),(5,14)),(13,(7,8))),(9,16)),(2,((19,20),(3,(1,((4,15),(17,(6,(11,18))))))))));
(21,((9,((2,8),(((10,12),(5,14)),(16,(7,13))))),((19,20),(1,(3,(18,(4,(17,(15,(6,11))))))))));
(21,((19,20),((3,(1,((15,17),(4,(6,(11,18)))))),((2,9),(((10,12),(5,14)),(16,(13,(7,8))))))));
(21,((2,9),((16,((13,(7,8)),((5,14),(10,12)))),((19,20),(3,(1,((18,(11,17)),(4,(6,15)))))))));
(21,(((13,(7,8)),((10,12),(5,14))),((16,(2,9)),((19,20),(3,(1,((11,(6,17)),(4,(15,18)))))))));
(21,((3,(1,((15,(11,18)),(17,(4,6))))),((19,20),((((5,14),(10,12)),(13,(7,8))),(16,(2,9))))));
(21,((3,((11,(15,(17,(6,18)))),(1,4))),((19,20),(2,(9,(16,((13,(7,8)),((10,12),(5,14)))))))));
(21,(((2,9),(((7,8),((5,14),(10,12))),(13,16))),((19,20),(3,((15,((11,18),(6,17))),(1,4))))));
(21,((19,20),((2,(16,((13,(7,8)),((10,12),(5,14))))),(9,(3,(1,(4,((11,18),(17,(6,15))))))))));
(21,((3,(1,(4,((15,17),(6,(11,18)))))),((19,20),((16,(((5,14),(10,12)),(8,(7,13)))),(2,9)))));
(21,((3,(1,(4,(17,(15,(6,(11,18))))))),((19,20),((2,9),((13,(7,8)),(16,((10,12),(5,14))))))));
(21,((19,20),((3,(1,(17,(4,((11,18),(6,15)))))),((9,(2,8)),(16,(((10,12),(5,14)),(7,13)))))));
(21,((3,(1,(4,((15,(11,18)),(6,17))))),((19,20),((2,9),(16,((5,14),((10,12),(13,(7,8)))))))));
(21,((((6,17),(4,(15,(11,18)))),(1,3)),((19,20),((16,(((10,12),(5,14)),(13,(7,8)))),(2,9)))));
(21,((19,20),((3,(1,(17,(4,((11,15),(6,18)))))),(16,((((10,12),(5,14)),(13,(7,8))),(2,9))))));
(21,((3,(6,(1,(4,((11,18),(15,17)))))),((19,20),((16,((13,(7,8)),((10,12),(5,14)))),(2,9)))));
(21,(((16,((13,(7,8)),((10,12),(5,14)))),(2,9)),((19,20),(3,(1,(4,((6,15),(17,(11,18)))))))));
(21,((9,(16,((2,8),(((5,14),(10,12)),(7,13))))),((19,20),(3,(1,(((11,18),(6,15)),(4,17)))))));
(21,(((16,(((10,12),(5,14)),(13,(7,8)))),(2,9)),((19,20),(3,(1,((17,(11,18)),(4,(6,15))))))));
(21,((9,(2,((10,12),(16,((5,14),(13,(7,8))))))),((19,20),((((11,18),(6,15)),(4,17)),(1,3)))));
(21,((3,(1,(((11,18),(15,17)),(4,6)))),((19,20),(2,(9,(16,((10,12),((5,14),(13,(7,8))))))))));
(21,((3,((4,(6,(11,18))),(1,(15,17)))),((19,20),((5,(10,(12,14))),((16,(13,(7,8))),(2,9))))));
(21,((19,20),(16,((3,(1,((6,(15,17)),(4,(11,18))))),((((5,14),(10,12)),(13,(7,8))),(2,9))))));
(21,((9,(((13,(7,8)),((5,14),(10,12))),(2,16))),((19,20),(3,((4,(18,(17,(6,15)))),(1,11))))));
(21,((9,(2,(16,(((5,14),(10,12)),(13,(7,8)))))),((19,20),(3,(1,(4,(11,((15,17),(6,18)))))))));
(21,(((19,20),(16,(2,9))),((1,(3,(4,((11,17),(15,(6,18)))))),(13,((7,8),((5,14),(10,12)))))));
(21,(((19,20),(3,(1,(4,((15,18),(6,(11,17))))))),(2,(9,(16,((13,(7,8)),((10,12),(5,14))))))));
(21,(((2,9),(16,((13,(7,8)),(5,(10,(12,14)))))),((19,20),(3,((4,((6,17),(11,15))),(1,18))))));
(21,(((16,(((10,12),(5,14)),(13,(7,8)))),(2,9)),((19,20),(3,(1,(4,((11,18),(6,(15,17)))))))));
(21,(2,((9,(16,((5,(10,(12,14))),(13,(7,8))))),((19,20),(3,(1,((17,(6,15)),(4,(11,18)))))))));
(21,((16,((13,((7,8),(5,(10,(12,14))))),(2,9))),((19,20),(3,(1,(4,((6,15),(17,(11,18)))))))));
(21,(((4,((11,(6,15)),(17,18))),(1,3)),((19,20),(16,(((13,(7,8)),(14,(5,(10,12)))),(2,9))))));
(21,((3,(1,(4,((11,17),(18,(6,15)))))),((19,20),((16,(((5,14),(10,12)),(13,(7,8)))),(2,9)))));
(21,((19,20),((3,(1,(4,(6,((11,18),(15,17)))))),(16,(((5,14),((10,12),(13,(7,8)))),(2,9))))));
(21,(((9,((13,(7,8)),((10,12),(5,14)))),(2,16)),((19,20),(3,(1,(4,((15,18),(11,(6,17)))))))));
(21,(((1,((6,(15,17)),(11,18))),(3,4)),((19,20),((16,(((10,12),(5,14)),(7,13))),(9,(2,8))))));
(21,((19,20),((3,(1,((17,(6,(11,18))),(4,15)))),((16,(13,((7,8),((10,12),(5,14))))),(2,9)))));
(21,((3,(4,(1,((17,18),(11,(6,15)))))),((19,20),(16,(((7,13),((5,14),(10,12))),(9,(2,8)))))));
(21,(((17,((11,18),(6,15))),(3,(1,4))),((19,20),((16,((13,(7,8)),((10,12),(5,14)))),(2,9)))));
(21,(((19,20),(16,(9,((7,8),(13,(5,(14,(10,12)))))))),(2,(3,((17,(15,18)),((6,11),(1,4)))))));
(21,(((19,20),(3,(1,(4,((11,18),(15,(6,17))))))),(2,(9,(16,(((10,12),(5,14)),(13,(7,8))))))));
(21,(((2,9),(16,(((10,12),(5,14)),(13,(7,8))))),((19,20),(3,(1,(18,(4,(11,(17,(6,15))))))))));
(21,(((2,8),(9,(16,(13,(7,((10,12),(5,14))))))),((19,20),(3,(1,(4,(18,(11,(17,(6,15))))))))));
(21,(((16,(((10,12),(5,14)),(13,(7,8)))),(2,9)),((19,20),(3,(1,(4,((15,17),(6,(11,18)))))))));
(21,((19,20),((3,(1,(4,((11,(15,17)),(6,18))))),((16,((13,(10,12)),((7,8),(5,14)))),(2,9)))));
(21,((3,(1,(4,(17,(11,(15,(6,18))))))),((19,20),(16,(((7,13),((10,12),(5,14))),(9,(2,8)))))));
(21,((19,20),((3,(1,((4,18),((6,17),(11,15))))),((2,8),(9,(16,((7,13),((5,14),(10,12)))))))));
(21,(((4,(17,((6,11),(15,18)))),(1,3)),((19,20),((2,9),((13,(7,8)),(16,((10,12),(5,14))))))));
(21,((((6,15),(4,(17,(11,18)))),(1,3)),((19,20),((2,9),(16,((13,(7,8)),((10,12),(5,14))))))));
(21,((19,20),((3,(((11,18),(15,17)),(1,(4,6)))),((2,9),(16,(((10,12),(5,14)),(13,(7,8))))))));
(21,((19,20),((3,(1,(15,(4,((11,18),(6,17)))))),((7,13),((9,(2,8)),(16,((10,12),(5,14))))))));
(21,((2,(9,(16,((13,(7,8)),((5,14),(10,12)))))),((19,20),(((11,18),(4,(15,(6,17)))),(1,3)))));
(21,(((16,((5,14),((10,12),(13,(7,8))))),(2,9)),((19,20),(3,((17,(6,15)),(1,(4,(11,18))))))));
(21,((9,(2,(16,((7,8),(13,(5,(12,(10,14)))))))),((19,20),(3,((4,(17,(11,18))),(1,(6,15)))))));
(21,(2,((((10,12),(5,14)),(9,(16,(13,(7,8))))),((19,20),(3,(1,((17,(6,15)),(4,(11,18)))))))));
(21,(((2,9),(16,(13,((7,8),((10,12),(5,14)))))),((19,20),(3,(1,((17,(11,18)),(4,(6,15))))))));
(21,((1,(3,((18,(11,(15,17))),(4,6)))),((19,20),(16,((((5,14),(10,12)),(13,(7,8))),(2,9))))));
(21,((3,(1,((6,15),(4,(17,(11,18)))))),((19,20),((2,9),(16,((5,14),(13,((10,12),(7,8)))))))));
(21,(((19,20),(3,((4,(15,17)),(1,(18,(6,11)))))),(((13,(7,8)),((10,12),(5,14))),(16,(2,9)))));
(21,((2,((4,((11,17),(18,(6,15)))),(1,3))),((19,20),(9,(16,((13,(7,8)),((5,14),(10,12))))))));
(21,(((2,9),(16,((13,(7,8)),((5,14),(10,12))))),((19,20),(3,(1,(4,(11,(18,(17,(6,15))))))))));
(21,((19,20),((3,(1,(11,(4,((6,18),(15,17)))))),((2,9),(16,(((10,12),(5,14)),(13,(7,8))))))));
(21,((16,(19,20)),((3,((17,(18,(6,(11,15)))),(1,4))),(9,(2,(13,((7,8),((10,12),(5,14)))))))));
(21,(((2,9),(16,(((5,14),(10,12)),(13,(7,8))))),((19,20),(1,(3,((6,15),(4,(17,(11,18)))))))));
(21,((3,(1,((11,18),(4,(17,(6,15)))))),((19,20),(2,(9,(16,((7,8),(13,(5,(14,(10,12)))))))))));
(21,((19,20),(9,((3,(1,((17,(11,18)),(6,(4,15))))),(16,(2,((10,12),((5,14),(13,(7,8))))))))));
(21,((19,20),((3,(1,((11,18),(4,(17,(6,15)))))),(16,(((7,13),((5,14),(10,12))),(9,(2,8)))))));
(21,(((2,16),(9,((5,(12,(10,14))),(13,(7,8))))),((19,20),(1,(3,(4,((15,17),(6,(11,18)))))))));
(21,((((5,14),(10,12)),(16,(7,13))),((9,(2,8)),((19,20),(3,((15,(11,18)),(1,(4,(6,17)))))))));
(21,(((2,9),(((10,12),(5,14)),(16,(13,(7,8))))),((19,20),(3,(1,(((11,18),(6,15)),(4,17)))))));
(21,((19,20),((3,(1,((6,15),(4,(17,(11,18)))))),(2,(((12,(10,14)),(13,(5,(7,8)))),(9,16))))));
(21,((19,20),((3,(1,(4,((15,18),(11,(6,17)))))),(((2,8),((7,13),((10,12),(5,14)))),(9,16)))));
(21,(((2,8),((((10,12),(5,14)),(7,13)),(9,16))),((19,20),(3,(1,(4,((11,18),(6,(15,17)))))))));
(21,((((4,(6,(15,17))),(3,(1,(11,18)))),(16,((7,8),(13,((10,12),(5,14)))))),((19,20),(2,9))));
(21,((19,20),((3,(1,((11,18),(4,(17,(6,15)))))),((16,((5,(14,(10,12))),(13,(7,8)))),(2,9)))));
(21,(((1,(4,6)),(3,(11,(15,(17,18))))),((19,20),((13,(7,8)),((16,((10,12),(5,14))),(2,9))))));
(21,((19,20),((3,(1,((11,18),(4,(15,(6,17)))))),(16,(((5,14),((10,12),(13,(7,8)))),(2,9))))));
(21,((19,20),((3,(1,(4,((17,18),(11,(6,15)))))),((((10,12),(5,14)),(7,13)),(16,(9,(2,8)))))));
(21,(((3,(1,((17,(11,18)),(4,(6,15))))),(2,((5,(10,(12,14))),(13,(7,8))))),((19,20),(9,16))));
(21,(((2,9),(16,((13,(7,8)),((5,14),(10,12))))),((19,20),(3,(1,(4,((17,(11,18)),(6,15))))))));
(21,((19,20),((3,(1,(6,((15,(17,18)),(4,11))))),((16,(9,(13,(7,8)))),(2,((10,12),(5,14)))))));
(21,((16,(((10,12),(5,14)),(7,(8,13)))),((19,20),((3,(1,((11,18),(4,(17,(6,15)))))),(2,9)))));
(21,((19,20),((3,(1,((4,(6,17)),(15,(11,18))))),((16,((5,(10,(12,14))),(7,(8,13)))),(2,9)))));
(21,((19,20),((3,(1,((15,(11,17)),(4,(6,18))))),(2,(9,(((5,14),(10,12)),(16,(13,(7,8)))))))));
(21,((19,20),(2,((3,(4,(1,((11,18),(17,(6,15)))))),(9,((13,(7,8)),(16,((10,12),(5,14)))))))));
(21,((19,20),((3,(1,((11,18),((6,17),(4,15))))),((((10,12),(13,(7,8))),(16,(5,14))),(2,9)))));
(21,((1,(3,(4,(15,(11,(18,(6,17))))))),((19,20),((16,((7,8),(13,((10,12),(5,14))))),(2,9)))));
(21,((19,20),((3,(1,(4,(17,((11,18),(6,15)))))),(((13,(7,8)),(16,((10,12),(5,14)))),(2,9)))));
(21,((9,(2,(16,((5,(12,(10,14))),(13,(7,8)))))),((19,20),(3,(1,(15,((6,17),(4,(11,18)))))))));
(21,((3,(1,((17,(6,15)),(4,(11,18))))),((19,20),((((10,12),(7,8)),(13,(5,14))),(16,(2,9))))));
(21,((16,((((10,12),(5,14)),(13,(7,8))),(2,9))),((19,20),(3,(1,((17,(15,(11,18))),(4,6)))))));
(21,((19,20),((3,(1,(4,(18,(11,(15,(6,17))))))),((2,9),(16,(((10,12),(5,14)),(13,(7,8))))))));
(21,((19,20),((3,(1,(4,((17,(6,15)),(11,18))))),((16,(13,((7,8),((10,12),(5,14))))),(2,9)))));
(21,((3,(1,(4,(17,(11,(18,(6,15))))))),((19,20),((2,(5,16)),((14,(10,12)),(9,(13,(7,8))))))));
(21,((3,(1,(17,((6,15),(4,(11,18)))))),((19,20),(2,(9,(16,((13,(7,8)),((5,14),(10,12)))))))));
(21,((3,(1,(4,(18,(17,(6,(11,15))))))),((2,9),((19,20),(16,(((10,12),(5,14)),(13,(7,8))))))));
(21,((3,(4,(1,(15,((6,17),(11,18)))))),((19,20),((9,(2,8)),((7,13),(16,((10,12),(5,14))))))));
(21,(((16,(2,(13,(7,8)))),(9,((10,12),(5,14)))),((19,20),(3,(1,(18,(4,(17,(11,(6,15))))))))));
(21,((3,(1,(4,((11,18),(15,(6,17)))))),(((((10,12),(5,14)),(13,(7,8))),(9,16)),(2,(19,20)))));
(21,(((4,((11,15),(18,(6,17)))),(1,3)),((19,20),(9,(((5,(14,(10,12))),(13,(7,8))),(2,16))))));
(21,((9,(2,8)),((16,((5,(12,(10,14))),(7,13))),((19,20),(3,(1,((11,18),(4,(17,(6,15))))))))));
(21,((2,(((7,8),((10,12),(5,14))),(13,16))),((3,(((17,18),(11,(6,15))),(1,4))),(9,(19,20)))));
(21,((9,(2,(16,(13,((7,8),((5,14),(10,12))))))),((19,20),(3,((6,15),(1,(4,(17,(11,18)))))))));
(21,((9,(2,(16,(((10,12),(5,14)),(13,(7,8)))))),((19,20),(3,(((15,17),(18,(6,11))),(1,4))))));
(21,((19,20),((1,(3,((15,(6,11)),(18,(4,17))))),((((10,12),(5,14)),(16,(13,(7,8)))),(2,9)))));
(21,((19,20),(((16,((13,(7,8)),((10,12),(5,14)))),(2,9)),(3,(4,(1,((6,(11,15)),(17,18))))))));
(21,(((19,20),(9,(2,8))),((3,(1,((11,(6,17)),(4,(15,18))))),(16,((7,13),((5,14),(10,12)))))));
(21,(((((5,14),(10,12)),(7,13)),(16,(9,(2,8)))),((19,20),(3,(1,(4,(17,((11,18),(6,15)))))))));
(21,((3,(1,((18,(11,15)),(4,(6,17))))),((19,20),((16,((13,(7,8)),((10,12),(5,14)))),(2,9)))));
(21,((19,20),((3,(1,((15,(11,18)),(4,(6,17))))),((16,(((10,12),(5,14)),(13,(7,8)))),(2,9)))));
(21,((3,(1,(4,(6,((11,18),(15,17)))))),((19,20),((16,(2,9)),((10,12),((5,14),(13,(7,8))))))));
(21,(((16,(((10,12),(5,14)),(13,(7,8)))),(2,9)),((19,20),(3,(1,(11,(4,(18,(6,(15,17))))))))));
(21,(((9,((13,(7,8)),((10,14),(5,12)))),(2,16)),((19,20),(3,((17,(11,18)),(1,(4,(6,15))))))));
(21,((19,20),((3,(1,(4,((6,15),(17,(11,18)))))),((2,9),(16,(((10,12),(5,14)),(13,(7,8))))))));
(21,((19,20),((3,(1,((17,(15,18)),(4,(6,11))))),((7,13),(16,(((10,12),(5,14)),(9,(2,8))))))));
(21,((19,20),((3,(1,((15,(6,(11,18))),(4,17)))),(2,(9,(16,((7,8),(13,(5,(12,(10,14)))))))))));
(21,(((((5,14),(10,12)),(16,(13,(7,8)))),(2,9)),((19,20),(3,(1,(4,((17,(6,11)),(15,18))))))));
(21,(((19,20),((4,(11,17)),(3,(1,(18,(6,15)))))),((16,((10,12),((5,14),(13,(7,8))))),(2,9))));
(21,(((16,(((10,12),(5,14)),(13,(7,8)))),(2,9)),((19,20),(3,(1,(17,(4,(18,(15,(6,11))))))))));
(21,(((5,(14,(10,12))),(13,(7,8))),((3,(1,((15,17),(4,(6,(11,18)))))),((19,20),(16,(2,9))))));
(21,((19,20),((3,(1,(4,((6,15),(17,(11,18)))))),((2,8),(9,(16,((5,14),((10,12),(7,13)))))))));
(21,((19,20),((3,(1,(4,(6,((11,18),(15,17)))))),((16,(((10,12),(5,14)),(13,(7,8)))),(2,9)))));
(21,((2,(9,(16,(((5,14),(10,12)),(13,(7,8)))))),((19,20),(3,((4,(6,15)),(1,(17,(11,18))))))));
(21,(((3,(1,(4,((17,(11,18)),(6,15))))),(16,(9,(2,8)))),((19,20),(13,(7,(5,(10,(12,14))))))));
(21,(9,(((2,8),(16,(((5,14),(10,12)),(7,13)))),((19,20),(3,(1,(4,((6,17),(18,(11,15))))))))));
(21,(((2,16),(9,(((10,12),(5,14)),(13,(7,8))))),((19,20),(3,(1,(4,((11,18),(17,(6,15)))))))));
(21,((3,(1,((17,(11,18)),(4,(6,15))))),((19,20),((2,9),(16,((13,(7,8)),(5,(10,(12,14)))))))));
(21,(((2,9),(16,((13,(7,8)),((10,12),(5,14))))),((19,20),(3,((15,((11,18),(6,17))),(1,4))))));
(21,((16,(13,(7,((10,12),(5,14))))),((9,(2,8)),((4,(1,(18,(11,(17,(6,15)))))),(3,(19,20))))));
(21,(((2,8),(16,(13,(7,((10,12),(5,14)))))),((19,20),(9,(3,((11,(18,(6,15))),(1,(4,17))))))));
(21,((9,((16,(7,13)),((2,8),((10,12),(5,14))))),((19,20),(3,(1,(4,((17,(11,18)),(6,15))))))));
(21,((16,(13,((7,8),(5,(12,(10,14)))))),((2,9),((19,20),(3,(1,(4,((15,(11,18)),(6,17)))))))));
(21,((((10,12),((5,14),(7,13))),((2,8),(9,16))),((19,20),(3,((6,(11,18)),(1,(4,(15,17))))))));
(21,((3,(1,(4,(11,((15,18),(6,17)))))),((19,20),(((13,(7,8)),((10,12),(5,14))),(16,(2,9))))));
(21,(((19,20),(2,9)),((3,(1,((11,18),(4,(15,(6,17)))))),(16,(((10,12),(5,14)),(13,(7,8)))))));
(21,((19,20),((3,(1,((15,(6,(17,18))),(4,11)))),(2,((16,(5,(10,(12,14)))),(9,(13,(7,8))))))));
(21,((19,20),((9,((13,(7,8)),((5,14),(10,12)))),(((4,((6,17),(15,(11,18)))),(1,3)),(2,16)))));
((((2,(16,(13,(7,8)))),(9,((10,12),(5,14)))),((19,20),(3,(1,(4,(11,(18,(17,(6,15))))))))),21);
(21,(((16,(((5,14),(10,12)),(13,(7,8)))),(2,9)),((19,20),(1,(3,((6,(11,15)),(4,(17,18))))))));
(21,((19,20),((3,(1,(4,(15,(6,(17,(11,18))))))),((9,(2,8)),(16,(((5,14),(10,12)),(7,13)))))));
(21,((16,(2,9)),(((10,12),((5,14),(13,(7,8)))),((19,20),(3,(1,(4,((6,15),(17,(11,18))))))))));
(21,((3,(1,(4,(6,(11,(17,(15,18))))))),((19,20),((16,(((5,14),(10,12)),(13,(7,8)))),(2,9)))));
(21,((9,(2,8)),((19,20),((3,(1,(18,(4,(11,(17,(6,15))))))),(16,(((5,14),(10,12)),(7,13)))))));
(21,((3,(((11,(6,17)),(4,18)),(1,15))),((19,20),((9,((5,(10,(12,14))),(13,(7,8)))),(2,16)))));
(21,((19,20),((3,(1,((4,6),(15,(17,(11,18)))))),((2,9),((13,(7,8)),(16,((10,12),(5,14))))))));
(21,(((16,(((5,14),(10,12)),(13,(7,8)))),(2,9)),((19,20),(3,(1,(4,((6,18),(11,(15,17)))))))));
(21,(2,((19,20),((9,(16,(((10,12),(5,14)),(13,(7,8))))),(3,(1,((6,(11,18)),(4,(15,17)))))))));
(21,(((2,9),(16,(((5,14),(10,12)),(8,(7,13))))),((19,20),(3,(4,(1,((11,18),(17,(6,15)))))))));
(21,((2,(16,((13,(7,8)),(5,(10,(12,14)))))),(9,((19,20),(3,(4,(1,(15,(6,(18,(11,17)))))))))));
(21,(((4,(17,((11,18),(6,15)))),(1,3)),((19,20),((9,(13,16)),(2,((7,8),((10,12),(5,14))))))));
(21,((9,(16,(((5,14),(10,12)),(13,(7,8))))),(2,((19,20),(3,(4,(1,((17,18),(11,(6,15))))))))));
(21,(((16,((7,8),((10,12),(13,(5,14))))),(2,9)),((19,20),(3,(1,(18,(4,((6,15),(11,17)))))))));
(21,(((2,((5,(10,(12,14))),(13,(7,8)))),(9,16)),((19,20),(3,(1,((4,15),((11,17),(6,18))))))));
(21,(((16,(13,(7,8))),(2,(9,((5,14),(10,12))))),((19,20),(3,(1,(4,(17,((11,18),(6,15)))))))));
(21,(((19,20),(3,(((11,18),(6,(15,17))),(1,4)))),(16,(9,((2,8),(((10,12),(5,14)),(7,13)))))));
(21,((3,(1,(4,((11,18),(6,(15,17)))))),((19,20),((16,(((5,14),(10,12)),(13,(7,8)))),(2,9)))));
(21,((16,(((10,12),(5,14)),(7,13))),((9,(2,8)),((19,20),(3,(1,(4,((6,15),(17,(11,18))))))))));
(21,((19,20),(9,((3,(1,((6,15),(4,(18,(11,17)))))),(2,(16,((7,8),(13,((10,12),(5,14))))))))));
(21,((3,(1,((15,18),(4,(11,(6,17)))))),((19,20),(16,((13,(7,((10,12),(5,14)))),(9,(2,8)))))));
(21,((19,20),((3,(1,((11,18),(4,(6,(15,17)))))),((9,(2,8)),(((10,12),(5,14)),(16,(7,13)))))));
(21,((2,9),((19,20),((16,((7,8),(13,(5,(12,(10,14)))))),(3,(1,(4,(17,(6,(15,(11,18)))))))))));
(21,((2,(16,(9,((10,12),((5,14),(13,(7,8))))))),((19,20),(((6,17),(15,(11,18))),(3,(1,4))))));
(21,(((3,(1,(18,(4,(11,(6,(15,17))))))),(9,(((10,12),(5,14)),(13,(7,8))))),(2,(16,(19,20)))));
(21,((2,(9,((5,(12,(10,14))),(16,(13,(7,8)))))),((19,20),(3,(1,(4,(6,(15,(17,(11,18))))))))));
(21,((19,20),((3,(1,(4,(15,(17,(6,(11,18))))))),(2,(9,(16,((13,(7,8)),(5,(14,(10,12))))))))));
(21,(((19,20),(3,(1,((4,11),((15,17),(6,18)))))),((16,(((5,14),(10,12)),(13,(7,8)))),(2,9))));
(21,(((16,((5,14),((10,12),(13,(7,8))))),(2,9)),((19,20),(3,(1,(4,((6,(11,18)),(15,17))))))));
(21,((3,(1,(4,((11,18),(17,(6,15)))))),((19,20),((2,9),(16,((7,8),(13,((5,14),(10,12)))))))));
(21,((16,(9,(2,((5,(10,(12,14))),(13,(7,8)))))),((19,20),(3,(1,(4,(18,(11,(17,(6,15))))))))));
(21,((2,(9,(16,(((10,12),(5,14)),(13,(7,8)))))),((19,20),(((4,(6,17)),(15,(11,18))),(1,3)))));
(21,((((13,(7,8)),((10,12),(5,14))),(16,(2,9))),((19,20),(3,(1,((17,(6,15)),(4,(11,18))))))));
(21,((19,20),((3,(1,(4,(18,((6,15),(11,17)))))),((9,(2,8)),(16,((7,13),((10,12),(5,14))))))));
(21,(((((10,12),(5,14)),(16,(7,13))),(9,(2,8))),((19,20),(3,(1,(4,((15,(11,18)),(6,17))))))));
(21,(((9,((5,(12,(10,14))),(13,(7,8)))),(2,16)),((19,20),(3,((4,((11,18),(15,17))),(1,6))))));
(21,(((((5,14),(10,12)),(13,(7,8))),(16,(2,9))),((19,20),(3,(1,(4,(15,((6,17),(11,18)))))))));
(21,((19,20),((3,(1,(15,(4,((11,18),(6,17)))))),(9,(2,(16,(((5,14),(10,12)),(13,(7,8)))))))));
(21,((19,20),((3,(1,(18,(4,((15,17),(6,11)))))),((13,16),(((7,8),((10,12),(5,14))),(2,9))))));
(21,(9,((2,(16,((13,(7,8)),((10,12),(5,14))))),((19,20),(3,(1,(6,(4,(15,(17,(11,18)))))))))));
(21,(((19,20),(3,(1,(4,((15,18),(11,(6,17))))))),((16,(((10,12),(5,14)),(13,(7,8)))),(2,9))));
(21,(((16,(((10,12),(5,14)),(13,(7,8)))),(2,9)),((19,20),(3,(1,(4,((11,17),(15,(6,18)))))))));
(21,(((19,20),(2,(((10,12),(5,14)),(13,(7,8))))),((3,(1,((4,(17,(6,15))),(11,18)))),(9,16))));
(21,((((10,12),(5,14)),(7,13)),((19,20),((3,(1,(4,(6,(15,(17,(11,18))))))),(16,(9,(2,8)))))));
(21,((19,20),((3,((1,15),((6,17),(4,(11,18))))),((2,(((10,12),(5,14)),(13,(7,8)))),(9,16)))));
(21,(((3,(1,((6,17),(4,(15,(11,18)))))),(2,(9,(((10,12),(5,14)),(13,(7,8)))))),(16,(19,20))));
(21,((19,20),(((16,(((10,12),(5,14)),(13,(7,8)))),(2,9)),(3,(1,(((6,15),(11,18)),(4,17)))))));
(21,(2,((19,20),((((4,(11,18)),(15,(6,17))),(1,3)),(9,(16,((13,(7,8)),((10,12),(5,14)))))))));
(21,((16,(((5,14),((10,12),(13,(7,8)))),(2,9))),((19,20),(3,(1,(4,((6,15),(17,(11,18)))))))));
(21,((((10,12),(5,14)),(9,(16,(13,(7,8))))),((19,20),(2,(3,((18,(6,11)),(1,(4,(15,17)))))))));
(21,((9,(2,(16,(13,((7,8),((5,14),(10,12))))))),((19,20),(3,(((15,17),(4,(11,18))),(1,6))))));
(21,((((13,(7,8)),(16,((5,14),(10,12)))),(2,9)),((19,20),(3,(((6,15),(11,17)),(1,(4,18)))))));
(21,((16,((((10,12),(5,14)),(13,(7,8))),(2,9))),((19,20),(3,(1,(4,(17,((11,18),(6,15)))))))));
(21,((1,(3,((17,(11,(6,15))),(4,18)))),((19,20),(((13,(7,8)),((10,12),(5,14))),(16,(2,9))))));
(21,((19,20),((2,9),((3,(1,(4,((6,15),(17,(11,18)))))),(16,((13,(7,8)),(5,(10,(12,14)))))))));
(21,(((2,8),(9,(16,((7,13),(5,(14,(10,12))))))),((19,20),(3,(1,(6,(4,(17,(15,(11,18))))))))));
(21,((3,(1,(4,((11,17),(18,(6,15)))))),((19,20),((16,((5,14),((10,12),(7,13)))),(9,(2,8))))));
(21,((19,20),((1,(3,((6,15),(4,(17,(11,18)))))),((16,(((10,12),(5,14)),(13,(7,8)))),(2,9)))));
(21,((9,(((7,8),(13,((10,12),(5,14)))),(2,16))),((19,20),(3,(1,((6,17),((11,15),(4,18))))))));
(21,(((2,9),(16,((7,8),(13,(5,(12,(10,14))))))),((19,20),(3,((4,(6,(11,15))),(1,(17,18)))))));
(21,((19,20),((3,(1,((11,18),(4,(17,(6,15)))))),((2,16),(9,(((5,14),(10,12)),(13,(7,8))))))));
(21,((2,9),(((13,(7,8)),(16,((10,12),(5,14)))),((1,(4,(15,((6,17),(11,18))))),(3,(19,20))))));
(21,(((3,(17,(1,((4,(11,18)),(6,15))))),(16,(2,9))),((19,20),((13,(7,8)),((10,12),(5,14))))));
(21,((19,20),((3,(4,((11,18),(1,(17,(6,15)))))),(16,((13,((7,8),((5,14),(10,12)))),(2,9))))));
(21,(((2,9),(16,(((10,12),(5,14)),(13,(7,8))))),((19,20),(3,(1,(4,((6,15),(17,(11,18)))))))));
(21,(((13,(10,12)),((16,((5,14),(7,8))),(2,9))),((19,20),(3,(1,((17,(11,18)),(4,(6,15))))))));
(21,((2,(19,20)),((3,(1,(4,((17,18),(11,(6,15)))))),(9,(16,((7,8),(13,(5,(14,(10,12))))))))));
(21,(((2,9),(16,(((10,12),(5,14)),(13,(7,8))))),((19,20),(1,(3,((4,18),(17,(15,(6,11)))))))));
(21,(((2,9),(16,(((10,12),(5,14)),(13,(7,8))))),((19,20),(3,(1,(4,((6,17),(15,(11,18)))))))));
(21,(((13,(7,8)),((5,(10,(12,14))),(2,9))),((19,20),(16,(3,(1,((17,(11,18)),(4,(6,15)))))))));
(21,((19,20),((((10,12),((5,14),(13,(7,8)))),(2,16)),(9,(3,(1,(4,(6,(15,(17,(11,18)))))))))));
(21,((19,20),((3,(18,(1,(4,(17,(11,(6,15))))))),((9,(2,8)),(16,(((10,12),(5,14)),(7,13)))))));
(21,((19,20),((3,(1,(4,(6,(17,(15,(11,18))))))),((2,9),((13,(7,8)),(16,((10,12),(5,14))))))));
(21,((19,20),((3,(1,(18,(4,(17,(11,(6,15))))))),((16,(((10,12),(5,14)),(13,(7,8)))),(2,9)))));
(21,(((16,((13,(7,8)),(10,(12,(5,14))))),(2,9)),((19,20),(3,(1,(4,(18,((6,15),(11,17)))))))));
(21,((16,(((13,(7,8)),((10,12),(5,14))),(2,9))),((19,20),(3,(1,((11,18),(4,(17,(6,15)))))))));
(21,((2,((((5,14),(10,12)),(13,(7,8))),(9,16))),((19,20),(3,(1,((18,(6,17)),(4,(11,15))))))));
(21,((3,(1,((15,17),(11,(4,(6,18)))))),((19,20),(9,(2,(16,((5,(10,(12,14))),(13,(7,8)))))))));
(21,(((2,9),((13,(5,(10,(12,14)))),(16,(7,8)))),((19,20),(3,(4,(1,((6,17),(15,(11,18)))))))));
(21,((19,20),(((4,((15,17),(18,(6,11)))),(1,3)),((16,((7,13),(5,(14,(10,12))))),(9,(2,8))))));
(21,((3,(1,((6,18),(4,(15,(11,17)))))),((19,20),(9,((2,8),(16,(((10,12),(5,14)),(7,13))))))));
(21,((3,(1,(4,(15,(17,(6,(11,18))))))),((9,(2,8)),((19,20),(16,(7,(13,((10,12),(5,14)))))))));
(21,((19,20),((3,(1,(4,(17,(18,(11,(6,15))))))),((13,(7,8)),((16,((5,14),(10,12))),(2,9))))));
(21,((19,20),((17,(3,(1,((15,(11,18)),(4,6))))),(9,(2,(16,((13,(7,8)),((10,12),(5,14)))))))));
(21,((19,20),((3,(1,(11,((6,(15,17)),(4,18))))),((2,8),(9,(16,((7,13),(5,(14,(10,12))))))))));
(21,(((19,20),(3,(1,(4,(6,(15,(17,(11,18)))))))),((2,9),(16,((13,(7,8)),((10,12),(5,14)))))));
(21,((3,(4,(1,((17,(15,18)),(6,11))))),((19,20),(((7,13),((10,12),(5,14))),(16,(9,(2,8)))))));
(21,(((11,(15,(4,(18,(6,17))))),(1,3)),((19,20),((16,((5,14),((10,12),(13,(7,8))))),(2,9)))));
(21,((2,9),((3,(1,(18,(17,(4,(11,(6,15))))))),((19,20),(16,((13,(7,8)),(12,(10,(5,14)))))))));
(21,((((2,8),((5,14),(10,12))),((7,13),(9,16))),((19,20),(3,(1,(4,(17,(11,(18,(6,15))))))))));
(21,((3,(1,(4,((15,(6,17)),(11,18))))),((19,20),(2,(16,(9,((5,(14,(10,12))),(13,(7,8)))))))));
(21,((3,(1,(17,(4,((6,15),(11,18)))))),((19,20),((((10,12),(5,14)),(16,(13,(7,8)))),(2,9)))));
(21,((3,(1,(4,((11,18),(17,(6,15)))))),((2,9),((19,20),(16,((5,(10,(12,14))),(13,(7,8))))))));
(21,((((4,(18,(17,(15,(6,11))))),(1,3)),((5,14),((7,8),(13,(10,12))))),((19,20),(16,(2,9)))));
(21,((19,20),((3,((4,(11,(15,17))),(1,(6,18)))),(16,(((5,(10,(12,14))),(13,(7,8))),(2,9))))));
(21,((3,(1,((18,(6,11)),(4,(15,17))))),((19,20),(16,((2,8),(9,(((10,12),(5,14)),(7,13))))))));
(21,((19,20),((3,(1,(4,(11,(15,(17,(6,18))))))),((2,9),(16,((13,(7,8)),((5,14),(10,12))))))));
(21,((3,((17,(11,(6,15))),(1,(4,18)))),((19,20),((2,9),(16,((5,(10,(12,14))),(13,(7,8))))))));
(21,((16,((13,(7,8)),((10,12),(5,14)))),((2,9),((19,20),(3,(1,(15,(6,(4,(17,(11,18)))))))))));
(21,((16,(9,(2,((13,(7,8)),(5,(10,(12,14))))))),((19,20),(3,(1,(4,((6,15),(17,(11,18)))))))));
(21,((16,((((10,12),(5,14)),(13,(7,8))),(2,9))),((19,20),(3,(1,(4,((11,18),(6,(15,17)))))))));
(21,(((3,((17,(11,18)),(1,(4,(6,15))))),(((13,(7,8)),((10,12),(5,14))),(2,9))),(16,(19,20))));
(21,((((5,(10,(12,14))),(13,(7,8))),(16,(2,9))),((19,20),(3,(1,(4,((15,(6,17)),(11,18))))))));
(21,(((16,(13,(7,8))),(9,((10,12),(5,14)))),(2,((19,20),(3,(1,((4,6),(17,(15,(11,18))))))))));
(21,((2,9),((19,20),((3,((4,15),(1,((11,18),(6,17))))),(16,(13,((7,8),((10,12),(5,14)))))))));
(21,(((2,9),(16,((13,(7,8)),((10,12),(5,14))))),((19,20),(1,(3,((15,(11,17)),(4,(6,18))))))));
(21,((3,(((11,18),(17,(6,15))),(1,4))),((19,20),((16,((13,(7,8)),((10,12),(5,14)))),(2,9)))));
(21,((16,(((13,(7,8)),((10,12),(5,14))),(2,9))),((19,20),(3,(1,(4,(18,(6,(17,(11,15))))))))));
(21,((19,20),((9,(2,(16,(((10,12),(5,14)),(13,(7,8)))))),(3,(1,((18,(6,15)),(4,(11,17))))))));
(21,((19,20),((3,(1,(4,(11,((6,18),(15,17)))))),((2,9),(16,((5,(12,(10,14))),(8,(7,13))))))));
(21,((3,((6,(17,(15,(11,18)))),(1,4))),((19,20),((9,(2,8)),(16,((5,(10,(12,14))),(7,13)))))));
(21,((3,(1,(4,((11,17),(15,(6,18)))))),((19,20),((16,(((10,12),(5,14)),(13,(7,8)))),(2,9)))));
(21,((3,(18,(1,(4,(6,(11,(15,17))))))),((19,20),(16,(((5,(10,(12,14))),(13,(7,8))),(2,9))))));
(21,(((16,((5,14),(13,(10,12)))),((7,8),(2,9))),((19,20),(3,(4,(1,(18,(11,(17,(6,15))))))))));
(21,(((16,(((10,12),(5,14)),(13,(7,8)))),(2,9)),((19,20),(3,(1,(6,(4,((11,18),(15,17)))))))));
(21,((19,20),((9,((13,(7,8)),((10,12),(5,14)))),(((1,4),(3,(17,((6,15),(11,18))))),(2,16)))));
(21,(((19,20),(3,(1,(6,((17,(11,18)),(4,15)))))),((16,(((10,12),(5,14)),(13,(7,8)))),(2,9))));
(21,((19,20),((2,9),((3,(1,((6,(11,18)),(4,(15,17))))),(16,((13,(7,8)),((10,12),(5,14))))))));
(21,((((5,14),(10,12)),(13,(7,8))),((16,(2,9)),((19,20),(3,(1,((18,(6,11)),(4,(15,17)))))))));
(21,(2,((9,(16,((13,(7,8)),(5,(14,(10,12)))))),((19,20),(3,(1,(4,((11,18),(17,(6,15))))))))));
(21,((19,20),((3,(1,(18,((6,11),(4,(15,17)))))),((2,9),(16,(((10,12),(5,14)),(13,(7,8))))))));
(21,((19,20),((3,((11,18),(1,(4,(15,(6,17)))))),((2,8),(9,(16,((7,13),((5,14),(10,12)))))))));
(21,((19,20),((3,(1,(15,(4,(6,(17,(11,18))))))),(16,(2,(9,((13,(7,8)),((10,12),(5,14)))))))));
(21,((19,20),((3,(1,(17,(4,(6,(15,(11,18))))))),((16,((5,14),((10,12),(13,(7,8))))),(2,9)))));
(21,((2,(16,(9,((13,(7,8)),((10,12),(5,14)))))),((19,20),(3,(1,((11,18),(4,(17,(6,15)))))))));
(21,(((2,9),(16,((13,(7,8)),((10,12),(5,14))))),((19,20),(((11,18),(4,(17,(6,15)))),(1,3)))));
(21,(((16,(10,(5,14))),((12,(7,13)),(9,(2,8)))),((19,20),(3,(1,((6,17),(4,(15,(11,18)))))))));
(21,(((2,9),(16,((13,(7,8)),((10,12),(5,14))))),((19,20),(1,(3,(4,(18,(17,(11,(6,15))))))))));
(21,((((15,(11,18)),(4,(6,17))),(1,3)),((19,20),(((7,8),(13,(16,(5,(10,(12,14)))))),(2,9)))));
(21,((2,9),((13,(16,((7,8),(5,(10,(12,14)))))),((19,20),((1,17),(3,(4,((11,18),(6,15)))))))));
(21,((19,20),((3,(1,(4,((11,18),(17,(6,15)))))),((16,(2,9)),((7,8),(13,((10,12),(5,14))))))));
(21,(((1,(17,(11,18))),(3,(4,(6,15)))),((19,20),(2,(16,(9,(((10,12),(5,14)),(13,(7,8)))))))));
(21,(((((10,12),(5,14)),(7,13)),(16,(9,(2,8)))),((19,20),(3,((17,(4,(6,(11,18)))),(1,15))))));
(21,((19,20),((16,(13,((7,8),((10,12),(5,14))))),((3,(1,(4,((11,(6,15)),(17,18))))),(2,9)))));
(21,(((2,9),(16,((13,(7,8)),((10,12),(5,14))))),((19,20),(3,(1,((15,(6,17)),(4,(11,18))))))));
(21,((19,20),((3,(1,(4,((18,(6,15)),(11,17))))),((9,(2,8)),(16,((7,13),((10,12),(5,14))))))));
(21,((9,(2,(16,(((10,12),(5,14)),(13,(7,8)))))),((19,20),(3,(1,(4,(15,(17,(11,(6,18))))))))));
(21,((3,(1,(4,(6,(17,(15,(11,18))))))),((19,20),((16,((5,14),((10,12),(13,(7,8))))),(2,9)))));
(21,((19,20),((3,(1,((6,18),(4,(11,(15,17)))))),((16,(((10,12),(5,14)),(13,(7,8)))),(2,9)))));
(21,(((((10,12),(5,14)),(16,(7,13))),(9,(2,8))),((19,20),(3,(1,((6,17),(4,(15,(11,18)))))))));
(21,((19,20),((3,(1,((6,11),(4,(18,(15,17)))))),(((13,(7,8)),(16,((10,12),(5,14)))),(2,9)))));
(21,((3,(1,(4,((15,(17,18)),(6,11))))),((19,20),(9,(2,((7,8),(16,(13,((5,14),(10,12))))))))));
(21,((3,((5,((10,(12,14)),(13,(7,8)))),(2,16))),(((18,((15,17),(6,11))),(1,4)),(9,(19,20)))));
(21,((19,20),((3,(1,((4,(11,17)),(18,(6,15))))),((2,9),(((10,12),(5,14)),(16,(13,(7,8))))))));
(21,(((3,((15,17),(1,(4,(6,(11,18)))))),((5,(10,(12,14))),(13,(7,8)))),((19,20),(2,(9,16)))));
(21,(((16,(((5,14),(10,12)),(7,13))),(9,(2,8))),((19,20),(3,(1,((6,17),(4,(15,(11,18)))))))));
(21,((19,20),(((18,(4,(11,(17,(6,15))))),(1,3)),(((10,12),(16,((5,14),(13,(7,8))))),(2,9)))));
(21,((3,((4,(6,(17,(11,18)))),(1,15))),((19,20),(((5,14),(13,(7,(10,12)))),(16,(9,(2,8)))))));
(21,((3,(6,(1,(4,(18,(11,(15,17))))))),((19,20),((13,((7,8),((10,12),(5,14)))),(16,(2,9))))));
(21,((3,(1,(17,(4,(11,(18,(6,15))))))),((19,20),((2,8),(9,(16,(((10,12),(5,14)),(7,13))))))));
(21,((19,20),((3,(1,((11,18),(4,(6,(15,17)))))),((((10,12),(5,14)),(16,(13,(7,8)))),(2,9)))));
(21,(((13,((7,8),((10,12),(5,14)))),(2,(9,16))),((19,20),(3,(1,((15,(6,17)),(4,(11,18))))))));
(21,(((16,(((5,14),(10,12)),(8,13))),(7,(2,9))),((19,20),(3,(1,(4,((11,18),(17,(6,15)))))))));
(21,((((13,(7,8)),((10,12),(5,14))),(16,(2,9))),((19,20),(3,(1,(4,(15,(6,(17,(11,18))))))))));
(21,((((13,(5,(10,(12,14)))),(16,(7,8))),(2,9)),((19,20),(3,(1,(4,((6,15),(17,(11,18)))))))));
(21,(((16,(((10,12),(5,14)),(13,(7,8)))),(2,9)),((19,20),(3,(1,(4,((6,15),(17,(11,18)))))))));
(21,(((3,(1,(4,((6,17),(15,(11,18)))))),(19,20)),((9,16),(2,((7,8),(13,(5,(12,(10,14)))))))));
(21,((3,(1,(4,((11,18),(17,(6,15)))))),((19,20),(2,(9,(16,(((5,14),(10,12)),(13,(7,8)))))))));
(21,((((13,(7,8)),((10,12),(5,14))),(16,(2,9))),((19,20),(3,(1,(4,(15,(17,(6,(11,18))))))))));
(21,(((16,((10,12),(5,14))),((13,(7,8)),(2,9))),((19,20),(3,(1,(4,((17,(6,15)),(11,18))))))));
(21,((19,20),((3,(1,(4,(6,(18,(11,(15,17))))))),((2,9),((13,(7,8)),(16,(5,(10,(12,14)))))))));
(21,((9,(2,(16,(13,((7,8),((10,12),(5,14))))))),((19,20),(3,((18,((11,17),(6,15))),(1,4))))));
(21,((3,((4,(6,18)),(1,(15,(11,17))))),((19,20),((9,(10,12)),((2,8),(16,((5,14),(7,13))))))));
(21,((3,(1,((17,18),((11,15),(4,6))))),((19,20),(9,(2,(16,((7,8),((5,14),(13,(10,12))))))))));
(21,((16,(((10,12),(5,14)),(13,(7,8)))),((2,9),((19,20),(3,(((6,15),(17,(11,18))),(1,4)))))));
(21,((2,(9,(16,(((10,12),(5,14)),(13,(7,8)))))),((19,20),((1,4),(3,(15,((6,11),(17,18))))))));
(21,(((16,((7,13),(5,(10,(12,14))))),(9,(2,8))),((19,20),((3,4),(1,((15,(11,18)),(6,17)))))));
(21,(((4,((6,15),(17,(11,18)))),(1,3)),((((10,12),(5,14)),(13,(7,8))),((19,20),(2,(9,16))))));
(21,((19,20),(((1,4),(3,(11,(15,(18,(6,17)))))),((9,(2,8)),(16,((5,(14,(10,12))),(7,13)))))));
(21,((19,20),((3,(((11,18),(4,(6,15))),(1,17))),(16,(((10,12),((5,14),(13,(7,8)))),(2,9))))));
(21,(((16,(((10,12),(5,14)),(13,(7,8)))),(2,9)),((19,20),(3,(((17,(6,18)),(4,15)),(1,11))))));
(21,((9,(2,8)),((19,20),((3,(1,(4,((6,(15,17)),(11,18))))),(16,((5,(10,(12,14))),(7,13)))))));
(21,(((2,9),((13,((10,12),(5,14))),(16,(7,8)))),((19,20),(3,(1,(4,(11,(18,(17,(6,15))))))))));
(21,((2,(9,((13,(7,8)),(16,((10,12),(5,14)))))),((19,20),(3,(1,((11,18),((6,15),(4,17))))))));
(21,(((16,((7,13),((5,14),(10,12)))),(9,(2,8))),((19,20),(3,(1,(4,(17,((6,15),(11,18)))))))));
(21,(((16,(((10,12),(5,14)),(13,(7,8)))),(2,9)),((19,20),((1,(4,17)),(3,(11,(18,(6,15))))))));
(21,((19,20),(2,((3,(1,(4,(17,(6,(15,(11,18))))))),((((10,12),(5,14)),(13,(7,8))),(9,16))))));
(21,(((9,((7,13),(5,(12,(10,14))))),(16,(2,8))),((19,20),(3,(1,((11,18),(4,(17,(6,15)))))))));
(21,((19,20),((3,(1,(4,(17,((11,18),(6,15)))))),((13,(7,8)),(9,(2,(16,((10,12),(5,14)))))))));
(21,((16,((7,8),((5,14),(13,(10,12))))),((2,9),((19,20),(3,(1,(4,((11,18),(17,(6,15))))))))));
(21,(((16,((13,(7,8)),((10,12),(5,14)))),(2,9)),((19,20),(3,(1,((6,15),(11,(4,(17,18)))))))));
(21,((9,(2,((13,(7,8)),(16,((10,12),(5,14)))))),((19,20),(3,((6,(11,18)),(1,(4,(15,17))))))));
(21,((3,(1,((11,18),(4,(17,(6,15)))))),((19,20),((16,((7,13),((5,14),(10,12)))),(9,(2,8))))));
(21,((19,20),((1,(3,(4,((11,18),(15,(6,17)))))),((16,((10,12),((5,14),(13,(7,8))))),(2,9)))));
(21,(((19,20),(((13,(7,8)),(12,(10,(5,14)))),(9,16))),(2,(3,(1,(15,(18,(4,(11,(6,17))))))))));
(21,((((13,(7,(10,12))),((5,14),(2,8))),(9,16)),((19,20),(3,(1,((18,(6,(15,17))),(4,11)))))));
(21,((3,(((6,17),(11,(15,18))),(1,4))),((19,20),(9,(2,(16,(((10,12),(5,14)),(13,(7,8)))))))));
(21,((3,(1,(4,((6,15),(11,(17,18)))))),((19,20),(9,(2,(16,((13,(7,8)),((5,14),(10,12)))))))));
(21,((19,20),((3,(1,((6,11),((15,18),(4,17))))),((16,(((10,12),(5,14)),(7,13))),(9,(2,8))))));
(21,(((16,((13,(7,8)),((5,14),(10,12)))),(2,9)),((19,20),((1,((11,18),(6,17))),(3,(4,15))))));
(21,(((13,(7,8)),(2,9)),((19,20),((3,(1,(4,(6,((15,17),(11,18)))))),(16,((5,14),(10,12)))))));
(21,((3,(1,(4,((6,17),(15,(11,18)))))),((19,20),(((5,14),((10,12),(13,(7,8)))),(16,(2,9))))));
(21,((3,(17,(1,(4,(6,(15,(11,18))))))),((19,20),((16,(((10,12),(5,14)),(7,13))),(9,(2,8))))));
(21,((3,((6,15),(1,(4,(17,(11,18)))))),((19,20),(((10,12),((5,14),(8,(7,13)))),(2,(9,16))))));
(21,((19,20),((3,(4,(1,(15,(17,(6,(11,18))))))),(((13,(7,8)),((10,12),(5,14))),(9,(2,16))))));
(21,((3,(6,(1,((17,(11,18)),(4,15))))),((19,20),(9,((2,8),(16,(7,(13,((5,14),(10,12))))))))));
(21,(((16,(((10,12),(5,14)),(7,13))),(9,(2,8))),((19,20),((6,((15,17),(4,(11,18)))),(1,3)))));
(21,(((13,(7,8)),((16,(5,(12,(10,14)))),(2,9))),((19,20),(3,(1,((18,(15,17)),(4,(6,11))))))));
(21,((3,(4,(1,((11,18),(15,(6,17)))))),((19,20),((16,((14,(10,12)),(5,(13,(7,8))))),(2,9)))));
(21,(((((13,(7,8)),(12,(10,(5,14)))),(2,9)),((19,20),((18,(11,(17,(6,15)))),(1,4)))),(3,16)));
(((19,20),((1,(3,((6,(15,17)),(4,(11,18))))),(2,(9,(((10,12),(5,14)),(16,(13,(7,8)))))))),21);
(21,((3,(1,((17,(11,18)),(4,(6,15))))),((19,20),((2,8),(9,(16,(((10,12),(5,14)),(7,13))))))));
(21,((19,20),((3,(1,(4,((11,18),(17,(6,15)))))),((9,(2,8)),(((10,12),(5,14)),(16,(7,13)))))));
(21,((2,(9,(13,(16,((7,8),(5,(10,(12,14)))))))),((19,20),(3,(1,((11,18),(15,(4,(6,17)))))))));
(21,((16,(((5,14),(10,12)),(13,(7,8)))),((3,(((17,(6,15)),(11,18)),(1,4))),((19,20),(2,9)))));
(21,(((3,(1,(4,(18,(17,(6,(11,15))))))),(16,((10,12),((5,14),(13,(7,8)))))),((19,20),(2,9))));
(21,((((5,(10,(12,14))),(13,(7,8))),(2,9)),(16,((19,20),(3,(1,(4,(15,(6,(17,(11,18)))))))))));
(21,(((2,9),(16,(13,((7,8),(5,(12,(10,14))))))),((19,20),(3,(1,(4,((6,15),(17,(11,18)))))))));
(21,((3,(4,(1,((6,17),(11,(15,18)))))),((19,20),(16,(((13,(7,8)),(5,(10,(12,14)))),(2,9))))));
(21,(((19,20),(3,(1,(4,(15,(17,(6,(11,18)))))))),(16,(((13,(7,8)),((10,12),(5,14))),(2,9)))));
(21,((19,20),((3,(1,(((11,18),(6,17)),(4,15)))),((2,9),(16,((7,8),(13,((10,12),(5,14)))))))));
(21,((9,(3,(1,(4,(17,(11,(15,(6,18)))))))),((19,20),(2,(16,(((10,12),(5,14)),(13,(7,8))))))));
(21,(16,((((13,(7,8)),((5,14),(10,12))),(2,9)),((19,20),(3,(1,(4,(6,(11,(18,(15,17)))))))))));
(21,(((19,20),(2,(16,((13,(7,8)),((10,12),(5,14)))))),(9,(3,(1,(4,((11,18),(17,(6,15)))))))));
(21,((2,9),((16,((10,(12,14)),(5,(13,(7,8))))),((19,20),(3,((4,(17,(11,18))),(1,(6,15))))))));
(21,(((16,((13,(7,8)),((10,12),(5,14)))),(2,9)),((19,20),(3,(1,(4,((18,(6,11)),(15,17))))))));
(21,(((16,(((10,12),(5,14)),(13,(7,8)))),(2,9)),((19,20),(3,((4,(6,15)),(1,(17,(11,18))))))));
(21,((9,(2,(16,(((10,12),(5,14)),(13,(7,8)))))),((19,20),(((11,18),(4,(17,(6,15)))),(1,3)))));
(21,(((16,((10,12),((5,14),(13,(7,8))))),(2,9)),((19,20),(3,(1,((6,15),(4,(17,(11,18)))))))));
(21,((19,20),((3,(1,(4,(15,(17,(6,(11,18))))))),(((5,(10,(12,14))),(13,(7,8))),(16,(2,9))))));
(21,((16,(((5,14),(10,12)),(13,(7,8)))),((2,9),((19,20),(3,(1,(4,(15,(18,(17,(6,11)))))))))));
(21,(((2,9),(16,((13,(7,8)),((10,12),(5,14))))),((19,20),(3,(4,(1,(11,((17,18),(6,15)))))))));
(21,(((19,20),(3,(1,(4,(17,(6,(15,(11,18)))))))),((9,(2,8)),(16,((7,13),((10,12),(5,14)))))));
(21,((3,(1,(4,((15,18),(11,(6,17)))))),((19,20),(2,(9,(16,((13,(7,8)),((5,14),(10,12)))))))));
(21,((3,(1,(((11,18),(15,17)),(4,6)))),((2,9),((19,20),(16,(13,((7,8),((5,14),(10,12)))))))));
(21,((19,20),((3,((11,18),(1,(4,(17,(6,15)))))),((2,9),(16,(((10,12),(5,14)),(13,(7,8))))))));
(21,((19,20),((3,(1,(4,(15,((11,18),(6,17)))))),((16,(((10,12),(5,14)),(13,(7,8)))),(2,9)))));
(21,(((2,9),(16,((13,(7,8)),(5,(10,(12,14)))))),((19,20),(((15,(11,18)),(4,(6,17))),(1,3)))));
(21,((((6,15),(4,(17,(11,18)))),(1,3)),((19,20),((16,((13,(7,8)),((10,12),(5,14)))),(2,9)))));
(21,((19,20),((3,(1,(4,((11,(6,15)),(17,18))))),((2,9),((13,(14,(10,12))),(16,(5,(7,8))))))));
(21,((3,(1,(4,(11,((6,15),(17,18)))))),((19,20),((9,(2,8)),(16,((7,13),((5,14),(10,12))))))));
(21,((3,(1,(4,((11,18),(17,(6,15)))))),((19,20),((9,(13,((5,14),(10,12)))),(2,(16,(7,8)))))));
(21,((19,20),((3,((11,18),(4,(1,(17,(6,15)))))),(16,((((10,12),(5,14)),(13,(7,8))),(2,9))))));
(21,(((19,20),(3,(1,((15,17),(4,(6,(11,18))))))),(2,((((10,12),(5,14)),(13,(7,8))),(9,16)))));
(21,(((2,9),(16,(((10,12),(5,14)),(13,(7,8))))),((19,20),(3,((6,15),(1,(4,(17,(11,18)))))))));
(21,((19,20),((((6,15),(4,(18,(11,17)))),(1,3)),((16,((10,(5,14)),(12,(13,(7,8))))),(2,9)))));
(21,((19,20),((3,(1,(4,((6,15),(17,(11,18)))))),(2,(9,(16,(((10,12),(5,14)),(13,(7,8)))))))));
(21,(((((10,12),(5,14)),(13,(7,8))),(2,(9,16))),((19,20),(3,(4,(1,((6,17),(15,(11,18)))))))));
(21,(((16,((13,(7,8)),((10,12),(5,14)))),(2,9)),((19,20),(3,(17,(1,(4,((6,15),(11,18)))))))));
(21,(((2,16),(9,(((10,12),(5,14)),(13,(7,8))))),((19,20),(3,(1,(4,(17,(15,(6,(11,18))))))))));
(21,((19,20),((3,(1,(4,((17,(11,18)),(6,15))))),(16,(((13,(7,8)),((5,14),(10,12))),(2,9))))));
(21,((19,20),((3,(((11,18),(17,(6,15))),(1,4))),((16,(((10,12),(5,14)),(13,(7,8)))),(2,9)))));
(21,((19,20),((1,(3,(11,(15,(17,(4,(6,18))))))),((2,9),(16,((5,14),((10,12),(13,(7,8)))))))));
(21,((3,(1,((15,18),(6,(4,(11,17)))))),((16,(((10,12),(5,14)),(13,(7,8)))),((19,20),(2,9)))));
(21,((3,(4,(1,((11,18),(17,(6,15)))))),((19,20),(2,(9,(16,((5,(10,12)),(14,(13,(7,8))))))))));
(21,(((2,9),(16,(((10,12),(5,14)),(13,(7,8))))),((19,20),(3,(4,(1,(6,((15,17),(11,18)))))))));
(21,((19,20),(((5,(14,(10,12))),(13,(7,8))),((3,(1,((6,(15,18)),(4,(11,17))))),(16,(2,9))))));
(21,(((2,9),((14,((10,12),(13,(7,8)))),(5,16))),((19,20),(((6,15),(4,(17,(11,18)))),(1,3)))));
(21,((3,(1,(4,(11,(6,(18,(15,17))))))),((19,20),((2,9),(16,((13,(7,8)),(5,(10,(12,14)))))))));
(21,(((2,9),(16,(((10,12),(5,14)),(13,(7,8))))),((19,20),((11,18),(3,(1,(4,(17,(6,15)))))))));
(21,((3,(17,(1,(4,(11,(18,(6,15))))))),((19,20),(((13,(7,8)),((5,14),(10,12))),(16,(2,9))))));
(21,((3,((1,(6,(15,(11,18)))),(4,17))),((19,20),((16,(((5,14),(10,12)),(13,(7,8)))),(2,9)))));
(21,(((2,9),(16,((7,8),(13,((10,12),(5,14)))))),((19,20),(3,(1,(4,((11,18),(17,(6,15)))))))));
(21,((3,(1,(4,((11,18),(17,(6,15)))))),((19,20),((16,((13,(7,8)),(5,(10,(12,14))))),(2,9)))));
(21,((19,20),((3,(4,(1,((15,17),(6,(11,18)))))),((2,9),(16,((13,(7,8)),(5,(14,(10,12)))))))));
(21,(((2,8),(9,(16,(((5,14),(10,12)),(7,13))))),((19,20),(3,(1,(4,(6,(17,(11,(15,18))))))))));
(21,((3,(1,(((6,15),(17,18)),(4,11)))),((19,20),((((10,12),(5,14)),(13,(7,8))),(16,(2,9))))));
(21,((3,(1,(4,((11,18),(17,(6,15)))))),((19,20),((2,16),(9,(((10,12),(5,14)),(13,(7,8))))))));
(21,(((19,20),(3,((6,(17,(11,18))),(1,(4,15))))),((16,(((10,12),(5,14)),(13,(7,8)))),(2,9))));
(21,((2,((16,(13,(7,8))),(9,(5,(10,(12,14)))))),((19,20),(3,(4,(1,((11,(6,15)),(17,18))))))));
(21,((19,20),((3,(1,((15,17),(6,(4,(11,18)))))),((2,9),(16,((5,14),((10,12),(13,(7,8)))))))));
(21,((3,(1,(4,((11,18),(15,(6,17)))))),((19,20),(((7,8),(13,((5,14),(10,12)))),(9,(2,16))))));
(21,(((((10,12),(5,14)),(13,(7,8))),(2,9)),((19,20),(16,(1,(3,((4,11),(17,(18,(6,15))))))))));
(21,(((19,20),(2,(((10,12),(5,14)),(13,(7,8))))),((3,((17,(6,(18,(11,15)))),(1,4))),(9,16))));
(21,(((16,((7,8),((5,14),(13,(10,12))))),(2,9)),((19,20),(3,(1,((6,15),(4,(17,(11,18)))))))));
(21,((3,(1,(17,(4,(15,(6,(11,18))))))),((19,20),((2,9),(((10,12),(5,14)),(16,(13,(7,8))))))));
(21,((3,(1,(4,((6,15),(17,(11,18)))))),((19,20),((16,(13,((7,8),((5,14),(10,12))))),(2,9)))));
(21,((3,(1,((11,17),((6,15),(4,18))))),((19,20),((16,((14,(5,(10,12))),(13,(7,8)))),(2,9)))));
(21,((19,20),((3,(1,((17,(6,15)),(4,(11,18))))),((16,(((5,14),(10,12)),(7,13))),(9,(2,8))))));
(21,((((5,14),(10,12)),(16,(13,(7,8)))),((19,20),((3,(1,((15,17),(6,(4,(11,18)))))),(2,9)))));
(21,(((9,(2,8)),(16,((5,(10,(12,14))),(7,13)))),((19,20),(3,(1,((6,17),(4,(11,(15,18)))))))));
(21,(((19,20),(3,(1,(6,(4,((11,18),(15,17))))))),(((5,(14,(10,12))),(7,13)),((2,8),(9,16)))));
(21,(((9,(2,8)),(16,(((5,14),(10,12)),(7,13)))),((19,20),(3,(1,(4,((11,18),(6,(15,17)))))))));
(21,((19,20),((3,(1,(4,(18,(11,(17,(6,15))))))),(9,((2,8),(16,(((10,12),(5,14)),(7,13))))))));
(21,((9,(2,(16,((13,(7,8)),((10,12),(5,14)))))),((19,20),(3,((18,(11,(6,15))),(1,(4,17)))))));
(21,((9,(2,(16,(((10,12),(5,14)),(13,(7,8)))))),((1,(4,(17,((6,15),(11,18))))),(3,(19,20)))));
(21,((16,(2,9)),(((5,14),((10,12),(13,(7,8)))),((19,20),(3,((6,(15,17)),(1,(4,(11,18)))))))));
(21,((19,20),((3,(1,((11,18),((6,15),(4,17))))),(9,((2,8),(16,(((10,12),(5,14)),(7,13))))))));
(21,((3,(1,(4,(17,((11,18),(6,15)))))),((19,20),((16,((13,(7,8)),((10,12),(5,14)))),(2,9)))));
(21,((9,(2,(16,((7,8),(13,((10,12),(5,14))))))),((19,20),(3,(1,(4,((11,18),(17,(6,15)))))))));
(21,((2,(9,(((10,12),(5,14)),(16,(13,(7,8)))))),((19,20),(3,(1,(4,(17,((11,18),(6,15)))))))));
(21,(((16,(((10,12),(5,14)),(13,(7,8)))),(2,9)),((19,20),(3,(1,((6,15),((11,18),(4,17))))))));
(21,(((16,((7,8),(13,((10,12),(5,14))))),(2,9)),((19,20),(3,(1,(4,((17,(11,18)),(6,15))))))));
(21,((9,(2,(16,(13,((7,8),(5,(14,(10,12)))))))),((19,20),(3,(1,(4,(18,((6,15),(11,17)))))))));
(21,((19,20),((3,(1,(4,(17,((6,15),(11,18)))))),((((7,8),((5,14),(10,12))),(13,16)),(2,9)))));
(21,((3,(1,((6,15),(4,(17,(11,18)))))),((9,(16,(((10,12),(5,14)),(13,(7,8))))),(2,(19,20)))));
(21,((19,20),(((5,14),((10,12),(7,13))),((3,(1,(4,((17,(6,15)),(11,18))))),(16,(9,(2,8)))))));
(21,(((2,8),(9,(16,((7,13),((10,12),(5,14)))))),((19,20),(3,(1,(4,((6,15),(17,(11,18)))))))));
(21,((9,(16,(2,((7,8),(13,((10,12),(5,14))))))),((19,20),((4,(6,(15,17))),(3,(1,(11,18)))))));
(21,((((5,(14,(10,12))),(16,(13,(7,8)))),(2,9)),((19,20),(3,(1,(4,((11,18),(17,(6,15)))))))));
(21,((19,20),((3,(1,(4,((11,18),(15,(6,17)))))),(9,(2,(16,(((10,12),(5,14)),(13,(7,8)))))))));
(21,(((16,((13,(7,8)),((5,14),(10,12)))),(2,9)),((19,20),(1,(3,(17,((15,18),(4,(6,11)))))))));
(21,(((16,((5,14),((10,12),(13,(7,8))))),(2,9)),((19,20),(3,(1,(((6,11),(17,18)),(4,15)))))));
(21,(((2,8),(16,(((10,12),(5,14)),(7,13)))),((3,(1,((6,(11,18)),(4,(15,17))))),(9,(19,20)))));
(21,(((((10,12),(5,14)),(16,(13,(7,8)))),(2,9)),((19,20),(3,(4,(1,((6,15),(11,(17,18)))))))));
(21,((7,(13,(5,14))),((3,(1,(4,((15,18),(17,(6,11)))))),((19,20),((16,(10,12)),(9,(2,8)))))));
(21,((19,20),((3,(1,(4,((15,17),(6,(11,18)))))),((16,(((10,12),(5,14)),(13,(7,8)))),(2,9)))));
(21,((16,((5,(10,(12,14))),(13,(7,8)))),((3,(1,((4,(6,15)),(11,(17,18))))),((19,20),(2,9)))));
(21,(((5,((10,(12,14)),(13,(7,8)))),(2,16)),((3,(4,(1,((6,17),(15,(11,18)))))),(9,(19,20)))));
(21,((19,20),((((6,15),(4,(18,(11,17)))),(1,3)),((2,9),(16,(((10,12),(5,14)),(13,(7,8))))))));
(21,(((16,(((5,14),(10,12)),(7,13))),(9,(2,8))),((19,20),(3,(1,(4,(18,((6,11),(15,17)))))))));
(21,((16,((2,5),(9,((10,(12,14)),(13,(7,8)))))),((19,20),(1,(3,(17,(18,(4,(11,(6,15))))))))));
(21,((2,(9,(16,((5,14),((10,12),(13,(7,8))))))),((19,20),(3,(1,(6,(4,((11,18),(15,17)))))))));
(21,((3,((4,(15,17)),(1,(6,(11,18))))),((19,20),((9,(2,8)),(16,((7,13),((5,14),(10,12))))))));
(21,((3,(1,(4,(18,((6,15),(11,17)))))),((19,20),((16,((7,13),(5,(12,(10,14))))),(9,(2,8))))));
(21,((3,(1,(6,((11,18),(4,(15,17)))))),((19,20),((13,(7,((10,12),(5,14)))),(16,(9,(2,8)))))));
(21,(((2,9),(16,(((10,12),(5,14)),(13,(7,8))))),((19,20),(3,(1,((17,(18,(11,15))),(4,6)))))));
(21,(2,((9,(((10,12),(5,14)),(16,(13,(7,8))))),((19,20),(3,(1,(4,(6,(17,(11,(15,18)))))))))));
(21,(((((10,12),(5,14)),(7,13)),(9,(2,8))),(16,((19,20),(3,(1,(4,(6,((11,18),(15,17))))))))));
(21,(((13,(7,8)),((2,9),(16,((5,14),(10,12))))),((19,20),(3,(1,(4,(17,(6,(15,(11,18))))))))));
(21,(((19,20),((7,13),(16,((5,14),(10,12))))),((3,(17,(1,(4,(6,(18,(11,15))))))),(9,(2,8)))));
(21,(((13,(7,8)),(2,(9,(16,(14,(5,(10,12))))))),((19,20),(3,(1,(4,(15,(6,(17,(11,18))))))))));
(21,((9,((5,(12,(10,14))),(16,(13,(7,8))))),((19,20),(2,(3,((6,(15,17)),(1,(4,(11,18)))))))));
(21,((16,(((7,8),((10,12),(13,(5,14)))),(2,9))),((19,20),((4,(15,(18,(11,(6,17))))),(1,3)))));
(21,((2,(9,(16,((5,14),((10,12),(13,(7,8))))))),((19,20),(3,((15,17),(1,(4,(6,(11,18)))))))));
(21,((19,20),((3,((6,(4,18)),(1,(17,(11,15))))),(16,((((5,14),(10,12)),(13,(7,8))),(2,9))))));
((((3,(1,(11,(18,(4,(17,(6,15))))))),((19,20),(2,(((10,12),(5,14)),(13,(7,8)))))),(9,16)),21);
(21,(((2,9),(16,(((10,12),(5,14)),(13,(7,8))))),((19,20),(3,(1,(4,(18,(11,(17,(6,15))))))))));
(21,((19,20),((3,(1,((15,17),(4,(6,(11,18)))))),(9,(2,(16,(((10,12),(5,14)),(13,(7,8)))))))));
(21,(((3,(1,(4,(17,((11,18),(6,15)))))),(9,(16,(7,(13,((5,14),(10,12))))))),((2,8),(19,20))));
(21,((19,20),((3,(1,(4,((6,17),(15,(11,18)))))),((16,(7,(13,((10,12),(5,14))))),(9,(2,8))))));
(21,((3,(1,(4,((11,18),(17,(6,15)))))),((19,20),((16,((13,(7,8)),((10,12),(5,14)))),(2,9)))));
(21,((9,((2,8),(16,(((10,12),(5,14)),(7,13))))),((19,20),(3,((17,(4,(11,18))),(1,(6,15)))))));
(21,((9,(16,(2,(((10,12),(5,14)),(13,(7,8)))))),(3,((19,20),(1,(4,((11,18),(17,(6,15)))))))));
(21,(((19,20),(3,(1,(4,((11,18),(6,(15,17))))))),(9,(2,(16,((13,(7,8)),(5,(10,(12,14)))))))));
(21,(((3,(1,((6,15),(4,(17,(11,18)))))),(16,(((10,12),(5,14)),(13,(7,8))))),((19,20),(2,9))));
(21,(((2,9),(16,((13,(7,8)),(5,(10,(12,14)))))),((19,20),(3,(1,(6,(4,((15,17),(11,18)))))))));
(21,((19,20),((3,(1,(((11,18),(6,17)),(4,15)))),(16,(((5,14),((10,12),(7,13))),(9,(2,8)))))));
(21,((9,((7,8),(16,(13,((10,12),(5,14)))))),((19,20),(2,(3,(((15,17),(11,(6,18))),(1,4)))))));
(21,((3,((11,(6,15)),(1,(4,(17,18))))),((19,20),(((13,(7,8)),(16,((10,12),(5,14)))),(2,9)))));
(21,(2,((9,(16,(((10,12),(5,14)),(13,(7,8))))),((19,20),(3,((11,18),(1,(4,(6,(15,17))))))))));
(21,((3,(1,(4,((6,17),(15,(11,18)))))),((19,20),((16,((5,14),((10,12),(13,(7,8))))),(2,9)))));
(21,((16,(((7,8),(13,(5,(10,(12,14))))),(2,9))),((19,20),(1,(3,((4,15),((11,18),(6,17))))))));
(21,((19,20),((1,(3,(4,(18,(6,(11,(15,17))))))),(2,(9,(16,(((10,12),(5,14)),(13,(7,8)))))))));
(21,(((2,9),(16,((13,(7,8)),(5,(10,(12,14)))))),((19,20),(3,(1,(11,(4,(18,(17,(6,15))))))))));
(21,((19,20),((3,(1,(6,(4,(15,(17,(11,18))))))),((9,(13,(7,8))),(2,(16,((5,14),(10,12))))))));
(21,((9,(3,(1,((6,(15,17)),(4,(11,18)))))),((19,20),(2,(16,(((5,14),(10,12)),(13,(7,8))))))));
(21,((2,(9,(16,((13,(7,8)),((10,12),(5,14)))))),((19,20),(3,((4,(6,15)),(1,(17,(11,18))))))));
(21,((19,20),(((1,(17,(4,(6,18)))),(3,(11,15))),((16,((10,12),(5,14))),((13,(7,8)),(2,9))))));
(21,(((3,(1,(11,(4,(17,(15,(6,18))))))),(13,16)),((19,20),(9,(2,((7,8),((5,14),(10,12))))))));
(21,((3,(1,((11,18),(4,(17,(6,15)))))),((19,20),((16,((10,12),(5,14))),((13,(7,8)),(2,9))))));
(21,(((9,16),(2,(((5,14),(10,12)),(13,(7,8))))),((19,20),(3,(1,(4,(17,(11,(18,(6,15))))))))));
(21,(((((5,14),(10,12)),(7,13)),(16,(9,(2,8)))),((19,20),(3,(1,(4,((11,18),(17,(6,15)))))))));
(21,(((9,(2,8)),((7,13),(16,((10,12),(5,14))))),((19,20),(3,(1,(4,(18,(17,(11,(6,15))))))))));
(21,(((4,((6,18),(11,(15,17)))),(1,3)),((16,(((5,14),(10,12)),(13,(7,8)))),((19,20),(2,9)))));
(21,((19,20),((((5,(10,(12,14))),(13,(7,8))),(9,16)),(2,(1,(3,((4,17),((6,15),(11,18)))))))));
(21,(((2,9),(16,((13,(7,8)),(5,(10,(12,14)))))),((19,20),(3,((4,(6,18)),(1,(17,(11,15))))))));
(21,((9,(16,(2,(((10,12),(5,14)),(13,(7,8)))))),((19,20),(3,(1,(4,(18,((6,15),(11,17)))))))));
(21,((3,((17,((6,18),(11,15))),(1,4))),((16,(2,((13,(7,8)),((10,12),(5,14))))),(9,(19,20)))));
(21,((19,20),((3,(1,((17,18),(4,(11,(6,15)))))),((16,((5,(12,(10,14))),(7,13))),(9,(2,8))))));
(21,((19,20),((3,(1,(((6,11),(15,18)),(4,17)))),(16,((2,9),(((10,12),(5,14)),(13,(7,8))))))));
(21,((19,20),((3,(1,((6,(15,17)),(4,(11,18))))),(16,((((10,12),(5,14)),(13,(7,8))),(2,9))))));
(21,((19,20),((3,((6,(11,18)),(1,(4,(15,17))))),((2,9),(16,(((5,14),(10,12)),(13,(7,8))))))));
(21,((16,((((10,12),(5,14)),(13,(7,8))),(2,9))),((19,20),(3,(1,(((11,18),(6,15)),(4,17)))))));
(21,((3,(1,(((6,17),(11,18)),(4,15)))),((19,20),(9,(2,(16,((13,(7,8)),((10,12),(5,14)))))))));
(21,(((2,9),(16,(13,((7,8),(5,(14,(10,12))))))),((19,20),(3,(4,(1,((6,15),(17,(11,18)))))))));
(21,((2,9),((19,20),((3,(1,(4,((15,17),(6,(11,18)))))),(16,(((10,12),(5,14)),(8,(7,13))))))));
(21,((((13,(7,8)),((10,12),(5,14))),(16,(2,9))),((19,20),(3,(1,(4,(6,(17,(15,(11,18))))))))));
(21,((19,20),((3,(1,(4,((18,(6,15)),(11,17))))),((2,9),(16,((13,(7,8)),((10,12),(5,14))))))));
(21,(((19,20),(9,(2,8))),(16,((3,(1,(4,((11,(6,15)),(17,18))))),((5,(14,(10,12))),(7,13))))));
(21,((3,((6,(15,17)),(1,(4,(11,18))))),((19,20),(2,(16,(9,(((10,12),(5,14)),(13,(7,8)))))))));
(21,((19,20),((3,(1,(4,(18,((6,11),(15,17)))))),((2,8),(9,(16,(((10,12),(5,14)),(7,13))))))));
(21,(((9,(2,8)),(16,((5,14),(10,12)))),((7,13),((19,20),(3,(1,(4,((18,(6,11)),(15,17)))))))));
(21,((16,((13,(7,8)),((10,12),(5,14)))),((2,9),((19,20),(3,((18,(4,(17,(6,15)))),(1,11)))))));
(21,((((7,8),(13,((10,12),(5,14)))),(2,(9,16))),((19,20),(3,(1,(4,(17,(11,(18,(6,15))))))))));
(21,((3,(4,(1,((11,(15,17)),(6,18))))),((19,20),(9,(2,(16,((13,(7,8)),((10,12),(5,14)))))))));
(21,(16,((3,(1,(6,(4,((11,18),(15,17)))))),((19,20),((((10,12),(5,14)),(7,13)),(9,(2,8)))))));
(21,((19,20),(((4,(18,(15,17))),(3,(1,(6,11)))),((2,9),(16,((13,(7,8)),((10,12),(5,14))))))));
(21,(((13,(7,((5,14),(10,12)))),((2,8),(9,16))),((19,20),(1,(3,((17,(6,15)),(4,(11,18))))))));
(21,((3,(1,((17,(4,(15,18))),(6,11)))),((16,(((10,12),(5,14)),(13,(7,8)))),((19,20),(2,9)))));
(21,(((2,9),(16,((13,(7,8)),((10,12),(5,14))))),((19,20),(3,(1,(4,((11,18),(17,(6,15)))))))));
(21,(((4,((15,17),(6,(11,18)))),(1,3)),((19,20),(2,(((5,(10,(12,14))),(13,(7,8))),(9,16))))));
(21,((3,(1,(6,(4,((15,17),(11,18)))))),((19,20),(((7,13),((5,14),(10,12))),((2,8),(9,16))))));
(21,(((2,9),(16,((5,(10,(12,14))),(7,(8,13))))),((19,20),((1,(15,(18,(6,17)))),(3,(4,11))))));
(21,((19,20),((16,((7,(13,((5,14),(10,12)))),(9,(2,8)))),(3,(1,(4,(11,(17,(18,(6,15))))))))));
(21,((2,(9,(16,(13,((7,8),((10,12),(5,14))))))),((19,20),(3,(1,(4,((15,17),(6,(11,18)))))))));
(21,((2,(9,(16,(13,((7,8),((10,12),(5,14))))))),((19,20),(3,(1,((15,(11,18)),(4,(6,17))))))));
(21,((3,(1,(4,(11,(6,(18,(15,17))))))),((19,20),((2,9),(16,((13,(7,8)),(5,(14,(10,12)))))))));
(21,(((3,(1,((17,(11,18)),(4,(6,15))))),(16,((5,(12,(10,14))),(13,(7,8))))),((19,20),(2,9))));
(21,((3,(1,(6,(4,((15,17),(11,18)))))),((2,9),((19,20),(16,(((10,12),(5,14)),(13,(7,8))))))));
(21,((2,(3,(1,(4,((11,18),(17,(6,15))))))),((19,20),(9,(16,(((10,12),(5,14)),(13,(7,8))))))));
(21,(((2,9),(16,((13,(7,8)),((10,12),(5,14))))),((19,20),(3,(15,((6,17),(1,(4,(11,18)))))))));
(21,((2,(((10,12),(13,(7,8))),(9,(16,(5,14))))),((19,20),(3,(1,(((11,18),(6,15)),(4,17)))))));
(21,((3,(1,(((6,17),(11,18)),(4,15)))),((19,20),((((10,12),(5,14)),(13,(7,8))),(16,(2,9))))));
(21,((19,20),((3,(1,(17,(4,(11,(18,(6,15))))))),(2,(9,(16,((5,14),((10,12),(13,(7,8))))))))));
(21,(((((10,12),(5,14)),(16,(13,(7,8)))),(2,9)),((19,20),(3,(1,(6,(11,(18,(4,(15,17))))))))));
(21,(((3,(1,(6,(4,((15,17),(11,18)))))),(16,((13,(7,8)),(5,(10,(12,14)))))),((19,20),(2,9))));
(21,((9,(2,(16,(((10,12),(5,14)),(13,(7,8)))))),((19,20),((15,(4,(17,(6,(11,18))))),(1,3)))));
(21,((19,20),((3,(1,((17,(11,(6,18))),(4,15)))),(9,((2,8),((7,((5,14),(10,12))),(13,16)))))));
(21,(((((10,12),(5,14)),(7,13)),(16,(9,(2,8)))),((19,20),(3,(1,((11,(6,(15,17))),(4,18)))))));
(21,((2,(16,(9,(13,((7,8),((10,12),(5,14))))))),((19,20),(3,((4,(15,17)),(1,(11,(6,18))))))));
(21,((3,((6,(11,18)),(1,(4,(15,17))))),((19,20),((2,16),(9,(((10,12),(5,14)),(13,(7,8))))))));
(21,((9,(2,((5,(10,(12,14))),(16,(13,(7,8)))))),((19,20),(3,((18,(6,(15,17))),(1,(4,11)))))));
(21,((3,(1,(17,((18,(6,15)),(4,11))))),((19,20),(9,(2,(16,((13,(7,8)),((10,12),(5,14)))))))));
(21,((9,(2,(((10,12),(5,14)),(16,(13,(7,8)))))),((19,20),(3,((11,18),(1,(4,(6,(15,17)))))))));
(21,((2,(9,(16,(((10,12),(5,14)),(13,(7,8)))))),((19,20),(3,(1,(17,(4,((11,18),(6,15)))))))));
(21,((16,((10,12),((5,14),(13,(7,8))))),((2,9),((19,20),((1,(15,(6,(17,(11,18))))),(3,4))))));
(21,((3,(1,(4,(17,((11,18),(6,15)))))),((19,20),(16,(((7,13),((10,12),(5,14))),(9,(2,8)))))));
(21,((2,(9,(16,((13,(7,8)),((5,14),(10,12)))))),((19,20),(3,((15,(6,(17,(11,18)))),(1,4))))));
(21,(((19,20),((7,13),(16,((10,12),(5,14))))),((3,(1,((6,17),(4,(15,(11,18)))))),(9,(2,8)))));
(21,((3,(1,(4,((6,15),(17,(11,18)))))),((19,20),((16,(((10,12),(5,14)),(13,(7,8)))),(2,9)))));
(21,((3,(1,(4,(11,((6,17),(15,18)))))),((19,20),((16,((10,12),((5,14),(13,(7,8))))),(2,9)))));
(21,(((2,(((10,12),(5,14)),(13,(7,8)))),(9,16)),((19,20),(3,(1,(11,(18,(4,(17,(6,15))))))))));
(21,(((16,((13,(7,8)),((10,12),(5,14)))),(2,9)),((19,20),(3,(1,(4,(11,(18,(17,(6,15))))))))));
(21,((3,(4,(1,((11,15),(18,(6,17)))))),((19,20),((16,(((5,14),(10,12)),(13,(7,8)))),(2,9)))));
(21,(((((11,18),(15,17)),(4,6)),(1,3)),((19,20),(9,(2,((5,((7,8),(12,(10,14)))),(13,16)))))));
(21,((1,(3,((18,(11,(6,15))),(4,17)))),((19,20),((2,9),(((10,12),(5,14)),(16,(13,(7,8))))))));
(21,(((9,16),(2,((5,(10,(12,14))),(13,(7,8))))),((19,20),(1,(3,((17,(6,15)),(4,(11,18))))))));
(21,((19,20),(((6,15),(3,(1,((11,17),(4,18))))),(16,(((5,14),((10,12),(13,(7,8)))),(2,9))))));
(21,((3,(1,((11,18),(4,(17,(6,15)))))),((19,20),((2,9),(16,((10,12),((5,14),(13,(7,8)))))))));
(21,(((((10,12),(5,14)),(13,(7,8))),(9,16)),((3,((4,(6,15)),(1,(11,(17,18))))),(2,(19,20)))));
(21,(((9,16),(2,(5,((10,(12,14)),(13,(7,8)))))),((19,20),(3,(1,(((11,18),(6,17)),(4,15)))))));
(21,((16,((5,14),(10,12))),((19,20),((3,(1,(11,((18,(6,15)),(4,17))))),(9,(2,(13,(7,8))))))));
(21,((19,20),((3,(1,((17,(6,15)),(4,(11,18))))),((16,(13,((7,8),((5,14),(10,12))))),(2,9)))));
(21,(((16,((8,13),(7,((5,14),(10,12))))),(2,9)),((19,20),((4,(11,15)),(3,(1,(17,(6,18))))))));
(21,((3,(1,(4,((11,18),(15,(6,17)))))),((19,20),((2,9),(16,(((5,14),(10,12)),(13,(7,8))))))));
((((19,20),((7,13),(9,(2,8)))),((3,(1,((4,(6,15)),(11,(17,18))))),(16,((10,12),(5,14))))),21);
(21,((19,20),((3,(1,(4,(18,(11,(17,(6,15))))))),(((10,12),(5,14)),(9,(2,(16,(13,(7,8)))))))));
(21,((9,((5,14),((10,12),(13,(7,8))))),((3,(1,(4,(17,(15,(18,(6,11))))))),((19,20),(2,16)))));
(21,((2,(9,(16,(5,((10,(12,14)),(13,(7,8))))))),((19,20),(3,((15,(6,17)),(1,(4,(11,18))))))));
(21,((3,(1,(4,((11,17),(18,(6,15)))))),((2,9),((19,20),(16,(((10,12),(5,14)),(13,(7,8))))))));
(21,(((9,(2,8)),(16,(((10,12),(5,14)),(7,13)))),((19,20),(3,(1,((11,18),(4,(6,(15,17)))))))));
(21,((16,((((5,14),(10,12)),(13,(7,8))),(2,9))),((19,20),(3,((6,(15,(17,(11,18)))),(1,4))))));
(21,(((2,9),(16,((13,(7,8)),((10,12),(5,14))))),((19,20),(3,(1,((6,15),(4,(11,(17,18)))))))));
(21,((3,(1,(4,(17,((11,18),(6,15)))))),((19,20),((16,(((5,14),(10,12)),(13,(7,8)))),(2,9)))));
(21,((16,(((13,(7,8)),((5,14),(10,12))),(2,9))),((19,20),(3,(1,(15,(4,(18,(17,(6,11))))))))));
(21,(((2,16),(9,((5,(10,(12,14))),(13,(7,8))))),((19,20),(3,(1,(17,(4,((6,15),(11,18)))))))));
(21,((19,20),((2,(16,(13,((7,8),((10,12),(5,14)))))),(9,(3,(1,(((6,15),(11,18)),(4,17))))))));
((((3,(1,((15,17),(4,(6,(11,18)))))),(9,(16,(2,((13,(7,8)),((5,14),(10,12))))))),(19,20)),21);
(21,(((16,((13,(7,8)),(5,(10,(12,14))))),(2,9)),((19,20),(3,(1,(4,(6,((11,18),(15,17)))))))));
(21,(((2,9),(16,(((10,12),(5,14)),(13,(7,8))))),((19,20),(3,(1,(4,(17,(11,(18,(6,15))))))))));
(21,((3,(1,(4,(17,((11,18),(6,15)))))),((19,20),((16,((7,13),((10,12),(5,14)))),(9,(2,8))))));
(21,((3,(18,(1,(4,(11,(17,(6,15))))))),((19,20),(16,(2,(9,((7,8),(13,((5,14),(10,12))))))))));
(21,((16,(2,9)),((19,20),((3,(1,(4,((6,15),(17,(11,18)))))),(5,((10,(12,14)),(13,(7,8))))))));
(21,((2,9),((19,20),((3,(1,((4,(6,11)),(18,(15,17))))),(16,((5,14),((10,12),(13,(7,8)))))))));
(21,(((19,20),(2,9)),((3,(1,((6,17),(4,(15,(11,18)))))),(16,(((10,12),(5,14)),(13,(7,8)))))));
(21,(((16,((5,14),((7,8),(13,(10,12))))),(2,9)),((19,20),(3,(1,(11,(4,(18,(15,(6,17))))))))));
(21,((3,((15,17),(1,(4,(6,(11,18)))))),((19,20),((16,(13,(7,((5,14),(10,12))))),(9,(2,8))))));
(21,(((2,(((10,12),(5,14)),(13,(7,8)))),(9,16)),((19,20),(3,(1,((18,(17,(6,15))),(4,11)))))));
(21,(((16,((13,(7,8)),((10,12),(5,14)))),(2,9)),((19,20),(3,(1,(4,(11,(18,(17,(6,15))))))))));
(21,(((7,(13,(5,(10,(12,14))))),((2,8),(9,16))),((19,20),(3,(4,(1,((6,15),(17,(11,18)))))))));
(21,((2,(9,(16,(((5,14),(10,12)),(13,(7,8)))))),((19,20),(3,(1,((11,18),(4,(17,(6,15)))))))));
(21,(((3,((4,18),(1,(11,(17,(6,15)))))),(19,20)),((16,((13,(7,8)),((10,12),(5,14)))),(2,9))));
(21,(((16,(((10,12),(5,14)),(13,(7,8)))),(2,9)),((19,20),(3,(1,((15,17),(4,(6,(11,18)))))))));
(21,((19,20),((3,(1,(6,(4,((11,18),(15,17)))))),((13,((7,8),((5,14),(10,12)))),(16,(2,9))))));
(21,(((19,20),(2,9)),((16,(((10,12),(5,14)),(13,(7,8)))),(1,(3,(4,((6,(11,18)),(15,17))))))));
(21,((3,(4,(1,(6,(17,(15,(11,18))))))),((19,20),(9,(16,(2,(13,((7,8),((10,12),(5,14))))))))));
(21,(16,((19,20),((3,(((11,18),(17,(6,15))),(1,4))),(((7,13),((10,12),(5,14))),(9,(2,8)))))));
(21,((2,9),((3,((4,(15,(11,18))),(1,(6,17)))),((19,20),(16,(((10,12),(5,14)),(13,(7,8))))))));
(21,((1,(3,(4,((11,18),(17,(6,15)))))),((((5,14),(10,12)),(13,(7,8))),((19,20),(16,(2,9))))));
(21,((19,20),((3,(1,(4,((11,18),(15,(6,17)))))),((2,8),(9,(16,(((5,14),(10,12)),(7,13))))))));
(21,(((19,20),(3,((4,(11,18)),(1,(17,(6,15)))))),((2,9),(16,((13,(7,8)),((10,12),(5,14)))))));
(21,((19,20),(16,((3,(1,((6,18),((15,17),(4,11))))),(2,(9,(((10,12),(5,14)),(13,(7,8)))))))));
(21,((19,20),((3,((17,(4,(11,(6,15)))),(1,18))),(9,((2,8),(16,(((5,14),(10,12)),(7,13))))))));
(21,(((3,(1,((11,18),(4,(17,(6,15)))))),(9,(16,((10,12),(5,14))))),((19,20),(2,(13,(7,8))))));
(21,(((19,20),(3,(4,(1,((15,17),(18,(6,11))))))),(9,(2,((13,(7,8)),(16,((10,12),(5,14))))))));
(21,((2,9),((3,(19,20)),(((11,(6,17)),(1,(4,(15,18)))),((10,12),(16,((5,14),(13,(7,8)))))))));
(21,((9,(19,20)),((3,(1,(4,((11,17),(15,(6,18)))))),(2,(16,(13,((5,14),((10,12),(7,8)))))))));
(21,((19,20),((3,(1,(((6,15),(11,18)),(4,17)))),((((5,14),(10,12)),(16,(7,13))),(9,(2,8))))));
(21,((19,20),(((6,15),(3,(1,(17,(18,(4,11)))))),(((7,13),((10,12),(5,14))),(16,(9,(2,8)))))));
(21,(((16,((5,14),((10,12),(13,(7,8))))),(2,9)),((19,20),(3,(1,(4,((17,18),(11,(6,15)))))))));
(21,((((13,(7,8)),((10,12),(5,14))),(16,(2,9))),((19,20),(1,(3,(4,((11,17),(18,(6,15)))))))));
(21,(((9,(2,8)),(16,((7,13),((5,14),(10,12))))),(3,((19,20),(1,(17,(4,(15,(6,(11,18))))))))));
(21,(((2,9),(16,(((10,12),(5,14)),(13,(7,8))))),((19,20),(1,(3,(17,(4,((11,18),(6,15)))))))));
(21,((2,(9,16)),(((7,8),(13,((5,14),(10,12)))),((19,20),(3,(1,((6,15),(4,(17,(11,18))))))))));
(21,((2,(9,(16,(((10,12),(5,14)),(13,(7,8)))))),((19,20),(3,(1,((15,17),(4,(6,(11,18)))))))));
(21,((2,9),((16,(13,((7,8),((5,14),(10,12))))),((19,20),(3,(1,(15,(4,(17,(6,(11,18)))))))))));
(21,(((19,20),(3,((6,17),((15,(11,18)),(1,4))))),(2,(9,(16,(((10,12),(5,14)),(13,(7,8))))))));
(21,((2,(9,16)),((3,(1,(4,(11,(18,(15,(6,17))))))),((19,20),((5,(10,(12,14))),(8,(7,13)))))));
(21,(((3,(4,((11,15),(18,(6,17))))),(((13,(7,8)),(16,((10,12),(5,14)))),(2,9))),(1,(19,20))));
(21,(((6,(11,18)),(3,((4,17),(1,15)))),((19,20),((2,9),(16,((13,(7,8)),(5,(10,(12,14)))))))));
(21,((16,((5,(10,(12,14))),(13,(7,8)))),((19,20),((3,(17,((18,(11,(6,15))),(1,4)))),(2,9)))));
(21,((19,20),((3,(1,(4,((6,17),(15,(11,18)))))),(((10,12),(5,14)),(2,(9,(16,(13,(7,8)))))))));
(21,((3,(1,((17,(6,18)),(4,(11,15))))),((19,20),((9,(2,8)),(16,((10,12),((5,14),(7,13))))))));
(21,((19,20),((3,((17,(18,(11,(6,15)))),(1,4))),((16,((13,(7,8)),((10,12),(5,14)))),(2,9)))));
(21,((3,(1,((6,(15,17)),(4,(11,18))))),((19,20),((16,(((10,12),(5,14)),(13,(7,8)))),(2,9)))));
(21,(((1,6),(3,(4,(11,(18,(15,17)))))),((19,20),((9,(2,8)),(16,(((10,12),(5,14)),(7,13)))))));
(21,((3,(1,(4,((17,(11,18)),(6,15))))),((19,20),((2,9),((13,((10,12),(5,14))),(16,(7,8)))))));
(21,((19,20),((3,((18,(11,(6,(15,17)))),(1,4))),((16,(((10,12),(5,14)),(13,(7,8)))),(2,9)))));
(21,((2,(((10,12),(5,14)),(16,(13,(7,8))))),((3,((15,(6,(17,(11,18)))),(1,4))),(9,(19,20)))));
(21,(((16,(13,((7,8),(5,(10,(12,14)))))),(2,9)),((19,20),((4,(17,((6,15),(11,18)))),(1,3)))));
(21,(((2,9),(16,((13,(7,8)),((10,12),(5,14))))),((19,20),(3,(1,(4,((6,(15,18)),(11,17))))))));
(21,((9,(2,(16,((7,8),(13,((5,14),(10,12))))))),((19,20),(3,(1,(4,(15,(17,(6,(11,18))))))))));
(21,(((3,((4,(17,(15,(11,18)))),(1,6))),(16,(9,(2,8)))),((19,20),((10,12),((5,14),(7,13))))));
(21,(((16,((10,12),((5,14),(13,(7,8))))),(2,9)),((19,20),(3,(1,(4,(6,(17,(15,(11,18))))))))));
(21,((19,20),((3,((4,(18,(6,(11,17)))),(1,15))),(2,(16,(9,(((10,12),(5,14)),(13,(7,8)))))))));
(21,((19,20),((3,(1,((15,(6,(11,18))),(4,17)))),((16,(((10,12),(5,14)),(13,(7,8)))),(2,9)))));
(21,((2,(9,(16,(((10,12),(5,14)),(13,(7,8)))))),((19,20),(3,(1,(6,(4,(17,(15,(11,18))))))))));
(21,(((((5,14),(10,12)),(13,(7,8))),(16,(2,9))),((19,20),(1,(3,((11,18),(4,(17,(6,15)))))))));
(21,(((16,((5,14),(10,12))),(9,(2,(13,(7,8))))),((19,20),(3,(6,((17,(15,(11,18))),(1,4)))))));
(21,((9,(2,(16,((13,(7,8)),((10,12),(5,14)))))),((19,20),(3,((6,15),(1,(4,(17,(11,18)))))))));
(21,((16,(9,(2,8))),((19,20),((3,(1,(4,((6,11),(18,(15,17)))))),((10,12),((5,14),(7,13)))))));
(21,(((2,16),(9,(((10,12),(5,14)),(13,(7,8))))),((19,20),(3,(1,((11,18),(4,(6,(15,17)))))))));
(21,(2,((9,16),(((7,8),(13,((5,14),(10,12)))),((19,20),(3,(1,(4,(17,((6,15),(11,18)))))))))));
(21,((3,((11,18),(1,(4,(17,(6,15)))))),(16,((19,20),(((13,(7,8)),((5,14),(10,12))),(2,9))))));
(21,((16,((5,((12,(10,14)),(13,(7,8)))),(2,9))),((19,20),(3,(1,((15,17),(6,(4,(11,18)))))))));
(21,(((2,9),(16,((14,(5,(10,12))),(13,(7,8))))),((19,20),(3,(1,(6,(4,(18,(11,(15,17))))))))));
(21,((3,((4,(15,17)),(1,(6,(11,18))))),((2,9),((19,20),(16,((5,(10,(12,14))),(8,(7,13))))))));
(21,((19,20),((3,(1,(4,((17,18),(6,(11,15)))))),(2,(9,(16,((13,(7,8)),((10,12),(5,14)))))))));
(21,((3,(1,((15,(6,17)),(4,(11,18))))),((19,20),((16,((13,(7,8)),(5,(10,(12,14))))),(2,9)))));
(21,((9,(16,((13,(7,8)),((10,12),(5,14))))),((19,20),(2,(3,(1,((17,18),((6,11),(4,15)))))))));
(21,((3,((4,(11,(6,17))),(1,(15,18)))),((19,20),((9,((12,(10,14)),(5,(7,13)))),(16,(2,8))))));
(21,((19,20),((3,(1,(4,((11,15),(18,(6,17)))))),((2,9),((13,(7,8)),(16,((10,12),(5,14))))))));
(21,((16,((13,(7,8)),((10,12),(5,14)))),((19,20),((3,(1,(4,(6,((17,18),(11,15)))))),(2,9)))));
(21,((19,20),((2,8),((3,((4,(6,15)),(1,(17,(11,18))))),((((10,12),(5,14)),(7,13)),(9,16))))));
(21,((19,20),((3,(1,(4,((15,(11,18)),(6,17))))),((2,9),(16,(((10,12),(5,14)),(13,(7,8))))))));
(21,(((19,20),(9,((7,8),(16,(13,(5,(10,(12,14)))))))),(2,(3,(1,(4,((11,18),(17,(6,15)))))))));
(21,((9,(2,(16,((13,(7,8)),((10,12),(5,14)))))),((19,20),(3,(1,((17,(6,15)),(4,(11,18))))))));
(21,((3,(2,9)),((16,((13,(7,8)),(5,(10,(12,14))))),((19,20),(1,(6,(4,((15,17),(11,18)))))))));
(21,((16,((13,(7,8)),((5,14),(10,12)))),((2,9),((19,20),(3,(4,(1,(6,(15,(17,(11,18)))))))))));
(21,((19,20),((3,(1,(17,((15,(11,18)),(4,6))))),(16,(((13,(7,8)),((5,14),(10,12))),(2,9))))));
(21,((16,(9,(2,((13,(7,8)),((10,12),(5,14)))))),((19,20),(3,(1,(4,(17,(18,(11,(6,15))))))))));
(21,(((13,(7,8)),(9,(2,(16,(5,(10,(12,14))))))),((19,20),(3,(1,((11,18),(4,(15,(6,17)))))))));
(21,((3,(4,(1,((17,(6,15)),(11,18))))),((19,20),((16,((5,(10,(12,14))),(13,(7,8)))),(2,9)))));
(21,((3,(1,(4,(17,((6,15),(11,18)))))),((19,20),(9,(2,(16,((13,(7,8)),((5,14),(10,12)))))))));
(21,((3,(((17,(6,15)),(11,18)),(1,4))),((((13,(7,8)),((10,12),(5,14))),(9,16)),(2,(19,20)))));
(21,((3,(1,(4,(11,((15,17),(6,18)))))),((19,20),(16,(((5,(10,(12,14))),(7,13)),(9,(2,8)))))));
(21,(((9,(2,8)),(16,(((5,14),(10,12)),(7,13)))),((19,20),(3,(1,(11,(6,(4,(18,(15,17))))))))));
(21,(((2,9),(16,(13,((7,8),((10,12),(5,14)))))),((19,20),(1,(3,((18,(11,(6,15))),(4,17)))))));
(21,(((2,8),(9,(16,((7,13),((10,12),(5,14)))))),((19,20),(3,(((11,18),(6,15)),(1,(4,17)))))));
(21,((19,20),(((1,(17,(11,18))),(3,(4,(6,15)))),((16,(((5,14),(10,12)),(7,13))),(9,(2,8))))));
(21,(((19,20),(9,(2,8))),((3,(1,(4,((6,(11,18)),(15,17))))),(16,((7,13),((10,12),(5,14)))))));
(21,(((2,((13,(7,8)),((10,12),(5,14)))),(9,16)),((19,20),(3,(1,((17,(6,11)),(4,(15,18))))))));
(21,(2,((9,(16,((7,8),(13,((5,14),(10,12)))))),((19,20),(3,(1,((15,(11,18)),(4,(6,17)))))))));
(21,(((3,(1,(4,(18,(11,(17,(6,15))))))),(2,9)),((19,20),(16,((13,(7,8)),((10,12),(5,14)))))));
(21,((3,(1,((6,(15,18)),(4,(11,17))))),((19,20),((2,9),(((10,12),(5,14)),(16,(13,(7,8))))))));
(21,((16,(13,(7,8))),((((10,12),(5,14)),(2,9)),((19,20),(3,(4,(1,((11,(15,17)),(6,18)))))))));
(21,((2,(9,(16,((13,(7,8)),((5,14),(10,12)))))),((19,20),(3,(1,(4,((11,18),(17,(6,15)))))))));
(21,((((5,(10,(12,14))),(13,(7,8))),(16,(2,9))),((19,20),(3,(1,((17,(6,15)),(4,(11,18))))))));
(21,((16,(((5,(10,(12,14))),(7,13)),(9,(2,8)))),((19,20),(3,(1,(4,(11,(17,(18,(6,15))))))))));
(21,((((13,(7,8)),((5,14),(10,12))),(16,(2,9))),((19,20),(3,(1,(4,(17,((11,18),(6,15)))))))));
(21,((3,(1,(4,(15,(6,(18,(11,17))))))),((19,20),((16,((7,13),((10,12),(5,14)))),(9,(2,8))))));
(21,(((9,(2,8)),(16,(13,(7,((10,12),(5,14)))))),((19,20),(3,(1,((15,(11,18)),(6,(4,17))))))));
(21,((2,9),(((14,(5,(10,12))),(16,(13,(7,8)))),((19,20),(3,(1,(4,(18,(11,(15,(6,17)))))))))));
(21,((19,20),((3,(1,((15,(17,(11,18))),(4,6)))),(16,(9,(2,((5,(12,(10,14))),(13,(7,8)))))))));
(21,((19,20),((3,(1,(4,(17,(15,(6,(11,18))))))),(16,(((13,(7,8)),((5,14),(10,12))),(2,9))))));
(21,((3,(1,(4,((11,18),(6,(15,17)))))),((9,(2,8)),((19,20),(16,(((10,12),(5,14)),(7,13)))))));
(21,((2,9),((19,20),((3,(1,((18,(17,(6,15))),(4,11)))),(16,((13,(7,8)),((10,12),(5,14))))))));
(21,((((10,12),(5,14)),(16,((13,(7,8)),(2,9)))),((19,20),(3,(1,((15,(6,(11,18))),(4,17)))))));
(21,((16,((((10,12),(5,14)),(13,(7,8))),(2,9))),((19,20),(3,((4,(11,(17,18))),(1,(6,15)))))));
(21,((16,(((7,8),(13,((5,14),(10,12)))),(2,9))),((19,20),(3,(1,(4,(6,((11,18),(15,17)))))))));
(21,((19,20),((3,((6,15),(1,(4,(17,(11,18)))))),((2,8),(9,(16,((5,(12,(10,14))),(7,13))))))));
(21,((16,(2,9)),((((10,12),(5,14)),(13,(7,8))),((19,20),(3,(1,((6,(15,17)),(4,(11,18)))))))));
(21,((3,(18,(1,(4,((11,17),(6,15)))))),((19,20),(16,(9,(2,((7,8),(13,((10,12),(5,14))))))))));
(21,((3,(1,(((11,18),(6,15)),(4,17)))),((19,20),(2,(9,(16,(((10,12),(5,14)),(13,(7,8)))))))));
(21,(((2,9),(((10,12),(5,14)),(16,(13,(7,8))))),((19,20),(3,((4,(6,15)),(1,(17,(11,18))))))));
(21,((3,(1,((15,(6,17)),(4,(11,18))))),(9,((19,20),((((10,12),(5,14)),(13,(7,8))),(2,16))))));
(21,(((19,20),(3,((4,15),(1,(6,(17,(11,18))))))),(16,((((5,14),(10,12)),(13,(7,8))),(2,9)))));
(21,((19,20),((3,(1,((15,17),(4,(6,(11,18)))))),((16,((10,12),((5,14),(13,(7,8))))),(2,9)))));
(21,((16,(((14,(5,(10,12))),(13,(7,8))),(2,9))),((19,20),(3,(1,(4,((6,15),(17,(11,18)))))))));
(21,((16,(2,(9,(((5,14),(10,12)),(13,(7,8)))))),((19,20),(3,(1,(4,((18,(6,17)),(11,15))))))));
(21,(((19,20),((1,((17,(6,18)),(11,15))),(3,4))),(((10,12),(5,14)),((16,(13,(7,8))),(2,9)))));
(21,(((3,(1,(((6,11),(15,18)),(4,17)))),(16,(2,9))),((19,20),((5,14),((10,12),(13,(7,8)))))));
(21,(((16,((13,(7,8)),(5,(10,(12,14))))),(2,9)),((19,20),((4,(15,((11,18),(6,17)))),(1,3)))));
(21,(((16,((7,(5,14)),(13,(8,(10,12))))),(2,9)),((19,20),(3,(1,(4,(15,(11,(6,(17,18))))))))));
