(21,(((4,(9,15)),((6,((1,2),(20,(10,18)))),(8,(16,(3,12))))),((13,(19,(7,14))),(5,(11,17)))));
(21,((14,(13,19)),((5,(11,17)),(((7,9),(4,15)),(8,((3,(12,16)),((20,(1,10)),(6,(2,18)))))))));
(21,(((4,(9,15)),((8,(3,(12,16))),(6,((2,18),(20,(1,10)))))),((14,(19,(7,13))),(5,(11,17)))));
(21,(((14,(13,19)),(5,(11,17))),(((7,9),(4,15)),((6,(18,(1,10))),((2,20),(8,(16,(3,12))))))));
(21,((((7,19),(13,14)),(5,(11,17))),((4,(9,15)),((3,(12,16)),(8,((10,20),(6,(18,(1,2)))))))));
(21,((19,(13,14)),((5,(11,17)),(((7,9),(4,15)),((10,20),((6,(18,(1,2))),(8,(3,(12,16)))))))));
(21,((5,(11,17)),((19,(13,14)),((4,(15,(7,9))),((8,(16,(3,12))),(6,(20,((2,18),(1,10)))))))));
(21,((5,(11,17)),((14,(13,19)),((4,(15,(7,9))),(((20,(18,(1,10))),(2,6)),(8,(3,(12,16))))))));
(21,((13,(7,(14,19))),((5,(11,17)),((4,(9,15)),((8,(16,(3,12))),(6,(20,((2,18),(1,10)))))))));
(21,((5,(11,17)),(((3,(12,16)),(8,(6,((2,(1,10)),(18,20))))),((4,(9,15)),((7,13),(14,19))))));
(21,((14,(7,(13,19))),((5,(11,17)),((9,(4,15)),(8,((12,(3,16)),(((2,18),(1,10)),(6,20))))))));
(21,((5,(11,17)),((14,(19,(7,13))),((4,(9,15)),((6,(20,((2,18),(1,10)))),(8,(16,(3,12))))))));
(21,(((4,(9,15)),((((2,18),(1,10)),(6,20)),(8,(3,(12,16))))),((19,(14,(7,13))),(5,(11,17)))));
(21,(((9,(4,15)),((20,(6,((2,18),(1,10)))),(8,(16,(3,12))))),((14,(19,(7,13))),(5,(11,17)))));
(21,((5,(11,17)),((14,(19,(7,13))),((4,(9,15)),((6,((2,18),(20,(1,10)))),(8,(16,(3,12))))))));
(21,((19,(14,(7,13))),((5,(11,17)),((15,(4,9)),((6,(20,(1,(2,(10,18))))),(8,(12,(3,16))))))));
(21,(((15,(4,9)),((6,(18,((1,10),(2,20)))),(8,(16,(3,12))))),((19,(14,(7,13))),(5,(11,17)))));
(21,(((7,13),(14,19)),((5,(11,17)),((15,(4,9)),((3,(12,16)),(8,(6,((2,18),(20,(1,10))))))))));
(21,((13,(14,19)),((5,(11,17)),(((7,9),(4,15)),((3,(12,16)),(8,((10,(1,(2,18))),(6,20))))))));
(21,(((7,13),(14,19)),((5,(11,17)),((4,(9,15)),((16,(3,12)),(8,(6,(20,((2,18),(1,10))))))))));
(21,((5,(11,17)),((14,(13,19)),((4,(15,(7,9))),((6,(20,((1,10),(2,18)))),(8,(12,(3,16))))))));
(21,(((4,(9,15)),(8,((16,(3,12)),(6,(20,(2,(1,(10,18)))))))),((14,(7,(13,19))),(5,(11,17)))));
(21,(((4,(7,(9,15))),((6,(20,(18,(2,(1,10))))),(8,(3,(12,16))))),((14,(13,19)),(5,(11,17)))));
(21,((14,(19,(7,13))),((5,(11,17)),((4,(9,15)),((6,(20,(1,(10,(2,18))))),(8,(16,(3,12))))))));
(21,(((15,(4,9)),((3,(12,16)),(8,(6,(20,((1,10),(2,18))))))),((19,(14,(7,13))),(5,(11,17)))));
(21,((5,(11,17)),((4,(9,15)),((14,(19,(7,13))),((((2,18),(1,10)),(6,20)),(8,(16,(3,12))))))));
(21,((5,(11,17)),((14,(19,(7,13))),((9,(4,15)),((6,((2,(10,18)),(1,20))),(8,(12,(3,16))))))));
(21,(((15,(4,9)),(5,(11,17))),(((7,13),(14,19)),((8,(16,(3,12))),(6,(20,(2,(18,(1,10)))))))));
(21,(((15,(4,9)),((6,((10,(2,18)),(1,20))),(8,(16,(3,12))))),(((7,13),(14,19)),(5,(11,17)))));
(21,((13,(14,19)),((5,(11,17)),((4,(15,(7,9))),((6,((1,10),(20,(2,18)))),(8,(16,(3,12))))))));
(21,((19,(14,(7,13))),((5,(11,17)),((4,(9,15)),((6,(1,(20,(18,(2,10))))),(8,(12,(3,16))))))));
(21,((5,(11,17)),((14,(19,(7,13))),((15,(4,9)),((6,(20,(18,(1,(2,10))))),(8,(16,(3,12))))))));
(21,((5,(11,17)),((14,(13,19)),(((7,9),(4,15)),((6,(20,((1,2),(10,18)))),(8,(16,(3,12))))))));
(21,((4,(9,15)),((14,(19,(7,13))),((5,(11,17)),((6,(20,(1,(18,(2,10))))),(8,(3,(12,16))))))));
(21,(((7,13),(14,19)),((4,(9,15)),((5,(11,17)),((8,(3,(12,16))),(6,((2,18),(20,(1,10)))))))));
(21,((14,(19,(7,13))),((5,(11,17)),((15,(4,9)),((12,(3,16)),(8,(6,((1,10),(20,(2,18))))))))));
(21,(((4,(15,(7,9))),((8,(12,16)),(3,(6,(10,(1,(20,(2,18)))))))),((14,(13,19)),(5,(11,17)))));
(21,(((7,13),(14,19)),((5,(11,17)),((4,(9,15)),((8,(16,(3,12))),((2,18),(6,(20,(1,10)))))))));
(21,(((9,(4,15)),((20,(1,(6,(10,(2,18))))),(8,(16,(3,12))))),((14,(7,(13,19))),(5,(11,17)))));
(21,(((7,19),(13,14)),((5,(11,17)),((4,(9,15)),((16,(3,12)),(8,(6,((1,10),(20,(2,18))))))))));
(21,(((4,(9,15)),((6,((1,10),(20,(2,18)))),(8,(16,(3,12))))),((14,(19,(7,13))),(5,(11,17)))));
(21,(((7,13),(14,19)),(((8,(16,(3,12))),(6,(20,((2,18),(1,10))))),((4,(9,15)),(5,(11,17))))));
(21,((5,(11,17)),((14,(19,(7,13))),((15,(4,9)),(8,((16,(3,12)),(6,(20,((1,10),(2,18))))))))));
(21,(((9,(4,15)),((3,(12,16)),(20,(8,(6,(1,(10,(2,18)))))))),((14,(19,(7,13))),(5,(11,17)))));
(21,(((6,((1,10),(20,(2,18)))),(8,(3,(12,16)))),((4,(9,15)),((14,(19,(7,13))),(5,(11,17))))));
(21,(((9,(4,15)),((6,(20,(1,(18,(2,10))))),(8,(16,(3,12))))),((14,(19,(7,13))),(5,(11,17)))));
(21,(((8,(12,(3,16))),((15,(4,9)),(6,(20,((2,18),(1,10)))))),((7,(14,(13,19))),(5,(11,17)))));
(21,(((7,13),(14,19)),((5,(11,17)),((9,(4,15)),(6,((20,((2,18),(1,10))),(8,(12,(3,16)))))))));
(21,((((2,18),(6,(20,(1,10)))),(8,(16,(3,12)))),((4,(9,15)),((14,(19,(7,13))),(5,(11,17))))));
(21,((((7,9),(4,15)),(5,(11,17))),((13,(14,19)),((8,(3,(12,16))),(6,((2,18),(20,(1,10))))))));
(21,((5,(11,17)),(((6,((1,10),(20,(2,18)))),(8,(3,(12,16)))),((4,(9,15)),(19,(14,(7,13)))))));
(21,(((4,(9,15)),((6,(20,((2,18),(1,10)))),(12,(8,(3,16))))),(((7,13),(14,19)),(5,(11,17)))));
(21,(((4,(9,(7,15))),((8,(3,(12,16))),(6,(20,(10,(2,(1,18))))))),((19,(13,14)),(5,(11,17)))));
(21,((5,(11,17)),((19,(13,14)),((4,(9,(7,15))),((6,(2,((1,18),(10,20)))),(8,(3,(12,16))))))));
(21,(((4,(9,15)),(6,(20,((1,10),(2,18))))),((8,(16,(3,12))),((14,(19,(7,13))),(5,(11,17))))));
(21,((5,(11,17)),((14,(19,(7,13))),((15,(4,9)),((20,(18,(2,(1,10)))),(6,(8,(12,(3,16)))))))));
(21,(((9,(4,15)),(((20,(2,(1,10))),(6,18)),(8,(3,(12,16))))),((14,(19,(7,13))),(5,(11,17)))));
(21,(((6,((2,18),(20,(1,10)))),(8,(16,(3,12)))),((9,(4,15)),(((14,19),(7,13)),(5,(11,17))))));
(21,((5,(11,17)),((19,(14,(7,13))),((4,(9,15)),((8,(16,(3,12))),(((1,10),(2,18)),(6,20)))))));
(21,((14,(19,(7,13))),((5,(11,17)),((4,(9,15)),((6,(20,((2,18),(1,10)))),(8,(16,(3,12))))))));
(21,(((6,(20,(2,(18,(1,10))))),(8,(16,(3,12)))),((5,(11,17)),((4,(9,15)),(19,(14,(7,13)))))));
(21,((19,(14,(7,13))),((5,(11,17)),((4,(9,15)),((6,((2,18),(20,(1,10)))),(8,(3,(12,16))))))));
(21,((5,(11,17)),((19,(14,(7,13))),((4,(9,15)),((8,16),((3,12),(6,((1,10),(20,(2,18))))))))));
(21,((5,(11,17)),((14,(13,19)),((15,(4,(7,9))),(8,((3,(12,16)),(6,(10,(20,(1,(2,18)))))))))));
(21,((14,(19,(7,13))),(((4,(9,15)),((8,(3,(12,16))),(6,(20,(18,(1,(2,10))))))),(5,(11,17)))));
(21,((19,(14,(7,13))),((5,(11,17)),((9,(4,15)),(((3,16),(8,12)),(6,((1,10),(20,(2,18)))))))));
(21,(((13,14),(7,19)),(((9,(4,15)),((1,(20,(18,(2,10)))),(6,(8,(16,(3,12)))))),(5,(11,17)))));
(21,((5,(11,17)),((14,(19,(7,13))),((4,(9,15)),((6,(20,((2,18),(1,10)))),(8,(3,(12,16))))))));
(21,((5,(11,17)),((14,(19,(7,13))),((4,(9,15)),(8,((16,(3,12)),(6,(20,((1,18),(2,10))))))))));
(21,((5,(11,17)),((14,(19,(7,13))),((15,(4,9)),(6,((20,(1,(10,(2,18)))),((12,16),(3,8))))))));
(21,((5,(11,17)),((14,(19,(7,13))),((4,(9,15)),((6,((18,(2,10)),(1,20))),(8,(16,(3,12))))))));
(21,((19,(13,(7,14))),((5,(11,17)),((15,(4,9)),((6,(20,((1,10),(2,18)))),(8,(16,(3,12))))))));
(21,((19,(14,(7,13))),((5,(11,17)),((4,(9,15)),((6,((2,18),(20,(1,10)))),(8,(12,(3,16))))))));
(21,((5,(11,17)),(((6,(20,((1,10),(2,18)))),(8,(16,(3,12)))),((14,(19,(7,13))),(4,(9,15))))));
(21,((5,(11,17)),((14,(19,(7,13))),((9,(4,15)),((6,(20,(1,(10,(2,18))))),(8,(16,(3,12))))))));
(21,(((4,(9,15)),((3,(12,16)),(8,(6,(20,(2,(18,(1,10)))))))),(((7,13),(14,19)),(5,(11,17)))));
(21,((5,(11,17)),((14,(19,(7,13))),((4,(9,15)),((6,(20,((2,18),(1,10)))),(8,(3,(12,16))))))));
(21,((5,(11,17)),(((7,13),(14,19)),((4,(9,15)),((20,((18,(1,10)),(2,6))),(8,(16,(3,12))))))));
(21,(((9,(4,15)),((6,((1,(2,18)),(10,20))),(8,(16,(3,12))))),(((13,14),(7,19)),(5,(11,17)))));
(21,(((4,(9,15)),((6,((1,10),(20,(2,18)))),(8,(12,(3,16))))),((14,(19,(7,13))),(5,(11,17)))));
(21,(((12,(3,16)),(8,((1,20),(6,(10,(2,18)))))),((7,(9,(4,15))),((19,(13,14)),(5,(11,17))))));
(21,((5,(11,17)),((14,(19,(7,13))),((4,(9,15)),((3,12),((6,((1,10),(20,(2,18)))),(8,16)))))));
(21,((14,(19,(7,13))),((5,(11,17)),((4,(9,15)),((6,(1,((10,18),(2,20)))),(8,(3,(12,16))))))));
(21,(((9,(4,15)),((6,(20,(1,(2,(10,18))))),(8,(16,(3,12))))),((14,(19,(7,13))),(5,(11,17)))));
(21,((7,(14,(13,19))),((5,(11,17)),((4,(9,15)),(((3,16),(8,12)),(6,(20,(1,(10,(2,18))))))))));
(21,(((7,13),(14,19)),((5,(11,17)),((9,(4,15)),((8,(16,(3,12))),(6,(20,(1,(18,(2,10))))))))));
(21,((5,(11,17)),((19,(14,(7,13))),((15,(4,9)),((6,(20,(2,(18,(1,10))))),(8,(16,(3,12))))))));
(21,((13,(14,19)),((5,(11,17)),((4,(15,(7,9))),((8,(12,(3,16))),(6,(20,(18,(2,(1,10))))))))));
(21,((19,(14,(7,13))),((5,(11,17)),((15,(4,9)),((6,(20,((1,10),(2,18)))),(8,(3,(12,16))))))));
(21,(((9,(4,15)),(((2,18),(1,10)),((6,20),(8,(16,(3,12)))))),((19,(14,(7,13))),(5,(11,17)))));
(21,(((7,13),(14,19)),((5,(11,17)),((4,(9,15)),((6,(20,((2,18),(1,10)))),(8,(12,(3,16))))))));
(21,((5,(11,17)),((14,(19,(7,13))),((15,(4,9)),((6,((2,18),(20,(1,10)))),(8,(3,(12,16))))))));
(21,((5,(11,17)),((14,(19,(7,13))),((9,(4,15)),(((10,20),(6,(1,(2,18)))),(8,(3,(12,16))))))));
(21,((5,(11,17)),(((7,14),(13,19)),((4,(9,15)),((6,(20,(1,(18,(2,10))))),(8,(12,(3,16))))))));
(21,((14,(19,(7,13))),((5,(11,17)),((4,(9,15)),((6,(2,(20,(18,(1,10))))),(8,(16,(3,12))))))));
(21,(((4,(9,15)),((6,((1,10),(20,(2,18)))),(8,(16,(3,12))))),((5,(11,17)),(14,(19,(7,13))))));
(21,((5,(11,17)),((14,(19,(7,13))),((15,(4,9)),((6,((1,10),(20,(2,18)))),(8,(3,(12,16))))))));
(21,(((7,13),(14,19)),((5,(11,17)),((4,(9,15)),((6,((2,18),(20,(1,10)))),(8,(12,(3,16))))))));
(21,((5,(11,17)),(((8,(3,(12,16))),(6,(20,(1,(10,(2,18)))))),((9,(4,15)),((7,13),(14,19))))));
(21,(((15,(4,9)),((20,(6,((1,10),(2,18)))),(8,(16,(3,12))))),((13,(7,(14,19))),(5,(11,17)))));
(21,(((9,(4,15)),(8,(16,(3,12)))),((14,(19,(7,13))),((6,(20,(18,(1,(2,10))))),(5,(11,17))))));
(21,(((4,(9,15)),((8,(16,(3,12))),(6,(10,(20,(1,(2,18))))))),((14,(19,(7,13))),(5,(11,17)))));
(21,((5,(11,17)),(((7,13),(14,19)),((9,(4,15)),((6,((1,10),(20,(2,18)))),(8,(16,(3,12))))))));
(21,((14,(19,(7,13))),((5,(11,17)),((15,(4,9)),((6,(20,(1,(2,(10,18))))),((3,16),(8,12)))))));
((((13,(14,(7,19))),(5,(11,17))),((15,(4,9)),(((1,(18,(2,10))),(6,20)),(3,(8,(12,16)))))),21);
(21,((14,(19,(7,13))),((5,(11,17)),((9,(4,15)),((6,(20,(18,(2,(1,10))))),(8,(12,(3,16))))))));
(21,((14,(19,(7,13))),((5,(11,17)),((4,(9,15)),((20,((1,10),(2,18))),(6,(8,(16,(3,12)))))))));
(21,((5,(11,17)),(((7,19),(13,14)),((4,(9,15)),((12,(3,16)),(8,(6,(20,(1,(18,(2,10)))))))))));
(21,((((4,15),(7,9)),(((20,(1,10)),(6,(2,18))),(8,(3,(12,16))))),((14,(13,19)),(5,(11,17)))));
(21,((5,(11,17)),((19,(14,(7,13))),((9,(4,15)),((((2,18),(1,10)),(6,20)),(8,(16,(3,12))))))));
(21,((((7,9),(4,15)),((12,(3,16)),(8,(6,((2,18),(20,(1,10))))))),((14,(13,19)),(5,(11,17)))));
(21,((5,(11,17)),((14,(19,(7,13))),((9,(4,15)),((8,(16,(3,12))),(6,(20,((2,18),(1,10)))))))));
(21,(((9,(4,15)),((2,(6,(20,(18,(1,10))))),(8,(16,(3,12))))),((19,(14,(7,13))),(5,(11,17)))));
(21,(((4,(9,15)),(((1,2),(20,(10,18))),(6,(8,(16,(3,12)))))),(((7,13),(14,19)),(5,(11,17)))));
(21,(((4,(9,15)),((6,((2,(10,18)),(1,20))),(8,(12,(3,16))))),((14,(19,(7,13))),(5,(11,17)))));
(21,((5,(11,17)),(((7,13),(14,19)),((4,(9,15)),(((1,(10,(2,18))),(6,20)),(8,(16,(3,12))))))));
(21,(((9,(4,15)),((6,(20,((2,18),(1,10)))),(8,(16,(3,12))))),(((7,13),(14,19)),(5,(11,17)))));
(21,((14,(19,(7,13))),((5,(11,17)),((4,(9,15)),((8,(3,(12,16))),(20,(6,((2,18),(1,10)))))))));
(21,(((5,(11,17)),(6,(((1,10),(20,(2,18))),(8,(16,(3,12)))))),((4,(9,15)),(14,(19,(7,13))))));
(21,((5,(11,17)),((14,(13,19)),((15,(4,(7,9))),(((1,10),(6,(20,(2,18)))),(8,(16,(3,12))))))));
(21,((5,(11,17)),((14,(13,19)),((4,(15,(7,9))),((12,(3,16)),(8,(6,((10,(2,18)),(1,20)))))))));
(21,((5,(11,17)),((14,(13,19)),((4,(9,(7,15))),((6,(20,(1,(18,(2,10))))),(8,(12,(3,16))))))));
(21,(((4,(9,15)),((6,((2,18),(20,(1,10)))),(8,(16,(3,12))))),((14,(19,(7,13))),(5,(11,17)))));
(21,((5,(11,17)),((19,(14,(7,13))),((4,(9,15)),(8,((16,(3,12)),((20,(2,18)),(6,(1,10)))))))));
(21,((5,(11,17)),((14,(13,19)),((4,(15,(7,9))),(((18,(1,(2,10))),(6,20)),(8,(12,(3,16))))))));
(21,(((4,(9,15)),((6,(10,(1,(2,18)))),(20,(8,(16,(3,12)))))),((14,(19,(7,13))),(5,(11,17)))));
(21,((4,(15,(7,9))),((13,(14,19)),((5,(11,17)),((6,(1,20)),((18,(2,10)),(8,(16,(3,12)))))))));
(21,((13,(14,(7,19))),((5,(11,17)),((15,(4,9)),((20,(6,(1,(10,(2,18))))),(8,(16,(3,12))))))));
(21,((((8,(16,(3,12))),(6,(20,((2,18),(1,10))))),(5,(11,17))),((14,(19,(7,13))),(4,(9,15)))));
(21,((14,(19,(7,13))),((5,(11,17)),((9,(4,15)),((6,(20,((1,10),(2,18)))),(8,(12,(3,16))))))));
(21,(((15,(4,9)),(8,((16,(3,12)),((18,(2,(1,10))),(6,20))))),((19,(14,(7,13))),(5,(11,17)))));
(21,(((4,(9,15)),((8,(16,(3,12))),(6,((2,18),(20,(1,10)))))),((19,(14,(7,13))),(5,(11,17)))));
(21,((19,(14,(7,13))),((5,(11,17)),((15,(4,9)),(8,((3,(12,16)),(6,(20,((2,18),(1,10))))))))));
(21,((5,(11,17)),((14,(7,(13,19))),((4,(9,15)),((8,(6,(2,20))),((16,(3,12)),(18,(1,10))))))));
(21,((5,(11,17)),((14,(19,(7,13))),((9,(4,15)),((16,(3,12)),(8,((10,(2,18)),(6,(1,20)))))))));
(21,((5,(11,17)),((19,(13,(7,14))),((9,(4,15)),((6,((2,18),(20,(1,10)))),(8,(16,(3,12))))))));
(21,((((7,13),(14,19)),(6,((20,((2,18),(1,10))),(8,(12,(3,16)))))),((4,(9,15)),(5,(11,17)))));
(21,((5,(11,17)),(((7,13),(14,19)),((4,(9,15)),(((10,(2,18)),(6,(1,20))),(8,(16,(3,12))))))));
(21,(((7,14),(13,19)),((5,(11,17)),((9,(4,15)),((6,(20,((1,10),(2,18)))),(8,(16,(3,12))))))));
(21,((19,(13,14)),((5,(11,17)),((9,(15,(4,7))),((8,(16,(3,12))),(6,((18,(1,10)),(2,20))))))));
(21,((19,(14,(7,13))),((5,(11,17)),((9,(4,15)),((6,(16,(3,12))),(8,((18,(1,10)),(2,20))))))));
(21,(((8,(16,(3,12))),(5,(11,17))),((19,(13,14)),((15,(4,(7,9))),(6,((1,(2,18)),(10,20)))))));
(21,((14,(19,(7,13))),((5,(11,17)),((4,(9,15)),((3,12),((8,16),((1,10),(6,(20,(2,18))))))))));
(21,((((7,9),(4,15)),((20,((1,2),(10,18))),(6,(8,(3,(12,16)))))),((14,(13,19)),(5,(11,17)))));
(21,((5,(11,17)),((19,(14,(7,13))),((9,(4,15)),(((18,(2,10)),(6,(1,20))),(8,(16,(3,12))))))));
(21,(((8,(16,(3,12))),((4,(9,15)),(6,(1,((2,18),(10,20)))))),(((7,13),(14,19)),(5,(11,17)))));
(21,(((7,13),(14,19)),((5,(11,17)),((9,(4,15)),((8,(16,(3,12))),(((2,18),(1,10)),(6,20)))))));
(21,((5,(11,17)),((14,(13,19)),((4,(15,(7,9))),((6,(20,(1,(10,(2,18))))),(8,(3,(12,16))))))));
(21,((13,(14,(7,19))),((5,(11,17)),((4,(9,15)),((6,(10,(20,(1,(2,18))))),(8,(16,(3,12))))))));
(21,((14,(19,(7,13))),((5,(11,17)),((15,(4,9)),((20,(6,((2,18),(1,10)))),(8,(16,(3,12))))))));
(21,(((9,(4,15)),((8,(16,(3,12))),(6,(20,((1,10),(2,18)))))),(((7,13),(14,19)),(5,(11,17)))));
(21,((5,(11,17)),(((7,13),(14,19)),((4,(9,15)),((8,(16,(3,12))),((1,(18,(2,10))),(6,20)))))));
(21,(((16,(3,12)),(8,(6,(20,((1,10),(2,18)))))),((5,(11,17)),((15,(4,9)),(14,(13,(7,19)))))));
(21,(((7,13),(14,19)),((5,(11,17)),((4,(9,15)),((6,20),(((2,18),(1,10)),(8,(12,(3,16)))))))));
(21,(((4,(9,15)),((6,((1,10),(20,(2,18)))),(8,(12,(3,16))))),((14,(19,(7,13))),(5,(11,17)))));
(21,((19,(14,(7,13))),((5,(11,17)),((9,(4,15)),(6,(((2,10),(18,(1,20))),(8,(3,(12,16)))))))));
(21,((19,(14,(7,13))),((8,(9,(4,15))),(((16,(3,12)),(20,(6,((2,18),(1,10))))),(5,(11,17))))));
(21,((19,(13,(7,14))),(((4,(9,15)),((6,(20,((2,18),(1,10)))),(8,(16,(3,12))))),(5,(11,17)))));
(21,((13,(7,(14,19))),((5,(11,17)),((4,(9,15)),((8,(16,(3,12))),(6,(10,(20,(1,(2,18))))))))));
(21,((5,(11,17)),((14,(19,(7,13))),((8,(16,(3,12))),((4,(9,15)),(6,(20,((2,18),(1,10)))))))));
(21,((4,(9,15)),((5,(11,17)),(((7,13),(14,19)),((16,(3,12)),(8,(6,(20,(1,(10,(2,18)))))))))));
(21,((14,(19,(7,13))),((5,(11,17)),((4,(9,15)),((6,(20,((2,18),(1,10)))),(8,(3,(12,16))))))));
(21,((((7,9),(4,15)),((6,(20,(1,(18,(2,10))))),(8,(16,(3,12))))),((14,(13,19)),(5,(11,17)))));
(21,((19,(14,(7,13))),((5,(11,17)),((9,(4,15)),((8,(16,(3,12))),(6,(20,(1,(10,(2,18))))))))));
(21,(((14,(13,19)),(5,(11,17))),((4,(15,(7,9))),((8,(16,(3,12))),(6,(18,(20,(2,(1,10)))))))));
(21,((5,(11,17)),((19,(14,(7,13))),((9,(4,15)),((8,(16,(3,12))),(6,(10,(1,(20,(2,18))))))))));
(21,(((7,19),(13,14)),((5,(11,17)),((15,(4,9)),((20,((1,18),(2,10))),(6,(8,(3,(12,16)))))))));
(21,((8,((3,(12,16)),(6,(20,((2,18),(1,10)))))),((4,(9,15)),((7,(13,(14,19))),(5,(11,17))))));
(21,(((8,(6,(20,((2,18),(1,10))))),((12,(3,16)),(15,(4,9)))),((14,(19,(7,13))),(5,(11,17)))));
(21,((5,(11,17)),((14,(13,19)),((4,(15,(7,9))),((8,(12,(3,16))),(6,(20,((2,18),(1,10)))))))));
(21,((5,(11,17)),((14,(13,19)),((4,(15,(7,9))),((6,(20,((2,18),(1,10)))),(8,(16,(3,12))))))));
(21,(((6,(20,((2,18),(1,10)))),(8,(16,(3,12)))),((5,(11,17)),((4,(9,15)),(14,(19,(7,13)))))));
(21,((((8,(16,(3,12))),(6,(20,((2,18),(1,10))))),(5,(11,17))),((19,(14,(7,13))),(9,(4,15)))));
(21,((14,(13,19)),((5,(11,17)),((15,(4,(7,9))),((8,(3,(12,16))),(6,(20,((2,18),(1,10)))))))));
(21,((14,(19,(7,13))),((5,(11,17)),((4,(9,15)),((6,((1,10),(20,(2,18)))),(8,(12,(3,16))))))));
(21,((8,((12,(3,16)),(6,(20,((2,18),(1,10)))))),((9,(4,15)),((14,(19,(7,13))),(5,(11,17))))));
(21,(((7,(4,(9,15))),((6,(20,(2,(18,(1,10))))),(8,(16,(3,12))))),((19,(13,14)),(5,(11,17)))));
(21,((5,((4,(9,15)),(8,((3,(12,16)),(6,(20,(1,(10,(2,18))))))))),((11,17),((7,13),(14,19)))));
(21,((5,(11,17)),(((7,19),(13,14)),((9,(4,15)),((6,((2,18),(20,(1,10)))),(8,(16,(3,12))))))));
(21,((5,(11,17)),((7,(13,(14,19))),((4,(9,15)),((6,((2,18),(20,(1,10)))),(8,(16,(3,12))))))));
(21,(((4,(9,15)),((8,(16,(3,12))),(20,(6,(2,(1,(10,18))))))),((14,(19,(7,13))),(5,(11,17)))));
(21,((5,(11,17)),((13,(14,(7,19))),((9,(4,15)),((6,(20,((1,10),(2,18)))),(16,(8,(3,12))))))));
(21,(((9,(4,15)),((16,(3,12)),(8,(6,(20,(1,(10,(2,18)))))))),((14,(7,(13,19))),(5,(11,17)))));
(21,((14,(19,(7,13))),((5,(11,17)),((15,(4,9)),((6,(20,(2,(18,(1,10))))),(8,(3,(12,16))))))));
(21,(((4,(9,15)),(8,((16,(3,12)),(6,(20,(18,(2,(1,10)))))))),((14,(19,(7,13))),(5,(11,17)))));
(21,((5,(11,17)),((14,(13,19)),((7,(15,(4,9))),(8,((16,(3,12)),(6,(20,(1,(10,(2,18)))))))))));
(21,(((7,13),(14,19)),((5,(11,17)),((((2,18),(1,10)),(8,(12,(3,16)))),((9,(4,15)),(6,20))))));
(21,((5,(11,17)),((14,(19,(7,13))),((4,(9,15)),((8,(16,(3,12))),(6,(20,((1,10),(2,18)))))))));
(21,((14,(19,(7,13))),((5,(11,17)),((4,(9,15)),((6,(20,(1,(18,(2,10))))),(8,(16,(3,12))))))));
(21,(((16,(3,12)),((4,(9,15)),(8,(6,((2,18),(20,(1,10))))))),(((7,13),(14,19)),(5,(11,17)))));
(21,((5,(11,17)),((14,(19,(7,13))),((9,(4,15)),((6,((1,10),(20,(2,18)))),(16,(8,(3,12))))))));
(21,(((14,(13,19)),(5,(11,17))),((9,(4,(7,15))),((8,(16,(3,12))),(6,((2,10),(20,(1,18))))))));
(21,((5,(11,17)),(((7,13),(14,19)),((9,(4,15)),((6,((1,10),(20,(2,18)))),(8,(3,(12,16))))))));
(21,(((4,(9,15)),((16,(3,12)),(8,(6,((2,18),(20,(1,10))))))),(((13,14),(7,19)),(5,(11,17)))));
(21,(((4,(9,15)),((6,(20,((2,18),(1,10)))),(8,(16,(3,12))))),((14,(19,(7,13))),(5,(11,17)))));
(21,(((6,(20,(2,(18,(1,10))))),((4,(9,15)),(8,(12,(3,16))))),(((7,13),(14,19)),(5,(11,17)))));
(21,((((13,19),(7,14)),(5,(11,17))),((15,(4,9)),(8,((16,(3,12)),(6,(20,(1,(18,(2,10))))))))));
(21,((15,(4,9)),((5,(11,17)),((19,(14,(7,13))),((6,(20,((1,10),(2,18)))),(8,(12,(3,16))))))));
(21,(((9,(4,15)),((20,((2,10),(1,18))),(6,(8,(16,(3,12)))))),((14,(19,(7,13))),(5,(11,17)))));
(21,((5,(11,17)),(((7,14),(13,19)),((6,((1,10),(20,(2,18)))),((4,(9,15)),(8,(3,(12,16))))))));
(21,(((4,(9,15)),((6,((1,18),(20,(2,10)))),(8,(16,(3,12))))),((14,(19,(7,13))),(5,(11,17)))));
(21,((19,(14,(7,13))),(((8,(12,(3,16))),(6,(20,(1,(10,(2,18)))))),((4,(9,15)),(5,(11,17))))));
(21,((19,(14,(7,13))),((5,(11,17)),((15,(4,9)),((16,(3,12)),(8,(6,((1,10),(20,(2,18))))))))));
(21,((5,(11,17)),(((7,13),(14,19)),((6,(20,(10,(1,(2,18))))),((4,(9,15)),(8,(16,(3,12))))))));
(21,((5,(11,17)),((19,(14,(7,13))),((((2,(10,18)),(1,20)),(8,(16,(3,12)))),(6,(4,(9,15)))))));
(21,((14,(19,(7,13))),((5,(11,17)),((4,(9,15)),((20,(2,(1,10))),((6,18),(8,(16,(3,12)))))))));
(21,((5,(11,17)),((14,(19,(7,13))),((4,(9,15)),((8,(16,(3,12))),(6,((2,18),(20,(1,10)))))))));
(21,(((9,(4,15)),((16,(3,12)),(8,(6,(1,(20,(10,(2,18)))))))),(((7,13),(14,19)),(5,(11,17)))));
(21,(((4,(9,15)),(8,((16,(3,12)),(6,(2,(20,(10,(1,18)))))))),((14,(19,(7,13))),(5,(11,17)))));
(21,((5,(11,17)),((14,(13,19)),(((7,9),(4,15)),((6,(20,((1,10),(2,18)))),(8,(16,(3,12))))))));
(21,((14,(13,19)),((5,(11,17)),(((9,15),(4,7)),((6,(20,((2,18),(1,10)))),(8,(16,(3,12))))))));
(21,(((9,(4,15)),((6,(20,((1,10),(2,18)))),(8,(16,(3,12))))),((19,(14,(7,13))),(5,(11,17)))));
(21,(((4,(9,15)),((6,(20,(18,(2,(1,10))))),(8,(12,(3,16))))),((14,(19,(7,13))),(5,(11,17)))));
(21,(((4,(9,15)),((12,(3,16)),(8,(20,(6,((2,18),(1,10))))))),(((7,13),(14,19)),(5,(11,17)))));
(21,((5,(11,17)),((14,(19,(7,13))),((9,(4,15)),((6,((2,18),(20,(1,10)))),(8,(16,(3,12))))))));
(21,(((9,(4,15)),((6,(20,((2,18),(1,10)))),(16,(8,(3,12))))),(((7,13),(14,19)),(5,(11,17)))));
(21,(((9,(4,15)),((8,(16,(3,12))),((1,10),(6,(20,(2,18)))))),((19,(14,(7,13))),(5,(11,17)))));
(21,(((4,(9,15)),((8,(16,(3,12))),(6,((1,10),(20,(2,18)))))),((14,(13,(7,19))),(5,(11,17)))));
(21,(((14,(19,(7,13))),(4,(9,15))),(((6,(1,(20,(2,(10,18))))),(8,(12,(3,16)))),(5,(11,17)))));
(21,((((1,10),(6,(20,(2,18)))),(8,(16,(3,12)))),((14,(19,(7,13))),((4,(9,15)),(5,(11,17))))));
(21,((19,(14,(7,13))),((5,(11,17)),((8,(16,(3,12))),((4,(9,15)),(6,(20,(10,(1,(2,18))))))))));
(21,(((15,(4,(7,9))),((6,(20,(10,(1,(2,18))))),(8,(3,(12,16))))),((14,(13,19)),(5,(11,17)))));
(21,((13,(14,19)),((5,(11,17)),((4,(15,(7,9))),(((18,(2,(1,10))),(6,20)),(8,(16,(3,12))))))));
(21,((((7,9),(4,15)),((6,((10,(2,18)),(1,20))),(8,(12,(3,16))))),((14,(13,19)),(5,(11,17)))));
(21,(((4,(9,15)),(19,(14,(7,13)))),(((6,((2,18),(20,(1,10)))),(3,(8,(12,16)))),(5,(11,17)))));
(21,((5,(11,17)),((19,(14,(7,13))),((4,(9,15)),((6,(20,(10,(1,(2,18))))),(8,(12,(3,16))))))));
(21,((5,(11,17)),(((7,13),(14,19)),((4,(9,15)),((6,(20,((1,10),(2,18)))),(8,(16,(3,12))))))));
(21,(((7,13),(14,19)),((5,(11,17)),((15,(4,9)),((6,(20,((2,18),(1,10)))),((3,12),(8,16)))))));
(21,(((15,(4,(7,9))),((6,(18,(20,(2,(1,10))))),(8,(16,(3,12))))),((14,(13,19)),(5,(11,17)))));
(21,((((7,9),(4,15)),(((10,(1,(2,18))),(6,20)),(8,(16,(3,12))))),((13,(14,19)),(5,(11,17)))));
(21,(((15,(4,9)),((8,(16,(3,12))),(6,(20,((1,10),(2,18)))))),((14,(19,(7,13))),(5,(11,17)))));
(21,(((7,13),(14,19)),((11,17),(5,((15,(4,9)),((6,((10,(2,18)),(1,20))),(8,(16,(3,12)))))))));
(21,((5,(11,17)),(((7,13),(14,19)),((4,(9,15)),(8,((16,(3,12)),(6,(20,((2,18),(1,10))))))))));
(21,((6,(18,(20,(2,(1,10))))),(((7,13),(14,19)),((5,(11,17)),((9,(4,15)),(8,(16,(3,12))))))));
(21,((5,(11,17)),((14,(19,(7,13))),((6,(1,(20,(18,(2,10))))),((8,(12,(3,16))),(15,(4,9)))))));
(21,((5,(11,17)),((14,(19,(7,13))),((4,(9,15)),((6,((18,(2,10)),(1,20))),(8,(16,(3,12))))))));
(21,(((15,(4,9)),((8,(16,(3,12))),(6,(20,((2,18),(1,10)))))),((11,17),(5,(14,(19,(7,13)))))));
(21,((5,(11,17)),((14,(19,(7,13))),((4,(9,15)),((8,(12,(3,16))),(6,((2,18),(1,(10,20)))))))));
(21,((19,(14,(7,13))),((5,(11,17)),((4,(9,15)),((20,(6,((2,18),(1,10)))),(8,(16,(3,12))))))));
(21,((4,(9,15)),((5,(11,17)),((7,(13,(14,19))),((12,(3,16)),(8,(6,(20,(2,(18,(1,10)))))))))));
(21,((((7,13),(14,19)),(5,(11,17))),((4,(9,15)),((8,(16,(3,12))),(6,(20,((2,18),(1,10))))))));
(21,(((9,(4,15)),((6,(20,((2,18),(1,10)))),(8,(16,(3,12))))),((14,(7,(13,19))),(5,(11,17)))));
(21,((5,(11,17)),((7,(19,(13,14))),((4,(9,15)),((6,(20,((2,18),(1,10)))),(8,(3,(12,16))))))));
(21,(((4,(9,15)),((8,(16,(3,12))),(6,((2,10),(20,(1,18)))))),((14,(19,(7,13))),(5,(11,17)))));
(21,((14,(19,(7,13))),((5,(11,17)),((4,(9,15)),((8,(16,(3,12))),(6,(20,((2,18),(1,10)))))))));
(21,(((9,(4,15)),((10,(6,(20,(1,(2,18))))),(8,(16,(3,12))))),(((7,13),(14,19)),(5,(11,17)))));
(21,(((4,(9,15)),((8,(12,(3,16))),(6,(20,((2,18),(1,10)))))),((14,(19,(7,13))),(5,(11,17)))));
(21,((5,(11,17)),((14,(13,19)),((15,(4,(7,9))),((20,(6,((1,10),(2,18)))),(8,(16,(3,12))))))));
(21,(((9,(4,15)),((8,(3,(12,16))),(((2,18),(1,10)),(6,20)))),((14,(19,(7,13))),(5,(11,17)))));
(21,(((4,(9,15)),((6,(20,(1,(18,(2,10))))),(8,(16,(3,12))))),((19,(14,(7,13))),(5,(11,17)))));
(21,(((8,(12,(3,16))),((15,(4,9)),(6,(20,(10,(1,(2,18))))))),((7,(14,(13,19))),(5,(11,17)))));
(21,(((9,(4,15)),((20,(6,(10,(1,(2,18))))),(8,(3,(12,16))))),(((7,13),(14,19)),(5,(11,17)))));
(21,((14,(7,(13,19))),((5,(11,17)),((4,(9,15)),((6,(20,((1,10),(2,18)))),(8,(16,(3,12))))))));
(21,((13,(14,19)),((5,(11,17)),(((9,15),(4,7)),((8,(12,(3,16))),(6,(20,((1,10),(2,18)))))))));
(21,((5,(11,17)),(((7,13),(14,19)),((15,(4,9)),((8,16),((3,12),(6,(20,((1,10),(2,18))))))))));
(21,(((4,(9,15)),((3,(12,16)),(8,(6,((2,18),(20,(1,10))))))),((7,(13,(14,19))),(5,(11,17)))));
(21,(((4,(9,15)),((6,((10,(1,18)),(2,20))),(8,(16,(3,12))))),((7,(14,(13,19))),(5,(11,17)))));
(21,((14,(19,(7,13))),((5,(11,17)),((4,(9,15)),((6,(20,((2,18),(1,10)))),(8,(16,(3,12))))))));
(21,(((4,(9,15)),(6,((20,(10,(18,(1,2)))),(8,(3,(12,16)))))),(((7,13),(14,19)),(5,(11,17)))));
(21,(((4,(9,15)),((6,(20,((2,18),(1,10)))),(8,(12,(3,16))))),(((7,13),(14,19)),(5,(11,17)))));
(21,((5,(11,17)),((15,(4,9)),((14,(19,(7,13))),((6,((10,(1,2)),(18,20))),(8,(16,(3,12))))))));
(21,(((15,(4,9)),((6,((1,10),(20,(2,18)))),(8,(16,(3,12))))),((14,(19,(7,13))),(5,(11,17)))));
(21,((19,(14,(7,13))),((5,(11,17)),((9,(4,15)),((6,((2,10),(20,(1,18)))),(8,(16,(3,12))))))));
(21,(((15,(4,9)),((8,(3,(12,16))),(((1,10),(2,18)),(6,20)))),((14,(19,(7,13))),(5,(11,17)))));
(21,((14,(19,(7,13))),((5,(11,17)),((4,(9,15)),((8,(3,(12,16))),(6,(20,(10,(1,(2,18))))))))));
(21,(((9,(4,15)),(8,((16,(3,12)),(6,(20,(10,(1,(2,18)))))))),(((7,13),(14,19)),(5,(11,17)))));
(21,((5,(11,17)),((19,(14,(7,13))),((9,(4,15)),((6,(20,((1,10),(2,18)))),(8,(3,(12,16))))))));
(21,(((15,(4,9)),((20,(6,((2,18),(1,10)))),(8,(16,(3,12))))),((19,(14,(7,13))),(5,(11,17)))));
(21,((5,(11,17)),((14,(7,(13,19))),((9,(4,15)),((6,(20,((2,18),(1,10)))),(8,(3,(12,16))))))));
(21,((14,(19,(7,13))),((5,(11,17)),((4,(9,15)),((6,(1,(20,(10,(2,18))))),(8,(16,(3,12))))))));
(21,((((6,(1,(20,(10,(2,18))))),(8,(12,(3,16)))),(5,(11,17))),((9,(4,15)),(7,(14,(13,19))))));
(21,(((4,(9,15)),((7,13),(14,19))),((11,17),(5,((8,(16,(3,12))),(6,((2,10),(20,(1,18)))))))));
(21,(((4,(9,15)),((16,(3,12)),(8,(6,((1,10),(18,(2,20))))))),((14,(19,(7,13))),(5,(11,17)))));
(21,((5,(11,17)),((14,(19,(7,13))),((4,(9,15)),(((12,16),(3,8)),(6,(20,((2,18),(1,10)))))))));
(21,((5,(11,17)),((14,(13,(7,19))),((4,(9,15)),((((1,10),(2,20)),(6,18)),(8,(16,(3,12))))))));
(21,((5,(11,17)),(((7,13),(14,19)),((4,(9,15)),((8,(16,(3,12))),(6,(20,((1,10),(2,18)))))))));
(21,(((7,13),(14,19)),((5,(11,17)),((4,(9,15)),((6,(20,((10,18),(1,2)))),(8,(3,(12,16))))))));
(21,((9,(4,15)),(((6,(1,(20,(18,(2,10))))),(8,(16,(3,12)))),((19,(14,(7,13))),(5,(11,17))))));
(21,(((8,(16,(3,12))),(((7,9),(4,15)),(6,(20,(1,(10,(2,18))))))),((13,(14,19)),(5,(11,17)))));
(21,((5,(11,17)),((14,(13,19)),(((7,9),(4,15)),((6,(20,(1,(18,(2,10))))),(8,(16,(3,12))))))));
(21,(((4,(15,(7,9))),((16,(3,12)),(8,(6,(20,((1,10),(2,18))))))),((13,(14,19)),(5,(11,17)))));
(21,((13,(14,(7,19))),((5,(11,17)),((4,(9,15)),(((12,16),(3,8)),(6,(1,(20,(18,(2,10))))))))));
(21,(((20,((2,18),(1,10))),(6,(8,(3,(12,16))))),(((7,13),(14,19)),((4,(9,15)),(5,(11,17))))));
(21,((5,(11,17)),((14,(19,(7,13))),((15,(4,9)),((6,((18,(1,10)),(2,20))),(8,(16,(3,12))))))));
(21,(((7,13),(14,19)),((5,(11,17)),((4,(9,15)),((8,(16,(3,12))),((18,(2,10)),(6,(1,20))))))));
(21,((5,(11,17)),((14,(19,(7,13))),((4,(9,15)),(8,((16,(3,12)),(6,(20,(2,(18,(1,10)))))))))));
(21,((13,(14,19)),((5,(11,17)),((4,(7,(9,15))),((6,(1,(20,(18,(2,10))))),(8,(16,(3,12))))))));
(21,((((14,19),(7,13)),((6,((1,10),(20,(2,18)))),(8,(3,(12,16))))),((4,(9,15)),(5,(11,17)))));
(21,(((7,19),(13,14)),((5,(11,17)),((4,(9,15)),((6,(1,(20,(18,(2,10))))),((3,12),(8,16)))))));
(21,((14,(19,(7,13))),((5,(11,17)),((9,(4,15)),((6,(20,(1,(18,(2,10))))),(8,(12,(3,16))))))));
(21,((5,(11,17)),((19,(14,(7,13))),((9,(4,15)),((6,(20,((1,10),(2,18)))),(8,(3,(12,16))))))));
(21,((14,(13,19)),((5,(11,17)),(((7,9),(4,15)),((8,16),((3,12),(20,(6,(18,(2,(1,10)))))))))));
(21,((14,(13,19)),((7,(4,(9,15))),((5,(11,17)),((6,(20,(2,(18,(1,10))))),(8,(12,(3,16))))))));
(21,((4,(9,15)),(((6,(20,(1,(10,(2,18))))),(8,(16,(3,12)))),((19,(14,(7,13))),(5,(11,17))))));
(21,(((9,(4,15)),(8,((16,(3,12)),(6,((2,18),(20,(1,10))))))),(((7,13),(14,19)),(5,(11,17)))));
(21,((5,(11,17)),((19,(14,(7,13))),((4,(9,15)),(3,((6,(20,(10,(1,(2,18))))),(8,(12,16))))))));
(21,(((9,(4,15)),((6,(1,(20,(18,(2,10))))),(8,(3,(12,16))))),((19,(14,(7,13))),(5,(11,17)))));
(21,((5,(11,17)),((19,(14,(7,13))),((4,(9,15)),((6,(20,(10,(1,(2,18))))),(8,(16,(3,12))))))));
(21,((14,(19,(7,13))),((5,(11,17)),((4,(9,15)),((12,(8,(3,16))),(6,(20,(10,(2,(1,18))))))))));
(21,((14,(19,(7,13))),((5,(11,17)),((4,(9,15)),((8,(16,(3,12))),((20,(2,(1,10))),(6,18)))))));
(21,((5,(11,17)),((14,(19,(7,13))),((4,(9,15)),((20,((2,18),(1,10))),(6,(8,(16,(3,12)))))))));
(21,((5,(11,17)),(((7,13),(14,19)),((4,(9,15)),((6,(20,((2,18),(1,10)))),(8,(16,(3,12))))))));
(21,(((7,13),(14,19)),((5,(11,17)),((4,(9,15)),((6,(2,(20,(10,(1,18))))),(8,(12,(3,16))))))));
(21,(((15,(4,9)),((20,(6,(2,(18,(1,10))))),(16,(8,(3,12))))),((14,(19,(7,13))),(5,(11,17)))));
(21,(((7,9),(4,15)),(((6,((1,10),(20,(2,18)))),(8,(16,(3,12)))),((13,(14,19)),(5,(11,17))))));
(21,((19,(14,(7,13))),((5,(11,17)),((4,(9,15)),((8,(12,(3,16))),(6,(20,((2,18),(1,10)))))))));
(21,(((8,(3,(12,16))),((6,((2,18),(20,(1,10)))),(9,(4,15)))),((19,(14,(7,13))),(5,(11,17)))));
(21,((5,(11,17)),((19,(14,(7,13))),((15,(4,9)),((20,((2,18),(1,10))),(6,(8,(16,(3,12)))))))));
(21,((14,(19,(7,13))),((5,(11,17)),((4,(9,15)),((8,(16,(3,12))),(20,(6,(18,(1,(2,10))))))))));
(21,(((7,19),(13,14)),((5,(11,17)),((4,(9,15)),((6,((1,10),(20,(2,18)))),(8,(12,(3,16))))))));
(21,((6,(((10,(2,18)),(1,20)),(8,(12,(3,16))))),((9,(4,15)),((14,(13,(7,19))),(5,(11,17))))));
(21,(((15,(4,9)),(8,((12,(3,16)),(6,((2,18),(20,(1,10))))))),((13,(7,(14,19))),(5,(11,17)))));
(21,((9,(4,15)),((14,(13,(7,19))),((5,(11,17)),((8,(16,(3,12))),(6,(20,(1,(10,(2,18))))))))));
(21,(((9,(4,15)),((20,((2,18),(1,10))),(6,(16,(8,(3,12)))))),((14,(19,(7,13))),(5,(11,17)))));
(21,(((4,(9,15)),((7,13),(14,19))),((5,(11,17)),(8,((3,(12,16)),(6,((2,18),(20,(1,10)))))))));
(21,(((7,13),(14,19)),((5,(11,17)),((15,(4,9)),((12,(3,16)),(8,(6,((1,10),(20,(2,18))))))))));
(21,(((4,(9,15)),((8,(16,(3,12))),(6,((1,(2,10)),(18,20))))),((14,(19,(7,13))),(5,(11,17)))));
(21,(((7,19),(13,14)),((5,(11,17)),((15,(4,9)),((((2,18),(1,10)),(6,20)),(8,(12,(3,16))))))));
(21,((((7,9),(4,15)),((6,((2,18),(20,(1,10)))),(8,(16,(3,12))))),((14,(13,19)),(5,(11,17)))));
(21,((19,(14,(7,13))),((5,(11,17)),((9,(4,15)),((6,((1,(2,18)),(10,20))),(8,(16,(3,12))))))));
(21,((7,(14,(13,19))),((5,(11,17)),((15,(4,9)),((6,(20,((2,18),(1,10)))),(8,(16,(3,12))))))));
(21,((14,(19,(7,13))),((5,(11,17)),((4,(9,15)),((6,((2,18),(20,(1,10)))),(8,(16,(3,12))))))));
(21,((5,(11,17)),((14,(19,(7,13))),((4,(9,15)),((20,(6,((1,10),(2,18)))),(8,(16,(3,12))))))));
(((5,(11,17)),((4,(9,15)),(((7,13),(14,19)),(16,((6,(20,((2,18),(1,10)))),(8,(3,12))))))),21);
(21,((14,(19,(7,13))),((5,(11,17)),((15,(4,9)),((8,(12,(3,16))),(6,(20,((2,18),(1,10)))))))));
(21,(((6,(1,((2,18),(10,20)))),((4,(9,15)),(8,(12,(3,16))))),((14,(19,(7,13))),(5,(11,17)))));
(21,((14,(19,(7,13))),((5,(11,17)),((4,(9,15)),((6,(20,((2,10),(1,18)))),(8,(16,(3,12))))))));
(21,((5,(11,17)),((14,(19,(7,13))),((9,(4,15)),((6,(20,((1,10),(2,18)))),(8,(16,(3,12))))))));
(21,(((6,((1,2),(20,(10,18)))),(8,(3,(12,16)))),((5,(11,17)),(((4,9),(7,15)),(19,(13,14))))));
(21,((5,(11,17)),((7,(13,(14,19))),((4,(9,15)),((8,(12,(3,16))),(6,((2,18),(20,(1,10)))))))));
(21,((5,(11,17)),((14,(19,(7,13))),((4,(9,15)),((6,((2,18),(20,(1,10)))),(8,(16,(3,12))))))));
(21,(((9,(4,15)),((8,(12,(3,16))),(1,(6,(20,(10,(2,18))))))),(((7,13),(14,19)),(5,(11,17)))));
(21,((5,(11,17)),((7,(14,(13,19))),((4,(9,15)),((6,((1,(2,18)),(10,20))),(8,(16,(3,12))))))));
(21,(((4,(9,15)),((12,(3,16)),(8,(6,(20,((2,18),(1,10))))))),((7,(14,(13,19))),(5,(11,17)))));
(21,(((14,(13,19)),(5,(11,17))),(((7,9),(4,15)),((6,(20,((1,10),(2,18)))),(8,(12,(3,16)))))));
(21,((5,(11,17)),((13,(14,19)),((15,(4,(7,9))),((6,((2,18),(20,(1,10)))),(8,(16,(3,12))))))));
(21,(((4,(9,15)),(8,((3,(12,16)),(6,(20,((1,10),(2,18))))))),((14,(19,(7,13))),(5,(11,17)))));
(21,(((4,(9,15)),(((2,(18,(1,10))),(6,20)),((3,12),(8,16)))),(((7,19),(13,14)),(5,(11,17)))));
(21,(((15,(4,(7,9))),((20,(6,((2,18),(1,10)))),(8,(16,(3,12))))),((19,(13,14)),(5,(11,17)))));
(21,((5,(11,17)),((19,(13,14)),((9,(4,(7,15))),((16,(3,12)),(8,(6,(20,((2,18),(1,10))))))))));
(21,(((7,13),(14,19)),((5,(11,17)),((9,(4,15)),((6,(18,(20,(10,(1,2))))),(8,(12,(3,16))))))));
(21,((19,(14,(7,13))),((5,(11,17)),((9,(4,15)),((16,(3,12)),(8,(6,(18,(20,(2,(1,10)))))))))));
(21,((14,(13,(7,19))),((5,(11,17)),((4,(9,15)),((6,(20,((2,18),(1,10)))),(8,(16,(3,12))))))));
(21,((((8,(16,(3,12))),(6,(20,(1,(18,(2,10)))))),(5,(11,17))),((15,(4,(7,9))),(14,(13,19)))));
(21,((14,(13,(7,19))),((5,(11,17)),((9,(4,15)),((8,(12,(3,16))),(6,(20,(1,(2,(10,18))))))))));
(21,((14,(19,(7,13))),(((6,(1,(20,(18,(2,10))))),(8,(3,(12,16)))),((4,(9,15)),(5,(11,17))))));
(21,(((4,(9,15)),((6,((1,10),(20,(2,18)))),(8,(16,(3,12))))),(((7,19),(13,14)),(5,(11,17)))));
(21,((5,(11,17)),(((7,13),(14,19)),((4,(9,15)),((8,(16,(3,12))),(6,((2,18),(20,(1,10)))))))));
(21,((4,(9,15)),((14,(19,(7,13))),((5,(11,17)),((6,((2,18),(20,(1,10)))),(8,(16,(3,12))))))));
(21,((5,(11,17)),((9,(4,15)),((19,(7,(13,14))),((20,(6,(2,(10,(1,18))))),(8,(16,(3,12))))))));
(21,((19,(14,(7,13))),((5,(11,17)),((4,(9,15)),((8,(16,(3,12))),(6,(20,(1,(10,(2,18))))))))));
(21,(((15,(4,9)),((20,((2,18),(1,10))),(8,(6,(16,(3,12)))))),((19,(14,(7,13))),(5,(11,17)))));
(21,(((4,(9,15)),(8,((12,(3,16)),(6,((1,10),(20,(2,18))))))),((19,(14,(7,13))),(5,(11,17)))));
(21,(((15,(4,9)),((8,(16,(3,12))),((2,20),(6,(18,(1,10)))))),((19,(14,(7,13))),(5,(11,17)))));
(21,(((15,(4,9)),((16,(3,12)),(8,(6,((18,(1,10)),(2,20)))))),((19,(14,(7,13))),(5,(11,17)))));
(21,((5,(11,17)),((14,(19,(7,13))),((9,(4,15)),((16,(8,(3,12))),(6,(18,(20,(2,(1,10))))))))));
(21,(((4,(9,15)),(3,((6,((18,(1,10)),(2,20))),(8,(12,16))))),(((7,13),(14,19)),(5,(11,17)))));
(21,(((13,(14,19)),((6,((18,(1,10)),(2,20))),(8,(16,(3,12))))),((4,(15,(7,9))),(5,(11,17)))));
(21,((14,(13,19)),((5,(11,17)),((15,(7,(4,9))),((8,(3,(12,16))),(6,(20,(1,(18,(2,10))))))))));
(21,((14,(19,(7,13))),((5,(11,17)),((15,(4,9)),((6,(18,(20,(2,(1,10))))),(8,(16,(3,12))))))));
(21,((14,(13,19)),((5,(11,17)),((4,(9,(7,15))),((6,(20,(2,(18,(1,10))))),(8,(16,(3,12))))))));
(21,((5,(11,17)),((19,(14,(7,13))),((9,(4,15)),((10,(6,((2,18),(1,20)))),(8,(16,(3,12))))))));
(21,(((4,(9,15)),((8,(16,(3,12))),(6,(20,(10,(1,(2,18))))))),((19,(14,(7,13))),(5,(11,17)))));
(21,((19,(14,(7,13))),((5,(11,17)),((9,(4,15)),((8,(12,(3,16))),(6,(10,(20,(1,(2,18))))))))));
(21,((13,(14,19)),((5,(11,17)),((4,(15,(7,9))),((6,(20,((2,18),(1,10)))),(8,(16,(3,12))))))));
(21,((14,(13,(7,19))),((5,(11,17)),((15,(4,9)),((16,(3,12)),(8,(6,(10,(20,(1,(2,18)))))))))));
(21,((5,(11,17)),((((20,(2,18)),(6,(1,10))),(8,(16,(3,12)))),(((7,13),(14,19)),(4,(9,15))))));
(21,(((5,(11,17)),((2,(6,(20,(10,(1,18))))),(8,(16,(3,12))))),((9,(4,15)),(19,(7,(13,14))))));
(21,((14,(19,(7,13))),(((9,(4,15)),(8,((12,(3,16)),(6,((2,18),(20,(1,10))))))),(5,(11,17)))));
(21,((5,(11,17)),((14,(13,19)),((4,(15,(7,9))),(((1,(10,(2,18))),(6,20)),(8,(16,(3,12))))))));
(21,((5,(11,17)),((14,(19,(7,13))),((9,(4,15)),(((2,20),(6,(1,(10,18)))),(8,(16,(3,12))))))));
(21,((5,(11,17)),((14,(19,(7,13))),((9,(4,15)),((6,(20,(10,(1,(2,18))))),(8,(3,(12,16))))))));
(21,((19,(13,14)),((7,(4,(9,15))),((5,(11,17)),((6,(20,(1,(2,(10,18))))),(8,(16,(3,12))))))));
(21,((5,(11,17)),(((7,13),(14,19)),((4,(9,15)),((8,(16,(3,12))),(6,(1,(20,(18,(2,10))))))))));
(21,(((7,14),(13,19)),((5,(11,17)),((9,(4,15)),((6,(20,((2,18),(1,10)))),(8,(16,(3,12))))))));
(21,(((15,(4,9)),((8,(12,(3,16))),(6,((1,10),(20,(2,18)))))),((14,(19,(7,13))),(5,(11,17)))));
(21,((14,(19,(7,13))),((5,(11,17)),((15,(4,9)),((6,(20,((2,18),(1,10)))),(8,(16,(3,12))))))));
(21,(((4,(9,15)),((8,(3,12)),(16,(6,(20,((2,18),(1,10))))))),((14,(19,(7,13))),(5,(11,17)))));
(21,((5,(11,17)),((9,(4,15)),((13,(14,(7,19))),((8,(16,(3,12))),((10,(1,(2,18))),(6,20)))))));
(21,((19,(14,(7,13))),((5,(11,17)),((15,(4,9)),((6,(20,(1,(2,(10,18))))),(8,(16,(3,12))))))));
(21,(((4,(9,15)),((6,((2,18),(20,(1,10)))),(8,(16,(3,12))))),((13,(19,(7,14))),(5,(11,17)))));
(21,((5,(11,17)),((14,(19,(7,13))),((4,(9,15)),((6,(20,(1,(18,(2,10))))),(8,(12,(3,16))))))));
(21,((5,(11,17)),((14,(13,(7,19))),((4,(9,15)),(8,((16,(3,12)),(6,((2,18),(20,(1,10))))))))));
(21,(((7,13),(14,19)),((5,(11,17)),((4,(9,15)),(((2,(18,(1,10))),(6,20)),(8,(16,(3,12))))))));
(21,(((4,(9,15)),(((20,(1,10)),(6,(2,18))),(8,(12,(3,16))))),(((7,14),(13,19)),(5,(11,17)))));
(21,(((8,(16,(3,12))),(6,(20,(10,(1,(2,18)))))),((5,(11,17)),(((7,13),(14,19)),(15,(4,9))))));
(21,((14,(19,(7,13))),((5,(11,17)),((4,(9,15)),((((2,18),(1,10)),(6,20)),(8,(3,(12,16))))))));
(21,((14,(19,(7,13))),(((6,(20,((1,10),(2,18)))),(8,(3,(12,16)))),((4,(9,15)),(5,(11,17))))));
(21,(((7,13),(14,19)),((5,(11,17)),((4,(9,15)),((6,(20,((1,10),(2,18)))),(8,(3,(12,16))))))));
(21,(((4,(9,15)),((6,((1,10),(20,(2,18)))),(8,(16,(3,12))))),(((7,13),(14,19)),(5,(11,17)))));
(21,((5,(11,17)),((19,(14,(7,13))),((4,(9,15)),((3,12),((6,((1,10),(20,(2,18)))),(8,16)))))));
(21,(((9,(4,15)),(8,((16,(3,12)),(6,(20,(1,(10,(2,18)))))))),((14,(19,(7,13))),(5,(11,17)))));
(21,((14,(19,(7,13))),((5,(11,17)),((4,(9,15)),((8,(16,(3,12))),(((2,18),(1,10)),(6,20)))))));
(21,((14,(19,(7,13))),((5,(11,17)),((4,(9,15)),(6,((20,((2,18),(1,10))),(8,(16,(3,12)))))))));
(21,(((15,(4,9)),((12,(3,16)),(8,(6,(20,((1,10),(2,18))))))),((14,(19,(7,13))),(5,(11,17)))));
(21,((5,(11,17)),((14,(13,(7,19))),((8,(16,(3,12))),((9,(4,15)),(6,(20,(1,(10,(2,18))))))))));
(21,(((4,(15,(7,9))),(8,((3,(12,16)),(6,(20,((1,10),(2,18))))))),((19,(13,14)),(5,(11,17)))));
(21,((19,(14,(7,13))),((5,(11,17)),((4,(9,15)),((8,(16,(3,12))),(6,(20,(2,(18,(1,10))))))))));
(21,(((15,(4,(7,9))),((8,(16,(3,12))),((1,(18,(2,10))),(6,20)))),((14,(13,19)),(5,(11,17)))));
(21,((5,(11,17)),((13,(7,(14,19))),((9,(4,15)),((6,(20,(1,(2,(10,18))))),(8,(16,(3,12))))))));
(21,(((7,13),(14,19)),((5,(11,17)),((4,(9,15)),((6,(20,(18,(2,(1,10))))),(8,(16,(3,12))))))));
(21,((5,(11,17)),((14,(13,19)),((15,(4,(7,9))),((8,(16,(3,12))),(6,((18,(1,10)),(2,20))))))));
(21,(((15,(4,9)),((20,(6,(2,(18,(1,10))))),(8,(16,(3,12))))),((19,(14,(7,13))),(5,(11,17)))));
(21,((5,(11,17)),((14,(19,(7,13))),((4,(9,15)),((6,((1,(2,18)),(10,20))),((3,12),(8,16)))))));
(21,(((7,13),(14,19)),((5,(11,17)),((9,(4,15)),((((2,18),(1,10)),(6,20)),(8,(16,(3,12))))))));
(21,((19,(14,(7,13))),((5,(11,17)),((9,(4,15)),((6,(20,(2,(18,(1,10))))),(8,(3,(12,16))))))));
(21,((14,(19,(7,13))),((5,(11,17)),((4,(9,15)),(8,((16,(3,12)),(6,(18,(20,(2,(1,10)))))))))));
(21,((14,(19,(7,13))),((5,(11,17)),((4,(9,15)),((8,(3,(12,16))),(6,(20,((2,18),(1,10)))))))));
(21,((5,(11,17)),(((7,13),(14,19)),((4,(9,15)),((8,(16,(3,12))),(6,(20,((2,18),(1,10)))))))));
(21,((5,(11,17)),((13,(14,19)),(((7,9),(4,15)),((8,(12,(3,16))),((1,10),(6,(2,(18,20)))))))));
(21,(((9,(4,15)),((6,(20,(18,(2,(1,10))))),(8,(16,(3,12))))),((13,(7,(14,19))),(5,(11,17)))));
(21,((14,(19,(7,13))),((5,(11,17)),((4,(9,15)),((6,(1,(20,(18,(2,10))))),(8,(3,(12,16))))))));
(21,(((4,(9,15)),((12,(3,16)),(8,(6,(20,(1,(18,(2,10)))))))),((14,(19,(7,13))),(5,(11,17)))));
(21,((19,(14,(7,13))),((5,(11,17)),((4,(9,15)),((16,(3,12)),(8,(6,((2,(1,10)),(18,20)))))))));
(21,((14,(19,(7,13))),((5,(11,17)),((9,(4,15)),(8,(20,((16,(3,12)),(6,((2,18),(1,10))))))))));
(21,((5,(11,17)),((14,(13,19)),((4,(7,(9,15))),((6,((1,(2,18)),(10,20))),(8,(3,(12,16))))))));
(21,((19,(14,(7,13))),((5,(11,17)),((4,(9,15)),((6,(20,((2,18),(1,10)))),(8,(16,(3,12))))))));
(21,(((4,(15,(7,9))),(14,(13,19))),((5,(11,17)),((8,(12,(3,16))),(6,((2,18),(20,(1,10))))))));
(21,((5,(11,17)),((8,((16,(3,12)),(6,(1,(20,(10,(2,18))))))),((4,(15,(7,9))),(14,(13,19))))));
(21,((5,(11,17)),((14,(13,19)),((4,(15,(7,9))),((20,(6,(1,(10,(2,18))))),(8,(12,(3,16))))))));
(21,((5,(11,17)),(((7,13),(14,19)),((15,(4,9)),((8,(16,(3,12))),(20,(6,(18,(2,(1,10))))))))));
(21,((19,(14,(7,13))),((5,(11,17)),((4,(9,15)),((8,(16,(3,12))),(6,((1,10),(20,(2,18)))))))));
(21,(((4,(9,15)),((16,(3,12)),(8,(6,(20,((2,18),(1,10))))))),(((7,13),(14,19)),(5,(11,17)))));
(21,((19,(14,(7,13))),((5,(11,17)),((4,(9,15)),((6,((2,10),(20,(1,18)))),(8,(16,(3,12))))))));
(21,((14,(19,(7,13))),((5,(11,17)),((4,(9,15)),((6,(20,(10,(1,(2,18))))),(8,(12,(3,16))))))));
(21,(((4,(9,15)),(((1,10),(6,(20,(2,18)))),(8,(16,(3,12))))),((14,(19,(7,13))),(5,(11,17)))));
(21,(((4,(15,(7,9))),(((1,(2,10)),(6,(18,20))),(16,(8,(3,12))))),((14,(13,19)),(5,(11,17)))));
(21,((5,(11,17)),((14,(19,(7,13))),((4,(9,15)),(8,((12,(3,16)),(6,(20,(1,(10,(2,18)))))))))));
(21,((14,(19,(7,13))),((5,(11,17)),((4,(9,15)),((6,(20,(2,(1,(10,18))))),(8,(16,(3,12))))))));
(21,(((4,(9,15)),((6,(20,((2,18),(1,10)))),(8,(12,(3,16))))),(((7,13),(14,19)),(5,(11,17)))));
(21,((5,(11,17)),((19,(14,(7,13))),(((1,10),(2,18)),((15,(4,9)),((6,20),(8,(3,(12,16)))))))));
(21,(((15,(4,(7,9))),((6,(20,((1,10),(2,18)))),(8,(16,(3,12))))),((19,(13,14)),(5,(11,17)))));
(21,(((4,(9,15)),((8,16),((3,12),(6,(20,(1,(18,(2,10)))))))),(((7,13),(14,19)),(5,(11,17)))));
(21,((14,(19,(7,13))),(((4,(9,15)),((8,(16,(3,12))),(6,(20,(10,(1,(2,18))))))),(5,(11,17)))));
(21,((14,(19,(7,13))),((5,(11,17)),((9,(4,15)),((8,(12,(3,16))),((2,18),(6,(20,(1,10)))))))));
(21,((4,(9,15)),(((6,(20,((2,18),(1,10)))),(8,(3,(12,16)))),((19,(14,(7,13))),(5,(11,17))))));
(21,((((7,15),(4,9)),(8,((16,(3,12)),(6,(20,(1,(2,(10,18)))))))),((13,(14,19)),(5,(11,17)))));
(21,((14,(19,(7,13))),((5,(11,17)),((15,(4,9)),((6,((1,10),(20,(2,18)))),(8,(3,(12,16))))))));
(21,(((4,(9,15)),((6,((1,10),(20,(2,18)))),(8,(12,(3,16))))),((19,(14,(7,13))),(5,(11,17)))));
(21,(((8,(16,(3,12))),((4,(9,15)),(((2,18),(1,10)),(6,20)))),((13,(14,(7,19))),(5,(11,17)))));
(21,((5,(11,17)),((14,(13,19)),((15,(4,(7,9))),((6,(1,(20,(10,(2,18))))),(8,(12,(3,16))))))));
(21,(((8,(16,(3,12))),(6,((18,(2,10)),(1,20)))),((15,(4,9)),(((7,14),(13,19)),(5,(11,17))))));
(21,((14,(19,(7,13))),((5,(11,17)),((4,(9,15)),(8,((16,(3,12)),(6,(20,((2,18),(1,10))))))))));
(21,(((7,13),(14,19)),((5,(11,17)),((4,(9,15)),((6,(20,(1,(18,(2,10))))),(8,(12,(3,16))))))));
(21,(((4,(9,15)),(((2,(10,18)),(6,(1,20))),(8,(16,(3,12))))),((19,(14,(7,13))),(5,(11,17)))));
(21,((5,(11,17)),((14,(13,19)),((15,(4,(7,9))),((6,(20,((1,10),(2,18)))),(8,(3,(12,16))))))));
(21,((19,(14,(7,13))),((5,(11,17)),((15,(4,9)),(6,(8,((16,(3,12)),(20,(10,(1,(2,18)))))))))));
(21,(((6,(1,(20,(10,(2,18))))),((4,(9,15)),(8,(16,(3,12))))),(((7,13),(14,19)),(5,(11,17)))));
(((19,(14,(7,13))),((5,(11,17)),((15,(4,9)),((6,((2,10),(20,(1,18)))),(8,(3,(12,16))))))),21);
(21,((19,(13,14)),((5,(11,17)),(((9,15),(4,7)),((((2,18),(1,10)),(6,20)),(8,(16,(3,12))))))));
(21,((14,(19,(7,13))),((5,(11,17)),((4,(9,15)),((6,(20,((2,18),(1,10)))),(8,(16,(3,12))))))));
(21,((14,(19,(7,13))),((5,(11,17)),((15,(4,9)),(8,((16,(3,12)),(6,(20,((2,18),(1,10))))))))));
(21,((7,(14,(13,19))),((5,(11,17)),((4,(9,15)),((6,(20,((2,18),(1,10)))),(8,(16,(3,12))))))));
(21,((5,(11,17)),((14,(19,(7,13))),((9,(4,15)),((6,(20,((1,10),(2,18)))),(8,(12,(3,16))))))));
(21,((14,(19,(7,13))),((5,(11,17)),((15,(4,9)),(6,((20,((2,18),(1,10))),(16,(8,(3,12)))))))));
(21,((5,(11,17)),((14,(19,(7,13))),((15,(4,9)),((6,(20,(2,(18,(1,10))))),(8,(16,(3,12))))))));
(21,((5,(11,17)),((14,(19,(7,13))),((15,(4,9)),((8,(12,(3,16))),(6,(20,(1,(10,(2,18))))))))));
(21,((5,(11,17)),((14,(13,19)),((15,(4,(7,9))),((6,(20,((1,10),(2,18)))),(8,(16,(3,12))))))));
(21,((5,(11,17)),((14,(19,(7,13))),((4,(9,15)),((6,((1,(2,18)),(10,20))),(8,(16,(3,12))))))));
(21,((5,(11,17)),((4,(15,(7,9))),((14,(13,19)),((6,(1,(10,(20,(2,18))))),(8,(16,(3,12))))))));
(21,((5,(11,17)),(((6,(20,(10,(1,(2,18))))),(8,(16,(3,12)))),(((7,13),(14,19)),(9,(4,15))))));
(21,((5,(11,17)),((14,(19,(7,13))),((4,(9,15)),(6,((20,((2,10),(1,18))),(8,(12,(3,16)))))))));
(21,((19,(14,(7,13))),((5,(11,17)),((9,(4,15)),((8,(12,(3,16))),(((1,10),(18,20)),(2,6)))))));
(21,((14,(19,(7,13))),((5,(11,17)),((15,(4,9)),((3,12),((6,(20,(1,(10,(2,18))))),(8,16)))))));
(21,((((6,(20,(2,(18,(1,10))))),(8,(16,(3,12)))),(5,(11,17))),(((9,15),(4,7)),(19,(13,14)))));
(21,((14,(19,(7,13))),((5,(11,17)),((4,(9,15)),(((2,18),(6,(20,(1,10)))),(8,(16,(3,12))))))));
(21,((5,(11,17)),(((7,13),(14,19)),((4,(9,15)),((8,(16,(3,12))),(6,((10,18),(20,(1,2)))))))));
(21,(((4,(9,15)),((6,(1,(20,(18,(2,10))))),(8,(12,(3,16))))),(((7,13),(14,19)),(5,(11,17)))));
(21,(((7,13),(14,19)),((5,(11,17)),((4,(9,15)),((6,(20,((2,18),(1,10)))),(8,(16,(3,12))))))));
(21,(((13,19),(7,14)),((5,(11,17)),((9,(4,15)),((6,(20,((1,10),(2,18)))),(8,(16,(3,12))))))));
(21,(((7,13),(14,19)),((5,(11,17)),((4,(9,15)),((6,((10,(2,18)),(1,20))),(8,(16,(3,12))))))));
(21,(((14,(19,(7,13))),(5,(11,17))),((8,(12,(3,16))),((9,(4,15)),(6,(20,(1,(2,(10,18)))))))));
(21,(((3,(8,(12,16))),((4,(9,15)),(6,(20,((2,18),(1,10)))))),((19,(14,(7,13))),(5,(11,17)))));
((((9,(4,15)),((8,(3,(12,16))),(6,((18,(2,10)),(1,20))))),((19,(14,(7,13))),(5,(11,17)))),21);
(21,((9,(4,15)),((5,(11,17)),((14,(7,(13,19))),((8,(3,(12,16))),((2,10),(6,(20,(1,18)))))))));
(21,(((4,(9,15)),(((2,20),(18,(1,10))),((16,(3,12)),(6,8)))),(((7,13),(14,19)),(5,(11,17)))));
(21,(((7,13),(14,19)),((5,(11,17)),((4,(9,15)),((6,((1,(2,18)),(10,20))),(8,(12,(3,16))))))));
(21,((((7,9),(4,15)),((6,(20,((1,10),(2,18)))),(8,(16,(3,12))))),((14,(13,19)),(5,(11,17)))));
(21,(((6,(20,(10,(1,(2,18))))),(8,(16,(3,12)))),((15,(4,9)),((19,(14,(7,13))),(5,(11,17))))));
(21,((14,(19,(7,13))),((5,(11,17)),((4,(9,15)),(12,((6,(20,(1,(10,(2,18))))),(8,(3,16))))))));
(21,((5,(11,17)),(((13,19),(7,14)),((4,(9,15)),(8,((12,(3,16)),(6,(18,((2,10),(1,20))))))))));
(21,(((9,(4,15)),((18,20),((6,(2,(1,10))),(8,(12,(3,16)))))),((14,(19,(7,13))),(5,(11,17)))));
(21,((14,(13,19)),((5,(11,17)),((4,(15,(7,9))),((6,((10,20),(1,(2,18)))),(8,(16,(3,12))))))));
(21,(((4,(9,15)),((7,19),(13,14))),((5,(11,17)),(8,((12,(3,16)),(6,((2,18),(10,(1,20)))))))));
(21,((5,(11,17)),((13,(14,(7,19))),((9,(4,15)),((6,((1,10),(20,(2,18)))),(8,(16,(3,12))))))));
(21,((14,(19,(7,13))),((5,(11,17)),((4,(9,15)),((6,(20,(1,(2,18)))),(10,(8,(16,(3,12)))))))));
(21,(((4,(9,15)),((8,(16,(3,12))),((10,18),(6,(20,(1,2)))))),((14,(19,(7,13))),(5,(11,17)))));
(21,((19,(13,14)),((5,(11,17)),(((7,9),(4,15)),((6,(20,((2,18),(1,10)))),((12,16),(3,8)))))));
(21,((5,(11,17)),(((7,14),(13,19)),((9,(4,15)),((8,(16,(3,12))),(6,(20,((2,18),(1,10)))))))));
(21,(((15,(4,9)),((16,(3,12)),(8,(6,(20,(10,(1,(2,18)))))))),((5,(11,17)),(19,(14,(7,13))))));
(21,(((14,(19,(7,13))),(5,(11,17))),((15,(4,9)),((6,(20,((2,18),(1,10)))),(8,(16,(3,12)))))));
(21,((5,(11,17)),((((2,(1,10)),(18,20)),(6,(8,(16,(3,12))))),((4,(15,(7,9))),(14,(13,19))))));
(21,((5,(11,17)),((14,(7,(13,19))),((9,(4,15)),((8,(16,(3,12))),((1,(2,18)),(6,(10,20))))))));
(21,((14,(7,(13,19))),((5,(11,17)),((15,(4,9)),((6,(20,(1,(10,(2,18))))),(8,(3,(12,16))))))));
(21,((19,(14,(7,13))),((5,(11,17)),((15,(4,9)),(6,((18,(20,(2,(1,10)))),(8,(16,(3,12)))))))));
(21,((((7,9),(4,15)),(8,((((1,10),(2,18)),(6,20)),(16,(3,12))))),((14,(13,19)),(5,(11,17)))));
(21,((5,(11,17)),((19,(14,(7,13))),((4,(9,15)),(8,((16,(3,12)),(6,(2,(20,(18,(1,10)))))))))));
(21,((14,(19,(7,13))),((5,(11,17)),((15,(4,9)),(((20,(10,18)),(6,(1,2))),(8,(16,(3,12))))))));
(21,((((9,15),(4,7)),((6,20),((1,(18,(2,10))),(8,(3,(12,16)))))),((19,(13,14)),(5,(11,17)))));
(21,((19,(14,(7,13))),((5,(11,17)),((4,(9,15)),((8,(3,(12,16))),(6,(20,(1,(2,(10,18))))))))));
(21,((5,(11,17)),((4,(9,15)),((19,(14,(7,13))),(8,((16,(3,12)),((10,(1,(2,18))),(6,20))))))));
(21,(((4,(15,(7,9))),((6,((2,18),(20,(1,10)))),(8,(12,(3,16))))),((14,(13,19)),(5,(11,17)))));
(21,((14,(19,(7,13))),((20,((6,(2,(1,(10,18)))),(8,(12,(3,16))))),((4,(9,15)),(5,(11,17))))));
(21,((19,(14,(7,13))),((5,(11,17)),((15,(4,9)),((6,(20,(1,(10,(2,18))))),(8,(16,(3,12))))))));
(21,((5,(11,17)),((14,(19,(7,13))),((9,(4,15)),((6,(20,((2,18),(1,10)))),(8,(12,(3,16))))))));
(21,((14,(19,(7,13))),((5,(11,17)),((9,(4,15)),((6,((2,18),(20,(1,10)))),(8,(3,(12,16))))))));
(21,(((15,(4,9)),((6,(20,((2,18),(1,10)))),((3,12),(8,16)))),((14,(19,(7,13))),(5,(11,17)))));
(21,((5,(11,17)),((14,(19,(7,13))),((8,(12,(3,16))),((4,(9,15)),(((1,10),(2,18)),(6,20)))))));
(21,((5,(11,17)),((14,(19,(7,13))),((15,(4,9)),((8,(3,(12,16))),((10,20),(6,(1,(2,18)))))))));
(21,((14,(19,(7,13))),((5,(11,17)),((15,(4,9)),((6,(20,((2,18),(1,10)))),(8,(16,(3,12))))))));
(21,((14,(19,(7,13))),((5,(11,17)),((15,(4,9)),(8,((16,(3,12)),(6,(20,((2,18),(1,10))))))))));
(21,((5,(11,17)),((19,(14,(7,13))),((9,(4,15)),((6,(20,(18,(2,(1,10))))),(8,(3,(12,16))))))));
(21,((14,(13,19)),((5,(11,17)),((7,(4,(9,15))),((16,(3,12)),(8,(1,(6,(20,(10,(2,18)))))))))));
(21,((5,(11,17)),((14,(19,(7,13))),((9,(4,15)),((6,(20,((1,10),(2,18)))),(8,(16,(3,12))))))));
(21,(((4,(9,15)),((6,(20,((2,18),(1,10)))),(8,(16,(3,12))))),((19,(14,(7,13))),(5,(11,17)))));
(21,((14,(19,(7,13))),((5,(11,17)),((4,(9,15)),((8,(12,(3,16))),(6,((1,10),(20,(2,18)))))))));
(21,(((13,19),(7,14)),((5,(11,17)),((8,(16,(3,12))),((4,(9,15)),(6,(20,(1,(10,(2,18))))))))));
(21,(((15,(4,9)),((8,(16,(3,12))),(6,(20,((2,18),(1,10)))))),((14,(7,(13,19))),(5,(11,17)))));
(21,(((7,13),(14,19)),((5,(11,17)),((4,(9,15)),((6,(20,(2,(18,(1,10))))),(8,(16,(3,12))))))));
(21,(((11,17),(19,(14,(7,13)))),(5,((9,(4,15)),((6,(20,((10,18),(1,2)))),(16,(8,(3,12))))))));
(21,(((7,13),(14,19)),((5,(11,17)),((15,(4,9)),((8,(3,(12,16))),(6,((18,(1,10)),(2,20))))))));
(21,((7,(14,(13,19))),((5,(11,17)),((4,(9,15)),((8,(16,(3,12))),(6,(20,((2,18),(1,10)))))))));
(21,(((7,13),(14,19)),((5,(11,17)),((15,(4,9)),(((1,10),(6,(20,(2,18)))),(8,(3,(12,16))))))));
(21,((4,(9,15)),(((7,13),(14,19)),((5,(11,17)),((8,(3,(12,16))),(6,((1,10),(20,(2,18)))))))));
(21,((5,(11,17)),(((7,13),(14,19)),((4,(9,15)),((6,(1,(20,(18,(2,10))))),(8,(3,(12,16))))))));
(21,(((15,(4,9)),(6,((20,(18,(2,(1,10)))),(8,(16,(3,12)))))),((14,(19,(7,13))),(5,(11,17)))));
(21,(((9,(4,15)),((6,((18,(2,10)),(1,20))),(8,(16,(3,12))))),((19,(14,(7,13))),(5,(11,17)))));
(21,(((4,(9,15)),((8,(20,((1,10),(2,18)))),(6,(12,(3,16))))),(((7,13),(14,19)),(5,(11,17)))));
(21,((19,(14,(7,13))),((5,(11,17)),((15,(4,9)),(((1,(2,(10,18))),(6,20)),(8,(3,(12,16))))))));
(21,(((4,(9,15)),((20,(10,(2,18))),((8,(16,(3,12))),(1,6)))),((14,(19,(7,13))),(5,(11,17)))));
(21,(((7,13),(14,19)),(((8,(16,(3,12))),(20,(6,((2,18),(1,10))))),((4,(9,15)),(5,(11,17))))));
(21,(((4,(9,15)),(6,((20,((1,10),(2,18))),(8,(16,(3,12)))))),((14,(19,(7,13))),(5,(11,17)))));
(21,((5,(11,17)),(((7,13),(14,19)),((4,(9,15)),((20,((1,10),(2,18))),(6,(8,(12,(3,16)))))))));
((((13,(14,19)),((15,(4,(7,9))),((8,(16,(3,12))),(6,(20,(1,(2,(10,18)))))))),(5,(11,17))),21);
(21,((14,(13,19)),((5,(11,17)),((4,(15,(7,9))),((3,(12,16)),(8,(6,(20,((2,18),(1,10))))))))));
(21,((5,(11,17)),((14,(13,(7,19))),((15,(4,9)),((3,(8,(12,16))),(6,(20,((2,18),(1,10)))))))));
(21,((5,(11,17)),(((7,13),(14,19)),((9,(4,15)),(6,((20,(1,(10,(2,18)))),(8,(16,(3,12)))))))));
(21,((5,(11,17)),((14,(7,(13,19))),((15,(4,9)),((6,((2,18),(20,(1,10)))),(8,(16,(3,12))))))));
(21,(((7,13),(14,19)),((5,(11,17)),((4,(9,15)),((8,16),((3,12),(6,(20,(10,(1,(2,18)))))))))));
(21,(((4,(15,(7,9))),(8,((3,(12,16)),(6,((1,(2,18)),(10,20)))))),((14,(13,19)),(5,(11,17)))));
(21,((8,(16,(3,12))),(((7,13),(14,19)),((5,(11,17)),((15,(4,9)),(((1,10),(2,18)),(6,20)))))));
(21,((5,(11,17)),((14,(13,19)),(((7,9),(4,15)),((8,(3,(12,16))),(6,(20,((2,18),(1,10)))))))));
(21,(((6,((1,10),(20,(2,18)))),(8,(16,(3,12)))),((4,(9,15)),((19,(14,(7,13))),(5,(11,17))))));
(21,((5,(11,17)),((14,(19,(7,13))),((4,(9,15)),(8,((16,(3,12)),(6,(20,(18,(1,(2,10)))))))))));
(21,(((4,(9,15)),((((1,10),(2,18)),(6,20)),(8,(12,(3,16))))),(((7,13),(14,19)),(5,(11,17)))));
(21,(((19,(14,(7,13))),(8,((16,(3,12)),(6,(20,((1,10),(2,18))))))),((4,(9,15)),(5,(11,17)))));
(21,((5,(11,17)),((19,(13,14)),((7,(15,(4,9))),((20,(1,(10,(2,18)))),(6,(8,(16,(3,12)))))))));
(21,((19,(14,(7,13))),((5,(11,17)),((4,(9,15)),(8,((16,(3,12)),(6,((10,(1,18)),(2,20)))))))));
(21,((5,(11,17)),(((7,13),(14,19)),((9,(4,15)),(8,((16,(3,12)),(6,((1,10),(20,(2,18))))))))));
(21,(((7,13),(14,19)),((5,(11,17)),((15,(4,9)),((6,(20,((2,18),(1,10)))),(8,(16,(3,12))))))));
(21,(((9,(4,15)),((8,(3,(12,16))),(6,(20,((1,10),(2,18)))))),((7,(14,(13,19))),(5,(11,17)))));
(21,((5,(11,17)),((19,(14,(7,13))),((4,(9,15)),(((12,(3,16)),(18,(2,(20,(1,10))))),(6,8))))));
(21,((14,(19,(7,13))),((5,(11,17)),((9,(4,15)),((6,((18,(2,10)),(1,20))),(8,(16,(3,12))))))));
(21,(((7,13),(14,19)),((5,(11,17)),((4,(9,15)),(8,((3,(12,16)),((2,(18,20)),(6,(1,10)))))))));
(21,((5,(11,17)),((14,(19,(7,13))),((15,(4,9)),((8,(12,(3,16))),(6,(18,(20,(2,(1,10))))))))));
(21,(((15,(4,9)),((8,(16,(3,12))),(6,(20,(10,(1,(2,18))))))),((14,(19,(7,13))),(5,(11,17)))));
(21,(((4,(9,15)),(((3,12),(6,(10,20))),((1,(2,18)),(8,16)))),(((7,13),(14,19)),(5,(11,17)))));
(21,((5,(11,17)),(((7,13),(14,19)),((15,(4,9)),((16,(3,12)),(18,(8,(6,(20,(2,(1,10)))))))))));
(21,((14,(13,19)),(((15,(4,(7,9))),((6,(20,(18,(2,(1,10))))),(8,(16,(3,12))))),(5,(11,17)))));
(21,(((4,(9,15)),((8,(16,(3,12))),(6,(20,((2,18),(1,10)))))),(((7,13),(14,19)),(5,(11,17)))));
(21,((14,(13,19)),(((15,(4,(7,9))),(6,((2,18),(20,(1,10))))),((8,(3,(12,16))),(5,(11,17))))));
(21,((13,(14,(7,19))),((5,(11,17)),((4,(9,15)),(6,(((1,10),(20,(2,18))),(8,(3,(12,16)))))))));
(21,((5,(11,17)),((14,(19,(7,13))),((9,(4,15)),(((1,10),(20,(2,18))),((16,(3,12)),(6,8)))))));
(21,((19,(13,14)),((5,(11,17)),((4,(9,(7,15))),((12,(3,16)),(8,(6,(1,(20,(10,(2,18)))))))))));
(21,(((4,(9,15)),((8,(16,(3,12))),(6,(20,(1,(18,(2,10))))))),((19,(14,(7,13))),(5,(11,17)))));
(21,(((15,(4,(7,9))),(8,((16,(3,12)),(6,(20,((2,18),(1,10))))))),((14,(13,19)),(5,(11,17)))));
(21,((14,(19,(7,13))),((9,(4,15)),((5,(11,17)),(8,(((1,10),(2,18)),((12,(3,16)),(6,20))))))));
(21,((14,(19,(7,13))),((5,(11,17)),((4,(9,15)),((6,(20,((1,10),(2,18)))),(3,(8,(12,16))))))));
(21,(((15,(4,9)),((8,(16,(3,12))),(6,(20,((2,18),(1,10)))))),((14,(7,(13,19))),(5,(11,17)))));
(21,((14,(13,19)),((5,(11,17)),((15,(4,(7,9))),(((2,18),(6,(20,(1,10)))),((3,12),(8,16)))))));
(21,((4,(9,15)),((14,(19,(7,13))),((5,(11,17)),((6,(20,((2,18),(1,10)))),(8,(16,(3,12))))))));
(21,((5,(11,17)),((14,(19,(7,13))),((15,(4,9)),(6,(16,((20,(1,(10,(2,18)))),(8,(3,12)))))))));
(21,((14,(19,(7,13))),(((6,(1,(10,(20,(2,18))))),(8,(16,(3,12)))),((4,(9,15)),(5,(11,17))))));
(21,(((15,(4,9)),((6,(20,((2,18),(1,10)))),(8,(16,(3,12))))),(((7,13),(14,19)),(5,(11,17)))));
(21,((5,(11,17)),(((13,19),(7,14)),((9,(4,15)),(8,((16,(3,12)),((1,(10,(2,18))),(6,20))))))));
(21,(((15,(4,(7,9))),((6,(2,((10,18),(1,20)))),(8,(16,(3,12))))),((14,(13,19)),(5,(11,17)))));
(21,(((7,13),(14,19)),((5,(11,17)),((15,(4,9)),((6,(20,(1,(18,(2,10))))),(8,(16,(3,12))))))));
(21,(((6,(20,((2,18),(1,10)))),(8,(16,(3,12)))),((5,(11,17)),((14,(19,(7,13))),(4,(9,15))))));
(21,((14,(13,19)),((5,(11,17)),((4,(15,(7,9))),((8,(12,(3,16))),(6,(20,((2,18),(1,10)))))))));
(21,((14,(19,(7,13))),((5,(11,17)),((15,(4,9)),((6,(20,((1,10),(2,18)))),(8,(16,(3,12))))))));
(21,((5,(11,17)),((14,(19,(7,13))),(((1,10),(6,(20,(2,18)))),((8,(3,(12,16))),(4,(9,15)))))));
(21,((5,(11,17)),((14,(19,(7,13))),((15,(4,9)),((6,(1,(18,(2,10)))),(20,(8,(16,(3,12)))))))));
(21,(((4,(9,15)),((7,13),(14,19))),((5,(11,17)),((20,(6,((2,18),(1,10)))),(8,(16,(3,12)))))));
(21,((5,(11,17)),((14,(19,(7,13))),((4,(9,15)),((6,(20,(1,(18,(2,10))))),(8,(16,(3,12))))))));
(21,(((19,(13,14)),((7,9),(4,15))),((5,(11,17)),((6,(20,((2,18),(1,10)))),(8,(3,(12,16)))))));
(21,((5,(11,17)),((15,(4,9)),(((7,13),(14,19)),((6,(20,(1,(10,(2,18))))),(8,(12,(3,16))))))));
(21,((19,(14,(7,13))),((5,(11,17)),((4,(9,15)),((6,((1,(10,18)),(2,20))),(16,(8,(3,12))))))));
(21,((((9,15),(4,7)),((6,((1,10),(20,(2,18)))),(8,(3,(12,16))))),((14,(13,19)),(5,(11,17)))));
(21,((5,(11,17)),(((7,13),(14,19)),((15,(4,9)),((1,(6,(20,(10,(2,18))))),((3,16),(8,12)))))));
(21,((5,(11,17)),(((7,13),(14,19)),((4,(9,15)),((6,(20,((2,18),(1,10)))),(8,(16,(3,12))))))));
(21,((5,(11,17)),((14,(19,(7,13))),((4,(9,15)),((6,(20,(10,(1,(2,18))))),(8,(16,(3,12))))))));
(21,((20,((6,(1,(18,(2,10)))),(8,(16,(3,12))))),((14,(13,19)),(((7,9),(4,15)),(5,(11,17))))));
(21,((14,(19,(7,13))),((5,(11,17)),((4,(9,15)),((6,(20,((2,10),(1,18)))),(8,(16,(3,12))))))));
(21,((5,(11,17)),(((6,(20,((1,10),(2,18)))),(8,(16,(3,12)))),((14,(7,(13,19))),(9,(4,15))))));
(21,((5,(11,17)),((19,(14,(7,13))),((9,(4,15)),((8,(16,(3,12))),(6,(2,(18,(20,(1,10))))))))));
(21,((8,((20,((2,18),(1,10))),(6,(3,(12,16))))),((5,(11,17)),((4,(9,15)),(14,(19,(7,13)))))));
(21,((5,(11,17)),((4,(9,15)),((19,(14,(7,13))),((6,(20,((2,18),(1,10)))),(8,(16,(3,12))))))));
(21,(((9,(4,15)),((6,(20,(1,(18,(2,10))))),(8,(16,(3,12))))),((14,(19,(7,13))),(5,(11,17)))));
(21,((((13,19),(7,14)),((6,((1,10),(20,(2,18)))),(8,(3,(12,16))))),((4,(9,15)),(5,(11,17)))));
(21,(((5,(11,17)),((8,(12,(3,16))),(((2,18),(1,10)),(6,20)))),((9,(4,15)),(19,(14,(7,13))))));
(21,((14,(19,(7,13))),((5,(11,17)),((9,(4,15)),((6,(20,((2,18),(1,10)))),(8,(16,(3,12))))))));
(21,((5,(11,17)),(((14,19),(7,13)),((4,(9,15)),((6,(20,((1,10),(2,18)))),(12,(8,(3,16))))))));
(21,((19,(14,(7,13))),((5,(11,17)),((15,(4,9)),((20,(6,((1,10),(2,18)))),(8,(16,(3,12))))))));
(21,((14,(13,19)),((5,(11,17)),((4,(15,(7,9))),(((1,10),(6,(20,(2,18)))),(8,(16,(3,12))))))));
(21,((((7,9),(4,15)),((6,(1,(20,(18,(2,10))))),(8,(12,(3,16))))),((14,(13,19)),(5,(11,17)))));
(21,((5,(11,17)),((14,(13,19)),(((7,9),(4,15)),((6,(20,((2,18),(1,10)))),(8,(16,(3,12))))))));
(21,((14,(19,(7,13))),((5,(11,17)),((15,(4,9)),((16,(3,12)),(8,(6,(20,(1,(10,(2,18)))))))))));
(21,(((4,(9,15)),((6,(20,((2,18),(1,10)))),(8,(16,(3,12))))),((14,(19,(7,13))),(5,(11,17)))));
(21,((5,(11,17)),((4,(9,15)),((14,(13,(7,19))),((8,(16,(3,12))),(6,(20,((2,18),(1,10)))))))));
(21,((5,(11,17)),(((6,(20,(18,(2,(1,10))))),(8,(3,(12,16)))),((14,(19,(7,13))),(15,(4,9))))));
(21,(((9,(4,15)),((20,(6,((1,10),(2,18)))),(8,(16,(3,12))))),((14,(19,(7,13))),(5,(11,17)))));
(21,((((6,(20,(10,(1,(2,18))))),(8,(16,(3,12)))),(5,(11,17))),((19,(13,14)),(4,(15,(7,9))))));
(21,((14,(19,(7,13))),((5,(11,17)),((8,(16,(3,12))),((4,(9,15)),(6,(20,(1,(10,(2,18))))))))));
(21,(((13,(14,19)),(5,(11,17))),((4,(15,(7,9))),((8,(16,(3,12))),(6,(20,(1,(10,(2,18)))))))));
(21,((13,(14,19)),((5,(11,17)),((4,(15,(7,9))),((6,((2,18),(20,(1,10)))),(8,(16,(3,12))))))));
(21,((15,(4,9)),((5,(11,17)),((19,(14,(7,13))),((6,(20,(2,(1,(10,18))))),(8,(16,(3,12))))))));
(21,((5,(11,17)),((14,(19,(7,13))),((4,(9,15)),((10,(2,18)),((6,(1,20)),(8,(16,(3,12)))))))));
(21,((14,(13,(7,19))),((5,(11,17)),((15,(4,9)),((6,((2,18),(20,(1,10)))),(8,(12,(3,16))))))));
(21,((5,(11,17)),((19,(14,(7,13))),((4,(9,15)),((8,(3,(12,16))),(6,((20,(1,18)),(2,10))))))));
(21,(((6,20),(((2,18),(1,10)),(8,(12,(3,16))))),((14,(19,(7,13))),((15,(4,9)),(5,(11,17))))));
(21,(((4,(9,15)),(8,((12,(3,16)),(6,((1,10),(20,(2,18))))))),(((7,13),(14,19)),(5,(11,17)))));
(21,(((4,(9,15)),((6,((10,(2,18)),(1,20))),(8,(3,(12,16))))),(((7,13),(14,19)),(5,(11,17)))));
(21,((19,(14,(7,13))),(((15,(4,9)),(6,(20,((2,18),(1,10))))),((8,(16,(3,12))),(5,(11,17))))));
(21,((14,(19,(7,13))),((5,(11,17)),((9,(4,15)),((8,(3,(12,16))),((20,(10,(2,18))),(1,6)))))));
(21,(((4,(9,15)),((16,(3,12)),(8,(6,(20,(1,(10,(2,18)))))))),((14,(19,(7,13))),(5,(11,17)))));
(21,(((4,(9,15)),((6,(20,((10,18),(1,2)))),(8,(16,(3,12))))),((19,(14,(7,13))),(5,(11,17)))));
(21,((5,(11,17)),((14,(19,(7,13))),((15,(4,9)),((6,((10,18),(20,(1,2)))),(8,(3,(12,16))))))));
(21,((14,(19,(7,13))),((5,(11,17)),((15,(4,9)),(8,((6,(1,20)),((18,(2,10)),(16,(3,12)))))))));
(21,((5,(11,17)),((13,(19,(7,14))),((4,(9,15)),((8,(3,(12,16))),(6,((20,(1,10)),(2,18))))))));
(21,(((9,(4,15)),((((1,10),(2,18)),(6,20)),(8,(16,(3,12))))),((13,(14,(7,19))),(5,(11,17)))));
(21,(((4,(9,15)),((6,((2,18),(20,(1,10)))),(8,(16,(3,12))))),((14,(19,(7,13))),(5,(11,17)))));
(21,((14,(19,(7,13))),((5,(11,17)),((15,(4,9)),((6,(20,(10,(1,(2,18))))),(8,(3,(12,16))))))));
(21,((5,(11,17)),(((7,13),(14,19)),((4,(9,15)),(((10,(2,18)),(6,(1,20))),(8,(3,(12,16))))))));
(21,(((4,(9,15)),((20,(10,(2,(1,18)))),(8,(6,(16,(3,12)))))),((14,(19,(7,13))),(5,(11,17)))));
(21,((14,(7,(13,19))),((15,(4,9)),((5,(11,17)),(8,((16,(3,12)),(6,((18,(2,10)),(1,20)))))))));
(21,((5,(11,17)),((14,(19,(7,13))),((4,(9,15)),((6,(20,((2,18),(1,10)))),(8,(16,(3,12))))))));
(21,((5,(11,17)),((14,(19,(7,13))),((4,(9,15)),((6,((2,20),(18,(1,10)))),(16,(8,(3,12))))))));
(21,((5,(11,17)),((14,(13,(7,19))),((15,(4,9)),(20,((6,((2,18),(1,10))),(8,(12,(3,16)))))))));
(21,((5,(11,17)),((14,(19,(7,13))),((4,(9,15)),((6,(20,((2,18),(1,10)))),(8,(16,(3,12))))))));
(21,((19,(14,(7,13))),((5,(11,17)),((4,(9,15)),((6,(18,(20,(2,(1,10))))),(8,(16,(3,12))))))));
(21,((5,(11,17)),(((7,13),(14,19)),((9,(4,15)),((6,(20,(2,(18,(1,10))))),(8,(16,(3,12))))))));
(21,(((7,13),(14,19)),((5,(11,17)),((15,(4,9)),((3,(12,16)),(8,(6,(20,((1,10),(2,18))))))))));
(21,(((13,(14,19)),(5,(11,17))),((15,(4,(7,9))),((((2,18),(1,10)),(6,20)),(8,(12,(3,16)))))));
(21,((5,(11,17)),((13,(14,19)),((4,(15,(7,9))),((6,(18,((2,10),(1,20)))),(8,(16,(3,12))))))));
(21,(((9,(4,15)),((((2,18),(1,10)),(16,(3,12))),(8,(6,20)))),((19,(14,(7,13))),(5,(11,17)))));
(21,((14,(13,19)),((5,(11,17)),(((16,(3,12)),(1,(6,(20,(10,(2,18)))))),(8,(4,(15,(7,9))))))));
(21,(((4,(9,15)),((8,(12,(3,16))),(20,(6,(1,(10,(2,18))))))),((19,(14,(7,13))),(5,(11,17)))));
(21,((11,17),(((4,(15,(7,9))),((6,(20,((2,18),(1,10)))),(8,(16,(3,12))))),(5,(19,(13,14))))));
(21,(((4,(9,15)),(8,((3,(12,16)),(6,((1,(2,18)),(10,20)))))),((7,(14,(13,19))),(5,(11,17)))));
(21,(((4,(9,(7,15))),((8,(12,(3,16))),(6,((1,10),(20,(2,18)))))),((14,(13,19)),(5,(11,17)))));
(21,((((7,9),(4,15)),((6,(2,(1,10))),((18,20),(8,(12,(3,16)))))),((14,(13,19)),(5,(11,17)))));
(21,((5,(11,17)),((14,(19,(7,13))),((4,(9,15)),((6,(20,((1,10),(2,18)))),(8,(3,(12,16))))))));
(21,((5,(11,17)),((14,(19,(7,13))),((15,(4,9)),((12,(8,(3,16))),((1,10),(6,(20,(2,18)))))))));
(21,((14,(19,(7,13))),((5,(11,17)),((4,(9,15)),((6,(2,(18,(20,(1,10))))),(8,(16,(3,12))))))));
(21,(((13,19),(7,14)),((5,(11,17)),((4,(9,15)),(8,((16,(3,12)),(6,((10,(2,18)),(1,20)))))))));
(21,((5,(11,17)),(((7,9),(4,15)),((13,(14,19)),((6,((2,18),(20,(1,10)))),(8,(16,(3,12))))))));
(21,((5,(11,17)),((14,(19,(7,13))),((4,(9,15)),((6,(20,((1,10),(2,18)))),(8,(16,(3,12))))))));
(21,(((6,(20,(10,(2,(1,18))))),(8,(3,(12,16)))),((7,(9,(4,15))),((14,(13,19)),(5,(11,17))))));
(21,(((8,(3,(12,16))),(6,((10,(2,18)),(1,20)))),((15,(4,9)),((14,(19,(7,13))),(5,(11,17))))));
(21,((9,(4,15)),((14,(19,(7,13))),(((6,((2,18),(20,(1,10)))),(8,(16,(3,12)))),(5,(11,17))))));
(21,((19,(14,(7,13))),((5,(11,17)),((15,(4,9)),((((1,10),(2,18)),(6,20)),(8,(3,(12,16))))))));
(21,(((5,(11,17)),((6,(20,((2,18),(1,10)))),(8,(12,(3,16))))),((15,(4,9)),((13,19),(7,14)))));
(21,((5,(11,17)),((14,(13,(7,19))),(((12,16),(10,(6,(20,(1,(2,18)))))),((4,(9,15)),(3,8))))));
(21,((9,(4,15)),((5,(11,17)),(((7,13),(14,19)),((16,(3,12)),(8,(6,(10,(20,(2,(1,18)))))))))));
(21,(((4,(9,15)),((16,(3,12)),(8,(6,(20,((2,18),(1,10))))))),(((7,13),(14,19)),(5,(11,17)))));
(21,((5,(11,17)),((19,(14,(7,13))),((4,(9,15)),((6,(20,((2,18),(1,10)))),(8,(16,(3,12))))))));
(21,(((4,(9,15)),((6,((1,10),(20,(2,18)))),(8,(16,(3,12))))),(((7,13),(14,19)),(5,(11,17)))));
(21,(((9,(4,15)),((6,(20,((1,10),(2,18)))),(8,(16,(3,12))))),((19,(14,(7,13))),(5,(11,17)))));
(21,(((9,(4,15)),((6,((2,18),(20,(1,10)))),(8,(16,(3,12))))),((14,(13,(7,19))),(5,(11,17)))));
(21,(((8,(16,(3,12))),(6,(20,((1,10),(2,18))))),((5,(11,17)),((14,(13,(7,19))),(15,(4,9))))));
(21,((14,(13,19)),((5,(11,17)),((4,(9,(7,15))),((6,((1,(10,18)),(2,20))),(8,(16,(3,12))))))));
(21,((5,(11,17)),((19,(14,(7,13))),((9,(4,15)),((8,(16,(3,12))),(6,((10,18),(20,(1,2)))))))));
(21,((5,(11,17)),((19,(14,(7,13))),((4,(9,15)),((6,(20,((2,18),(1,10)))),(8,(16,(3,12))))))));
(21,((14,(19,(7,13))),((5,(11,17)),((15,(4,9)),((6,(20,(2,(18,(1,10))))),(8,(16,(3,12))))))));
(21,(((8,(16,(3,12))),(6,((18,20),(2,(1,10))))),((14,(19,(7,13))),((15,(4,9)),(5,(11,17))))));
(21,(((7,13),(14,19)),((5,(11,17)),((4,(9,15)),(8,((16,(3,12)),((10,(1,(2,18))),(6,20))))))));
(21,((15,(4,9)),((14,(19,(7,13))),((5,(11,17)),((6,((2,10),(20,(1,18)))),(8,(16,(3,12))))))));
(21,(((15,(4,9)),(8,((16,(3,12)),((1,(2,18)),(20,(6,10)))))),((7,(14,(13,19))),(5,(11,17)))));
(21,(((4,(9,15)),((8,(16,(3,12))),(6,((10,(2,18)),(1,20))))),((19,(14,(7,13))),(5,(11,17)))));
(21,(((7,19),(13,14)),((5,(11,17)),((4,(9,15)),((6,((2,18),(20,(1,10)))),(8,(3,(12,16))))))));
(21,(((4,(9,15)),(5,(11,17))),(((7,13),(14,19)),((6,(20,(10,(1,(2,18))))),(8,(16,(3,12)))))));
(21,((5,(11,17)),((7,(14,(13,19))),((9,(4,15)),((6,(20,((2,18),(1,10)))),((3,12),(8,16)))))));
(21,(((4,(15,(7,9))),(((2,(1,(10,18))),(6,20)),(8,(16,(3,12))))),((14,(13,19)),(5,(11,17)))));
(21,(((4,(9,15)),((6,((1,10),(20,(2,18)))),(8,(3,(12,16))))),(((7,13),(14,19)),(5,(11,17)))));
(21,((((7,9),(4,15)),((8,(16,(3,12))),(6,(20,(10,(1,(2,18))))))),((19,(13,14)),(5,(11,17)))));
(21,((5,(11,17)),((19,(14,(7,13))),((4,(9,15)),((8,(3,(12,16))),(6,(20,((2,18),(1,10)))))))));
(21,(((4,(9,15)),((6,((2,18),(20,(1,10)))),(8,(12,(3,16))))),((14,(19,(7,13))),(5,(11,17)))));
(21,(((9,(4,15)),((3,(12,16)),(8,(20,(6,((1,10),(2,18))))))),((14,(19,(7,13))),(5,(11,17)))));
(21,(((9,(4,15)),((20,(6,(1,(10,(2,18))))),(8,(12,(3,16))))),((19,(14,(7,13))),(5,(11,17)))));
(21,(((7,13),(14,19)),((5,(11,17)),((15,(4,9)),(6,(((1,10),(20,(2,18))),(8,(3,(12,16)))))))));
(21,(((4,(9,15)),((3,(12,16)),(8,(20,(6,((2,18),(1,10))))))),((19,(14,(7,13))),(5,(11,17)))));
(21,((14,(19,(7,13))),((5,(11,17)),((4,(9,15)),(8,(6,((16,(3,12)),((1,10),(20,(2,18))))))))));
(21,((5,(11,17)),((14,(19,(7,13))),((4,(9,15)),((6,(20,(10,(1,(2,18))))),(8,(3,(12,16))))))));
(21,(((7,13),(14,19)),((5,(11,17)),((15,(4,9)),(6,((20,(1,(10,(2,18)))),(8,(16,(3,12)))))))));
(21,((5,(11,17)),(((13,19),(7,14)),((4,(9,15)),((8,(16,(3,12))),(6,(20,(10,(1,(2,18))))))))));
(21,(((8,(16,(3,12))),((4,(9,15)),(20,(6,((1,10),(2,18)))))),(((7,13),(14,19)),(5,(11,17)))));
(21,(((3,(12,16)),(20,((2,18),(1,10)))),((14,(19,(7,13))),((5,(11,17)),((4,(9,15)),(6,8))))));
(21,((5,(11,17)),((19,(13,14)),((9,(4,(7,15))),(((10,20),(6,(1,(2,18)))),(8,(16,(3,12))))))));
(21,(((4,(9,15)),((8,(3,12)),(16,(20,(6,((1,10),(2,18))))))),((19,(14,(7,13))),(5,(11,17)))));
(21,((19,(7,(13,14))),((5,(11,17)),((15,(4,9)),((8,(16,(3,12))),(6,((10,(2,18)),(1,20))))))));
(21,(((15,(4,(7,9))),((6,20),((1,(10,(2,18))),(8,(12,(3,16)))))),((5,11),(17,(14,(13,19))))));
(21,((5,(11,17)),((13,(14,(7,19))),((15,(4,9)),((6,(1,(20,(2,(10,18))))),(8,(12,(3,16))))))));
(21,((5,(11,17)),((19,(14,(7,13))),((4,(9,15)),((1,(6,(20,(18,(2,10))))),(16,(8,(3,12))))))));
(21,(((4,(9,15)),((6,(20,(1,(18,(2,10))))),(8,(16,(3,12))))),(((13,19),(7,14)),(5,(11,17)))));
(21,((14,(13,19)),((5,(11,17)),((4,(15,(7,9))),((6,((2,(1,10)),(18,20))),(3,(8,(12,16))))))));
(21,((14,(19,(7,13))),((5,(11,17)),((4,(9,15)),((6,(20,((2,18),(1,10)))),(8,(16,(3,12))))))));
(21,((14,(19,(7,13))),((5,(11,17)),((15,(4,9)),((16,(3,12)),(8,(6,(20,(10,(1,(2,18)))))))))));
(21,((5,(11,17)),((14,(19,(7,13))),((4,(9,15)),((6,(20,(10,(1,(2,18))))),(8,(3,(12,16))))))));
(21,(((4,(15,(7,9))),(5,(11,17))),((14,(13,19)),((6,((2,18),(20,(1,10)))),(8,(12,(3,16)))))));
(21,((5,(11,17)),((19,(14,(7,13))),((15,(4,9)),((8,(16,(3,12))),(6,(20,(1,(10,(2,18))))))))));
(21,(((9,(4,15)),((8,(3,12)),(16,(20,(6,((2,18),(1,10))))))),((13,(19,(7,14))),(5,(11,17)))));
(21,(((4,(9,15)),((6,(20,((1,10),(2,18)))),(8,(12,(3,16))))),((14,(19,(7,13))),(5,(11,17)))));
(21,(((4,(9,15)),((7,13),(14,19))),(((6,(20,((2,18),(1,10)))),(8,(16,(3,12)))),(5,(11,17)))));
(21,((15,(4,9)),((5,(11,17)),((14,(19,(7,13))),((6,(20,((2,18),(1,10)))),(8,(16,(3,12))))))));
(21,((14,(13,19)),((5,(11,17)),((4,(15,(7,9))),((6,(20,((2,18),(1,10)))),(8,(16,(3,12))))))));
(21,(((4,(9,15)),(6,((20,((2,18),(1,10))),(8,(12,(3,16)))))),((14,(19,(7,13))),(5,(11,17)))));
(21,((14,(13,19)),((5,(11,17)),((4,(15,(7,9))),((6,(20,(18,(1,(2,10))))),(8,(16,(3,12))))))));
(21,((5,(11,17)),((14,(19,(7,13))),((15,(4,9)),((6,((2,18),(20,(1,10)))),(8,(3,(12,16))))))));
(21,((14,(19,(7,13))),((5,(11,17)),((4,(9,15)),((6,(20,((2,18),(1,10)))),(8,(3,(12,16))))))));
(21,((5,(11,17)),((14,(19,(7,13))),((15,(4,9)),((8,(12,(3,16))),(6,(20,(18,(1,(2,10))))))))));
(21,((5,(11,17)),((19,(13,14)),(((6,(20,((2,18),(1,10)))),(8,(16,(3,12)))),((7,9),(4,15))))));
(21,((((6,(20,(1,(10,(2,18))))),(8,(16,(3,12)))),(4,(9,15))),((14,(19,(7,13))),(5,(11,17)))));
(21,((14,(19,(7,13))),((5,(11,17)),((4,(9,15)),((6,10),((20,(1,(2,18))),(8,(12,(3,16)))))))));
(21,(((7,13),(14,19)),((5,(11,17)),((4,(9,15)),((6,((2,(1,10)),(18,20))),(8,(16,(3,12))))))));
(21,((14,(19,(7,13))),((5,(11,17)),((15,(4,9)),(8,((3,(12,16)),(6,(1,(20,(10,(2,18)))))))))));
(21,((14,(19,(7,13))),((5,(11,17)),((4,(9,15)),((3,12),((6,((1,10),(20,(2,18)))),(8,16)))))));
(21,((5,(11,17)),((19,(14,(7,13))),((15,(4,9)),((6,(20,((2,18),(1,10)))),(8,(16,(3,12))))))));
(21,((5,(11,17)),((19,(14,(7,13))),((4,(9,15)),((6,(20,((2,18),(1,10)))),(8,(16,(3,12))))))));
(21,((5,(11,17)),((19,(13,14)),((4,(7,(9,15))),((6,((2,18),(20,(1,10)))),((12,16),(3,8)))))));
(21,(((15,(4,9)),((8,(16,(3,12))),(6,(20,((2,18),(1,10)))))),((14,(13,(7,19))),(5,(11,17)))));
(21,((5,(11,17)),(((7,13),(14,19)),((4,(9,15)),((6,((2,18),(20,(1,10)))),(8,(12,(3,16))))))));
(21,(((7,13),(14,19)),((5,(11,17)),((4,(9,15)),((20,(6,(1,(10,(2,18))))),(16,(8,(3,12))))))));
(21,(((4,(9,15)),((6,(20,(1,(2,(10,18))))),(8,(12,(3,16))))),(((7,13),(14,19)),(5,(11,17)))));
(21,(((4,(9,15)),((6,(20,(1,(10,(2,18))))),(8,(12,(3,16))))),(((7,13),(14,19)),(5,(11,17)))));
(21,((5,(11,17)),((19,(7,(13,14))),((4,(9,15)),((20,(6,(10,(1,(2,18))))),(8,(16,(3,12))))))));
(21,((14,(19,(7,13))),((5,(11,17)),((9,(4,15)),((6,((2,(1,10)),(18,20))),(8,(12,(3,16))))))));
(21,((14,(19,(7,13))),((5,(11,17)),((4,(9,15)),((6,(20,(2,(18,(1,10))))),(8,(3,(12,16))))))));
(21,((((7,9),(4,15)),(6,(((2,18),(20,(1,10))),(8,(12,(3,16)))))),((19,(13,14)),(5,(11,17)))));
(21,((5,(11,17)),(((8,(16,(3,12))),(20,(6,((2,18),(1,10))))),((14,(19,(7,13))),(4,(9,15))))));
(21,(((4,(9,15)),((6,(20,((2,18),(1,10)))),((3,12),(8,16)))),((7,(19,(13,14))),(5,(11,17)))));
(21,(((9,(4,15)),((6,(20,(1,(18,(2,10))))),(8,(12,(3,16))))),((14,(19,(7,13))),(5,(11,17)))));
(21,(((4,(15,(7,9))),((6,(20,((2,18),(1,10)))),(8,(16,(3,12))))),((19,(13,14)),(5,(11,17)))));
(21,((14,(19,(7,13))),((5,(11,17)),((6,(10,(20,(18,(1,2))))),((15,(4,9)),(8,(16,(3,12))))))));
(21,(((4,(9,15)),((6,(20,(18,(1,(2,10))))),(8,(16,(3,12))))),((14,(19,(7,13))),(5,(11,17)))));
(21,((5,(11,17)),((14,(13,19)),(((4,9),(7,15)),((8,(16,(3,12))),(6,(20,(1,(18,(2,10))))))))));
(21,(((4,(9,15)),((6,(20,((2,18),(1,10)))),(8,(16,(3,12))))),((19,(14,(7,13))),(5,(11,17)))));
(21,((5,(11,17)),((13,(14,(7,19))),((4,(9,15)),((8,(16,(3,12))),(10,(6,(20,(2,(1,18))))))))));
(21,(((4,(9,15)),((16,(3,12)),(8,((20,(2,18)),(6,(1,10)))))),((19,(14,(7,13))),(5,(11,17)))));
(21,((5,(11,17)),((19,(14,(7,13))),((4,(9,15)),(6,(8,((16,(3,12)),(20,((2,10),(1,18))))))))));
(21,(((15,(4,9)),((6,(20,(10,(1,(2,18))))),(8,(16,(3,12))))),((19,(14,(7,13))),(5,(11,17)))));
(21,((14,(19,(7,13))),((5,(11,17)),((9,(4,15)),((6,(20,(1,(2,(10,18))))),(8,(3,(12,16))))))));
(21,((5,(11,17)),((19,(14,(7,13))),((4,(9,15)),((8,(16,(3,12))),(6,(10,(20,(1,(2,18))))))))));
(21,((5,(11,17)),((14,(19,(7,13))),((9,(4,15)),((6,(20,((1,10),(2,18)))),(8,(16,(3,12))))))));
(21,((14,(13,19)),((5,(11,17)),((4,(15,(7,9))),((6,((2,18),(20,(1,10)))),(8,(16,(3,12))))))));
(21,(((9,(4,15)),((8,(16,(3,12))),(20,(6,(2,(18,(1,10))))))),((5,(11,17)),((7,19),(13,14)))));
(21,((14,(19,(7,13))),((5,(11,17)),((9,(4,15)),((6,(20,(1,(18,(2,10))))),(8,(12,(3,16))))))));
(21,((14,(19,(7,13))),(((8,(16,(3,12))),(6,(20,(1,(18,(2,10)))))),((4,(9,15)),(5,(11,17))))));
(21,((19,(14,(7,13))),((5,(11,17)),((15,(4,9)),(((20,(2,18)),(6,(1,10))),(8,(16,(3,12))))))));
(21,(((4,(9,15)),((6,(20,(2,18))),((1,10),(8,(16,(3,12)))))),((14,(19,(7,13))),(5,(11,17)))));
(21,((((6,(20,(1,(2,(10,18))))),(8,(16,(3,12)))),(5,(11,17))),((4,(9,15)),(14,(19,(7,13))))));
(21,(((15,(4,9)),((8,(16,(3,12))),(6,((1,(2,18)),(10,20))))),(((7,13),(14,19)),(5,(11,17)))));
(21,(((9,(4,15)),((6,(20,(1,(10,(2,18))))),(12,(8,(3,16))))),((19,(14,(7,13))),(5,(11,17)))));
(21,(((7,13),(14,19)),((5,(11,17)),((15,(4,9)),((8,(16,(3,12))),(6,(20,((2,18),(1,10)))))))));
(21,(((4,(9,15)),((3,(12,16)),((20,((2,18),(1,10))),(6,8)))),(((7,13),(14,19)),(5,(11,17)))));
(21,((14,(19,(7,13))),((5,(11,17)),((9,(4,15)),((6,(20,(1,(10,(2,18))))),(8,(12,(3,16))))))));
(21,(((14,(7,(13,19))),(5,(11,17))),((4,(9,15)),((6,(20,((2,18),(1,10)))),(8,(3,(12,16)))))));
(21,((7,(13,(14,19))),((8,((6,((2,18),(20,(1,10)))),(16,(3,12)))),((15,(4,9)),(5,(11,17))))));
(21,((5,(11,17)),((19,(14,(7,13))),((4,(9,15)),((8,(16,(3,12))),((1,2),(6,(18,(10,20)))))))));
(21,((5,(11,17)),(((13,19),(7,14)),((9,(4,15)),(8,((16,(3,12)),(6,(20,(1,(18,(2,10)))))))))));
(21,(((4,(9,15)),((6,(20,(1,(18,(2,10))))),(8,(16,(3,12))))),((7,(14,(13,19))),(5,(11,17)))));
(21,((19,(14,(7,13))),((5,(11,17)),((4,(9,15)),((6,(20,(18,(2,(1,10))))),(8,(16,(3,12))))))));
(21,((((2,18),(1,10)),((9,(4,15)),((12,(3,16)),(8,(6,20))))),((14,(19,(7,13))),(5,(11,17)))));
(21,(((4,(15,(7,9))),((16,(3,12)),(8,(6,(20,((2,18),(1,10))))))),((14,(13,19)),(5,(11,17)))));
(21,(((15,(4,(7,9))),((6,(20,(1,(10,(2,18))))),(8,(3,(12,16))))),((14,(13,19)),(5,(11,17)))));
(21,(((15,(4,9)),((8,(12,(3,16))),(6,((2,(1,10)),(18,20))))),(((14,19),(7,13)),(5,(11,17)))));
(21,((9,(4,15)),((5,(11,17)),((14,(19,(7,13))),((8,(16,(3,12))),(20,(6,((2,18),(1,10)))))))));
(21,((((6,((2,18),(20,(1,10)))),(16,(8,(3,12)))),(5,(11,17))),((14,(19,(7,13))),(15,(4,9)))));
(21,((5,(11,17)),((14,(7,(13,19))),((9,(4,15)),(8,((16,(3,12)),(6,(20,(18,(10,(1,2)))))))))));
(21,((5,(11,17)),((14,(13,(7,19))),((9,(4,15)),(((1,10),(6,(20,(2,18)))),((12,16),(3,8)))))));
(21,((5,(11,17)),((19,(14,(7,13))),((4,(9,15)),(8,((16,(3,12)),(6,(20,((1,10),(2,18))))))))));
(21,((19,(14,(7,13))),((5,(11,17)),((4,(9,15)),((6,((18,(2,10)),(1,20))),(8,(16,(3,12))))))));
(21,((19,(14,(7,13))),((5,(11,17)),((9,(4,15)),((6,(1,(20,(18,(2,10))))),(8,(16,(3,12))))))));
(21,((5,(11,17)),((14,(19,(7,13))),((4,(9,15)),((6,(20,(1,(18,(2,10))))),(8,(16,(3,12))))))));
(21,((((20,((2,18),(1,10))),(6,((3,12),(8,16)))),(4,(9,15))),((19,(14,(7,13))),(5,(11,17)))));
(21,((14,(13,19)),((5,(11,17)),((4,(15,(7,9))),((10,(20,(1,(2,18)))),(6,(8,(16,(3,12)))))))));
(21,(((4,(9,15)),((16,(3,12)),(8,(6,(20,((2,18),(1,10))))))),((14,(13,(7,19))),(5,(11,17)))));
(21,((14,(19,(7,13))),((5,(11,17)),((4,(9,15)),(((1,10),(6,(20,(2,18)))),(8,(3,(12,16))))))));
(21,(((15,(4,9)),(8,((16,(3,12)),(20,(6,(1,(10,(2,18)))))))),((14,(19,(7,13))),(5,(11,17)))));
(21,(((6,(18,(20,(10,(1,2))))),((3,12),(8,16))),((9,(4,15)),(((7,13),(14,19)),(5,(11,17))))));
(21,((((7,13),(14,19)),(5,(11,17))),((15,(4,9)),((8,(16,(3,12))),(6,(20,(1,(18,(2,10)))))))));
(21,((5,(11,17)),((14,(13,(7,19))),((9,(4,15)),((6,(20,(18,(10,(1,2))))),(8,(16,(3,12))))))));
(21,(((4,(9,15)),((20,(18,(2,(1,10)))),(6,(8,(16,(3,12)))))),((14,(19,(7,13))),(5,(11,17)))));
(21,(((16,(3,12)),(8,(20,(6,(10,(18,(1,2))))))),((5,(11,17)),((7,(14,(13,19))),(4,(9,15))))));
(21,((5,(11,17)),((14,(19,(7,13))),((15,(4,9)),((8,(16,(3,12))),(6,(20,(1,(18,(2,10))))))))));
(21,((((7,9),(4,15)),((8,(12,(3,16))),((2,18),(6,(20,(1,10)))))),((19,(13,14)),(5,(11,17)))));
(21,((5,(11,17)),((14,(7,(13,19))),((9,(4,15)),(((2,18),(6,(20,(1,10)))),(8,(16,(3,12))))))));
(21,(((9,(4,15)),(20,((6,((2,18),(1,10))),(8,(16,(3,12)))))),((19,(14,(7,13))),(5,(11,17)))));
(21,(((9,(4,15)),((3,(12,16)),(8,(6,((1,10),(20,(2,18))))))),((14,(13,(7,19))),(5,(11,17)))));
(21,((5,(11,17)),((14,(19,(7,13))),((15,(4,9)),((16,(3,12)),(8,(6,(20,(2,(18,(1,10)))))))))));
(21,((13,(14,(7,19))),((4,(9,15)),((5,(11,17)),((6,(20,((2,18),(1,10)))),(8,(16,(3,12))))))));
(21,((19,(14,(7,13))),((5,(11,17)),((4,(9,15)),((12,(3,16)),(8,(6,(20,(10,(2,(1,18)))))))))));
(21,((5,(11,17)),((13,(14,19)),((4,(15,(7,9))),((16,(3,12)),(8,(6,((18,(2,10)),(1,20)))))))));
(21,((5,(11,17)),(((7,13),(14,19)),((15,(4,9)),((((2,18),(1,10)),(6,20)),(8,(16,(3,12))))))));
(21,(((4,(9,15)),(5,(11,17))),((14,(19,(7,13))),((6,(20,(1,(18,(2,10))))),(8,(16,(3,12)))))));
(21,((5,(11,17)),(((7,13),(14,19)),((4,(9,15)),(8,((16,(3,12)),(6,(20,((2,18),(1,10))))))))));
(21,((5,(11,17)),(((15,(4,9)),(((1,20),(6,(10,(2,18)))),(8,(16,(3,12))))),(14,(19,(7,13))))));
(21,((5,(11,17)),((14,(19,(7,13))),((4,(9,15)),(16,((8,(3,12)),(6,((1,(2,18)),(10,20)))))))));
(21,((5,(11,17)),((14,(19,(7,13))),((15,(4,9)),((8,(16,(3,12))),(6,((2,18),(20,(1,10)))))))));
(21,((14,(19,(7,13))),((5,(11,17)),((15,(4,9)),((20,(6,(18,(2,(1,10))))),(8,(16,(3,12))))))));
(21,((5,(11,17)),((((1,2),(20,(10,18))),(6,(8,(12,(3,16))))),((4,(9,15)),((7,13),(14,19))))));
(21,((5,(11,17)),((19,(13,14)),((4,(15,(7,9))),((((1,10),(2,18)),(6,20)),(8,(16,(3,12))))))));
(21,((19,(14,(7,13))),((5,(11,17)),((15,(4,9)),((8,(3,12)),(16,(6,(20,(2,(18,(1,10)))))))))));
(21,(((4,(9,15)),((20,(18,(1,10))),((2,6),(8,(16,(3,12)))))),((14,(19,(7,13))),(5,(11,17)))));
(21,((14,(19,(7,13))),((5,(11,17)),((4,(9,15)),(((1,20),(6,(10,(2,18)))),(8,(16,(3,12))))))));
(21,(((6,20),(((2,18),(1,10)),(8,(16,(3,12))))),((9,(4,15)),(((7,13),(14,19)),(5,(11,17))))));
(21,((7,(13,(14,19))),((5,(11,17)),((9,(4,15)),(6,(((1,10),(20,(2,18))),(8,(3,(12,16)))))))));
(21,(((9,(4,15)),((6,(20,((2,18),(1,10)))),(8,(3,(12,16))))),((19,(14,(7,13))),(5,(11,17)))));
(21,((5,(11,17)),(((4,(9,15)),((8,(3,(12,16))),((1,20),(6,(10,(2,18)))))),((7,13),(14,19)))));
(21,((14,(13,19)),(((4,(7,(9,15))),((6,(20,(1,(2,(10,18))))),(8,(16,(3,12))))),(5,(11,17)))));
(21,((5,(11,17)),(((7,13),(14,19)),((4,(9,15)),((6,((2,18),(20,(1,10)))),((3,12),(8,16)))))));
(21,((14,(19,(7,13))),((5,(11,17)),((4,(9,15)),((12,(3,16)),(8,(6,(20,(18,(2,(1,10)))))))))));
(21,((5,(11,17)),((14,(19,(7,13))),((9,(4,15)),((8,(16,(3,12))),((2,18),(6,(1,(10,20)))))))));
(21,((5,(11,17)),((14,(19,(7,13))),((4,(9,15)),(((1,(10,(2,18))),(6,20)),(8,(16,(3,12))))))));
(21,((19,(14,(7,13))),((5,(11,17)),((4,(9,15)),((6,((10,(2,18)),(1,20))),(8,(16,(3,12))))))));
(21,((14,(19,(7,13))),((9,(4,15)),((((6,18),(12,(3,16))),(8,(20,(2,(1,10))))),(5,(11,17))))));
(21,(((15,(4,9)),(((2,20),(6,(18,(1,10)))),(8,(16,(3,12))))),(((7,13),(14,19)),(5,(11,17)))));
(21,((9,(4,15)),((5,(11,17)),((14,(19,(7,13))),((16,(3,12)),(8,(((2,18),(1,10)),(6,20))))))));
(21,((5,(11,17)),((19,(14,(7,13))),((4,(9,15)),((6,((10,(2,18)),(1,20))),(8,(16,(3,12))))))));
(21,(((7,13),(14,19)),((5,(11,17)),((4,(9,15)),((10,(20,(1,(2,18)))),(6,(8,(16,(3,12)))))))));
(21,((5,(11,17)),((14,(19,(7,13))),((4,(9,15)),((8,(16,(3,12))),(6,((1,(2,10)),(18,20))))))));
(21,(((4,(9,15)),((16,(3,12)),(8,(6,(20,(1,(18,(2,10)))))))),((14,(19,(7,13))),(5,(11,17)))));
(21,((19,(14,(7,13))),((5,(11,17)),((4,(9,15)),((6,(20,((2,18),(1,10)))),(8,(12,(3,16))))))));
(21,((14,(19,(7,13))),((5,(11,17)),((9,(4,15)),((6,(20,((2,18),(1,10)))),(8,(16,(3,12))))))));
(21,(((6,(20,((2,18),(1,10)))),((4,(9,15)),(8,(16,(3,12))))),((19,(14,(7,13))),(5,(11,17)))));
(21,(((4,(9,15)),(6,((20,((1,10),(2,18))),(8,(16,(3,12)))))),((19,(14,(7,13))),(5,(11,17)))));
(21,((5,(11,17)),((14,(7,(13,19))),((4,(9,15)),(8,((16,(3,12)),(6,((1,10),(20,(2,18))))))))));
(21,((7,(14,(13,19))),((5,(11,17)),((4,(9,15)),(8,((16,(3,12)),((2,18),(6,(20,(1,10))))))))));
(21,(((4,(9,15)),(14,(19,(7,13)))),((5,(11,17)),((20,(6,((2,18),(1,10)))),(8,(3,(12,16)))))));
(21,(((4,(9,15)),((16,(3,12)),(8,(6,(20,((2,18),(1,10))))))),((19,(14,(7,13))),(5,(11,17)))));
(21,(((4,(15,(7,9))),(((10,(1,20)),(6,(2,18))),(8,(16,(3,12))))),((13,(14,19)),(5,(11,17)))));
(21,((14,(19,(7,13))),((5,(11,17)),((4,(9,15)),((8,(16,(3,12))),(6,(20,(18,(2,(1,10))))))))));
(21,(((4,(9,15)),((6,(20,(1,(18,(2,10))))),(8,(16,(3,12))))),((14,(19,(7,13))),(5,(11,17)))));
(21,(((15,(4,9)),((6,((18,(1,10)),(2,20))),(8,(16,(3,12))))),((14,(19,(7,13))),(5,(11,17)))));
(21,(((15,(4,9)),(6,((20,((2,18),(1,10))),(8,(12,(3,16)))))),((19,(7,(13,14))),(5,(11,17)))));
(21,((5,(11,17)),((14,(13,(7,19))),((9,(4,15)),((6,(18,(20,(1,(2,10))))),(8,(16,(3,12))))))));
(21,(((4,(15,(7,9))),((16,(3,12)),(8,((1,10),((2,18),(6,20)))))),((14,(13,19)),(5,(11,17)))));
(21,((19,(14,(7,13))),((5,(11,17)),((15,(4,9)),((6,(18,(2,(1,10)))),(20,(8,(16,(3,12)))))))));
((((5,(11,17)),((9,(4,15)),((8,(16,(3,12))),(1,(6,(20,(18,(2,10)))))))),(14,(19,(7,13)))),21);
(21,((5,(11,17)),((14,(13,(7,19))),((4,(9,15)),((6,(10,(20,(1,(2,18))))),(8,(16,(3,12))))))));
(21,(((14,(19,(7,13))),((6,((2,10),(20,(1,18)))),(8,(16,(3,12))))),((15,(4,9)),(5,(11,17)))));
(21,(((4,(9,15)),((8,(16,(3,12))),(6,((2,18),(20,(1,10)))))),((14,(19,(7,13))),(5,(11,17)))));
(21,((4,(9,15)),((14,(19,(7,13))),(((3,(12,16)),(8,(6,((18,(2,10)),(1,20))))),(5,(11,17))))));
(21,(((7,13),(14,19)),((5,(11,17)),((15,(4,9)),((6,((2,18),(1,10))),(20,(8,(12,(3,16)))))))));
(21,(((15,(4,9)),((8,(16,(3,12))),(6,(20,((2,18),(1,10)))))),(((7,13),(14,19)),(5,(11,17)))));
(21,(((15,(4,9)),((20,(6,((2,18),(1,10)))),(8,(16,(3,12))))),((14,(19,(7,13))),(5,(11,17)))));
(21,((5,(11,17)),((19,(14,(7,13))),((4,(9,15)),((8,(1,20)),((6,(18,(2,10))),(16,(3,12))))))));
(21,(((7,13),(14,19)),((5,(11,17)),((8,(16,(3,12))),((4,(9,15)),(6,(20,((1,10),(2,18)))))))));
(21,(((4,(9,15)),((8,(16,(3,12))),(6,(18,(20,(1,(2,10))))))),((14,(19,(7,13))),(5,(11,17)))));
(21,((5,(11,17)),(((7,13),(14,19)),((4,(9,15)),((6,((2,18),(20,(1,10)))),(8,(16,(3,12))))))));
(21,(((9,(4,15)),(((18,20),(6,(10,(1,2)))),(8,(3,(12,16))))),((14,(19,(7,13))),(5,(11,17)))));
(21,((14,(19,(7,13))),((5,(11,17)),((15,(4,9)),((8,(3,(12,16))),(6,(20,((2,18),(1,10)))))))));
(21,(((15,(4,9)),((8,(16,(3,12))),(6,(20,((1,10),(2,18)))))),(((7,13),(14,19)),(5,(11,17)))));
(21,((14,(13,19)),((5,(11,17)),((4,(15,(7,9))),((6,((1,10),(20,(2,18)))),((12,16),(3,8)))))));
(21,((13,(14,19)),((5,(11,17)),((15,(4,(7,9))),((6,((10,(2,18)),(1,20))),(8,(16,(3,12))))))));
(21,((5,(11,17)),((19,(14,(7,13))),((9,(4,15)),(8,((12,(3,16)),((20,(18,(1,10))),(2,6))))))));
(21,((5,(11,17)),((14,(19,(7,13))),((4,(9,15)),((3,(8,(12,16))),(6,(20,(1,(10,(2,18))))))))));
(21,(((4,(9,15)),(6,((16,(3,12)),(8,((1,10),(20,(2,18))))))),(((7,13),(14,19)),(5,(11,17)))));
(21,((5,(11,17)),((7,(14,(13,19))),((4,(9,15)),((6,(2,(20,(18,(1,10))))),(8,(16,(3,12))))))));
(21,((14,(19,(7,13))),((5,(11,17)),((9,(4,15)),(((2,18),(6,(10,(1,20)))),(8,(16,(3,12))))))));
(21,((5,(11,17)),(((13,19),(7,14)),((4,(9,15)),((8,(16,(3,12))),(6,(1,(20,(18,(2,10))))))))));
(21,((19,(14,(7,13))),((5,(11,17)),((4,(9,15)),((6,(20,(2,(10,(1,18))))),(8,(16,(3,12))))))));
(21,((5,(11,17)),(((7,13),(14,19)),((9,(4,15)),((6,(20,((1,10),(2,18)))),(8,(16,(3,12))))))));
(21,(((15,(4,9)),((20,(6,((1,10),(2,18)))),(8,(12,(3,16))))),(((7,13),(14,19)),(5,(11,17)))));
(21,(((4,(15,(7,9))),((8,12),((6,((1,10),(2,18))),(20,(3,16))))),((14,(13,19)),(5,(11,17)))));
(21,(((4,(9,15)),(((1,(10,(2,18))),(6,20)),(8,(12,(3,16))))),((13,(14,(7,19))),(5,(11,17)))));
(21,(((15,(4,(7,9))),((6,(20,((2,18),(1,10)))),(8,(16,(3,12))))),((19,(13,14)),(5,(11,17)))));
(21,((14,(19,(7,13))),((5,(11,17)),((4,(9,15)),((6,(20,((2,18),(1,10)))),(8,(16,(3,12))))))));
(21,(((4,(9,15)),((8,(16,(3,12))),(6,(20,(1,(18,(2,10))))))),((19,(14,(7,13))),(5,(11,17)))));
(21,((5,(11,17)),((13,(14,19)),((15,(4,(7,9))),((8,(16,(3,12))),(6,(20,(2,(18,(1,10))))))))));
(21,(((14,(13,19)),(5,(11,17))),((6,(20,((2,18),(1,10)))),(((7,9),(4,15)),(8,(12,(3,16)))))));
(21,((5,(11,17)),((14,(19,(7,13))),((15,(4,9)),((6,(1,(20,(10,(2,18))))),(8,(16,(3,12))))))));
(21,(((15,(4,(7,9))),(19,(13,14))),((5,(11,17)),(8,((16,(3,12)),(((2,10),(1,18)),(6,20)))))));
(21,((((7,15),(4,9)),((3,16),((6,(20,((2,18),(1,10)))),(8,12)))),((19,(13,14)),(5,(11,17)))));
(21,(((9,(4,15)),((6,(20,((1,10),(2,18)))),(16,(8,(3,12))))),((7,(14,(13,19))),(5,(11,17)))));
(21,((5,(11,17)),(((7,19),(13,14)),((4,(9,15)),((16,(3,12)),(8,(6,(20,((2,18),(1,10))))))))));
(21,((5,(11,17)),(((7,13),(14,19)),((4,(9,15)),((6,(20,(1,(18,(2,10))))),(8,(16,(3,12))))))));
(21,((5,(11,17)),((14,(19,(7,13))),((9,(4,15)),((8,(16,(3,12))),((1,10),(6,(20,(2,18)))))))));
(21,(((4,(9,15)),((6,(20,((1,10),(2,18)))),(8,(16,(3,12))))),(((7,13),(14,19)),(5,(11,17)))));
(21,((14,(13,19)),((5,(11,17)),((15,(4,(7,9))),(((2,18),(1,10)),((6,20),(8,(16,(3,12)))))))));
(21,((5,(11,17)),((14,(19,(7,13))),((15,(4,9)),((8,(16,(3,12))),(6,(1,(20,(18,(2,10))))))))));
(21,(((4,(15,(7,9))),((6,((2,(1,10)),(18,20))),(8,(16,(3,12))))),((14,(13,19)),(5,(11,17)))));
(21,(((9,(4,15)),((8,(3,12)),(16,(6,((2,18),(20,(1,10))))))),(((7,13),(14,19)),(5,(11,17)))));
(21,(((7,13),(14,19)),((5,(11,17)),((9,(4,15)),((8,(12,16)),(3,(6,(1,(20,(10,(2,18)))))))))));
(21,((19,(13,14)),((5,(11,17)),((4,(7,(9,15))),(12,((8,(3,16)),(6,(20,((2,18),(1,10))))))))));
(21,((5,(11,17)),((19,(14,(7,13))),((15,(4,9)),(((1,10),(6,(20,(2,18)))),(8,(12,(3,16))))))));
(21,(((4,(9,15)),((((2,18),(1,10)),(6,20)),(8,(16,(3,12))))),(((7,13),(14,19)),(5,(11,17)))));
(21,(((9,(4,15)),((20,(6,(1,(18,(2,10))))),(8,(16,(3,12))))),(((7,13),(14,19)),(5,(11,17)))));
(21,((5,(11,17)),((19,(14,(7,13))),((15,(4,9)),((8,(16,(3,12))),((20,(1,18)),(6,(2,10))))))));
(21,(((15,(4,(7,9))),(6,(((2,18),(20,(1,10))),(8,(16,(3,12)))))),((14,(13,19)),(5,(11,17)))));
(21,((14,(19,(7,13))),((5,(11,17)),(((20,(18,(2,(1,10)))),(3,(12,16))),((4,(9,15)),(6,8))))));
(21,((5,(11,17)),((20,(10,(1,(2,18)))),(((7,13),(14,19)),((9,(4,15)),(6,(8,(3,(12,16)))))))));
(21,(((7,19),(13,14)),((5,(11,17)),((9,(4,15)),((8,(16,(3,12))),(6,(20,(1,(10,(2,18))))))))));
(21,(((4,(9,15)),((8,(3,(12,16))),(6,((1,10),(20,(2,18)))))),((13,(14,(7,19))),(5,(11,17)))));
(21,((14,(19,(7,13))),((5,(11,17)),((15,(4,9)),((8,(16,(3,12))),(6,(20,(1,(10,(2,18))))))))));
(21,((19,(14,(7,13))),((5,(11,17)),((15,(4,9)),((6,(20,(1,(18,(2,10))))),(8,(3,(12,16))))))));
(21,((5,(11,17)),(((6,(20,(1,(10,(2,18))))),(8,(12,(3,16)))),((4,(9,15)),(14,(19,(7,13)))))));
(21,((5,(11,17)),(((6,((2,18),(20,(1,10)))),(8,(16,(3,12)))),((14,(19,(7,13))),(4,(9,15))))));
(21,((5,(11,17)),((7,(14,(13,19))),((4,(9,15)),((8,(16,(3,12))),(6,(20,(10,(1,(2,18))))))))));
(21,((14,(7,(13,19))),((5,(11,17)),((9,(4,15)),((6,((2,10),(20,(1,18)))),(8,(3,(12,16))))))));
(21,((14,(19,(7,13))),((5,(11,17)),((15,(4,9)),((6,((2,18),(20,(1,10)))),(8,(12,(3,16))))))));
(21,(((7,13),(14,19)),((5,(11,17)),((9,(4,15)),((6,(20,((2,18),(1,10)))),(8,(16,(3,12))))))));
(21,((5,(11,17)),((14,(19,(7,13))),((9,(4,15)),((8,(16,(3,12))),((20,(2,18)),(6,(1,10))))))));
(21,((14,(13,19)),((5,(11,17)),((4,(9,(7,15))),(((18,(1,10)),(20,(2,6))),(8,(16,(3,12))))))));
(21,(((9,(4,15)),(((20,(1,10)),(6,(2,18))),(8,(3,(12,16))))),(((7,13),(14,19)),(5,(11,17)))));
(21,(((4,(15,(7,9))),(8,((16,(3,12)),(6,(20,(2,(1,(10,18)))))))),((14,(13,19)),(5,(11,17)))));
(21,((19,(14,(7,13))),((5,(11,17)),((15,(4,9)),((6,(20,((2,18),(1,10)))),(8,(16,(3,12))))))));
(21,(((8,(12,(3,16))),(6,(20,(1,(10,(2,18)))))),((4,(9,15)),((19,(14,(7,13))),(5,(11,17))))));
(21,((14,(19,(7,13))),((5,(11,17)),((4,(9,15)),((6,(20,(10,(1,(2,18))))),(8,(16,(3,12))))))));
(21,(((15,(4,9)),((8,(12,(3,16))),(1,(6,((2,18),(10,20)))))),((14,(13,(7,19))),(5,(11,17)))));
(21,((19,(14,(7,13))),((5,(11,17)),((4,(9,15)),((6,((1,(2,18)),(10,20))),((12,16),(3,8)))))));
(21,((5,(11,17)),((19,(14,(7,13))),((4,(9,15)),((6,(20,(1,(18,(2,10))))),(8,(16,(3,12))))))));
(21,(((15,(4,9)),((8,(16,(3,12))),(6,((10,(2,18)),(1,20))))),(((7,13),(14,19)),(5,(11,17)))));
(21,((19,(14,(7,13))),((5,(11,17)),((4,(9,15)),((6,(20,(1,(10,(2,18))))),(8,(16,(3,12))))))));
(21,(((15,(4,9)),((8,(16,(3,12))),(6,(20,((2,10),(1,18)))))),((14,(19,(7,13))),(5,(11,17)))));
(21,((5,(11,17)),(((7,13),(14,19)),((9,(4,15)),((8,(16,(3,12))),(6,(20,((2,18),(1,10)))))))));
(21,(((4,(15,(7,9))),((3,(12,16)),(8,(6,(10,(20,(1,(2,18)))))))),((19,(13,14)),(5,(11,17)))));
(21,(((4,(15,(7,9))),((6,(18,(20,(2,(1,10))))),(8,(16,(3,12))))),((13,(14,19)),(5,(11,17)))));
(21,((5,(11,17)),((13,(14,19)),((15,(7,(4,9))),((6,(20,(10,(1,(2,18))))),(8,(16,(3,12))))))));
(21,((14,(13,19)),((5,(11,17)),((7,(4,(9,15))),((8,(12,(3,16))),(6,(20,((1,10),(2,18)))))))));
(21,((5,(11,17)),((14,(13,(7,19))),((9,(4,15)),(8,((16,(3,12)),(6,(20,(1,(18,(2,10)))))))))));
(21,(((15,(4,9)),(8,(16,(3,12)))),((14,(19,(7,13))),((6,(20,((2,18),(1,10)))),(5,(11,17))))));
(21,(((7,13),(14,19)),((5,(11,17)),((4,(9,15)),(((18,(1,10)),(6,(2,20))),(3,(8,(12,16))))))));
(21,((5,(11,17)),(((7,13),(14,19)),((9,(4,15)),((6,(20,((2,18),(1,10)))),(8,(16,(3,12))))))));
(21,((5,(11,17)),((19,(14,(7,13))),((4,(9,15)),((6,(20,((2,18),(1,10)))),(8,(12,(3,16))))))));
(21,((5,(11,17)),((14,(19,(7,13))),((4,(9,15)),((6,(20,((1,10),(2,18)))),(8,(16,(3,12))))))));
(21,((5,(11,17)),(((7,13),(14,19)),((4,(9,15)),((8,(16,(3,12))),(6,(20,((2,18),(1,10)))))))));
(21,(((15,(4,9)),((6,(20,(1,10))),((2,18),(8,(3,(12,16)))))),(((14,19),(7,13)),(5,(11,17)))));
(21,((5,(11,17)),(((6,(20,((2,18),(1,10)))),(8,(3,(12,16)))),((19,(14,(7,13))),(4,(9,15))))));
(21,((5,(11,17)),((13,(14,(7,19))),((4,(9,15)),((8,(16,(3,12))),(6,(20,(1,(18,(2,10))))))))));
(21,(((7,13),(14,19)),((5,(11,17)),((4,(9,15)),((8,(16,(3,12))),((18,(2,(1,10))),(6,20)))))));
(21,((14,(19,(7,13))),((5,(11,17)),((4,(9,15)),((20,(6,((1,10),(2,18)))),(8,(16,(3,12))))))));
(21,(((4,(9,15)),((6,((1,10),(20,(2,18)))),(8,(16,(3,12))))),((19,(14,(7,13))),(5,(11,17)))));
(21,((14,(19,(7,13))),((5,(11,17)),((4,(9,15)),((8,(16,(3,12))),(6,(20,((2,18),(1,10)))))))));
(21,((11,17),((14,(19,(7,13))),(5,((4,(9,15)),(8,((3,(12,16)),(6,(1,(20,(10,(2,18))))))))))));
(21,((19,(14,(7,13))),((5,(11,17)),((15,(4,9)),((20,(6,(10,(1,(2,18))))),(8,(16,(3,12))))))));
(21,((17,(5,11)),((14,(19,(7,13))),((4,(9,15)),((6,(20,((2,18),(1,10)))),(8,(16,(3,12))))))));
(21,((5,(11,17)),((7,(13,(14,19))),((4,(9,15)),(8,((12,(3,16)),(20,(6,((2,18),(1,10))))))))));
(21,(((14,19),(7,13)),((5,(11,17)),((4,(9,15)),((6,((2,(10,18)),(1,20))),(8,(16,(3,12))))))));
(21,(((9,(4,15)),((6,(20,((1,10),(2,18)))),(8,(16,(3,12))))),((14,(19,(7,13))),(5,(11,17)))));
(21,((14,(19,(7,13))),((5,(11,17)),((8,(16,(3,12))),((4,(9,15)),(6,((1,10),(20,(2,18)))))))));
(21,(((9,(4,15)),((20,(6,(1,(10,(2,18))))),(8,(16,(3,12))))),(((7,13),(14,19)),(5,(11,17)))));
(21,(((13,(14,(7,19))),(5,(11,17))),((9,(4,15)),((6,(20,((2,18),(1,10)))),(8,(16,(3,12)))))));
(21,(((7,(13,(14,19))),((6,((2,18),(20,(1,10)))),(8,(3,(12,16))))),((15,(4,9)),(5,(11,17)))));
(21,((5,(11,17)),((19,(14,(7,13))),((9,(4,15)),((20,((2,18),(1,10))),(6,(8,(12,(3,16)))))))));
(21,((14,(19,(7,13))),((5,(11,17)),((15,(4,9)),((6,(20,((2,18),(1,10)))),(8,(12,(3,16))))))));
(21,(((9,(4,15)),((6,(20,(10,(2,(1,18))))),(8,(16,(3,12))))),((19,(14,(7,13))),(5,(11,17)))));
(21,((19,(14,(7,13))),((5,(11,17)),((9,(4,15)),(6,((20,(1,(10,(2,18)))),(8,(3,(12,16)))))))));
(21,(((13,(14,19)),(((2,18),(6,(20,(1,10)))),(8,(3,(12,16))))),((15,(4,(7,9))),(5,(11,17)))));
(21,((5,(11,17)),((7,(14,(13,19))),((15,(4,9)),((6,(10,(20,(1,(2,18))))),(8,(12,(3,16))))))));
(21,((14,(19,(7,13))),((5,(11,17)),((15,(4,9)),((8,(3,(12,16))),(6,(20,((2,18),(1,10)))))))));
(21,((14,(19,(7,13))),((5,(11,17)),((4,(9,15)),((8,(16,(3,12))),(10,(6,(20,(2,(1,18))))))))));
(21,(((6,((2,18),(20,(1,10)))),(8,(3,(12,16)))),((5,(11,17)),(((13,19),(7,14)),(4,(9,15))))));
(21,(((7,19),(13,14)),((5,(11,17)),((9,(4,15)),((8,(16,(3,12))),(((1,10),(2,18)),(6,20)))))));
(21,((((7,9),(4,15)),(8,((16,(3,12)),(6,(20,((2,18),(1,10))))))),((19,(13,14)),(5,(11,17)))));
(21,((14,(19,(7,13))),((5,(11,17)),((4,(9,15)),(8,((3,(12,16)),(6,(20,((2,18),(1,10))))))))));
(21,((14,(19,(7,13))),((5,(11,17)),((9,(4,15)),((8,(16,(3,12))),(6,(2,(20,(18,(1,10))))))))));
(21,(((4,(9,15)),((6,(20,(10,(1,(2,18))))),((3,16),(8,12)))),((14,(19,(7,13))),(5,(11,17)))));
(21,((14,(19,(7,13))),((5,(11,17)),((9,(4,15)),((12,(3,16)),(8,(6,(18,(20,(1,(2,10)))))))))));
(21,((((4,7),(9,15)),(14,(13,19))),((((1,(2,18)),(6,(10,20))),(8,(12,(3,16)))),(5,(11,17)))));
(21,((14,(19,(7,13))),((5,(11,17)),((9,(4,15)),((6,(1,(20,(18,(2,10))))),(8,(3,(12,16))))))));
(21,((5,(11,17)),(((7,13),(14,19)),((15,(4,9)),((6,20),(((1,2),(10,18)),((12,16),(3,8))))))));
(21,(((8,(16,(3,12))),(6,(20,((1,10),(2,18))))),((5,(11,17)),((15,(4,9)),(19,(14,(7,13)))))));
(21,((5,(11,17)),((14,(13,19)),((4,(15,(7,9))),((6,((2,18),(20,(1,10)))),(16,(8,(3,12))))))));
(21,(((16,(3,12)),(8,(6,((2,18),(20,(1,10)))))),((19,(14,(7,13))),((9,(4,15)),(5,(11,17))))));
(21,((((7,9),(4,15)),((8,(3,(12,16))),(6,(20,((1,10),(2,18)))))),((14,(13,19)),(5,(11,17)))));
(21,(((4,(9,15)),(((1,(10,(2,18))),(6,20)),(8,(16,(3,12))))),((14,(19,(7,13))),(5,(11,17)))));
(21,((14,(13,19)),(((8,(16,(3,12))),(6,(20,(10,(1,(2,18)))))),((15,(4,(7,9))),(5,(11,17))))));
(21,((5,(11,17)),((14,(7,(13,19))),((4,(9,15)),((6,((10,18),(20,(1,2)))),(8,(12,(3,16))))))));
(21,((15,(4,9)),((14,(19,(7,13))),(((8,(12,(3,16))),(6,(20,((2,18),(1,10))))),(5,(11,17))))));
(21,((5,(11,17)),((14,(7,(13,19))),((9,(4,15)),((8,(12,(3,16))),((20,(2,(1,10))),(6,18)))))));
(21,((15,(4,(7,9))),((14,(13,19)),(((8,(16,(3,12))),((20,(1,10)),(6,(2,18)))),(5,(11,17))))));
(21,((5,(11,17)),(((7,13),(14,19)),((9,(4,15)),((8,(16,(3,12))),((20,(2,18)),(6,(1,10))))))));
(21,(((15,(4,9)),((6,(20,((2,18),(1,10)))),(8,(12,(3,16))))),((14,(19,(7,13))),(5,(11,17)))));
(21,((19,(14,(7,13))),((5,(11,17)),((8,(20,(6,(1,(18,(2,10)))))),((16,(3,12)),(9,(4,15)))))));
(21,((14,(19,(7,13))),((5,(11,17)),((15,(4,9)),((8,(3,(12,16))),(6,(20,(10,(1,(2,18))))))))));
(21,((14,(13,(7,19))),((5,(11,17)),((4,(9,15)),((6,(20,((10,18),(1,2)))),(8,(3,(12,16))))))));
(21,(((5,(11,17)),((6,(20,(1,(10,(2,18))))),(8,(12,(3,16))))),((14,(19,(7,13))),(15,(4,9)))));
(21,(((4,(9,15)),((6,(20,((1,10),(2,18)))),(8,(16,(3,12))))),((14,(19,(7,13))),(5,(11,17)))));
(21,(((8,(12,(3,16))),(20,(6,((2,18),(1,10))))),(((7,13),(14,19)),((4,(9,15)),(5,(11,17))))));
(21,(((7,13),(14,19)),((5,(11,17)),((4,(9,15)),(((2,(1,(10,18))),(6,20)),(8,(12,(3,16))))))));
(21,((5,(11,17)),((14,(7,(13,19))),((4,(9,15)),((6,((2,18),(20,(1,10)))),(8,(12,(3,16))))))));
(21,((5,(11,17)),((9,(4,15)),((14,(19,(7,13))),((8,(16,(3,12))),(6,((10,(2,18)),(1,20))))))));
(21,(((6,((18,(1,10)),(2,20))),(8,(16,(3,12)))),((4,(9,15)),((13,(14,(7,19))),(5,(11,17))))));
(21,((5,(11,17)),((14,(19,(7,13))),((9,(4,15)),((6,((2,18),(20,(1,10)))),(8,(16,(3,12))))))));
(21,(((4,(9,15)),(6,((20,(1,(2,(10,18)))),(8,(16,(3,12)))))),((14,(19,(7,13))),(5,(11,17)))));
(21,((14,(19,(7,13))),((5,(11,17)),((4,(9,15)),((6,((1,10),(20,(2,18)))),(8,(16,(3,12))))))));
(21,(((14,19),(7,13)),((5,(11,17)),((4,(9,15)),(8,((12,(3,16)),(6,(18,(20,(1,(2,10)))))))))));
(21,((5,(11,17)),((7,(14,(13,19))),((4,(9,15)),((6,(20,(10,(1,(2,18))))),(8,(16,(3,12))))))));
(21,(((9,(4,15)),((3,(12,16)),(8,(1,(6,(20,(10,(2,18)))))))),((13,(14,(7,19))),(5,(11,17)))));
(21,(((4,(9,15)),((6,(20,(10,(2,(1,18))))),(8,(16,(3,12))))),((7,(14,(13,19))),(5,(11,17)))));
