(21,(((1,(5,15)),((9,(3,17)),((2,7),((19,(8,18)),((14,(4,10)),(11,12)))))),((13,16),(6,20))));
(21,(((1,(5,15)),((9,(3,17)),(2,((18,19),(7,((11,12),(4,(14,(8,10))))))))),((13,16),(6,20))));
(21,(((9,(3,17)),((19,(8,18)),((2,7),((14,(4,10)),(11,12))))),((1,(5,15)),((13,16),(6,20)))));
(21,(((1,(5,15)),(((19,(8,18)),((2,7),((11,12),(4,(10,14))))),(9,(3,17)))),((13,16),(6,20))));
(21,(((13,16),(1,(5,15))),((6,20),((2,7),((9,(3,17)),(((10,14),(4,(11,12))),(19,(8,18))))))));
(21,((6,20),(((13,16),(19,(8,18))),((1,(5,15)),((9,(3,17)),((2,7),(12,(11,(14,(4,10))))))))));
(21,(((9,(3,17)),((18,19),((2,(7,11)),(12,((4,14),(8,10)))))),((1,(5,15)),((13,16),(6,20)))));
(21,(((13,16),(6,20)),((5,(1,15)),((9,(3,17)),((19,(8,18)),((2,7),((14,(4,10)),(11,12))))))));
(21,((1,(5,15)),(((9,(3,17)),((19,(8,18)),((2,7),((10,(4,14)),(11,12))))),((13,16),(6,20)))));
(21,((1,(5,15)),((13,16),((6,20),((9,(3,17)),((18,19),((2,7),(((4,8),(10,14)),(11,12)))))))));
(21,((9,(2,7)),(((1,(5,15)),((3,17),((19,(8,18)),((11,12),(14,(4,10)))))),((13,16),(6,20)))));
(21,((6,20),((1,(5,15)),((13,16),(9,((3,17),((19,(8,18)),((2,7),((11,12),(14,(4,10)))))))))));
(21,(((1,(5,15)),(((11,12),(10,(4,14))),((9,(3,17)),(19,((8,18),(2,7)))))),((13,16),(6,20))));
(21,(((13,16),(6,20)),((1,(5,15)),((19,(8,18)),(((2,7),((11,12),(14,(4,10)))),(9,(3,17)))))));
(21,((((11,12),(14,(4,10))),((9,(3,17)),((2,7),(19,(8,18))))),((1,(5,15)),((13,16),(6,20)))));
(21,(((1,(5,15)),(((3,17),(19,(8,18))),(9,((2,7),((11,12),(14,(4,10))))))),((13,16),(6,20))));
(21,(((5,(1,15)),((9,(3,17)),((18,19),((2,7),((14,(10,(4,8))),(11,12)))))),((13,16),(6,20))));
(21,((9,((3,17),(((11,12),(14,(4,10))),((2,7),(19,(8,18)))))),((1,(5,15)),((6,20),(13,16)))));
(21,(((9,(3,17)),((19,(8,18)),((2,7),((11,12),(4,(10,14)))))),((1,(5,15)),((6,20),(13,16)))));
(21,((1,(5,15)),((6,20),((13,16),((19,(8,18)),(((2,7),((14,(4,10)),(11,12))),(9,(3,17))))))));
(21,((6,20),((13,16),((1,(5,15)),((19,(8,18)),((9,(3,17)),((2,7),((14,(4,10)),(11,12)))))))));
(21,(((1,(5,15)),((3,17),(9,(((11,12),(14,(10,(4,8)))),((2,7),(18,19)))))),((13,16),(6,20))));
(21,((6,20),((13,16),((1,(5,15)),(((2,(7,11)),(18,19)),((12,(4,(14,(8,10)))),(9,(3,17))))))));
(21,((13,16),((6,20),((1,(5,15)),((9,(3,17)),((19,(8,18)),((2,7),((14,(4,10)),(11,12)))))))));
(21,((13,16),((6,20),((1,(5,15)),((9,(3,17)),((2,7),((19,(8,18)),((11,12),(14,(4,10))))))))));
(21,(((1,(5,15)),((19,(8,18)),(((11,12),((4,(10,14)),(2,7))),(9,(3,17))))),((6,20),(13,16))));
(21,(((1,(5,15)),(((2,7),((11,12),(14,(4,10)))),(9,((3,17),(19,(8,18)))))),((6,20),(13,16))));
(21,(((13,16),(6,20)),((1,(5,15)),(9,((3,17),((18,(8,19)),((2,7),((4,(10,14)),(11,12)))))))));
(21,((6,20),((13,16),((1,(5,15)),((9,(3,17)),((2,7),((18,19),((4,14),((8,10),(11,12))))))))));
(21,((13,16),((6,20),((1,(5,15)),((2,7),((3,17),(9,((19,(8,18)),((11,12),(4,(10,14)))))))))));
(21,(((1,(5,15)),(6,20)),((13,16),(((19,(8,18)),(2,7)),(((11,12),(14,(4,10))),(9,(3,17)))))));
((((1,(5,15)),(((19,(8,18)),((14,(4,10)),((11,12),(2,7)))),(9,(3,17)))),((13,16),(6,20))),21);
(21,(((1,(5,15)),((9,(3,17)),((19,(8,18)),((2,7),((14,(4,10)),(11,12)))))),((13,16),(6,20))));
(21,((6,20),((13,16),((9,(3,17)),((1,(5,15)),((18,(8,19)),((2,7),((4,(10,14)),(11,12)))))))));
(21,((1,(5,15)),((13,16),((6,20),(((2,7),((11,12),(14,(4,10)))),((19,(8,18)),(9,(3,17))))))));
(21,(((1,(5,15)),((3,17),(9,((19,(8,18)),((2,7),((11,12),(4,(10,14)))))))),((6,20),(13,16))));
(21,(((1,(5,15)),((((11,12),((8,10),(4,14))),(9,(3,17))),((2,7),(18,19)))),((13,16),(6,20))));
(21,(((1,(5,15)),(((11,12),((2,7),(14,(4,10)))),((18,(8,19)),(3,(9,17))))),((13,16),(6,20))));
(21,(((1,(5,15)),((14,(4,10)),((9,(3,17)),((19,(8,18)),(12,(2,(7,11))))))),((13,16),(6,20))));
(21,((6,20),((13,16),((1,(5,15)),(((14,(4,10)),(2,7)),((9,(3,17)),((11,12),(18,(8,19)))))))));
(21,((1,(5,15)),(((3,17),(((19,(8,18)),((11,12),(14,(4,10)))),(9,(2,7)))),((13,16),(6,20)))));
(21,((5,(1,15)),(((19,(8,18)),(((11,12),(2,7)),((4,(10,14)),(9,(3,17))))),((13,16),(6,20)))));
(21,(((13,16),((9,(3,17)),((19,(8,18)),((11,12),((10,(4,14)),(2,7)))))),((6,20),(1,(5,15)))));
(21,(((13,16),(1,(5,15))),((6,20),((9,(3,17)),((19,(8,18)),((2,7),((11,12),(14,(4,10)))))))));
(21,(((13,16),(6,20)),((1,(5,15)),(9,((14,(10,(4,8))),((3,17),((18,19),(12,(2,(7,11))))))))));
(21,(((1,(5,15)),(((2,7),((14,(4,10)),(11,12))),((19,(8,18)),(9,(3,17))))),((6,20),(13,16))));
(21,(((9,(3,17)),((19,(8,18)),((14,(4,10)),((11,12),(2,7))))),((1,(5,15)),((13,16),(6,20)))));
(21,(((13,16),(6,20)),((1,(5,15)),(9,((3,17),((19,(8,18)),((2,7),((11,12),(14,(4,10))))))))));
(21,((((2,7),((11,12),(14,(4,10)))),((19,(8,18)),(9,(3,17)))),((1,(5,15)),((6,20),(13,16)))));
(21,((1,(5,15)),(((3,17),(9,((19,(8,18)),((2,7),((14,(4,10)),(11,12)))))),((13,16),(6,20)))));
(21,(((1,(5,15)),(((18,19),((11,12),((14,(8,(4,10))),(2,7)))),(9,(3,17)))),((13,16),(6,20))));
(21,((19,(8,18)),((13,16),((6,20),((1,(5,15)),(((2,7),((11,12),(14,(4,10)))),(9,(3,17))))))));
(21,(((9,(3,17)),((8,18),(19,((10,(4,14)),((11,12),(2,7)))))),((1,(5,15)),((13,16),(6,20)))));
(21,(((6,20),(13,16)),((19,(8,18)),((1,(5,15)),(((2,7),((11,12),(14,(4,10)))),(9,(3,17)))))));
(21,(((9,(3,17)),((19,(8,18)),((2,(7,11)),(12,(4,(10,14)))))),((1,(5,15)),((13,16),(6,20)))));
(21,((1,(5,15)),((((18,(8,19)),((2,7),((4,(10,14)),(11,12)))),(9,(3,17))),((13,16),(6,20)))));
(21,(((1,(5,15)),((9,(3,17)),((2,(7,11)),((19,(8,18)),(12,(14,(4,10))))))),((6,20),(13,16))));
(21,(((13,16),(6,20)),((1,(5,15)),((9,(3,17)),((19,(8,18)),((2,7),((11,12),(14,(4,10)))))))));
(21,((1,(5,15)),((((18,19),((11,12),(14,(10,(4,8))))),((2,7),(9,(3,17)))),((6,20),(13,16)))));
(21,(((13,16),(6,20)),((1,(5,15)),((9,(3,17)),((19,(8,18)),((2,7),((11,12),(14,(4,10)))))))));
(21,((1,(5,15)),(((19,(8,18)),((9,(3,17)),(((11,12),(14,(4,10))),(2,7)))),((13,16),(6,20)))));
(21,((1,(5,15)),(((3,17),(9,(((11,12),(14,(4,10))),(19,((8,18),(2,7)))))),((13,16),(6,20)))));
(21,((13,16),((6,20),((1,(5,15)),(((2,7),((11,12),(14,(4,10)))),((19,(8,18)),(9,(3,17))))))));
(21,(((6,20),(13,16)),((1,(5,15)),(((2,7),((11,12),(14,(4,(8,10))))),((18,19),(9,(3,17)))))));
(21,((13,16),((6,20),((1,(5,15)),((19,(8,18)),(((2,7),((14,(4,10)),(11,12))),(9,(3,17))))))));
(21,(((1,(5,15)),(((11,12),(19,(8,18))),(((14,(4,10)),(2,7)),(9,(3,17))))),((6,20),(13,16))));
(21,((6,20),((13,16),((1,(5,15)),((19,(8,18)),(((2,(7,11)),(12,(14,(4,10)))),(9,(3,17))))))));
(21,(((6,20),((9,(3,17)),((19,(8,18)),((14,(4,10)),((2,7),(11,12)))))),((1,(5,15)),(13,16))));
(21,(((6,20),(13,16)),((5,(1,15)),((14,(4,10)),((9,(3,17)),((19,(8,18)),((11,12),(2,7))))))));
(21,((13,16),((1,(5,15)),((6,20),((9,(3,17)),((18,19),((14,(10,(4,8))),((11,12),(2,7)))))))));
(21,(((13,16),(6,20)),((1,(5,15)),((9,(3,17)),((18,19),((11,12),((2,7),(14,(10,(4,8))))))))));
(21,((1,(5,15)),(((9,(3,17)),(((11,12),(14,(4,10))),((2,7),(8,(18,19))))),((6,20),(13,16)))));
(21,(((6,20),(13,16)),((1,(5,15)),((9,(3,17)),((19,(8,18)),((2,7),((11,12),(4,(10,14)))))))));
(21,((6,20),(((9,(3,17)),(((11,12),(14,(4,10))),((2,7),(19,(8,18))))),((13,16),(1,(5,15))))));
(21,(((9,(3,17)),((18,19),((2,7),((11,12),(14,(10,(4,8))))))),((1,(5,15)),((13,16),(6,20)))));
(21,((13,16),((6,20),((1,(5,15)),(((2,7),((14,(4,10)),(11,12))),((3,17),(9,(19,(8,18)))))))));
(21,(((13,16),(6,20)),((1,(5,15)),((18,19),(((2,7),((11,12),(14,(4,(8,10))))),(9,(3,17)))))));
(21,((13,16),((6,20),((1,(5,15)),(9,((3,17),((18,19),((2,(7,11)),(12,(14,(10,(4,8))))))))))));
(21,(((15,(1,5)),((12,(14,(4,(8,10)))),((9,(3,17)),((2,(7,11)),(18,19))))),((6,20),(13,16))));
(21,(((9,(3,17)),((19,(8,18)),((2,7),((14,(4,10)),(11,12))))),((1,(5,15)),((6,20),(13,16)))));
(21,(((13,16),((12,(14,(4,10))),((9,(3,17)),(19,((8,18),(2,(7,11))))))),((6,20),(1,(5,15)))));
(21,(((6,20),(13,16)),((1,(5,15)),(((2,7),((11,12),(14,(4,10)))),((19,(8,18)),(9,(3,17)))))));
(21,((((18,19),((11,12),(14,(10,(4,8))))),((2,7),(9,(3,17)))),((6,20),((13,16),(1,(5,15))))));
(21,((13,16),((6,20),((1,(5,15)),(((11,12),(18,19)),((9,(3,17)),((2,7),(14,(8,(4,10))))))))));
(21,(((9,(3,17)),((18,19),(12,((2,7),(14,(11,(4,(8,10)))))))),((1,(5,15)),((13,16),(6,20)))));
(21,((13,16),(((19,(8,18)),(7,((11,12),(2,(4,(10,14)))))),((6,20),((1,(5,15)),(9,(3,17)))))));
(21,(((6,20),(((19,(8,18)),((2,(7,11)),(14,(4,10)))),(12,(9,(3,17))))),((13,16),(1,(5,15)))));
(21,(((5,(1,15)),(((2,7),((11,12),(14,(4,10)))),((19,(8,18)),(9,(3,17))))),((13,16),(6,20))));
(21,((13,16),((6,20),((15,(1,5)),((9,(3,17)),((12,(14,(4,10))),((2,(7,11)),(19,(8,18)))))))));
(21,(((1,(5,15)),((9,(3,17)),((19,(8,18)),((2,7),((10,(4,14)),(11,12)))))),((6,20),(13,16))));
(21,(((1,(5,15)),((9,(3,17)),((14,(4,10)),((19,(8,18)),((11,12),(2,7)))))),((6,20),(13,16))));
(21,(((5,(1,15)),((19,(8,18)),(((2,7),((11,12),(10,(4,14)))),(9,(3,17))))),((6,20),(13,16))));
(21,(((1,(5,15)),(6,20)),((13,16),((19,(8,18)),(((2,7),(12,(11,(14,(4,10))))),(9,(3,17)))))));
(21,(((6,20),((18,19),(((11,12),((14,(10,(4,8))),(2,7))),(9,(3,17))))),((13,16),(1,(5,15)))));
(21,(((13,16),(6,20)),((1,(5,15)),((9,(3,17)),((19,(8,18)),((2,7),((11,12),(10,(4,14)))))))));
(21,(((13,16),(6,20)),((1,(5,15)),((2,7),((9,(3,17)),((19,(8,18)),((4,10),(14,(11,12)))))))));
(21,((13,16),(((3,17),(9,((19,(8,18)),((14,(4,10)),(12,(2,(7,11))))))),((6,20),(1,(5,15))))));
(21,(((13,16),(6,20)),((5,(1,15)),((9,(3,17)),((19,(8,18)),((2,(7,11)),(12,(14,(4,10)))))))));
(21,((6,20),((13,16),((1,(5,15)),((9,(3,17)),((18,19),((2,7),((11,12),((4,8),(10,14))))))))));
(21,(((13,16),(6,20)),((5,(1,15)),((9,(3,17)),((19,(8,18)),((2,7),((11,12),(14,(4,10)))))))));
(21,(((13,16),(6,20)),((1,(5,15)),(9,((3,17),(((2,7),((11,12),(4,14))),(10,(19,(8,18)))))))));
(21,((6,20),((1,(5,15)),((13,16),((9,(3,17)),((2,7),((19,(8,18)),((11,12),(14,(4,10))))))))));
(21,((6,20),((((2,7),((11,12),(14,(4,10)))),((19,(8,18)),(9,(3,17)))),((13,16),(1,(5,15))))));
(21,((1,(5,15)),((9,((3,17),((2,7),((19,(8,18)),((11,12),(10,(4,14))))))),((13,16),(6,20)))));
(21,(((1,(5,15)),((12,(10,(4,14))),((2,(7,11)),((19,(8,18)),(9,(3,17)))))),((13,16),(6,20))));
(21,((1,(5,15)),((((11,12),(2,7)),((9,(3,17)),((14,(4,10)),(19,(8,18))))),((6,20),(13,16)))));
(21,((13,16),(((18,19),(((14,(4,(8,10))),(12,(2,(7,11)))),(9,(3,17)))),((1,(5,15)),(6,20)))));
(21,(((13,16),(6,20)),((1,(5,15)),((9,(3,17)),((11,12),((19,(8,18)),((14,(4,10)),(2,7))))))));
(21,((13,16),((1,(5,15)),((6,20),((((11,12),(14,(4,10))),(9,(3,17))),((2,7),(19,(8,18))))))));
(21,(((2,7),((11,12),(14,(4,10)))),((1,(5,15)),(((19,(8,18)),(9,(3,17))),((13,16),(6,20))))));
(21,(((1,(5,15)),((9,(3,17)),((19,(8,18)),((2,7),((11,12),(14,(4,10))))))),((6,20),(13,16))));
(21,(((13,16),(6,20)),((1,(5,15)),((9,(3,17)),((19,(8,18)),((2,(7,11)),(12,(14,(4,10)))))))));
(21,(((1,(5,15)),((9,(3,17)),((14,(4,10)),((19,(8,18)),(12,(2,(7,11))))))),((6,20),(13,16))));
(21,(((13,16),(6,20)),((1,(5,15)),(((19,(8,18)),((11,12),((14,(4,10)),(2,7)))),(9,(3,17))))));
(21,((9,((3,17),((2,7),((19,(8,18)),(14,((4,10),(11,12))))))),((13,16),((1,(5,15)),(6,20)))));
(21,(((1,(5,15)),(9,(3,17))),((13,16),(((19,(8,18)),((2,7),((14,(4,10)),(11,12)))),(6,20)))));
(21,(((13,16),(6,20)),((1,(5,15)),((9,(3,17)),((19,(8,18)),((2,(7,11)),(12,(14,(4,10)))))))));
(21,(((13,16),(6,20)),((5,(1,15)),(((2,7),((14,(4,10)),(11,12))),((19,(8,18)),(9,(3,17)))))));
(21,(((1,(5,15)),((9,(3,17)),((19,(8,18)),((2,7),((11,12),(14,(4,10))))))),((13,16),(6,20))));
(21,((6,20),((13,16),((1,(5,15)),(((2,7),((14,(4,10)),(11,12))),((19,(8,18)),(9,(3,17))))))));
(21,((1,(5,15)),((((2,7),((11,12),(14,(4,10)))),((19,(8,18)),(9,(3,17)))),((6,20),(13,16)))));
(21,((6,20),((1,(5,15)),((13,16),((19,(8,18)),(((2,7),((10,(4,14)),(11,12))),(9,(3,17))))))));
(21,(((9,(3,17)),((18,19),((2,7),((11,12),(10,(14,(4,8))))))),((1,(5,15)),((13,16),(6,20)))));
(21,(((13,16),(6,20)),((1,(5,15)),((9,(3,17)),((18,19),((2,7),((11,12),((8,10),(4,14)))))))));
(21,((6,20),((((14,(4,10)),((11,12),(2,7))),((19,(8,18)),(9,(3,17)))),((13,16),(1,(5,15))))));
(21,((13,16),((6,20),((1,(5,15)),((9,(3,17)),((19,(8,18)),((2,(7,11)),(12,(14,(4,10))))))))));
(21,((13,16),((6,20),((1,(5,15)),((9,(3,17)),((19,(8,18)),((2,7),((11,12),(14,(4,10))))))))));
(21,((13,16),((1,(5,15)),((6,20),((9,(3,17)),((2,(7,(11,12))),((10,(4,14)),(19,(8,18)))))))));
(21,((((18,19),(12,((2,(7,11)),((4,8),(10,14))))),((15,(1,5)),(9,(3,17)))),((13,16),(6,20))));
(21,(((18,(8,19)),((2,7),((11,12),(14,(4,10))))),((6,20),((13,16),((1,(5,15)),(9,(3,17)))))));
(21,(((13,16),(6,20)),((5,(1,15)),((19,(8,18)),(((2,7),((11,12),(10,(4,14)))),(9,(3,17)))))));
(21,((1,(5,15)),(((9,(3,17)),((19,(8,18)),((14,(4,10)),((11,12),(2,7))))),((13,16),(6,20)))));
(21,((13,16),((6,20),((1,(5,15)),((9,(3,17)),(((4,10),(14,(11,12))),((19,(8,18)),(2,7))))))));
(21,((1,(5,15)),(((9,(3,17)),((2,7),(((11,12),(14,(4,10))),(19,(8,18))))),((6,20),(13,16)))));
(21,((6,20),((1,(5,15)),((13,16),((3,17),(((11,12),(14,(4,10))),(9,((2,7),(8,(18,19))))))))));
(21,(((13,16),(6,20)),((1,(5,15)),(((19,(8,18)),((2,7),((11,12),(14,(4,10))))),(9,(3,17))))));
(21,(((1,(5,15)),((9,(3,17)),((19,(8,18)),(12,((2,(7,11)),(14,(4,10))))))),((13,16),(6,20))));
(21,(((1,(5,15)),(((11,12),((14,(4,10)),(2,7))),((19,(8,18)),(17,(3,9))))),((13,16),(6,20))));
(21,(((13,16),(6,20)),((1,(5,15)),((2,7),(((11,12),(4,(10,14))),((19,(8,18)),(9,(3,17))))))));
(21,(((13,16),(6,20)),((1,(5,15)),(((2,7),(14,((4,10),(11,12)))),((19,(8,18)),(9,(3,17)))))));
((((6,20),(1,(5,15))),((13,16),((9,(3,17)),((8,18),(19,((2,7),((14,(4,10)),(11,12)))))))),21);
(21,((13,16),((6,20),((1,(5,15)),((3,17),(9,((19,(8,18)),((2,7),((14,(4,10)),(11,12))))))))));
(21,((13,16),((6,20),((1,(5,15)),(((2,7),((11,12),(8,(14,(4,10))))),((18,19),(9,(3,17))))))));
(21,(((13,16),(6,20)),((5,(1,15)),((19,(8,18)),(((14,(4,10)),(12,(2,(7,11)))),(9,(3,17)))))));
(21,(((6,20),(13,16)),((1,(5,15)),((9,(3,17)),(((11,12),(2,7)),((14,(4,10)),(19,(8,18))))))));
(21,((13,16),((6,20),((1,(5,15)),((9,(3,17)),((18,19),((2,7),((4,(10,(8,14))),(11,12)))))))));
(21,(((13,16),(6,20)),((1,(5,15)),((19,(8,18)),((9,(3,17)),((2,(7,11)),(12,(10,(4,14)))))))));
(21,(((13,16),(6,20)),((1,(5,15)),((9,(3,17)),((19,(8,18)),(((4,10),(11,12)),(14,(2,7))))))));
(21,((1,(5,15)),((6,20),((13,16),(((18,19),(2,(12,((14,(8,(4,10))),(7,11))))),(9,(3,17)))))));
(21,(((13,16),(6,20)),((1,(5,15)),((9,(3,17)),((18,(8,19)),((2,7),((11,12),(4,(10,14)))))))));
(21,(((6,20),((9,(3,17)),((4,(10,14)),((19,(8,18)),((11,12),(2,7)))))),((13,16),(1,(5,15)))));
(21,(((1,(5,15)),((11,(12,(14,(4,10)))),((9,(3,17)),((2,7),(19,(8,18)))))),((13,16),(6,20))));
(21,(((9,(3,17)),((19,(8,18)),(((11,12),(4,10)),(14,(2,7))))),((1,(5,15)),((13,16),(6,20)))));
(21,(((13,16),(6,20)),((15,(1,5)),((9,(3,17)),(12,((19,(8,18)),((14,(4,10)),(2,(7,11)))))))));
(21,((6,20),((13,16),((1,(5,15)),((9,(3,17)),((19,(8,18)),((2,7),((11,12),(14,(4,10))))))))));
(21,(((13,16),(6,20)),((1,(5,15)),((19,(8,18)),(9,((3,17),((10,(4,14)),((11,12),(2,7)))))))));
(21,(((13,16),(6,20)),((1,(5,15)),(((11,12),(14,(4,10))),((9,(3,17)),((2,7),(19,(8,18))))))));
(21,(((5,(1,15)),(((3,17),(19,(8,18))),(9,((2,7),((14,(4,10)),(11,12)))))),((13,16),(6,20))));
(21,(((6,20),(13,16)),((1,(5,15)),(9,((3,17),((8,(18,19)),(12,((14,(4,10)),(2,(7,11))))))))));
(21,(((13,16),(6,20)),((1,(5,15)),((((11,12),(14,(4,10))),((3,17),(19,(8,18)))),(9,(2,7))))));
(21,(((6,20),(13,16)),((1,(5,15)),((19,(8,18)),(((11,12),((14,(4,10)),(2,7))),(9,(3,17)))))));
(21,((9,(((19,(8,18)),(2,(7,11))),((3,17),(12,(14,(4,10)))))),((1,(5,15)),((13,16),(6,20)))));
(21,(((1,(5,15)),((9,(3,17)),((18,19),((2,7),((11,12),(14,(4,(8,10)))))))),((13,16),(6,20))));
(21,((13,16),((6,20),((1,(5,15)),((19,(8,18)),(((2,7),(12,(11,(14,(4,10))))),(9,(3,17))))))));
(21,(((1,(5,15)),((3,17),(9,(((11,12),(10,(14,(4,8)))),((2,7),(18,19)))))),((6,20),(13,16))));
(21,((13,16),((6,20),((15,(1,5)),((9,(3,17)),((19,(8,18)),(7,(2,((10,14),(4,(11,12)))))))))));
(21,(((3,17),(13,16)),((1,(5,15)),((6,20),(9,((11,12),((19,(8,18)),((2,7),(14,(4,10))))))))));
(21,((13,16),((1,(5,15)),((6,20),((9,(3,17)),((19,(8,18)),((2,7),((11,12),(14,(4,10))))))))));
(21,((13,16),((6,20),((1,(5,15)),((9,(3,17)),((19,(8,18)),((2,7),((14,(4,10)),(11,12)))))))));
(21,((1,(5,15)),(((9,(3,17)),(((11,12),(14,(4,10))),((2,7),(8,(18,19))))),((13,16),(6,20)))));
(21,((13,16),((6,20),((5,(1,15)),((12,((10,(14,(4,8))),(2,(7,11)))),((18,19),(9,(3,17))))))));
(21,(((6,20),(13,16)),((1,(5,15)),((9,(3,17)),((8,(18,19)),((2,7),((14,(4,10)),(11,12))))))));
(21,(((6,20),(5,(1,15))),((13,16),(((14,(4,10)),(2,7)),(((19,(8,18)),(11,12)),(9,(3,17)))))));
(21,((1,(5,15)),(((9,(3,17)),((14,(4,10)),((19,(8,18)),((11,12),(2,7))))),((13,16),(6,20)))));
(21,(((((11,12),(14,(4,10))),(9,17)),(3,((2,7),(19,(8,18))))),((1,(5,15)),((13,16),(6,20)))));
(21,((1,(5,15)),(((3,17),(9,((18,19),((2,7),((11,12),(8,(14,(4,10)))))))),((13,16),(6,20)))));
(21,((1,(5,15)),((6,20),((13,16),((9,(3,17)),((12,(10,(4,14))),((19,(8,18)),(2,(7,11)))))))));
(21,((13,16),((6,20),((1,(5,15)),(((3,17),((10,(14,(4,8))),(11,12))),(9,((2,7),(18,19))))))));
(21,(((13,16),(6,20)),((1,(5,15)),((9,(3,17)),((19,(8,18)),((2,7),((14,(4,10)),(11,12))))))));
(21,(((18,19),(((2,7),((11,12),(4,(14,(8,10))))),(9,(3,17)))),((13,16),((6,20),(1,(5,15))))));
(21,((13,16),((6,20),((1,(5,15)),(((11,12),(2,7)),((9,(3,17)),((19,(8,18)),(14,(4,10)))))))));
(21,(((1,(5,15)),((2,(7,11)),(((19,(8,18)),(9,(3,17))),(12,(14,(4,10)))))),((13,16),(6,20))));
(21,(((1,(5,15)),((18,19),(((2,7),((11,12),(14,(10,(4,8))))),(9,(3,17))))),((13,16),(6,20))));
(21,(((6,20),(13,16)),((1,(5,15)),((9,(3,17)),((19,(8,18)),((2,7),((11,12),(14,(4,10)))))))));
(21,(((5,(1,15)),((9,(3,17)),((19,(8,18)),((2,7),((11,12),(14,(4,10))))))),((13,16),(6,20))));
(21,(((1,(5,15)),(9,((3,17),((19,(8,18)),((2,7),((11,12),(14,(4,10)))))))),((13,16),(6,20))));
(21,((13,16),((6,20),((1,(5,15)),((3,17),((19,(8,18)),(9,((2,7),((11,12),(10,(4,14)))))))))));
(21,(((13,16),(6,20)),((1,(5,15)),((19,(8,18)),((9,(3,17)),((2,7),((14,(4,10)),(11,12))))))));
(21,((6,20),((13,16),((1,(5,15)),(9,((3,17),(((11,12),(14,(4,10))),((2,7),(19,(8,18))))))))));
(21,((13,16),((6,20),((1,(5,15)),(9,((3,17),((19,(8,18)),((2,7),((11,12),(14,(4,10)))))))))));
(21,((13,16),((6,20),((1,(5,15)),((9,(3,17)),((12,(14,(4,10))),((19,(8,18)),(2,(7,11)))))))));
(21,((13,16),((6,20),((5,(1,15)),((11,((12,(14,(4,10))),(2,7))),((19,(8,18)),(9,(3,17))))))));
(21,((13,16),((((2,7),(11,(14,(4,10)))),((9,(3,17)),(12,(19,(8,18))))),((6,20),(1,(5,15))))));
(21,((((18,19),((2,7),((11,12),(14,(10,(4,8)))))),((1,(5,15)),(9,(3,17)))),((6,20),(13,16))));
(21,((1,(5,15)),(((18,19),((9,(3,17)),((2,7),((11,12),(4,(14,(8,10))))))),((6,20),(13,16)))));
(21,(((13,16),(6,20)),((1,(5,15)),((9,(3,17)),((19,(8,18)),((2,7),((11,12),(14,(4,10)))))))));
(21,(((6,20),(1,(5,15))),((13,16),((9,(3,17)),((19,(8,18)),((2,7),((11,12),(14,(4,10)))))))));
(21,(((13,16),(6,20)),((1,(5,15)),(9,((3,17),((2,7),((19,(8,18)),(12,(11,(14,(4,10)))))))))));
(21,(((1,(5,15)),((3,17),(9,(((11,12),(2,7)),((10,(4,14)),(19,(8,18))))))),((13,16),(6,20))));
(21,(((13,16),(6,20)),((18,19),((1,(5,15)),(((2,7),((11,12),(14,(10,(4,8))))),(9,(3,17)))))));
(21,(((1,(5,15)),((19,(8,18)),((9,(3,17)),(12,((2,(7,11)),(10,(4,14))))))),((13,16),(6,20))));
(21,(((9,(3,17)),((19,(8,18)),((2,7),((14,(4,10)),(11,12))))),((13,16),((6,20),(1,(5,15))))));
(21,(((9,(3,17)),((19,(8,18)),((2,7),(14,((4,10),(11,12)))))),((5,(1,15)),((13,16),(6,20)))));
(21,((13,16),((6,20),((1,(5,15)),((9,(3,17)),((19,(8,18)),((2,(7,11)),(12,(14,(4,10))))))))));
(21,(((13,16),(6,20)),((1,(5,15)),((3,(9,17)),((2,7),((18,(8,19)),((11,12),(4,(10,14)))))))));
(21,((5,(1,15)),(((9,(3,17)),((19,(8,18)),((2,7),((11,12),(14,(4,10)))))),((6,20),(13,16)))));
(21,((((2,7),((11,12),(14,(4,10)))),((19,(8,18)),(9,(3,17)))),((1,(5,15)),((13,16),(6,20)))));
(21,(((13,16),(6,20)),((1,(5,15)),(((2,7),(19,(8,18))),(((14,(4,10)),(11,12)),(9,(3,17)))))));
(21,((6,20),((13,16),((1,(5,15)),((19,(8,18)),((9,(3,17)),((2,7),((14,(4,10)),(11,12)))))))));
(21,(((3,17),((1,(5,15)),(((2,7),((11,12),((4,8),(10,14)))),(9,(18,19))))),((13,16),(6,20))));
(21,(((1,(5,15)),((19,(8,18)),(((2,7),((10,(4,14)),(11,12))),(9,(3,17))))),((13,16),(6,20))));
(21,((13,16),((6,20),((1,(5,15)),(((2,7),((11,12),(10,(4,14)))),((19,(8,18)),(9,(3,17))))))));
(21,(((13,16),(6,20)),((1,(5,15)),((10,(11,12)),((9,(3,17)),((19,(8,18)),((4,14),(2,7))))))));
(21,(((13,16),(6,20)),((1,(5,15)),((2,7),((9,(3,17)),((19,(8,18)),((11,12),(10,(4,14)))))))));
(21,(((13,16),(6,20)),((1,(5,15)),((2,7),((9,(3,17)),((19,(8,18)),((11,12),(14,(4,10)))))))));
(21,(((1,(5,15)),((9,(3,17)),((19,(8,18)),((4,10),((2,7),(14,(11,12))))))),((13,16),(6,20))));
(21,((1,(5,15)),((((18,19),((11,12),(14,(10,(4,8))))),((2,7),(9,(3,17)))),((6,20),(13,16)))));
(21,(((9,(3,17)),((18,19),(((14,(10,(4,8))),(11,12)),(2,7)))),((6,20),((13,16),(1,(5,15))))));
(21,(((6,20),(13,16)),((1,(5,15)),(((18,19),((2,7),((11,12),((4,8),(10,14))))),(9,(3,17))))));
(21,(((1,(5,15)),(9,(3,17))),((13,16),((6,20),((19,(8,18)),((2,7),((14,(4,10)),(11,12))))))));
(21,((1,(5,15)),((((2,7),((14,(4,10)),(11,12))),((19,(8,18)),(9,(3,17)))),((6,20),(13,16)))));
(21,(((1,(5,15)),(((2,(7,11)),(19,(8,18))),((12,(14,(4,10))),(9,(3,17))))),((13,16),(6,20))));
(21,((13,16),((6,20),((1,(5,15)),((19,(8,18)),((9,(3,17)),((2,7),((14,(4,10)),(11,12)))))))));
(21,(((13,16),(6,20)),((1,(5,15)),((9,(3,17)),((18,19),((2,7),(11,(12,(14,(10,(4,8)))))))))));
(21,(((1,(5,15)),(((12,(14,(10,(4,8)))),(2,(7,11))),((18,19),(9,(3,17))))),((6,20),(13,16))));
(21,(((15,(1,5)),(((14,(4,10)),(11,12)),((9,(3,17)),((2,7),(19,(8,18)))))),((13,16),(6,20))));
(21,((((19,(8,18)),((2,7),((11,12),(4,(10,14))))),((5,(1,15)),(9,(3,17)))),((13,16),(6,20))));
(21,((1,(5,15)),((13,16),((9,(19,(8,18))),((6,20),((3,17),((2,7),((11,12),(14,(4,10))))))))));
(21,((((2,7),((14,(4,10)),(11,12))),((8,(18,19)),(9,(3,17)))),((6,20),((13,16),(1,(5,15))))));
(21,(((19,(8,18)),((9,(3,17)),((2,7),((14,(4,10)),(11,12))))),((15,(1,5)),((6,20),(13,16)))));
(21,(((1,(5,15)),(((2,(7,11)),(12,(14,(10,(4,8))))),((3,17),(9,(18,19))))),((13,16),(6,20))));
(21,(((13,16),(6,20)),((1,(5,15)),((14,(4,10)),((9,(3,17)),((19,(8,18)),(12,(2,(7,11)))))))));
(21,(((5,(1,15)),((9,(3,17)),((19,(8,18)),((14,(4,10)),((11,12),(2,7)))))),((13,16),(6,20))));
(21,((6,20),((13,16),((1,(5,15)),(((2,(7,11)),(12,(14,(4,10)))),((19,(8,18)),(9,(3,17))))))));
(21,((13,16),((6,20),((1,(5,15)),(((19,(8,18)),(14,((2,7),((4,10),(11,12))))),(9,(3,17)))))));
(21,((1,(5,15)),(((9,(3,17)),((19,(8,18)),((2,7),((11,12),(14,(4,10)))))),((6,20),(13,16)))));
(21,((9,((5,(1,15)),((3,17),((18,19),(12,((2,7),(11,(14,(10,(4,8)))))))))),((13,16),(6,20))));
(21,(((3,17),(9,((19,(8,18)),((2,(7,11)),(12,(10,(4,14))))))),((1,(5,15)),((6,20),(13,16)))));
(21,(((1,(5,15)),(((8,(18,19)),((14,(4,10)),((11,12),(2,7)))),(9,(3,17)))),((13,16),(6,20))));
(21,(((1,(5,15)),((10,(14,(4,12))),(((2,(7,11)),(19,(8,18))),(9,(3,17))))),((6,20),(13,16))));
(21,(((6,20),(13,16)),(((9,(3,17)),((2,7),((11,12),(4,(10,14))))),((19,(8,18)),(1,(5,15))))));
(21,(((2,7),((9,(3,17)),((19,(8,18)),((11,12),(10,(4,14)))))),((1,(5,15)),((13,16),(6,20)))));
(21,(((13,16),(6,20)),((15,(1,5)),(((3,17),(18,19)),(9,((2,7),((11,12),(14,(10,(4,8))))))))));
(21,(((13,16),(6,20)),((1,(5,15)),(9,(((2,7),((11,12),(14,(4,10)))),((19,(8,18)),(3,17)))))));
(21,((5,(1,15)),((((2,7),((14,(4,10)),(11,12))),((19,(8,18)),(9,(3,17)))),((13,16),(6,20)))));
(21,((13,16),((6,20),((1,(5,15)),(((18,19),(11,(12,(10,(8,(4,14)))))),((2,7),(9,(3,17))))))));
(21,(((13,16),(6,20)),((1,(5,15)),(9,((3,17),((18,(8,19)),((2,7),((11,12),(14,(4,10))))))))));
(21,(((1,(5,15)),(((3,17),(19,(8,18))),(9,((2,7),(11,(12,(10,(4,14)))))))),((13,16),(6,20))));
(21,((6,20),((((2,7),((11,12),(14,(10,(4,8))))),((18,19),(9,(3,17)))),((13,16),(1,(5,15))))));
(21,(((13,16),(6,20)),((1,(5,15)),((9,(19,(8,18))),((3,17),((2,(7,11)),(12,(10,(4,14)))))))));
(21,((13,16),((6,20),((15,(1,5)),(((19,(8,18)),((14,(4,10)),(11,12))),((2,7),(9,(3,17))))))));
(21,(((13,16),(6,20)),((1,(5,15)),(9,(((14,(4,10)),(11,12)),((3,17),((2,7),(19,(8,18)))))))));
(21,(((6,20),(13,16)),((1,(5,15)),((11,12),((8,(18,19)),(((14,(4,10)),(2,7)),(9,(3,17))))))));
(21,(((9,(3,17)),(((2,7),(11,12)),((14,(4,10)),(19,(8,18))))),((1,(5,15)),((13,16),(6,20)))));
(21,((13,16),((1,(5,15)),((6,20),((3,17),(9,((19,(8,18)),((2,(7,11)),(12,(14,(4,10)))))))))));
(21,((13,16),((6,20),((1,(5,15)),(((11,12),((14,(4,10)),(2,7))),((19,(8,18)),(9,(3,17))))))));
(21,(((13,16),(6,20)),((1,(5,15)),(((2,7),((11,12),(14,(10,(4,8))))),((18,19),(9,(3,17)))))));
(21,(((13,16),(6,20)),((15,(1,5)),((9,(3,17)),((19,(8,18)),((2,(7,11)),(12,(4,(10,14)))))))));
(21,(((9,(3,17)),((19,(8,18)),((2,7),(14,((4,10),(11,12)))))),((1,(5,15)),((6,20),(13,16)))));
(21,(((1,(5,15)),(((2,7),((11,12),(4,(10,14)))),((8,(18,19)),(9,(3,17))))),((6,20),(13,16))));
(21,(((1,(5,15)),((9,(3,17)),(((11,12),(2,7)),((14,(10,(4,8))),(18,19))))),((13,16),(6,20))));
(21,(((1,(5,15)),(((2,7),((11,12),(10,(4,14)))),((19,(8,18)),(9,(3,17))))),((6,20),(13,16))));
(21,(((13,16),(((3,17),((8,18),((2,(7,11)),(12,(14,(4,10)))))),(9,19))),((6,20),(15,(1,5)))));
(21,(((1,(5,15)),((3,17),(9,((19,(8,18)),((2,7),((11,12),(14,(4,10)))))))),((6,20),(13,16))));
(21,(((13,16),(6,20)),((1,(5,15)),((18,19),((3,17),(9,((11,12),(((4,8),(10,14)),(2,7)))))))));
(21,(((13,16),(6,20)),((19,(8,18)),((1,(5,15)),(((2,7),((11,12),(14,(4,10)))),(9,(3,17)))))));
(21,((13,16),((6,20),((1,(5,15)),((2,7),((19,(8,18)),(((11,12),(14,(4,10))),(9,(3,17)))))))));
(21,(((13,16),(6,20)),(((19,(8,18)),((14,(4,10)),((11,12),(2,7)))),((1,(5,15)),(9,(3,17))))));
(21,(((6,20),(1,(5,15))),((13,16),(((11,12),((14,(4,10)),(2,7))),((19,(8,18)),(9,(3,17)))))));
(21,(((15,(1,5)),((9,(3,17)),((19,(8,18)),((2,7),((14,(4,10)),(11,12)))))),((6,20),(13,16))));
(21,((13,16),((6,20),((1,(5,15)),(((14,(4,10)),(11,(2,7))),((12,(19,(8,18))),(9,(3,17))))))));
(21,(((1,(5,15)),(((19,(8,18)),((11,12),(14,(4,10)))),((2,7),(9,(3,17))))),((13,16),(6,20))));
(21,(((1,(5,15)),((9,(3,17)),((19,(8,18)),((11,12),((4,(10,14)),(2,7)))))),((6,20),(13,16))));
(21,((13,16),((6,20),((1,(5,15)),(((14,(4,10)),((11,12),(2,7))),((19,(8,18)),(9,(3,17))))))));
(21,(((((10,(4,14)),(11,12)),((2,7),(19,(8,18)))),(9,(3,17))),((15,(1,5)),((13,16),(6,20)))));
(21,((6,20),((13,16),((1,(5,15)),((9,(3,17)),(((11,12),(4,(10,14))),((2,7),(19,(8,18)))))))));
(21,(((1,(5,15)),(((14,(4,10)),(11,12)),((9,(3,17)),((2,7),(19,(8,18)))))),((6,20),(13,16))));
(21,((1,(5,15)),((13,16),((6,20),((9,(3,17)),((19,(8,18)),(((11,12),(14,(4,10))),(2,7))))))));
(21,((6,20),((13,16),((1,(5,15)),((9,(3,17)),(((11,12),(19,(8,18))),((2,7),(10,(4,14)))))))));
(21,(((13,16),(6,20)),((1,(5,15)),((9,(3,17)),(((14,(4,10)),(11,12)),((19,(8,18)),(2,7)))))));
(21,(((13,16),(6,20)),((1,(5,15)),((9,(3,17)),(((14,(4,10)),(11,12)),((2,7),(19,(8,18))))))));
(21,(((1,(5,15)),((9,(3,17)),((19,(8,18)),(((4,10),(11,12)),(14,(2,7)))))),((6,20),(13,16))));
(21,(((13,16),(6,20)),((9,(3,17)),((1,(5,15)),((19,(8,18)),((11,12),((4,(10,14)),(2,7))))))));
(21,(((6,20),(13,16)),((1,(5,15)),((9,(3,17)),((19,(8,18)),((11,12),((14,(4,10)),(2,7))))))));
(21,((6,20),((13,16),((1,(5,15)),((9,(3,17)),((19,(8,18)),((2,7),((11,12),(14,(4,10))))))))));
(21,(((13,16),(6,20)),((1,(5,15)),((9,(3,17)),((18,19),((2,7),((11,12),(14,(10,(4,8))))))))));
(21,(((13,16),(6,20)),((1,(5,15)),((9,(3,17)),((18,19),(7,(2,((11,12),(14,(4,(8,10)))))))))));
(21,((1,(5,15)),(((19,(8,18)),((9,(3,17)),((2,7),((11,12),(14,(4,10)))))),((6,20),(13,16)))));
(21,((6,20),((13,16),((1,(5,15)),(9,(((19,(8,18)),((11,12),(14,(4,10)))),((3,17),(2,7))))))));
(21,(((13,16),(6,20)),((9,(3,17)),((1,(5,15)),((19,(8,18)),((2,(7,11)),(12,(4,(10,14)))))))));
(21,(((1,(5,15)),((9,(3,17)),(((4,(10,14)),(11,12)),((2,7),(19,(8,18)))))),((13,16),(6,20))));
(21,((13,16),((6,20),((1,(5,15)),(((11,12),((2,7),(10,(4,14)))),((19,(8,18)),(9,(3,17))))))));
(21,(((6,20),(13,16)),((1,(5,15)),((9,(3,17)),((2,7),((18,19),((11,12),((4,8),(10,14)))))))));
(21,((1,(5,15)),(((3,17),((19,(8,18)),(9,((11,12),((14,(4,10)),(2,7)))))),((13,16),(6,20)))));
(21,((9,(3,17)),(((1,(5,15)),((19,(8,18)),((14,(4,10)),(12,(2,(7,11)))))),((13,16),(6,20)))));
(21,((1,(5,15)),(((19,(8,18)),((9,(3,17)),((2,7),((11,12),(14,(4,10)))))),((13,16),(6,20)))));
(21,((6,20),((13,16),((5,(1,15)),((9,(19,(8,18))),((3,17),((2,7),((11,12),(4,(10,14))))))))));
(21,(((6,20),(13,16)),((1,(5,15)),(((2,7),((11,12),(14,(10,(4,8))))),((18,19),(9,(3,17)))))));
(21,((1,(5,15)),(((9,(3,17)),((19,(8,18)),((2,7),((11,12),(14,(4,10)))))),((13,16),(6,20)))));
(21,((6,20),((13,16),((1,(5,15)),((18,(9,(3,17))),(19,((2,7),(((4,8),(10,14)),(11,12)))))))));
(21,((9,(3,17)),(((19,(8,18)),((11,(2,7)),(12,(14,(4,10))))),((1,(5,15)),((6,20),(13,16))))));
(21,((6,20),((13,16),((1,(5,15)),((2,7),((9,(3,17)),((19,(8,18)),((14,(4,10)),(11,12)))))))));
(21,(((13,16),((9,(3,17)),((2,7),((18,(8,19)),((11,12),(14,(4,10))))))),((6,20),(1,(5,15)))));
(21,(((6,20),(((2,(7,11)),(12,(14,(10,(4,8))))),((18,19),(9,(3,17))))),((13,16),(1,(5,15)))));
(21,((6,20),((13,16),((1,(5,15)),((9,(3,17)),((18,19),((2,7),((14,(10,(4,8))),(11,12)))))))));
(21,(((13,16),(6,20)),((1,(5,15)),((19,(8,18)),((9,(3,17)),(7,(2,((11,12),(14,(4,10))))))))));
(21,((13,16),((6,20),((1,(5,15)),((19,(8,18)),(((11,12),(14,(4,10))),((2,7),(9,(3,17)))))))));
(21,((13,16),((6,20),((1,(5,15)),((9,(3,17)),((18,19),(((11,12),((4,8),(10,14))),(2,7))))))));
(21,((1,(5,15)),(((9,(3,17)),((19,(8,18)),((2,7),((14,(4,10)),(11,12))))),((13,16),(6,20)))));
(21,(((15,(1,5)),((9,(3,17)),((19,(8,18)),((2,(7,11)),(12,(14,(4,10))))))),((13,16),(6,20))));
(21,((1,(5,15)),((6,20),((13,16),((19,(8,18)),(((2,7),((14,(4,10)),(11,12))),(9,(3,17))))))));
(21,(((13,16),(6,20)),((1,(5,15)),((17,(3,9)),((19,(8,18)),((2,7),((11,12),(14,(4,10)))))))));
(21,(((6,20),(1,(5,15))),((13,16),((9,(3,17)),((19,(8,18)),(((11,12),(14,(4,10))),(2,7)))))));
(21,(((9,(3,17)),((19,(8,18)),((2,7),((11,12),(10,(4,14)))))),((1,(5,15)),((6,20),(13,16)))));
(21,(((1,(5,15)),(9,((3,17),((19,(8,18)),((2,7),((14,(4,10)),(11,12))))))),((13,16),(6,20))));
(21,((13,16),((6,20),((1,(5,15)),((9,(3,17)),((18,19),((2,7),((11,12),(8,(14,(4,10)))))))))));
(21,((13,16),((6,20),((1,(5,15)),(((2,7),((11,12),(10,(14,(4,8))))),((18,19),(9,(3,17))))))));
(21,((6,20),((13,16),((1,(5,15)),((9,(3,17)),((18,19),((2,7),((14,(10,(4,8))),(11,12)))))))));
(21,((6,20),((13,16),((1,(5,15)),((9,(3,17)),((18,19),(7,(2,((11,12),(14,(10,(4,8))))))))))));
(21,(((1,(5,15)),((19,(8,18)),((9,(3,17)),((2,7),((11,12),(14,(4,10))))))),((13,16),(6,20))));
(21,((1,(5,15)),(((13,16),(6,20)),((3,17),((((11,12),(4,(10,14))),(19,(8,18))),(9,(2,7)))))));
(((13,16),((6,20),((1,(5,15)),((8,(18,19)),((3,17),(9,((2,7),((11,12),(14,(4,10)))))))))),21);
(21,(((6,20),(13,16)),((1,(5,15)),((12,((2,(7,11)),(10,(4,14)))),((19,(8,18)),(9,(3,17)))))));
(21,(((9,(3,17)),((8,(18,19)),((2,(7,11)),(12,(14,(4,10)))))),((13,16),((6,20),(1,(5,15))))));
(21,((6,20),((13,16),((1,(5,15)),(((2,7),((11,12),(14,(4,10)))),((19,(8,18)),(9,(3,17))))))));
(21,(((6,20),((3,17),((2,7),(9,((19,(8,18)),((11,12),(4,(10,14)))))))),((13,16),(15,(1,5)))));
(21,(((13,16),(6,20)),((1,(5,15)),((9,(3,17)),((12,(14,(10,(4,8)))),((18,19),(2,(7,11))))))));
(21,((13,16),((6,20),((9,(3,17)),((1,(5,15)),(((14,(4,10)),(2,7)),((11,12),(19,(8,18)))))))));
(21,(((6,20),(13,16)),((1,(5,15)),((9,(3,17)),(((14,(4,10)),(2,7)),((11,12),(19,(8,18))))))));
(21,(((1,(5,15)),((9,(3,17)),((19,(8,18)),((2,7),((11,12),(14,(4,10))))))),((13,16),(6,20))));
(21,(((13,16),(6,20)),((1,(5,15)),(((19,(8,18)),((2,7),((14,(4,10)),(11,12)))),(9,(3,17))))));
(21,((6,20),((13,16),((1,(5,15)),((9,(3,17)),((2,7),((8,(18,19)),((11,12),(14,(4,10))))))))));
(21,(((13,16),(6,20)),((1,(5,15)),((9,(3,17)),(((14,(4,10)),(11,12)),((2,7),(19,(8,18))))))));
(21,((1,(5,15)),((9,((3,17),((19,(8,18)),((2,7),((4,10),(14,(11,12))))))),((13,16),(6,20)))));
(21,(((13,16),(6,20)),((1,(5,15)),((9,(3,17)),((19,(8,18)),((2,7),((14,(4,10)),(11,12))))))));
(21,(((13,16),(6,20)),((1,(5,15)),(((2,7),((11,12),(10,(4,14)))),((19,(8,18)),(9,(3,17)))))));
(21,((1,(5,15)),((13,16),((6,20),(((4,(10,14)),(12,(2,(7,11)))),((19,(8,18)),(9,(3,17))))))));
(21,((5,(1,15)),(((19,(8,18)),((3,17),(9,((2,7),((11,12),(10,(4,14))))))),((6,20),(13,16)))));
(21,(((13,16),(6,20)),((1,(5,15)),((2,(7,11)),((12,(14,(8,(4,10)))),((18,19),(9,(3,17))))))));
(21,(((13,16),(((18,19),((2,7),((11,12),((4,10),(8,14))))),(9,(3,17)))),((6,20),(1,(5,15)))));
(21,(((13,16),(6,20)),((1,(5,15)),((9,(3,17)),((19,(8,18)),((2,7),((4,(10,14)),(11,12))))))));
(21,((((18,19),((11,12),(14,(10,(4,8))))),((2,7),(9,(3,17)))),((1,(5,15)),((13,16),(6,20)))));
(21,(((1,(5,15)),(9,(((2,7),((11,12),(10,(4,14)))),((3,17),(19,(8,18)))))),((6,20),(13,16))));
(21,((1,(5,15)),((((2,7),((14,(4,10)),(11,12))),((19,(8,18)),(9,(3,17)))),((13,16),(6,20)))));
(21,(((13,16),(6,20)),((1,(5,15)),(((2,7),((11,12),(14,(4,10)))),((19,(8,18)),(9,(3,17)))))));
(21,(((((2,7),((10,(4,14)),(11,12))),(9,(3,17))),((1,(5,15)),(19,(8,18)))),((6,20),(13,16))));
(21,(((13,16),(6,20)),((1,(5,15)),((((11,12),(14,(4,10))),(9,(3,17))),((19,(8,18)),(2,7))))));
(21,((6,20),((((19,(8,18)),((2,(7,11)),(12,(14,(4,10))))),(9,(3,17))),((13,16),(1,(5,15))))));
(21,(((13,16),(((2,(7,11)),(12,(14,(4,10)))),((19,(8,18)),(9,(3,17))))),((6,20),(1,(5,15)))));
(21,(((1,(5,15)),(((2,7),(19,(8,18))),(((11,12),(14,(4,10))),(9,(3,17))))),((13,16),(6,20))));
(21,(((13,16),(1,(5,15))),((6,20),((9,(3,17)),((19,(8,18)),((11,12),((14,(4,10)),(2,7))))))));
(21,(((13,16),(1,(5,15))),((6,20),((9,(3,17)),((19,(8,18)),((2,7),((11,12),(14,(4,10)))))))));
(21,((9,((2,7),((19,(8,18)),((11,12),(14,(4,10)))))),(((6,20),(13,16)),((3,17),(1,(5,15))))));
(21,((((11,12),(9,(3,17))),((2,7),((14,(10,(4,8))),(18,19)))),((15,(1,5)),((13,16),(6,20)))));
(21,(((1,(5,15)),((9,(3,17)),((19,(8,18)),(12,((4,(10,14)),(2,(7,11))))))),((13,16),(6,20))));
(21,((1,(5,15)),(((19,(8,18)),((9,((11,12),(2,7))),((14,(4,10)),(3,17)))),((6,20),(13,16)))));
(21,((13,16),((6,20),((15,(1,5)),((9,(3,17)),((7,11),((19,(8,18)),(2,(12,(14,(4,10)))))))))));
(21,((1,(5,15)),(((13,16),(6,20)),((19,(8,18)),(((2,(7,11)),(12,(14,(4,10)))),(9,(3,17)))))));
(21,((6,20),((13,16),((1,(5,15)),((14,(4,10)),((9,(3,17)),((19,(8,18)),((11,12),(2,7)))))))));
(21,((6,20),((13,16),((1,(5,15)),((12,(14,(4,10))),((3,17),(9,((2,(7,11)),(19,(8,18))))))))));
(21,((6,20),(((9,(3,17)),((19,(8,18)),((2,7),((11,12),(14,(4,10)))))),((1,(5,15)),(13,16)))));
(21,(((6,20),(13,16)),((1,(5,15)),((9,(3,17)),((19,(8,18)),((2,7),((10,14),(4,(11,12)))))))));
(21,(((1,(5,15)),(((14,(4,10)),(11,12)),(9,((3,17),((19,(8,18)),(2,7)))))),((13,16),(6,20))));
(21,(((1,(5,15)),(((2,(7,11)),((19,(8,18)),(12,(14,(4,10))))),(9,(3,17)))),((13,16),(6,20))));
(21,((13,16),(((19,(8,18)),((9,(3,17)),((2,7),((11,12),(14,(4,10)))))),((6,20),(1,(5,15))))));
(21,(((6,20),(13,16)),((1,(5,15)),(((2,7),((11,12),(10,(4,14)))),((19,(8,18)),(9,(3,17)))))));
(21,(((13,16),((2,7),((11,12),(14,(4,10))))),((6,20),((1,(5,15)),((19,(8,18)),(9,(3,17)))))));
(21,(((9,(3,17)),((19,(8,18)),((2,7),((11,12),(14,(4,10)))))),((1,(5,15)),((13,16),(6,20)))));
(21,(((1,(5,15)),((9,(3,17)),((2,7),((18,19),((11,12),(14,(10,(4,8)))))))),((6,20),(13,16))));
(21,(((13,16),(6,20)),((1,(5,15)),((9,(3,17)),((19,(8,18)),((2,7),((11,12),(14,(4,10)))))))));
(21,((((2,(7,11)),(12,(10,(4,14)))),((19,(8,18)),(9,(3,17)))),((13,16),((6,20),(1,(5,15))))));
(21,((1,(5,15)),(((9,(3,17)),((19,(8,18)),((2,(7,11)),(12,(4,(10,14)))))),((13,16),(6,20)))));
(21,(((1,(5,15)),((18,19),(((2,7),((11,12),(14,(10,(4,8))))),(9,(3,17))))),((13,16),(6,20))));
(21,(((1,(5,15)),((3,17),(9,(((2,7),(14,(12,(4,10)))),(11,(19,(8,18))))))),((6,20),(13,16))));
(21,(((6,20),(13,16)),((1,(5,15)),((9,(3,17)),((18,19),((2,(7,11)),(12,(14,(10,(4,8))))))))));
(21,(((13,16),(6,20)),((19,(8,18)),((1,(5,15)),(((2,7),((11,12),(14,(4,10)))),(9,(3,17)))))));
(21,((((19,(8,18)),((12,(4,10)),(14,(2,(7,11))))),(9,(3,17))),((1,(5,15)),((13,16),(6,20)))));
(21,(((1,(5,15)),((9,(3,17)),(19,((8,18),((2,7),((14,(4,10)),(11,12))))))),((13,16),(6,20))));
(21,((1,(5,15)),(((9,(3,17)),((19,(8,18)),((2,(7,11)),(12,(4,(10,14)))))),((13,16),(6,20)))));
(21,((13,16),((6,20),(((19,(8,18)),(9,(3,17))),((5,(1,15)),((2,7),((14,(4,10)),(11,12))))))));
(21,((13,16),((6,20),((1,(5,15)),((9,(3,17)),((19,(8,18)),((2,(7,11)),(12,(14,(4,10))))))))));
(21,((13,16),((6,20),((1,(5,15)),((3,17),(9,(((11,12),(4,(10,14))),((2,7),(19,(8,18))))))))));
(21,(((13,16),(6,20)),((1,(5,15)),((17,(3,9)),((19,(8,18)),((2,7),((11,12),(14,(4,10)))))))));
(21,((6,20),((13,16),((1,(5,15)),((9,(3,17)),((19,(8,18)),((11,12),((14,(4,10)),(2,7)))))))));
(21,(((13,16),(6,20)),((1,(5,15)),(((19,(8,18)),((11,12),(14,(4,10)))),((2,7),(9,(3,17)))))));
(21,((1,(5,15)),(((9,(3,17)),((18,19),((2,7),((11,12),(10,(14,(4,8))))))),((13,16),(6,20)))));
(21,(((13,16),(6,20)),((1,(5,15)),((9,(3,17)),((19,(8,18)),((2,7),((11,12),(14,(4,10)))))))));
(21,(((9,(3,17)),((19,(8,18)),((2,7),((11,12),(14,(4,10)))))),((1,(5,15)),((13,16),(6,20)))));
(21,(((6,20),(13,16)),((1,(5,15)),((3,17),(9,((8,(18,19)),((2,(7,11)),(12,(14,(4,10))))))))));
(21,((1,(5,15)),((((18,19),((2,7),(11,(12,((4,10),(8,14)))))),(9,(3,17))),((13,16),(6,20)))));
(21,(((1,(5,15)),((9,(3,17)),((19,(8,18)),((2,7),((11,12),(14,(4,10))))))),((13,16),(6,20))));
(21,(((19,(8,18)),(((2,7),((14,(4,10)),(11,12))),(9,(3,17)))),((1,(5,15)),((13,16),(6,20)))));
(21,((1,(5,15)),(((9,(3,17)),((19,(8,18)),((2,7),((11,12),(14,(4,10)))))),((6,20),(13,16)))));
(21,((13,16),((1,(5,15)),((6,20),((9,(3,17)),((19,(8,18)),((11,12),((2,7),(14,(4,10))))))))));
(21,((6,20),((13,16),((1,(5,15)),((2,(7,((11,12),(14,(4,10))))),((19,(8,18)),(9,(3,17))))))));
(21,(((13,16),(((2,(7,11)),(12,(14,(4,10)))),(9,((3,17),(19,(8,18)))))),((6,20),(1,(5,15)))));
(21,(((9,(3,17)),((19,(8,18)),((11,12),((14,(4,10)),(2,7))))),((13,16),((6,20),(1,(5,15))))));
(21,(((13,16),(6,20)),((1,(5,15)),(((2,(7,11)),(12,(14,(4,10)))),((19,(8,18)),(9,(3,17)))))));
(21,(((6,20),(13,16)),((1,(5,15)),((9,(3,17)),((18,(8,19)),((2,(7,11)),(12,(14,(4,10)))))))));
(21,((13,16),((6,20),((1,(5,15)),((9,(3,17)),((18,19),((2,7),((14,(10,(4,8))),(11,12)))))))));
(21,(((((11,12),((2,7),(14,(4,10)))),(9,(3,17))),((6,20),(13,16))),((19,(8,18)),(1,(5,15)))));
(21,(((6,20),(13,16)),((1,(5,15)),(((2,(7,11)),(12,(14,(4,10)))),((19,(8,18)),(9,(3,17)))))));
(21,((((2,(7,11)),((19,(8,18)),(12,(14,(4,10))))),(9,(3,17))),((1,(5,15)),((13,16),(6,20)))));
(21,(((13,16),(6,20)),((1,(5,15)),(((2,7),((11,12),(14,(4,10)))),((19,(8,18)),(9,(3,17)))))));
(21,(((13,16),(6,20)),((15,(1,5)),((9,(3,17)),(((11,12),(2,7)),((14,(4,10)),(19,(8,18))))))));
(21,((13,16),((6,20),((1,(5,15)),((9,(3,17)),((18,(8,19)),((2,7),((11,12),(14,(4,10))))))))));
(21,(((6,20),((1,(5,15)),((4,(10,14)),((11,12),(2,7))))),((13,16),((19,(8,18)),(9,(3,17))))));
(21,((1,(5,15)),(((9,(3,17)),((19,(8,18)),((2,7),((4,10),(14,(11,12)))))),((13,16),(6,20)))));
(21,((6,20),((13,16),((1,(5,15)),(((19,(8,18)),((2,7),((11,12),(14,(4,10))))),(9,(3,17)))))));
(21,((1,(5,15)),(((6,20),(13,16)),((9,(3,17)),((18,19),((11,12),((14,(8,(4,10))),(2,7))))))));
(21,((1,(5,15)),(((9,(3,17)),(((14,(4,10)),(11,12)),((2,7),(19,(8,18))))),((6,20),(13,16)))));
(21,(((1,(5,15)),((9,(3,17)),((19,(8,18)),(2,(7,((11,12),(14,(4,10)))))))),((13,16),(6,20))));
(21,((6,20),(((9,(19,(8,18))),((2,7),((3,17),(14,((4,10),(11,12)))))),((13,16),(1,(5,15))))));
(21,((1,(5,15)),((6,20),((13,16),((9,(3,17)),((18,19),((2,7),((11,12),(14,(10,(4,8)))))))))));
(21,(((19,(8,18)),((2,7),((11,12),(10,(4,14))))),((6,20),((13,16),((15,(1,5)),(9,(3,17)))))));
(21,((((11,12),(10,(4,14))),((9,(3,17)),((2,7),(19,(8,18))))),((15,(1,5)),((13,16),(6,20)))));
(21,(((13,16),(6,20)),((1,(5,15)),((9,(3,17)),((19,(8,18)),((2,7),((11,12),(4,(10,14)))))))));
(21,(((6,20),(13,16)),((1,(5,15)),((18,19),((9,(3,17)),(14,((11,12),((8,(4,10)),(2,7)))))))));
(21,((6,20),((9,((3,17),((18,19),((2,7),((11,12),(14,(10,(4,8)))))))),((13,16),(1,(5,15))))));
(21,((1,(5,15)),(((9,(3,17)),((18,19),((2,7),((11,12),(14,(4,(8,10))))))),((6,20),(13,16)))));
(21,((1,(5,15)),(((9,(3,17)),(((11,12),((14,(4,10)),(2,7))),(19,(8,18)))),((13,16),(6,20)))));
(21,(((6,20),(13,16)),((1,(5,15)),((9,(3,17)),((19,(8,18)),((11,12),((10,(4,14)),(2,7))))))));
(21,((13,16),((6,20),((1,(5,15)),((19,(8,18)),((9,(3,17)),((2,(7,11)),(12,(10,(4,14))))))))));
(21,((13,16),((6,20),((1,(5,15)),((9,(3,17)),((19,(8,18)),((2,7),((11,12),(14,(4,10))))))))));
(21,(((13,16),(6,20)),((1,(5,15)),((9,(3,17)),(19,(18,((2,7),((11,12),(4,(14,(8,10)))))))))));
(21,((6,20),((1,(5,15)),((13,16),(((2,7),((11,12),(14,(4,10)))),((19,(8,18)),(9,(3,17))))))));
(21,(((13,16),((1,(5,15)),((3,17),((18,19),((2,(7,11)),(12,(14,(10,(4,8))))))))),(9,(6,20))));
(21,(((6,20),(13,16)),((1,(5,15)),((9,(3,17)),(((11,12),(14,(4,10))),((2,7),(19,(8,18))))))));
(21,(((1,(5,15)),(((19,(8,18)),((2,7),((11,12),(14,(4,10))))),(9,(3,17)))),((13,16),(6,20))));
(21,(((13,16),(1,(5,15))),((6,20),(((19,(8,18)),((12,(14,(4,10))),(11,(2,7)))),(9,(3,17))))));
(21,(((6,20),(13,16)),((1,(5,15)),((9,((2,7),((11,12),(10,(14,(4,8)))))),((3,17),(18,19))))));
(21,(((1,(5,15)),((9,(3,17)),((19,(8,18)),((2,7),((11,12),(14,(4,10))))))),((13,16),(6,20))));
(21,((13,16),((1,(5,15)),((6,20),((9,(3,17)),((2,(7,(11,12))),((14,(4,10)),(19,(8,18)))))))));
(21,(((13,16),(6,20)),(((9,(3,17)),((18,19),((2,7),((11,12),(14,(10,(4,8))))))),(1,(5,15)))));
(21,(((6,20),(13,16)),((((11,12),(14,(4,10))),((2,7),(19,(8,18)))),((1,(5,15)),(9,(3,17))))));
(21,((1,(5,15)),((13,16),((6,20),((9,(3,17)),((4,(10,14)),((19,(8,18)),((11,12),(2,7)))))))));
(21,(((13,16),(6,20)),((1,(5,15)),((3,17),(9,((19,(8,18)),((14,(4,10)),((2,7),(11,12)))))))));
(21,((1,(5,15)),(((9,(3,17)),((18,19),((2,7),((11,12),(14,(10,(4,8))))))),((13,16),(6,20)))));
(21,((1,(5,15)),(((9,(3,17)),((19,(8,18)),((11,12),((14,(4,10)),(2,7))))),((13,16),(6,20)))));
(21,(((1,(5,15)),((19,(8,18)),((9,(3,17)),(7,((11,12),(2,(10,(4,14)))))))),((13,16),(6,20))));
(21,((13,16),((6,20),((1,(5,15)),((12,((2,7),(11,(14,(4,10))))),((3,17),(9,(19,(8,18)))))))));
(21,(((6,20),(13,16)),((1,(5,15)),((2,7),((9,(3,17)),(((11,12),(14,(4,10))),(19,(8,18))))))));
(21,((6,20),((13,16),((5,(1,15)),(((14,(10,(4,8))),((11,12),(2,7))),((18,19),(9,(3,17))))))));
(21,((1,(5,15)),(((9,(3,17)),(((11,12),(14,(10,(4,8)))),((2,7),(18,19)))),((13,16),(6,20)))));
(21,((1,(5,15)),((((2,7),((14,(4,10)),(11,12))),((19,(8,18)),(9,(3,17)))),((13,16),(6,20)))));
(21,((((2,7),((11,12),(14,(4,(8,10))))),((18,19),(9,(3,17)))),((1,(5,15)),((13,16),(6,20)))));
(21,(((6,20),(13,16)),((1,(5,15)),(9,(((11,12),((2,7),(10,(4,14)))),((3,17),(19,(8,18))))))));
(21,(((1,(5,15)),((9,(3,17)),((19,(8,18)),((2,7),((11,12),(14,(4,10))))))),((6,20),(13,16))));
(21,(((13,16),(6,20)),((1,(5,15)),((9,(3,17)),((2,7),((19,(8,18)),((14,(4,10)),(11,12))))))));
(21,(((1,(5,15)),(9,(3,17))),((((11,12),(14,(4,10))),((2,7),(19,(8,18)))),((13,16),(6,20)))));
(21,((1,(5,15)),(((9,(3,17)),((19,(8,18)),((2,7),((4,(10,14)),(11,12))))),((13,16),(6,20)))));
(21,((6,20),((13,16),((1,(5,15)),((3,17),(9,((19,(8,18)),((2,7),((14,(4,10)),(11,12))))))))));
(21,((1,(5,15)),((6,20),((13,16),((9,(3,17)),((19,(8,18)),((11,(14,(4,10))),(12,(2,7)))))))));
(21,(((11,12),((9,(3,17)),((19,(8,18)),((14,(4,10)),(2,7))))),((1,(5,15)),((13,16),(6,20)))));
(21,((13,16),((6,20),((1,(5,15)),((9,(3,17)),((19,(8,18)),((14,(4,10)),((11,12),(2,7)))))))));
(21,(((6,20),(13,16)),((1,(5,15)),(((18,19),((2,7),((11,12),((8,10),(4,14))))),(9,(3,17))))));
(21,((6,20),((13,16),((1,(5,15)),(((19,(8,18)),((2,7),((11,12),(10,(4,14))))),(9,(3,17)))))));
(21,(((6,20),((9,(3,17)),((18,19),((12,(10,(4,8))),(14,(2,(7,11))))))),((13,16),(1,(5,15)))));
(21,((6,20),((13,16),((18,19),((1,(5,15)),(((14,(10,(4,8))),(12,(2,(7,11)))),(9,(3,17))))))));
(21,(((1,(5,15)),((9,(3,17)),((19,(8,18)),(7,(2,((11,12),(14,(4,10)))))))),((13,16),(6,20))));
(21,(((9,(3,17)),((19,(8,18)),(12,((10,(4,14)),(2,(7,11)))))),((1,(5,15)),((13,16),(6,20)))));
(21,(((6,20),(1,(5,15))),((9,(3,17)),((13,16),((2,7),((8,(18,19)),((4,(10,14)),(11,12))))))));
(21,((6,20),((13,16),((1,(5,15)),((2,(7,11)),((12,(14,(4,10))),((18,(8,19)),(9,(3,17)))))))));
(21,(((6,20),(13,16)),((1,(5,15)),((9,(3,17)),((19,(8,18)),((2,(7,11)),((4,10),(12,14))))))));
(21,((13,16),((6,20),((1,(5,15)),(((14,(4,10)),((11,12),(2,7))),((19,(8,18)),(9,(3,17))))))));
(21,(((1,(5,15)),((9,(3,17)),((12,(11,(14,(4,10)))),((2,7),(8,(18,19)))))),((13,16),(6,20))));
(21,((13,16),((6,20),((1,(5,15)),((19,(8,18)),((9,(3,17)),((11,12),((14,(4,10)),(2,7)))))))));
(21,(((13,16),(6,20)),((1,(5,15)),((2,(7,11)),((19,(8,18)),((14,(12,(4,10))),(9,(3,17))))))));
(21,((6,20),((13,16),((1,(5,15)),((18,19),(((2,7),((11,12),(10,(14,(4,8))))),(9,(3,17))))))));
(21,((1,(5,15)),(((9,(3,17)),((19,(8,18)),((2,7),((11,12),(10,(4,14)))))),((13,16),(6,20)))));
(21,(((13,16),(6,20)),((1,(5,15)),((9,(3,17)),(((14,(4,10)),(2,7)),((11,12),(19,(8,18))))))));
(21,(((13,16),(((18,19),(11,12)),((9,(3,17)),((8,(14,(4,10))),(2,7))))),((6,20),(1,(5,15)))));
(21,(((13,16),(6,20)),((1,(5,15)),((9,(3,17)),((19,(8,18)),((2,7),((11,12),(4,(10,14)))))))));
(21,(((13,16),(6,20)),((1,(5,15)),((9,(3,17)),(((11,12),(14,(4,10))),((2,7),(19,(8,18))))))));
(21,(((1,(5,15)),((19,(8,18)),((3,9),(17,((2,7),((11,12),(14,(4,10)))))))),((6,20),(13,16))));
(21,(((6,20),(13,16)),((1,(5,15)),((9,(3,17)),((19,(8,18)),((2,7),((11,12),(14,(4,10)))))))));
(21,((6,20),(((18,19),((2,7),((11,12),(14,(8,(4,10)))))),((13,16),((1,(5,15)),(9,(3,17)))))));
(21,((13,16),((6,20),((1,(5,15)),((19,(8,18)),(((2,7),((14,(4,10)),(11,12))),(9,(3,17))))))));
(21,(((13,16),(6,20)),((1,(5,15)),((9,(3,17)),((19,(8,18)),((11,12),((2,7),(14,(4,10)))))))));
(21,(((18,(8,19)),((9,(3,17)),((11,12),((2,7),(14,(4,10)))))),((15,(1,5)),((13,16),(6,20)))));
(21,((13,16),((6,20),((1,(5,15)),(((2,(7,11)),(18,19)),((12,(10,(14,(4,8)))),(9,(3,17))))))));
(21,(((13,16),(6,20)),((1,(5,15)),((9,(3,17)),(((12,14),(11,(4,10))),((19,(8,18)),(2,7)))))));
(21,(((1,(5,15)),((((14,(4,10)),(11,12)),((2,7),(18,(8,19)))),(9,(3,17)))),((6,20),(13,16))));
(21,(((13,16),(6,20)),((1,(5,15)),((3,17),(9,((18,19),((2,(7,11)),(12,(14,(10,(4,8)))))))))));
(21,(((6,20),(13,16)),((1,(5,15)),((9,(3,17)),((19,(8,18)),((14,(4,10)),((11,12),(2,7))))))));
(21,(((6,20),(13,16)),((1,(5,15)),((9,(3,17)),((19,(8,18)),((2,(7,11)),(12,(14,(4,10)))))))));
(21,((1,(5,15)),(((2,7),((9,(3,17)),((((4,8),(10,14)),(11,12)),(18,19)))),((6,20),(13,16)))));
(21,((13,16),(((19,(8,18)),((9,(3,17)),((2,7),((14,(4,10)),(11,12))))),((1,(5,15)),(6,20)))));
(21,((1,(5,15)),(((18,19),(((2,7),((14,(10,(4,8))),(11,12))),(9,(3,17)))),((13,16),(6,20)))));
(21,((13,16),((6,20),((1,(5,15)),(9,((3,17),((2,7),((19,(8,18)),((11,12),(14,(4,10)))))))))));
(21,((6,20),((13,16),((9,(3,17)),((1,(5,15)),((19,(8,18)),((11,12),((2,7),(4,(10,14))))))))));
(21,((15,(1,5)),(((9,(3,17)),((2,7),((18,19),((11,12),(14,(10,(4,8))))))),((13,16),(6,20)))));
(21,(((13,16),(6,20)),((1,(5,15)),((9,(3,17)),((19,(8,18)),(((14,(4,10)),(11,12)),(2,7)))))));
(21,(((1,(5,15)),((9,((11,(2,7)),(12,(10,(4,14))))),((19,(8,18)),(3,17)))),((13,16),(6,20))));
(21,(((13,16),(6,20)),((1,(5,15)),(((18,19),((14,(10,(4,8))),(11,12))),((2,7),(9,(3,17)))))));
(21,(((1,(5,15)),((9,(3,17)),((19,(8,18)),((7,(2,11)),(12,(4,(10,14))))))),((6,20),(13,16))));
(21,(((6,20),(13,16)),((1,(5,15)),((19,(8,18)),(((2,7),((11,12),(10,(4,14)))),(9,(3,17)))))));
(21,((13,16),((6,20),((1,(5,15)),((9,(3,17)),(((11,12),(14,(10,(4,8)))),((2,7),(18,19))))))));
(21,(((6,20),(13,16)),((1,(5,15)),((9,(3,17)),((19,(8,18)),((2,7),((14,(4,10)),(11,12))))))));
(21,((6,20),((13,16),((1,(5,15)),(((2,7),((10,(4,14)),(11,12))),((9,(3,17)),(19,(8,18))))))));
(21,(((1,(5,15)),(((18,19),((11,12),(14,(10,(4,8))))),((2,7),(9,(3,17))))),((13,16),(6,20))));
(21,(((1,(5,15)),((9,(3,17)),((19,(8,18)),((2,7),((11,12),(14,(4,10))))))),((13,16),(6,20))));
(21,(((6,20),(13,16)),((15,(1,5)),((9,(3,17)),((19,(8,18)),((2,7),((11,12),(14,(4,10)))))))));
(21,(((6,20),(13,16)),((1,(5,15)),((9,(3,17)),(((14,(4,10)),(2,7)),((11,12),(19,(8,18))))))));
(21,(((11,(2,7)),((19,(8,18)),(12,(10,(4,14))))),((9,(3,17)),((5,(1,15)),((13,16),(6,20))))));
(21,(((1,(5,15)),((9,(3,17)),((19,(8,18)),((14,(4,10)),((11,12),(2,7)))))),((13,16),(6,20))));
(21,((6,20),(((9,(3,17)),((19,(8,18)),((7,(2,11)),(12,(14,(4,10)))))),((13,16),(5,(1,15))))));
(21,(((13,16),(6,20)),((5,(1,15)),((18,19),((9,(3,17)),((2,7),((14,(10,(4,8))),(11,12))))))));
(21,((1,(5,15)),((((2,7),((14,(4,10)),(11,12))),((19,(8,18)),(9,(3,17)))),((6,20),(13,16)))));
(21,((1,(5,15)),(((19,(8,18)),((9,(3,17)),((14,(4,10)),(12,(2,(7,11)))))),((13,16),(6,20)))));
(21,(((6,20),(13,16)),((1,(5,15)),(((11,12),(2,7)),((9,(3,17)),((14,(4,10)),(19,(8,18))))))));
(21,(((19,(8,18)),((9,(3,17)),((2,7),((14,(4,10)),(11,12))))),((13,16),((6,20),(1,(5,15))))));
(21,((6,20),((13,16),((1,(5,15)),((9,(3,17)),((19,(8,18)),((2,7),((11,12),(14,(4,10))))))))));
(21,((6,20),((13,16),((1,(5,15)),(((19,(8,18)),((4,(10,14)),((11,12),(2,7)))),(9,(3,17)))))));
(21,(((1,(5,15)),((9,(3,17)),((19,(8,18)),((2,7),((14,(4,10)),(11,12)))))),((13,16),(6,20))));
(21,(((13,16),(1,(5,15))),((6,20),((2,7),(((11,12),(14,(10,(4,8)))),((18,19),(9,(3,17))))))));
(21,((6,20),((13,16),((1,(5,15)),(((11,12),((2,7),(14,(10,(4,8))))),((18,19),(17,(3,9))))))));
(21,(((6,20),(13,16)),((15,(1,5)),((9,(3,17)),((19,(8,18)),((11,(2,7)),(12,(14,(4,10)))))))));
(21,((6,20),((13,16),((1,(5,15)),((9,(3,17)),((19,(8,18)),((2,(7,11)),(12,(14,(4,10))))))))));
(21,(((2,7),((9,(3,17)),((19,(8,18)),((11,12),(14,(4,10)))))),((1,(5,15)),((6,20),(13,16)))));
(21,(((1,(5,15)),((9,(3,17)),((19,(8,18)),((14,(4,10)),((11,12),(2,7)))))),((6,20),(13,16))));
(21,((1,(5,15)),(((4,(11,12)),((9,(3,17)),((18,19),((14,(8,10)),(2,7))))),((13,16),(6,20)))));
(21,(((13,16),(6,20)),((1,(5,15)),(((19,(8,18)),((2,7),((11,12),(14,(4,10))))),(9,(3,17))))));
(21,((13,16),((6,20),((1,(5,15)),((9,(3,17)),((19,(8,18)),((2,7),((11,12),(14,(4,10))))))))));
(21,((6,20),((13,16),(((9,(3,17)),((2,(7,11)),((18,(8,19)),(12,(14,(4,10)))))),(1,(5,15))))));
(21,(((6,20),(13,16)),((1,(5,15)),((9,(3,17)),((11,12),(((4,(10,14)),(2,7)),(19,(8,18))))))));
(21,(((15,(1,5)),(((19,(8,18)),((2,7),((11,12),(14,(4,10))))),(9,(3,17)))),((13,16),(6,20))));
(21,((6,20),((13,16),((1,(5,15)),((12,(10,(14,(4,8)))),((9,(3,17)),((2,(7,11)),(18,19))))))));
(21,((1,(5,15)),(((9,(3,17)),(((4,10),((2,7),(14,(11,12)))),(19,(8,18)))),((6,20),(13,16)))));
(21,(((1,(5,15)),((3,17),(9,((19,(8,18)),((2,7),((14,(4,10)),(11,12))))))),((13,16),(6,20))));
(21,(((9,(3,17)),((18,19),((2,7),((11,12),((4,8),(10,14)))))),((1,(5,15)),((13,16),(6,20)))));
(21,((6,20),((13,16),((1,(5,15)),((3,17),((19,(8,18)),(9,((2,7),((11,12),(14,(4,10)))))))))));
(21,(((13,16),(6,20)),((1,(5,15)),((9,(3,17)),((19,(8,18)),((2,7),((11,12),(10,(4,14)))))))));
(21,((13,16),((6,20),((9,((19,(8,18)),((14,(4,10)),(2,7)))),((1,(5,15)),((11,12),(3,17)))))));
(21,(((1,(5,15)),((9,(3,17)),((19,(8,18)),((2,7),((11,12),(14,(4,10))))))),((13,16),(6,20))));
(21,((((14,(8,(4,10))),(18,19)),((9,(3,17)),((11,12),(2,7)))),((15,(1,5)),((13,16),(6,20)))));
(21,(((9,(3,17)),((19,(8,18)),((2,7),((4,(10,14)),(11,12))))),((1,(5,15)),((13,16),(6,20)))));
(21,(((13,16),((2,(7,11)),(14,(12,(4,10))))),((6,20),((1,(5,15)),((19,(8,18)),(17,(3,9)))))));
(21,(((13,16),(6,20)),((1,(5,15)),((19,(8,18)),(9,((3,17),((2,7),((11,12),(14,(4,10))))))))));
(21,((13,16),((6,20),((1,(5,15)),((9,(3,17)),((18,19),(2,(7,((14,(10,(4,8))),(11,12))))))))));
(21,(((1,(5,15)),((9,(3,17)),((19,(8,18)),((2,7),((11,12),(4,(10,14))))))),((6,20),(13,16))));
(21,(((13,16),(6,20)),((1,(5,15)),((19,(8,18)),((9,(3,17)),((2,(7,11)),(12,(14,(4,10)))))))));
(21,((6,20),((13,16),((((14,(4,10)),(11,12)),((2,7),(19,(8,18)))),((1,(5,15)),(9,(3,17)))))));
(21,((13,16),((6,20),((1,(5,15)),((19,(8,18)),(((2,(7,11)),(12,(4,(10,14)))),(9,(3,17))))))));
(21,(((((10,(4,14)),(2,7)),((8,18),(19,(11,12)))),(9,(3,17))),((1,(5,15)),((13,16),(6,20)))));
(21,((6,20),(((1,(5,15)),(9,(3,17))),((13,16),((8,(18,19)),(12,((2,7),(11,(14,(4,10))))))))));
(21,(((1,(5,15)),((18,19),(((11,12),((14,(10,(4,8))),(2,7))),(9,(3,17))))),((13,16),(6,20))));
(21,(((19,(8,18)),((9,(3,17)),((2,7),((11,12),(10,(4,14)))))),((1,(5,15)),((13,16),(6,20)))));
(21,((6,20),((13,16),((1,(5,15)),((9,(3,17)),((7,(2,(4,(10,14)))),((11,12),(19,(8,18)))))))));
(21,(((13,16),(6,20)),((1,(5,15)),((9,(3,17)),((19,(8,18)),((2,7),((11,12),(14,(4,10)))))))));
(21,((9,((3,17),((19,(8,18)),((2,7),((14,(4,10)),(11,12)))))),((1,(5,15)),((6,20),(13,16)))));
(21,((13,16),((6,20),((5,(1,15)),(((19,(8,18)),((11,12),((14,(4,10)),(2,7)))),(9,(3,17)))))));
(21,((9,(3,17)),(((1,(5,15)),((19,(8,18)),((14,(4,10)),(12,(2,(7,11)))))),((13,16),(6,20)))));
(21,((13,16),((6,20),((1,(5,15)),((9,(3,17)),(((11,12),(2,7)),((14,(8,(4,10))),(18,19))))))));
(21,(((13,16),(6,20)),((5,(1,15)),(((19,(8,18)),((4,(10,14)),((11,12),(2,7)))),(9,(3,17))))));
(21,((1,(5,15)),((((19,(8,18)),((14,(4,10)),(11,12))),((2,7),(9,(3,17)))),((13,16),(6,20)))));
(21,((((4,10),(11,12)),(14,(2,7))),((1,(5,15)),((13,16),((6,20),((19,(8,18)),(9,(3,17))))))));
(21,(((13,16),(6,20)),((15,(1,5)),((9,(3,17)),((2,7),((19,(8,18)),((11,12),(4,(10,14)))))))));
(21,((13,16),((6,20),((1,(5,15)),((9,(3,17)),((19,(8,18)),((2,7),((11,12),(10,(4,14))))))))));
(21,(((13,16),(6,20)),((1,(5,15)),((9,(3,17)),((19,(8,18)),((11,12),((4,(10,14)),(2,7))))))));
(21,((1,(5,15)),(((9,(3,17)),((19,(8,18)),((2,7),((11,12),(14,(4,10)))))),((13,16),(6,20)))));
(21,(((3,17),(1,(5,15))),((9,((19,(8,18)),((2,(7,11)),(12,(14,(4,10)))))),((6,20),(13,16)))));
(21,((13,16),((6,20),((1,(5,15)),(((3,17),((11,12),((14,(4,10)),(2,7)))),(9,(19,(8,18))))))));
(21,(((6,20),(1,(5,15))),((13,16),((9,(3,17)),((19,(8,18)),(12,((14,(4,10)),(2,(7,11)))))))));
(21,((((19,(8,18)),((11,12),(14,(4,10)))),((2,7),(9,(3,17)))),((1,(5,15)),((13,16),(6,20)))));
(21,((6,20),(((9,(3,17)),(((11,12),(14,(4,(8,10)))),((2,7),(18,19)))),((13,16),(1,(5,15))))));
(21,(((6,20),(1,(5,15))),((13,16),((9,(3,17)),(((2,7),((11,12),(14,(4,10)))),(19,(8,18)))))));
(21,(((9,(3,17)),((19,(8,18)),((2,(7,11)),(12,(10,(4,14)))))),((1,(5,15)),((6,20),(13,16)))));
(21,(((9,(3,17)),(((14,(4,10)),(2,7)),((11,12),(19,(8,18))))),((1,(5,15)),((13,16),(6,20)))));
(21,(((1,(5,15)),((3,17),(9,((19,(8,18)),((2,7),((11,12),(4,(10,14)))))))),((6,20),(13,16))));
(21,((1,(5,15)),((((11,12),(9,(3,17))),((19,(8,18)),((14,(4,10)),(2,7)))),((13,16),(6,20)))));
(21,((6,20),((13,16),((15,(1,5)),(9,((3,17),((19,(8,18)),((2,7),((11,12),(10,(4,14)))))))))));
(21,((13,16),((6,20),((1,(5,15)),(((2,7),((11,12),(14,(4,10)))),(9,((3,17),(19,(8,18)))))))));
(21,((13,16),((6,20),((1,(5,15)),((9,(3,17)),((19,(8,18)),((2,7),((11,12),(14,(4,10))))))))));
(21,((1,(5,15)),((((11,12),(14,(4,10))),((9,(3,17)),((2,7),(19,(8,18))))),((13,16),(6,20)))));
(21,(((18,19),(((2,7),((11,12),(14,(10,(4,8))))),(9,(3,17)))),((15,(1,5)),((13,16),(6,20)))));
(21,((13,16),((6,20),((1,(5,15)),(((18,19),((2,7),((11,12),(14,(8,(4,10)))))),(9,(3,17)))))));
(21,(((1,(5,15)),((9,(3,17)),((19,(8,18)),((2,7),((14,(4,10)),(11,12)))))),((6,20),(13,16))));
(21,(((13,16),(6,20)),((1,(5,15)),((9,(3,17)),((19,(8,18)),((2,7),(12,(11,(14,(4,10))))))))));
(21,((6,20),(((18,19),((9,(3,17)),((2,7),((11,12),((10,14),(4,8)))))),((13,16),(1,(5,15))))));
(21,(((13,16),(6,20)),((1,(5,15)),((9,(3,17)),((19,(8,18)),((2,12),((7,11),(14,(4,10)))))))));
(21,(((1,(5,15)),(((11,12),(2,7)),((9,(3,17)),((14,(4,10)),(19,(8,18)))))),((13,16),(6,20))));
(21,(((9,(3,17)),((18,19),((2,7),((11,12),(10,(14,(4,8))))))),((6,20),((13,16),(15,(1,5))))));
(21,((6,20),((13,16),((1,(5,15)),((9,(3,17)),((2,7),((19,(8,18)),((11,12),(10,(4,14))))))))));
(21,((13,16),(((9,(3,17)),((19,(8,18)),((2,7),((11,12),(4,(10,14)))))),((6,20),(1,(5,15))))));
(21,(((6,20),(9,((2,7),((19,(8,18)),((11,12),(14,(4,10))))))),((13,16),((3,17),(1,(5,15))))));
(21,(((1,(5,15)),((9,(3,17)),((19,(8,18)),((2,7),((11,12),(4,(10,14))))))),((13,16),(6,20))));
(21,((6,20),((13,16),((1,(5,15)),((19,(8,18)),(((11,(4,(10,14))),(12,(2,7))),(9,(3,17))))))));
(21,(((6,20),(1,(5,15))),((13,16),((18,((2,7),((11,12),(14,(10,(4,8)))))),(19,(9,(3,17)))))));
(21,(((1,(5,15)),(6,20)),((13,16),((9,(3,17)),(((2,7),((11,12),(4,10))),(14,(19,(8,18))))))));
(21,((1,(5,15)),(((9,(3,17)),((19,(8,18)),((2,7),((14,(4,10)),(11,12))))),((13,16),(6,20)))));
(21,((((19,(8,18)),((12,(14,(4,10))),(2,(7,11)))),(9,(3,17))),((1,(5,15)),((13,16),(6,20)))));
(21,(((13,16),(1,(5,15))),((6,20),((9,(3,17)),(12,((19,(8,18)),((2,(7,11)),(14,(4,10)))))))));
(21,(((1,(5,15)),(((11,12),((14,(4,10)),(2,7))),((19,(8,18)),(9,(3,17))))),((13,16),(6,20))));
(21,(((1,(5,15)),(((12,(14,(4,10))),(2,(7,11))),(9,(3,17)))),((19,(8,18)),((13,16),(6,20)))));
(21,((1,(5,15)),(((19,(8,18)),((9,(3,17)),((2,7),((11,12),(14,(4,10)))))),((6,20),(13,16)))));
(21,(((6,20),(13,16)),((15,(1,5)),((3,17),(9,((8,(18,19)),((11,12),((2,7),(14,(4,10))))))))));
(21,((1,(5,15)),(((19,(8,18)),(((2,7),((11,12),(14,(4,10)))),(9,(3,17)))),((6,20),(13,16)))));
(21,((6,20),((13,16),((1,(5,15)),((9,(3,17)),((19,(8,18)),((11,12),((14,(4,10)),(2,7)))))))));
(21,(((1,(5,15)),((9,(3,17)),(((11,12),((8,10),(4,14))),((2,7),(18,19))))),((13,16),(6,20))));
(21,(((6,20),(13,16)),(((9,(3,17)),((19,(8,18)),((2,7),((11,12),(14,(4,10)))))),(1,(5,15)))));
(21,(((9,(3,17)),((18,19),((2,7),(4,((11,12),(14,(8,10))))))),((1,(5,15)),((6,20),(13,16)))));
(21,((1,(5,15)),(((9,(3,17)),((11,12),((19,(8,18)),((14,(4,10)),(2,7))))),((6,20),(13,16)))));
(21,(((9,(3,17)),((19,(8,18)),((11,12),((14,(4,10)),(2,7))))),((5,(1,15)),((13,16),(6,20)))));
(21,(((6,20),(13,16)),((1,(5,15)),((3,17),(9,((18,19),((2,7),((14,(10,(4,8))),(11,12)))))))));
(21,((1,(5,15)),(((9,(3,17)),((19,(8,18)),((2,7),(10,((11,12),(4,14)))))),((13,16),(6,20)))));
(21,(((9,(3,17)),((19,(8,18)),((2,7),((11,12),(10,(4,14)))))),((13,16),((6,20),(15,(1,5))))));
(21,(((13,16),(6,20)),((1,(5,15)),(9,(((2,(7,11)),(19,(8,18))),((3,17),(12,(4,(10,14)))))))));
(21,(((6,20),(13,16)),((1,(5,15)),((9,(3,17)),((19,(8,18)),((11,12),((14,(4,10)),(2,7))))))));
(21,((13,16),((6,20),((15,(1,5)),((9,(3,17)),((19,(8,18)),((2,7),((11,12),(14,(4,10))))))))));
(21,(((6,20),(13,16)),((1,(5,15)),((9,(3,17)),((19,(8,18)),((2,7),((4,(10,14)),(11,12))))))));
(21,((13,16),((6,20),((1,(5,15)),(((14,(4,10)),(11,12)),((2,7),(9,((3,17),(19,(8,18))))))))));
(21,(((((11,12),(2,7)),((4,(10,14)),(19,(8,18)))),(9,(3,17))),((15,(1,5)),((6,20),(13,16)))));
(21,(((13,16),(6,20)),((1,(5,15)),(((2,7),((11,12),(4,(10,14)))),((8,(18,19)),(9,(3,17)))))));
(21,((6,20),(((9,(3,17)),((19,(8,18)),((14,(11,12)),((4,10),(2,7))))),((1,(5,15)),(13,16)))));
(21,((1,(5,15)),((((2,7),((14,(4,10)),(11,12))),((3,17),(9,(19,(8,18))))),((6,20),(13,16)))));
(21,((13,16),((((11,12),((19,(8,18)),((14,(4,10)),(2,7)))),(9,(3,17))),((6,20),(1,(5,15))))));
(21,((1,(5,15)),((((2,7),((11,12),(14,(4,10)))),((19,(8,18)),(9,(3,17)))),((13,16),(6,20)))));
(21,(((6,20),(13,16)),((15,(1,5)),(((4,(10,14)),((11,12),(2,7))),((18,(8,19)),(9,(3,17)))))));
(21,((1,(5,15)),(((9,(3,17)),((8,(18,19)),((10,(4,14)),((2,7),(11,12))))),((6,20),(13,16)))));
(21,(((15,(1,5)),(9,((((11,12),(14,(4,10))),(2,7)),((3,17),(19,(8,18)))))),((13,16),(6,20))));
(21,(((19,(8,18)),(((2,7),((11,12),(14,(4,10)))),(9,(3,17)))),((1,(5,15)),((13,16),(6,20)))));
(21,(((1,(5,15)),((9,(3,17)),((19,(8,18)),((2,7),((11,12),(14,(4,10))))))),((13,16),(6,20))));
(21,((6,20),((13,16),((1,(5,15)),((9,(3,17)),((18,19),((2,(7,11)),(12,(14,(10,(4,8)))))))))));
(21,(((13,16),(6,20)),((1,(5,15)),((9,(3,17)),(((11,12),(14,(4,10))),(19,((8,18),(2,7))))))));
(21,((13,16),((6,20),((1,(5,15)),((9,(3,17)),((11,12),((19,(8,18)),((2,7),(14,(4,10))))))))));
(21,((13,16),((6,20),(9,((1,(5,15)),((3,17),((18,19),((14,(8,(4,10))),(12,(2,(7,11)))))))))));
(21,(((6,20),(13,16)),((1,(5,15)),((19,(8,18)),((9,(3,17)),(12,((14,(4,10)),(2,(7,11)))))))));
(21,(((9,(3,17)),((14,((11,12),(4,10))),((19,(8,18)),(2,7)))),((6,20),((13,16),(1,(5,15))))));
(21,(((7,((11,12),(2,(14,(4,10))))),((19,(8,18)),(9,(3,17)))),((1,(5,15)),((13,16),(6,20)))));
(21,((1,(5,15)),(((9,(3,17)),(((2,7),(11,12)),((14,(4,10)),(19,(8,18))))),((13,16),(6,20)))));
(21,((13,16),((6,20),((1,(5,15)),((9,(3,17)),((19,(8,18)),((2,7),((14,(4,10)),(11,12)))))))));
(21,((13,16),((1,(5,15)),((6,20),((9,(3,17)),(((11,12),(2,7)),((14,(4,10)),(19,(8,18)))))))));
(21,(((6,20),(1,(5,15))),((13,16),((9,(3,17)),((18,(8,19)),((2,7),((11,12),(14,(4,10)))))))));
(21,(((13,16),(6,20)),((1,(5,15)),((9,(3,17)),((14,(4,10)),((19,(8,18)),((11,12),(2,7))))))));
(21,((6,20),((1,(5,15)),((9,(3,17)),((13,16),((19,(8,18)),((2,7),((11,12),(14,(4,10))))))))));
(21,((((19,(8,18)),((2,7),((11,12),(14,(4,10))))),(9,(3,17))),((1,(5,15)),((13,16),(6,20)))));
(21,(((13,16),(6,20)),((1,(5,15)),(((2,7),(19,(8,18))),((9,(3,17)),((11,12),(14,(4,10))))))));
(21,((((11,12),((2,7),(14,(10,(4,8))))),(1,(5,15))),(((18,19),(9,(3,17))),((6,20),(13,16)))));
(21,(((1,(5,15)),((9,(3,17)),((2,7),(((11,12),(10,(4,14))),(19,(8,18)))))),((13,16),(6,20))));
(21,(((1,(5,15)),(9,((3,17),((19,(8,18)),((2,7),((14,(4,10)),(11,12))))))),((6,20),(13,16))));
(21,(((5,(1,15)),((2,(7,((11,12),(4,(10,14))))),((19,(8,18)),(9,(3,17))))),((13,16),(6,20))));
(21,((15,(1,5)),((((19,(8,18)),(2,(7,11))),((9,(3,17)),(12,(14,(4,10))))),((13,16),(6,20)))));
(21,(((13,16),(6,20)),((1,(5,15)),((9,(3,17)),((((11,12),(10,(4,14))),(2,7)),(19,(8,18)))))));
(((13,16),((6,20),((1,(5,15)),((9,(3,17)),((18,(8,19)),((14,(4,10)),((11,12),(2,7)))))))),21);
(21,(((6,20),(13,16)),((1,(5,15)),((19,(8,18)),(((2,7),((14,(4,10)),(11,12))),(9,(3,17)))))));
(21,(((13,16),(6,20)),((1,(5,15)),((19,(8,18)),((9,(3,17)),((2,(7,11)),(12,(14,(4,10)))))))));
(21,(((13,16),(6,20)),((1,(5,15)),(((2,7),((14,(10,(4,8))),(11,12))),((18,19),(9,(3,17)))))));
(21,(((6,20),(13,16)),((1,(5,15)),(((14,(4,10)),(11,12)),(9,((3,17),((2,7),(19,(8,18)))))))));
(21,(((1,(5,15)),((18,19),((9,(3,17)),((2,(7,11)),(12,(14,(4,(8,10)))))))),((6,20),(13,16))));
(21,(((1,(5,15)),((9,(3,17)),((19,(8,18)),((2,7),((11,12),(14,(4,10))))))),((6,20),(13,16))));
(21,((6,20),((13,16),((1,(5,15)),(((3,17),(19,(8,18))),(9,((2,7),((14,(4,10)),(11,12)))))))));
(21,(((13,16),(1,(5,15))),((6,20),((9,(3,17)),((19,(8,18)),((2,7),((14,(4,10)),(11,12))))))));
(21,(((6,20),(13,16)),((1,(5,15)),(9,((3,17),((19,(8,18)),((2,7),((4,10),(14,(11,12))))))))));
(21,(((13,16),(6,20)),((1,(5,15)),(9,((3,17),(12,((19,(8,18)),((2,(7,11)),(10,(4,14))))))))));
(21,((6,20),((13,16),(((19,(8,18)),((2,7),((4,(10,14)),(11,12)))),((15,(1,5)),(9,(3,17)))))));
(21,(((9,(3,17)),((19,(8,18)),((11,12),((2,7),(14,(4,10)))))),((1,(5,15)),((13,16),(6,20)))));
(21,((6,20),((13,16),((1,(5,15)),((9,(3,17)),((19,(8,18)),(((11,12),(10,(4,14))),(2,7))))))));
(21,(((19,((8,18),(12,(14,(4,10))))),((11,(2,7)),(3,(9,17)))),((1,(5,15)),((6,20),(13,16)))));
(21,(((13,16),(6,20)),((1,(5,15)),((2,(7,11)),((9,(3,17)),((19,(8,18)),(12,(14,(4,10)))))))));
(21,(((6,20),(13,16)),((1,(5,15)),((9,(3,17)),((19,(8,18)),(7,(2,(11,(12,(14,(4,10)))))))))));
(21,(((1,(5,15)),((19,(8,18)),(((2,(7,11)),(12,(14,(4,10)))),(9,(3,17))))),((6,20),(13,16))));
(21,((6,20),(((1,(5,15)),((2,(7,11)),((3,17),((19,(8,18)),(12,(4,(10,14))))))),(9,(13,16)))));
(21,(((6,20),((3,17),(9,((19,(8,18)),((11,12),((2,7),(14,(4,10)))))))),((13,16),(1,(5,15)))));
(21,((13,16),((((2,7),((14,(4,10)),(11,12))),((19,(8,18)),(9,(3,17)))),((6,20),(1,(5,15))))));
(21,((13,16),((6,20),((1,(5,15)),(((2,7),((11,12),(10,(14,(4,8))))),((18,19),(9,(3,17))))))));
(21,(((18,19),((2,7),((4,14),((8,10),(11,12))))),(((1,(5,15)),(9,(3,17))),((13,16),(6,20)))));
(21,((13,16),((6,20),((1,(5,15)),((19,(8,18)),(((14,(4,10)),(2,7)),((11,12),(9,(3,17)))))))));
(21,((13,16),((1,(5,15)),((6,20),(((2,7),((11,12),(4,(10,(8,14))))),((18,19),(9,(3,17))))))));
(21,(((13,16),(6,20)),((1,(5,15)),((3,17),(9,((19,(8,18)),((2,7),((4,(10,14)),(11,12)))))))));
(21,(((1,(5,15)),((9,(3,17)),((18,19),((11,12),((14,(8,(4,10))),(2,7)))))),((13,16),(6,20))));
(21,((1,(5,15)),((13,16),((6,20),((9,(3,17)),((19,(8,18)),((11,12),((2,7),(14,(4,10))))))))));
(21,(((9,(3,17)),(((11,12),(2,7)),((10,(14,(4,8))),(18,19)))),((1,(5,15)),((6,20),(13,16)))));
(21,((13,16),((6,20),((1,(5,15)),((19,(8,18)),((9,(3,17)),((2,7),((14,(4,10)),(11,12)))))))));
(21,((13,16),((((2,7),((11,12),(14,(4,10)))),(9,((3,17),(19,(8,18))))),((6,20),(1,(5,15))))));
(21,((6,20),((13,16),((15,(1,5)),((9,(3,17)),(((11,12),(14,(4,10))),((19,(8,18)),(2,7))))))));
(21,(((19,(8,18)),(14,(12,(4,10)))),(((2,(7,11)),(1,(5,15))),((9,(3,17)),((13,16),(6,20))))));
(21,(((14,(8,(4,10))),((18,19),((2,7),(11,12)))),(((13,16),(6,20)),((1,(5,15)),(9,(3,17))))));
(21,((13,16),((6,20),((1,(5,15)),((9,(3,17)),((18,19),((14,(10,(4,8))),((11,12),(2,7)))))))));
(21,(((1,(5,15)),(((18,19),((11,12),(14,(4,(8,10))))),((2,7),(9,(3,17))))),((13,16),(6,20))));
(21,(((13,16),(6,20)),((5,(1,15)),((9,(3,17)),((19,(8,18)),((2,7),((11,12),(14,(4,10)))))))));
(21,(((13,16),(6,20)),((1,(5,15)),((19,(8,18)),(((2,7),((11,12),(14,(4,10)))),(9,(3,17)))))));
(21,(((13,16),(6,20)),((1,(5,15)),(9,((3,17),((18,19),(((11,12),(14,(8,(4,10)))),(2,7))))))));
(21,(((1,(5,15)),((9,(3,17)),((12,(14,(4,(8,10)))),((2,(7,11)),(18,19))))),((6,20),(13,16))));
(21,(((18,19),((9,(3,17)),((2,(7,11)),(12,(8,(14,(4,10))))))),((1,(5,15)),((6,20),(13,16)))));
(21,((6,20),((13,16),((1,(5,15)),(((2,7),((11,12),(14,(4,10)))),((9,(3,17)),(19,(8,18))))))));
(21,((9,(3,17)),((6,20),((13,16),((1,(5,15)),((18,19),((2,7),(14,((11,12),(4,(8,10)))))))))));
(21,(((1,(5,15)),((19,(8,18)),((9,(3,17)),(12,((14,(4,10)),(2,(7,11))))))),((13,16),(6,20))));
(21,(((1,(5,15)),((9,(3,17)),((19,(8,18)),((2,7),((14,(4,10)),(11,12)))))),((13,16),(6,20))));
(21,(((9,(3,17)),((5,(1,15)),((19,(8,18)),((12,(14,(4,10))),(11,(2,7)))))),((6,20),(13,16))));
(21,((6,20),((13,16),((1,(5,15)),((9,(3,17)),((18,(8,19)),((2,7),((11,12),(14,(4,10))))))))));
(21,(((((11,12),(2,7)),(18,19)),(((4,10),(8,14)),(9,(3,17)))),((6,20),((13,16),(1,(5,15))))));
(21,(((9,(3,17)),((19,(8,18)),((2,7),((11,12),(14,(4,10)))))),((1,(5,15)),((6,20),(13,16)))));
(21,((9,(3,17)),((1,(5,15)),(((19,(8,18)),(7,(2,((11,12),(14,(4,10)))))),((13,16),(6,20))))));
(21,((6,20),((13,16),((1,(5,15)),((9,(3,17)),(((10,(4,14)),(11,12)),((2,7),(19,(8,18)))))))));
(21,(((13,16),(6,20)),((5,(1,15)),((9,(3,17)),((18,19),((2,7),(((8,14),(4,10)),(11,12))))))));
(21,((1,(5,15)),(((13,16),(6,20)),((9,(3,17)),((18,(8,19)),((2,7),((11,12),(14,(4,10)))))))));
(21,((15,(1,5)),((13,16),((6,20),((9,(3,17)),((2,7),((19,(8,18)),((14,(4,10)),(11,12)))))))));
(21,(((13,16),(6,20)),((1,(5,15)),((9,(3,17)),((19,(8,18)),((2,(11,12)),(7,(14,(4,10)))))))));
(21,((15,(1,5)),((((2,7),(11,12)),((18,19),((14,(10,(4,8))),(9,(3,17))))),((13,16),(6,20)))));
(21,((13,16),(((((14,(10,(4,8))),(2,7)),((11,12),(18,19))),(9,(3,17))),((6,20),(5,(1,15))))));
(21,(((9,(3,17)),(((11,12),(14,(10,(4,8)))),((2,7),(18,19)))),((1,(5,15)),((13,16),(6,20)))));
(21,(((6,20),((18,19),((9,(3,17)),((11,12),((14,(8,(4,10))),(2,7)))))),((13,16),(15,(1,5)))));
(21,(((1,(5,15)),(((2,7),((11,12),(14,(4,10)))),((19,(8,18)),(9,(3,17))))),((6,20),(13,16))));
(21,((13,16),(((2,7),((9,(3,17)),(((11,12),(14,(4,10))),(19,(8,18))))),((6,20),(1,(5,15))))));
(21,(((6,20),(13,16)),((1,(5,15)),((9,(3,17)),((10,(4,14)),((19,(8,18)),((11,12),(2,7))))))));
(21,((((2,7),((11,12),(14,(4,10)))),(9,((3,17),(19,(8,18))))),((1,(5,15)),((6,20),(13,16)))));
(21,(((1,(5,15)),((9,(3,17)),((2,7),((19,(8,18)),((11,12),(14,(4,10))))))),((6,20),(13,16))));
(21,((((2,7),((4,(10,14)),(11,12))),((19,(8,18)),(9,(3,17)))),((1,(5,15)),((13,16),(6,20)))));
(21,((6,20),((13,16),((1,(5,15)),(9,((3,17),((19,(8,18)),((2,7),((11,12),(14,(4,10)))))))))));
(21,(((6,20),(13,16)),((1,(5,15)),((3,17),(9,(((11,12),(14,(4,10))),((2,7),(19,(8,18)))))))));
(21,(((9,(3,17)),((19,(8,18)),((2,7),((11,12),(14,(4,10)))))),((1,(5,15)),((6,20),(13,16)))));
(21,((6,20),((13,16),((1,(5,15)),((9,(3,17)),((2,7),((18,19),((14,(8,(4,10))),(11,12)))))))));
(21,((1,(5,15)),((9,((3,17),(((14,(10,(4,8))),(11,12)),((2,7),(18,19))))),((6,20),(13,16)))));
(21,((6,20),((13,16),((1,(5,15)),(((2,(10,(4,14))),(7,(11,12))),((19,(8,18)),(9,(3,17))))))));
(21,(((6,20),(13,16)),((1,(5,15)),(((18,19),((2,7),((11,12),(14,(10,(4,8)))))),(9,(3,17))))));
(21,(((18,19),((9,(3,17)),((2,7),((11,12),(14,(8,(4,10))))))),((1,(5,15)),((13,16),(6,20)))));
(21,((13,16),((6,20),((9,(3,17)),((1,(5,15)),((19,(8,18)),((2,7),((14,(4,10)),(11,12)))))))));
(21,((1,(5,15)),(((9,(3,17)),((11,12),((19,(8,18)),((4,10),(2,(7,14)))))),((6,20),(13,16)))));
(21,(((9,(3,17)),((18,19),((2,7),((11,12),((8,10),(4,14)))))),((6,20),((13,16),(1,(5,15))))));
(21,((1,(5,15)),(((9,(3,17)),((18,19),((11,(10,(14,(4,8)))),(12,(2,7))))),((6,20),(13,16)))));
(21,(((9,(3,17)),(((14,(4,10)),(11,12)),((2,7),(19,(8,18))))),((1,(5,15)),((13,16),(6,20)))));
(21,(((6,20),(5,(1,15))),((13,16),((9,(3,17)),((19,(8,18)),((2,7),((14,(4,10)),(11,12))))))));
(21,((6,20),((13,16),((1,(5,15)),((9,(3,17)),((12,(14,(4,10))),((2,(7,11)),(19,(8,18)))))))));
(21,(((1,(5,15)),((9,((11,12),(14,(4,10)))),((2,7),((3,17),(19,(8,18)))))),((13,16),(6,20))));
(21,((13,16),((6,20),((1,(5,15)),(12,((9,(3,17)),((8,(18,19)),((14,(4,10)),(2,(7,11))))))))));
(21,((6,20),((13,16),((1,(5,15)),((18,19),((9,(3,17)),((10,(11,12)),((14,(4,8)),(2,7)))))))));
(21,((1,(5,15)),(((19,(8,18)),(9,((3,17),((11,12),((2,7),(14,(4,10))))))),((13,16),(6,20)))));
(21,((6,20),((13,16),((1,(5,15)),((3,17),(9,((19,(8,18)),((2,(7,11)),(12,(14,(4,10)))))))))));
(21,(((13,16),(1,(5,15))),((6,20),((14,((11,12),(4,10))),((9,(3,17)),((19,(8,18)),(2,7)))))));
(21,(((9,(3,17)),((10,(4,14)),((7,(11,12)),(2,(19,(8,18)))))),((1,(5,15)),((13,16),(6,20)))));
(21,((6,20),((13,16),((1,(5,15)),((3,17),((14,(4,10)),(9,((19,(8,18)),((11,12),(2,7))))))))));
(21,(((1,(5,15)),((19,(8,18)),((((14,(4,10)),(11,12)),(2,7)),(9,(3,17))))),((13,16),(6,20))));
(21,(((19,(8,18)),((9,(3,17)),((10,(4,14)),((11,12),(2,7))))),((1,(5,15)),((13,16),(6,20)))));
(21,((6,20),(((3,17),(9,((19,(8,18)),((2,7),((11,12),(14,(4,10))))))),((13,16),(1,(5,15))))));
(21,((13,16),((6,20),((1,(5,15)),(((19,(8,18)),((2,7),((10,14),(4,(11,12))))),(9,(3,17)))))));
(21,(((19,(8,18)),((2,7),((11,12),(14,(4,10))))),(((1,(5,15)),(9,(3,17))),((13,16),(6,20)))));
(21,(((1,(5,15)),((9,(3,17)),(((8,(18,19)),(2,7)),((14,(4,10)),(11,12))))),((13,16),(6,20))));
(21,(((6,20),(13,16)),((1,(5,15)),(9,((3,17),((19,(8,18)),((2,7),((11,12),(14,(4,10))))))))));
(21,(((13,16),(6,20)),(((9,(3,17)),(((11,12),(14,(4,10))),((2,7),(19,(8,18))))),(1,(5,15)))));
(21,(((1,(5,15)),((14,(10,(4,8))),((9,(3,17)),((2,7),((11,12),(18,19)))))),((13,16),(6,20))));
(21,(((1,(5,15)),((2,7),(((19,(8,18)),((11,12),(14,(4,10)))),(9,(3,17))))),((6,20),(13,16))));
(21,(((6,20),(13,16)),((1,(5,15)),((2,7),((9,(3,17)),((19,(8,18)),((11,12),(14,(4,10)))))))));
(21,(((1,(5,15)),(((2,7),((11,12),(14,(4,10)))),((19,(8,18)),(9,(3,17))))),((13,16),(6,20))));
(21,((13,16),((((12,(14,(4,10))),(2,(7,11))),((19,(8,18)),(9,(3,17)))),((6,20),(1,(5,15))))));
(21,(((1,(5,15)),((9,(3,17)),((2,7),((19,(8,18)),((14,(4,10)),(11,12)))))),((13,16),(6,20))));
(21,(((13,16),(6,20)),((1,(5,15)),(((2,7),(19,(8,18))),(((14,(4,10)),(11,12)),(9,(3,17)))))));
(21,((6,20),((13,16),((1,(5,15)),(((2,7),((11,12),(4,(10,14)))),((19,(8,18)),(9,(3,17))))))));
(21,(((9,(3,17)),((19,(8,18)),((14,(4,10)),((11,12),(2,7))))),((1,(5,15)),((13,16),(6,20)))));
(21,((6,20),((13,16),((1,(5,15)),(9,((3,17),((19,(8,18)),((2,7),((11,12),(10,(4,14)))))))))));
(21,((13,16),(((9,(3,17)),((19,(8,18)),((2,7),((11,12),(14,(4,10)))))),((6,20),(1,(5,15))))));
(21,(((9,(3,17)),((19,(8,18)),((2,7),((11,12),(14,(4,10)))))),((1,(5,15)),((13,16),(6,20)))));
(21,(((6,20),(13,16)),((5,(1,15)),((9,(3,17)),((2,7),((19,(8,18)),((14,(4,10)),(11,12))))))));
(21,((13,16),(((9,(3,17)),((19,(8,18)),((2,(7,11)),(12,(14,(4,10)))))),((6,20),(1,(5,15))))));
(21,(((9,(3,17)),((19,(8,18)),((14,(4,10)),((2,7),(11,12))))),((6,20),((13,16),(1,(5,15))))));
(21,((6,20),((13,16),((1,(5,15)),((9,(3,17)),(((14,(4,10)),(2,7)),((11,12),(19,(8,18)))))))));
(21,(((13,16),(6,20)),((1,(5,15)),((9,(3,17)),((19,(8,18)),((2,7),((11,12),(14,(4,10)))))))));
(21,(((1,(5,15)),((9,(3,17)),((19,(8,18)),(12,((2,(7,11)),(4,(10,14))))))),((6,20),(13,16))));
(21,(((13,16),(6,20)),((1,(5,15)),(12,((9,(3,17)),((19,(8,18)),((10,(4,14)),(2,(7,11)))))))));
(21,(((13,16),(6,20)),((5,(1,15)),((8,(18,19)),((14,(4,10)),((9,(3,17)),(12,(2,(7,11)))))))));
(21,(((6,20),(13,16)),((15,(1,5)),(((11,12),(14,(4,10))),(((8,(18,19)),(2,7)),(9,(3,17)))))));
(21,(((19,(8,18)),((2,7),((11,12),(10,(4,14))))),(((1,(5,15)),(9,(3,17))),((6,20),(13,16)))));
(21,(((1,(5,15)),((9,(3,17)),((19,(8,18)),((2,7),((11,12),(14,(4,10))))))),((13,16),(6,20))));
(21,(((13,16),(6,20)),(((((11,12),(14,(4,10))),(2,7)),((19,(8,18)),(9,(3,17)))),(1,(5,15)))));
(21,(((13,16),(6,20)),((1,(5,15)),(((2,7),((11,12),(14,(4,10)))),((19,(8,18)),(9,(3,17)))))));
(21,(((1,(5,15)),(((19,(8,18)),((11,12),((14,(4,10)),(2,7)))),(9,(3,17)))),((13,16),(6,20))));
(21,((13,16),((6,20),((1,(5,15)),(((14,(4,10)),(9,(3,17))),((19,(8,18)),((11,12),(2,7))))))));
(21,(((1,(5,15)),(((18,19),((2,7),((11,12),((4,8),(10,14))))),(9,(3,17)))),((6,20),(13,16))));
(21,(((13,16),(6,20)),((1,(5,15)),((9,(3,17)),((18,19),((2,7),((11,12),(8,(14,(4,10))))))))));
(21,(((9,(3,17)),((12,(14,(8,(4,10)))),((2,(7,11)),(18,19)))),((15,(1,5)),((6,20),(13,16)))));
(21,(((13,16),(9,(((2,(7,11)),(12,(14,(10,(4,8))))),((3,17),(18,19))))),((6,20),(1,(5,15)))));
(21,(((13,16),(6,20)),((15,(1,5)),((9,(3,17)),((19,(8,18)),((11,12),((2,7),(14,(4,10)))))))));
(21,((6,20),((5,(1,15)),((13,16),((9,(3,17)),(((2,7),((11,12),(14,(4,10)))),(19,(8,18))))))));
(21,((6,20),((1,(5,15)),((13,16),(((2,(7,11)),(12,(10,(4,14)))),((8,19),(18,(9,(3,17)))))))));
(21,(((2,(4,(14,(8,10)))),((18,19),(12,(7,11)))),((13,16),((9,(3,17)),((6,20),(1,(5,15)))))));
(21,(((6,20),(13,16)),((19,(8,18)),((1,(5,15)),(((2,7),((11,12),(14,(4,10)))),(9,(3,17)))))));
(21,((13,16),((6,20),((5,(1,15)),((14,(4,10)),((9,(3,17)),((19,(8,18)),(12,(2,(7,11))))))))));
(21,((6,20),((13,16),((1,(5,15)),((9,(3,17)),((19,(8,18)),(((11,12),(14,(4,10))),(2,7))))))));
(21,(((13,16),(6,20)),((15,(1,5)),((9,(3,17)),(((4,14),(12,(10,11))),((2,7),(19,(8,18))))))));
(21,((6,20),((13,16),((1,(5,15)),((12,((2,7),(14,(4,10)))),((9,(3,17)),(11,(19,(8,18)))))))));
(21,((13,16),((6,20),((1,(5,15)),(((2,(7,11)),(12,(14,(4,10)))),((19,(8,18)),(9,(3,17))))))));
(21,(((1,(5,15)),((19,(8,18)),((9,(3,17)),((2,7),((11,12),(14,(4,10))))))),((13,16),(6,20))));
(21,(((9,(3,17)),((11,12),((14,(4,10)),(2,7)))),(((5,(1,15)),(19,(8,18))),((6,20),(13,16)))));
(21,(((6,20),(13,16)),((1,(5,15)),((9,(3,17)),((18,19),((2,7),((11,12),(14,(10,(4,8))))))))));
(21,(((13,16),((9,(3,17)),(((4,(14,(8,10))),(11,12)),((2,7),(18,19))))),((6,20),(1,(5,15)))));
(21,(((9,(3,17)),((19,(8,18)),((11,12),((14,(4,10)),(2,7))))),((13,16),((1,(5,15)),(6,20)))));
(21,(((13,16),(6,20)),((1,(5,15)),((9,(3,17)),((19,(8,18)),((2,7),((11,12),(4,(10,14)))))))));
(21,(((1,(5,15)),((3,17),(((2,7),((11,12),(10,(4,14)))),(9,(19,(8,18)))))),((13,16),(6,20))));
(21,(((13,16),((19,(8,18)),(((2,7),((14,(4,10)),(11,12))),(9,(3,17))))),((6,20),(1,(5,15)))));
(21,(((13,16),(6,20)),((1,(5,15)),((9,(3,17)),((19,(8,18)),(2,(7,((11,12),(14,(4,10))))))))));
(21,(((1,(5,15)),(((2,7),((11,12),(14,(4,10)))),((19,(8,18)),(9,(3,17))))),((6,20),(13,16))));
(21,(((13,16),(6,20)),((5,(1,15)),((18,19),((3,17),(9,((11,12),((2,7),(14,(4,(8,10)))))))))));
(21,((6,20),((13,16),((1,(5,15)),((9,(3,17)),((19,(8,18)),(7,((14,(4,10)),(2,(11,12))))))))));
(21,(((1,(5,15)),(((2,(7,11)),((19,(8,18)),(12,(14,(4,10))))),(9,(3,17)))),((6,20),(13,16))));
(21,(((13,16),(6,20)),((1,(5,15)),((2,7),((9,(3,17)),((18,19),((11,12),((4,10),(8,14)))))))));
(21,(((6,20),(13,16)),((1,(5,15)),((9,(3,17)),(((2,(7,11)),(4,(10,14))),(12,(19,(8,18))))))));
(21,(((1,(5,15)),((9,(3,17)),((2,7),((19,(8,18)),((11,12),(4,(10,14))))))),((13,16),(6,20))));
(21,((6,20),((13,16),((1,(5,15)),(((11,12),(14,(4,10))),((9,(3,17)),((2,7),(19,(8,18)))))))));
(21,(((1,(5,15)),(((2,7),((14,(4,10)),(11,12))),((19,(8,18)),(9,(3,17))))),((13,16),(6,20))));
(21,(((6,20),(1,(5,15))),((13,16),((19,(8,18)),(((2,(7,11)),(12,(14,(4,10)))),(9,(3,17)))))));
(21,((6,20),((13,16),((1,(5,15)),(19,((9,(3,17)),(18,((11,12),((14,(4,(8,10))),(2,7))))))))));
(21,((6,20),((((11,12),(2,7)),((9,(3,17)),((14,(4,10)),(19,(8,18))))),((13,16),(1,(5,15))))));
(21,((6,20),((1,(5,15)),((13,16),(((2,7),((14,(4,10)),(11,12))),((19,(8,18)),(9,(3,17))))))));
(21,((1,(5,15)),((13,16),((6,20),((9,(3,17)),((19,(8,18)),((2,7),((11,12),(10,(4,14))))))))));
(21,(((1,(5,15)),((9,(3,17)),((19,(8,18)),((2,7),((11,12),(14,(4,10))))))),((6,20),(13,16))));
(21,(((((10,(4,14)),(11,12)),(19,(8,18))),((2,7),(9,(3,17)))),((1,(5,15)),((13,16),(6,20)))));
(21,((6,20),((13,16),((1,(5,15)),((11,12),((9,(3,17)),((19,(8,18)),((2,7),(4,(10,14))))))))));
(21,((1,(5,15)),(((9,(3,17)),((19,(8,18)),((2,7),((11,12),(14,(4,10)))))),((13,16),(6,20)))));
(21,((1,(5,15)),(((19,(8,18)),((9,(3,17)),((2,7),((11,12),(14,(4,10)))))),((13,16),(6,20)))));
(21,(((6,20),((9,(3,17)),((19,(8,18)),((2,7),((11,12),(14,(4,10))))))),((13,16),(5,(1,15)))));
(21,((1,(5,15)),((((2,7),((11,12),(10,(4,14)))),((19,(8,18)),(9,(3,17)))),((13,16),(6,20)))));
(21,(((1,(5,15)),((3,17),((11,12),(14,(4,10))))),((9,((2,7),(19,(8,18)))),((13,16),(6,20)))));
(21,((6,20),((13,16),((1,(5,15)),((9,(3,17)),((8,(18,19)),((11,(2,7)),(12,(14,(4,10))))))))));
(21,((13,16),((6,20),((1,(5,15)),((9,(3,17)),((18,19),(8,((2,7),(4,((10,14),(11,12)))))))))));
(21,(((6,20),(13,16)),((1,(5,15)),((9,(3,17)),((19,(8,18)),((2,7),((11,12),(10,(4,14)))))))));
(21,((6,20),(((1,(5,15)),(9,(3,17))),((13,16),((19,(8,18)),((11,12),((14,(4,10)),(2,7))))))));
(21,((6,20),((13,16),((1,(5,15)),(((18,19),((10,(14,(4,8))),((11,12),(2,7)))),(9,(3,17)))))));
(21,(((6,20),((9,(3,17)),((14,(4,10)),(19,(8,18))))),(((11,12),(2,7)),((13,16),(1,(5,15))))));
(21,((((2,7),(11,12)),((9,(3,17)),((19,(8,18)),(14,(4,10))))),((1,(5,15)),((13,16),(6,20)))));
(21,(((1,(5,15)),((14,(4,10)),((12,(2,(7,11))),((18,(8,19)),(9,(3,17)))))),((13,16),(6,20))));
(21,((13,16),((6,20),((1,(5,15)),((19,(8,18)),((9,(3,17)),((11,12),((4,(10,14)),(2,7)))))))));
(21,(((1,(5,15)),((9,(3,17)),((19,(8,18)),((2,(7,11)),(12,(14,(4,10))))))),((13,16),(6,20))));
(21,(((19,(8,18)),((9,(3,17)),(7,(2,((11,12),(14,(4,10))))))),((1,(5,15)),((13,16),(6,20)))));
(21,(((6,20),(13,16)),((1,(5,15)),(((2,7),((11,12),(14,(4,10)))),((19,(8,18)),(9,(3,17)))))));
(21,(((6,20),(1,(5,15))),((13,16),((9,(3,17)),((14,(4,10)),((19,(8,18)),((2,7),(11,12))))))));
(21,(((1,(5,15)),(((19,(8,18)),((2,7),((4,10),(14,(11,12))))),(9,(3,17)))),((13,16),(6,20))));
(21,((13,16),((1,(5,15)),((6,20),((18,19),((7,(2,((11,12),(14,(8,(4,10)))))),(3,(9,17))))))));
(21,((6,20),((1,(5,15)),((13,16),((11,12),((9,(3,17)),((18,(8,19)),((4,(10,14)),(2,7)))))))));
(21,(((1,(5,15)),((9,(3,17)),((19,(8,18)),((11,12),((4,(10,14)),(2,7)))))),((6,20),(13,16))));
(21,(((13,16),(6,20)),((1,(5,15)),((9,(3,17)),((19,(8,18)),((2,7),((11,12),(14,(4,10)))))))));
(21,(((1,(5,15)),((9,(3,17)),((11,12),(2,7)))),((13,16),((6,20),((18,19),(14,(10,(4,8))))))));
(21,((6,20),((13,16),((1,(5,15)),((9,(3,17)),((19,(8,18)),((4,(10,14)),((2,7),(11,12)))))))));
(21,(((13,16),(6,20)),((1,(5,15)),((12,(18,19)),(((2,(7,11)),(14,(4,(8,10)))),(9,(3,17)))))));
(21,(((13,16),(6,20)),((1,(5,15)),((9,(3,17)),((19,(8,18)),((2,7),((11,12),(14,(4,10)))))))));
(21,(((13,16),(6,20)),((1,(5,15)),(9,(((19,(8,18)),((11,12),(14,(4,10)))),((3,17),(2,7)))))));
(21,(((6,20),(13,16)),((1,(5,15)),((19,(8,18)),((14,(4,10)),(((11,12),(2,7)),(9,(3,17))))))));
(21,((((14,((4,10),(11,12))),((2,7),(19,(8,18)))),((1,(5,15)),(9,(3,17)))),((13,16),(6,20))));
(21,((6,20),((13,16),((1,(5,15)),((9,(3,17)),((19,(8,18)),((2,7),((11,12),(14,(4,10))))))))));
(21,(((13,16),(6,20)),((1,(5,15)),((2,(7,11)),((9,(3,17)),((18,19),(12,((8,10),(4,14)))))))));
(21,(((1,(5,15)),((19,(8,18)),(((2,7),((11,12),(10,(4,14)))),(9,(3,17))))),((6,20),(13,16))));
(21,((1,(5,15)),(((18,19),((2,7),(((11,12),(14,(10,(4,8)))),(9,(3,17))))),((6,20),(13,16)))));
(21,((13,16),((6,20),((1,(5,15)),((9,(3,17)),((2,7),(((14,(4,10)),(11,12)),(19,(8,18)))))))));
(21,(((6,20),((9,(3,17)),((11,12),((19,(8,18)),((14,(4,10)),(2,7)))))),((13,16),(1,(5,15)))));
(21,((13,16),((6,20),((1,(5,15)),(((3,17),(19,(8,18))),(9,((2,7),((11,12),(14,(4,10))))))))));
(21,((13,16),((1,(5,15)),((6,20),((19,(8,18)),(((2,(7,11)),(12,(14,(4,10)))),(9,(3,17))))))));
(21,((((19,(8,18)),((2,7),((11,12),(14,(4,10))))),(9,(3,17))),((1,(5,15)),((6,20),(13,16)))));
(21,((1,(5,15)),(((9,(3,17)),((19,(8,18)),((2,7),((4,(10,14)),(11,12))))),((6,20),(13,16)))));
(21,(((13,16),(6,20)),((1,(5,15)),((9,(3,17)),((19,(8,18)),((2,7),((11,12),(10,(4,14)))))))));
(21,((1,(5,15)),((13,16),((6,20),(((2,(7,11)),(12,(14,(4,10)))),((19,(8,18)),(9,(3,17))))))));
(21,(((9,(3,17)),(((11,12),(2,7)),((14,(4,10)),(18,(8,19))))),((1,(5,15)),((6,20),(13,16)))));
(21,((1,(5,15)),(((19,(8,18)),(((2,7),((11,12),(4,(10,14)))),(9,(3,17)))),((6,20),(13,16)))));
(21,((1,(5,15)),((9,((3,17),((19,(8,18)),(2,(7,((11,12),(14,(4,10)))))))),((6,20),(13,16)))));
(21,(((6,20),(((2,7),((11,12),(10,(4,14)))),((19,(8,18)),(9,(3,17))))),((13,16),(15,(1,5)))));
(21,(((1,(5,15)),((17,(3,9)),((19,(8,18)),((2,7),((14,(4,10)),(11,12)))))),((13,16),(6,20))));
(21,((6,20),((((2,7),(4,((11,12),(10,14)))),((19,(8,18)),(9,(3,17)))),((13,16),(1,(5,15))))));
(21,((6,20),((13,16),((1,(5,15)),(((18,19),(10,((14,(4,8)),(11,12)))),((2,7),(3,(9,17))))))));
(21,(((19,(8,18)),((9,(3,17)),((2,7),((10,14),(4,(11,12)))))),((1,(5,15)),((13,16),(6,20)))));
(21,((1,(5,15)),((6,20),((13,16),(((2,7),((11,12),(14,(4,10)))),((19,(8,18)),(9,(3,17))))))));
(21,(((13,16),(6,20)),((1,(5,15)),((9,(3,17)),((19,(8,18)),((11,12),((2,7),(14,(4,10)))))))));
(21,((6,20),((13,16),((1,(5,15)),((3,17),(9,((19,(8,18)),((2,7),((11,12),(14,(4,10)))))))))));
(21,((13,16),(((9,(3,17)),((19,(8,18)),((2,7),((11,12),(4,(10,14)))))),((6,20),(1,(5,15))))));
(21,(((6,20),(13,16)),((5,(1,15)),((9,(3,17)),((19,(8,18)),((2,7),((11,12),(14,(4,10)))))))));
(21,(((13,16),(6,20)),((1,(5,15)),((9,(3,17)),(((11,12),(14,(4,10))),((18,(8,19)),(2,7)))))));
(21,(((13,16),(6,20)),((1,(5,15)),(((11,12),(14,(4,10))),((9,(3,17)),((2,7),(8,(18,19))))))));
(21,((1,(5,15)),((6,20),((13,16),(((2,7),((11,12),(14,(4,10)))),((19,(8,18)),(9,(3,17))))))));
(21,((6,20),((13,16),((1,(5,15)),((18,19),((9,(3,17)),((2,(7,11)),(12,(14,(8,(4,10)))))))))));
(21,((1,(5,15)),(((9,(3,17)),((19,(8,18)),((2,7),((11,12),(14,(4,10)))))),((13,16),(6,20)))));
(21,((1,(5,15)),((((2,7),(18,19)),(((11,12),(14,(4,(8,10)))),(9,(3,17)))),((13,16),(6,20)))));
(21,(((13,16),(6,20)),((15,(1,5)),((((11,12),(2,7)),((14,(4,10)),(19,(8,18)))),(9,(3,17))))));
(21,((6,20),((13,16),((9,(3,17)),((1,(5,15)),((18,19),((10,(11,12)),((14,(4,8)),(2,7)))))))));
(21,(((13,16),(6,20)),((1,(5,15)),((9,((2,7),((11,12),(14,(4,10))))),((3,17),(19,(8,18)))))));
(21,(((14,(4,10)),((11,12),(2,7))),((6,20),((13,16),((1,(5,15)),((19,(8,18)),(9,(3,17))))))));
(21,((9,((11,12),((3,17),((19,(8,18)),((4,(10,14)),(2,7)))))),((1,(5,15)),((13,16),(6,20)))));
(21,(((13,16),(6,20)),((3,17),((1,(5,15)),(9,((2,(7,11)),((12,(14,(4,10))),(19,(8,18)))))))));
(21,(((13,16),(6,20)),((1,(5,15)),((9,(3,17)),((19,(8,18)),((2,7),((14,(4,10)),(11,12))))))));
(21,(((13,16),(6,20)),((1,(5,15)),((9,(3,17)),((19,(8,18)),((2,7),((11,12),(14,(4,10)))))))));
(21,((15,(1,5)),(((9,(3,17)),((19,(8,18)),((14,(4,10)),((11,12),(2,7))))),((6,20),(13,16)))));
(21,(((9,(3,17)),((18,19),((2,7),((14,(10,(4,8))),(11,12))))),((1,(5,15)),((6,20),(13,16)))));
(21,((1,(5,15)),((((2,(7,11)),(12,(14,(4,10)))),((19,(8,18)),(9,(3,17)))),((13,16),(6,20)))));
(21,((1,(5,15)),(((9,(3,17)),((19,(8,18)),((12,(4,(10,14))),(2,(7,11))))),((13,16),(6,20)))));
(21,(((13,16),(6,20)),((1,(5,15)),(((11,12),(8,(4,(10,14)))),((18,19),((2,7),(9,(3,17))))))));
(21,((6,20),((13,16),((1,(5,15)),((9,(3,17)),((19,(8,18)),((2,(7,11)),(12,(14,(4,10))))))))));
(21,((5,(1,15)),((((2,7),(19,(8,18))),(((11,12),(14,(4,10))),(9,(3,17)))),((13,16),(6,20)))));
(21,(((13,16),((3,(9,17)),((18,19),((2,7),((14,(10,(4,8))),(11,12)))))),((6,20),(1,(5,15)))));
(21,(((13,16),(6,20)),((1,(5,15)),((9,(3,17)),((19,(8,18)),((2,7),((14,(4,10)),(11,12))))))));
(21,(((13,16),(6,20)),((1,(5,15)),((9,(3,17)),(((14,(4,10)),(11,12)),((2,7),(19,(8,18))))))));
(21,((13,16),((1,(5,15)),((6,20),((9,(3,17)),((19,(8,18)),((14,(4,10)),(12,(2,(7,11))))))))));
(21,(((13,16),(6,20)),((1,(5,15)),(((8,(18,19)),((2,7),(14,(4,10)))),((11,12),(9,(3,17)))))));
(21,(((1,(5,15)),((19,(8,18)),(((2,(7,11)),(12,(14,(4,10)))),(9,(3,17))))),((13,16),(6,20))));
(21,((6,20),((13,16),((1,(5,15)),(9,((3,17),((8,(18,19)),((2,(7,11)),(12,(14,(4,10)))))))))));
(21,(((13,16),(6,20)),((1,(5,15)),((9,(3,17)),((19,(8,18)),((4,10),((2,7),(14,(11,12)))))))));
(21,(((1,(5,15)),((9,(3,17)),((11,12),((19,(8,18)),((4,(10,14)),(2,7)))))),((13,16),(6,20))));
(21,(((1,(5,15)),((9,(3,17)),((18,19),((2,7),((11,12),((8,10),(4,14))))))),((6,20),(13,16))));
(21,(((9,(19,(8,18))),((3,17),((11,12),((14,(4,10)),(2,7))))),((1,(5,15)),((13,16),(6,20)))));
(21,((13,16),((6,20),((5,(1,15)),((9,(3,17)),((18,19),((2,7),((11,12),(14,(4,(8,10)))))))))));
(21,(((11,12),(14,(4,10))),(((6,20),(13,16)),((15,(1,5)),((3,(9,17)),((2,7),(19,(8,18))))))));
(21,(((13,16),(6,20)),((1,(5,15)),((9,(3,17)),((19,(8,18)),((2,7),((14,(4,10)),(11,12))))))));
(21,(((13,16),(6,20)),((1,(5,15)),((9,(3,17)),((18,19),((2,7),((11,12),(14,(10,(4,8))))))))));
(21,((6,20),(((9,(3,17)),((18,19),((2,7),((14,(4,(8,10))),(11,12))))),((13,16),(1,(5,15))))));
(21,((9,(((11,12),(14,(4,10))),((3,17),((2,7),(19,(8,18)))))),((6,20),((13,16),(1,(5,15))))));
(21,(((13,16),(6,20)),((1,(5,15)),((19,(8,18)),(((2,7),((11,12),(14,(4,10)))),(9,(3,17)))))));
(21,((6,20),((13,16),((1,(5,15)),((9,(3,17)),(((11,12),(4,(10,14))),(19,((8,18),(2,7)))))))));
(21,(((13,16),(6,20)),((1,(5,15)),(((18,19),((2,7),((11,12),(14,(10,(4,8)))))),(9,(3,17))))));
(21,((1,(5,15)),(((9,(3,17)),(19,((8,18),(((11,12),(14,(4,10))),(2,7))))),((13,16),(6,20)))));
(21,((6,20),((13,16),(((2,7),((19,(8,18)),((11,12),(14,(4,10))))),((1,(5,15)),(9,(3,17)))))));
(21,(((6,20),(13,16)),((1,(5,15)),(((19,(8,18)),((2,7),((11,12),(14,(4,10))))),(9,(3,17))))));
(21,(((9,(2,7)),((3,17),((19,(8,18)),((11,12),(14,(4,10)))))),((1,(5,15)),((13,16),(6,20)))));
(21,((13,16),((6,20),((1,(5,15)),(((19,(8,18)),((2,7),((11,12),(14,(4,10))))),(9,(3,17)))))));
(21,(((13,16),(6,20)),((1,(5,15)),((19,(8,18)),((9,(3,17)),((2,(7,11)),(12,(14,(4,10)))))))));
(21,((1,(5,15)),(((9,(3,17)),((18,19),((2,7),((14,(10,(4,8))),(11,12))))),((13,16),(6,20)))));
(21,((13,16),((6,20),((5,(1,15)),(((18,(8,19)),((2,7),(14,((4,10),(11,12))))),(9,(3,17)))))));
(21,((6,20),((13,16),((1,(5,15)),(((9,(3,17)),(((8,10),(4,14)),(11,12))),((2,7),(18,19)))))));
(21,(((6,20),(13,16)),((1,(5,15)),(((2,7),((14,(4,10)),(11,12))),((19,(8,18)),(9,(3,17)))))));
(21,((1,(5,15)),(((19,(8,18)),((9,(3,17)),((2,7),((11,12),(14,(4,10)))))),((6,20),(13,16)))));
(21,((1,(5,15)),(((2,7),((((11,12),(4,(10,14))),(19,(8,18))),(9,(3,17)))),((13,16),(6,20)))));
(21,((13,16),((6,20),((1,(5,15)),(((11,12),(14,(4,(8,10)))),((9,(3,17)),((2,7),(18,19))))))));
(21,(((3,17),(9,((8,(18,19)),(((11,12),(14,(4,10))),(2,7))))),((1,(5,15)),((13,16),(6,20)))));
(21,((((2,(7,11)),(12,(10,(4,14)))),((19,(8,18)),(9,(3,17)))),((6,20),((1,(5,15)),(13,16)))));
(21,(((13,16),(6,20)),((1,(5,15)),((19,(8,18)),((9,(3,17)),((2,(7,11)),(12,(14,(4,10)))))))));
(21,((1,(5,15)),((13,16),((6,20),((3,17),(9,((19,(8,18)),((2,7),((14,(4,10)),(11,12))))))))));
(21,(((13,16),(6,20)),((9,(3,17)),((5,(1,15)),(((14,(4,10)),(2,7)),((11,12),(19,(8,18))))))));
(21,(((13,16),(6,20)),((15,(1,5)),((19,(8,18)),((9,(3,17)),((14,(4,10)),(12,(2,(7,11)))))))));
(21,((((11,12),((2,7),(14,(4,10)))),((19,(8,18)),(9,(3,17)))),((1,(5,15)),((13,16),(6,20)))));
(21,(((13,16),(6,20)),((1,(5,15)),((3,17),(9,((19,(8,18)),((2,7),((11,12),(14,(4,10))))))))));
(21,((1,(5,15)),((6,20),((13,16),((9,(3,17)),((18,19),((11,12),((10,(14,(4,8))),(2,7)))))))));
(21,((1,(5,15)),((9,((3,17),((19,(8,18)),((14,((4,10),(11,12))),(2,7))))),((6,20),(13,16)))));
(21,(((13,16),(6,20)),((1,(5,15)),((19,(8,18)),(((2,(7,11)),(12,(4,(10,14)))),(9,(3,17)))))));
(21,(((1,(5,15)),(9,(((14,(4,10)),(19,(8,18))),((3,17),((2,7),(11,12)))))),((6,20),(13,16))));
(21,(((15,(1,5)),(((14,(4,10)),((2,7),(11,12))),((19,(8,18)),(9,(3,17))))),((6,20),(13,16))));
(21,(((1,(5,15)),((19,(8,18)),((9,(3,17)),(((14,(4,10)),(11,12)),(2,7))))),((13,16),(6,20))));
(21,((13,16),((6,20),((1,(5,15)),((19,(8,18)),(((2,(7,11)),(12,(14,(4,10)))),(9,(3,17))))))));
(21,((6,20),((13,16),((1,(5,15)),((9,17),((19,(8,18)),(3,((2,7),((11,12),(10,(4,14)))))))))));
(21,((((2,7),((14,(4,10)),(11,12))),((19,(8,18)),(9,(3,17)))),((5,(1,15)),((13,16),(6,20)))));
(21,((13,16),((6,20),((1,(5,15)),((19,(8,18)),((3,17),(9,((2,7),((11,12),(14,(4,10)))))))))));
(21,((6,20),((13,16),((1,(5,15)),(((2,(7,11)),(12,(14,(10,(4,8))))),((18,19),(9,(3,17))))))));
(21,((1,(5,15)),((((14,(4,10)),((11,12),(2,7))),((3,17),(9,(19,(8,18))))),((13,16),(6,20)))));
(21,(((6,20),(13,16)),((1,(5,15)),(((2,7),(19,(8,18))),(((11,12),(14,(4,10))),(9,(3,17)))))));
(21,((6,20),((1,(5,15)),((13,16),((9,(3,17)),(((14,(4,10)),(11,12)),((2,7),(19,(8,18)))))))));
(21,(((13,16),(6,20)),((1,(5,15)),((9,(3,17)),((2,(7,11)),((19,(8,18)),(12,(14,(4,10)))))))));
(21,((13,16),(((9,(3,17)),((19,(8,18)),((2,7),((11,12),(14,(4,10)))))),((6,20),(1,(5,15))))));
(21,(((2,7),((9,(3,17)),((19,(8,18)),((14,(4,10)),(11,12))))),((1,(5,15)),((13,16),(6,20)))));
(21,(((13,16),(6,20)),((14,(12,(4,10))),((1,(5,15)),((19,(8,18)),((2,(7,11)),(9,(3,17))))))));
(21,(((1,(5,15)),((9,(3,17)),((11,12),((19,(8,18)),((2,7),(14,(4,10))))))),((6,20),(13,16))));
(21,((13,16),((6,20),((1,(5,15)),((19,(8,18)),((9,(3,17)),(2,(7,(14,((4,10),(11,12)))))))))));
(21,(((13,16),(6,20)),((1,(5,15)),((9,(3,17)),((11,12),((19,(8,18)),(7,(2,(10,(4,14))))))))));
(21,((6,20),((1,(5,15)),((13,16),(((11,12),((2,7),(14,(10,(4,8))))),((18,19),(9,(3,17))))))));
(21,(((6,20),(13,16)),((1,(5,15)),((((4,8),(10,14)),(11,12)),(((18,19),(2,7)),(17,(3,9)))))));
(21,((13,16),((6,20),((1,(5,15)),((19,(8,18)),((9,(3,17)),((2,7),((11,12),(14,(4,10))))))))));
(21,(((6,20),((18,19),(((2,7),((14,(8,(4,10))),(11,12))),(9,(3,17))))),((13,16),(1,(5,15)))));
(21,((6,20),((13,16),(((8,(18,19)),(9,(3,17))),(((2,7),((11,12),(10,(4,14)))),(1,(5,15)))))));
(21,(((13,16),(6,20)),((1,(5,15)),((9,(3,17)),((18,19),((2,7),((11,12),(14,(10,(4,8))))))))));
(21,(((13,16),(6,20)),((1,(5,15)),(((8,(18,19)),(12,((2,(7,11)),(14,(4,10))))),(9,(3,17))))));
(21,((1,(5,15)),((((11,12),((14,(4,10)),(2,7))),(9,((3,17),(19,(8,18))))),((6,20),(13,16)))));
(21,(((6,20),(13,16)),((1,(5,15)),((19,(8,18)),((9,(3,17)),((2,7),((14,(4,10)),(11,12))))))));
(21,(((13,16),(6,20)),((1,(5,15)),((9,(3,17)),((18,19),((2,(7,11)),(12,(14,(10,(4,8))))))))));
(21,((1,(5,15)),(((10,(4,14)),((2,7),(11,12))),((6,20),((13,16),((19,(8,18)),(9,(3,17))))))));
(21,((6,20),((1,(5,15)),((13,16),((19,(8,18)),(((2,7),((11,12),(10,(4,14)))),(9,(3,17))))))));
(21,((6,20),((13,16),((5,(1,15)),(((2,7),(19,(8,18))),(((4,10),(14,(11,12))),(9,(3,17))))))));
(21,((6,20),((13,16),((1,(5,15)),((9,(3,17)),((19,(8,18)),((2,7),((11,12),(14,(4,10))))))))));
(21,(((1,(5,15)),((9,(3,17)),((19,(8,18)),((2,7),((11,12),(4,(10,14))))))),((13,16),(6,20))));
(21,((13,16),((6,20),((1,(5,15)),(((3,17),((2,7),(19,(8,18)))),(9,((10,(4,14)),(11,12))))))));
(21,((13,16),((6,20),((1,(5,15)),(((19,(8,18)),((11,12),(14,(4,10)))),((2,7),(9,(3,17))))))));
(21,(((1,(5,15)),((9,(3,17)),((11,12),((19,(8,18)),((14,(4,10)),(2,7)))))),((13,16),(6,20))));
(21,((((18,(8,19)),((11,12),(2,7))),((14,(4,10)),(9,(3,17)))),((1,(5,15)),((6,20),(13,16)))));
(21,((((18,19),(9,(3,17))),((13,16),(6,20))),((1,(5,15)),(12,((14,(10,(4,8))),(2,(7,11)))))));
(21,(((13,16),(6,20)),((1,(5,15)),(((19,(8,18)),((11,12),(14,(4,10)))),((2,7),(9,(3,17)))))));
(21,(((1,(5,15)),((9,(3,17)),((19,(8,18)),((2,(7,11)),(12,(14,(4,10))))))),((13,16),(6,20))));
(21,(((6,20),((9,(3,17)),((2,7),((19,(8,18)),((11,12),(10,(4,14))))))),((1,(5,15)),(13,16))));
(21,((13,16),((6,20),((1,(5,15)),(((10,(4,14)),(12,(2,(7,11)))),((19,(8,18)),(9,(3,17))))))));
(21,(((1,(5,15)),((9,(3,17)),((2,7),(((11,12),(14,(10,(4,8)))),(18,19))))),((6,20),(13,16))));
(21,(((13,16),(6,20)),((1,(5,15)),((9,(3,17)),((19,(8,18)),((2,7),((11,12),(14,(4,10)))))))));
(21,(((13,16),(6,20)),((1,(5,15)),((9,(3,17)),((2,7),((19,(8,18)),((11,12),(14,(4,10)))))))));
(21,((9,((8,(18,19)),((2,7),((11,12),(14,(4,10)))))),((6,20),((13,16),((3,17),(1,(5,15)))))));
(21,(((1,(5,15)),((19,(8,18)),(((2,7),((11,12),(10,(4,14)))),(9,(3,17))))),((13,16),(6,20))));
(21,((5,(1,15)),((6,20),((13,16),((9,(3,17)),((19,(8,18)),((11,12),((14,(4,10)),(2,7)))))))));
(21,(((9,(3,17)),(((11,12),(14,(4,10))),((19,(8,18)),(2,7)))),((1,(5,15)),((6,20),(13,16)))));
(21,((((2,7),(11,(12,(14,(10,(4,8)))))),((18,19),(9,(3,17)))),((13,16),((6,20),(1,(5,15))))));
(21,(((6,20),(13,16)),((1,(5,15)),((19,(8,18)),(((2,7),((11,12),(10,(4,14)))),(9,(3,17)))))));
(21,((13,16),((((3,17),(2,7)),(9,((19,(8,18)),((11,12),(14,(4,10)))))),((1,(5,15)),(6,20)))));
(21,(((9,(3,17)),((19,(8,18)),((2,7),((11,12),(4,(10,14)))))),((1,(5,15)),((13,16),(6,20)))));
(21,(((1,(5,15)),((9,(3,17)),(((14,(4,10)),(11,12)),((19,(8,18)),(2,7))))),((6,20),(13,16))));
(21,((13,16),((15,(1,5)),((6,20),((3,17),(((2,7),(14,((11,12),(4,10)))),(9,(19,(8,18)))))))));
(21,(((1,(5,15)),((3,17),(9,((19,(8,18)),((2,7),((11,12),(4,(10,14)))))))),((13,16),(6,20))));
(21,(((9,(3,17)),((1,(5,15)),((2,7),((18,19),(((4,10),(8,14)),(11,12)))))),((6,20),(13,16))));
(21,((6,20),(((9,(3,17)),(((11,12),(14,(10,(4,8)))),((18,19),(2,7)))),((13,16),(1,(5,15))))));
(21,(((1,(5,15)),((9,(3,17)),((19,(8,18)),((14,(4,10)),((11,12),(2,7)))))),((13,16),(6,20))));
(21,((6,20),((13,16),((1,(5,15)),((9,(3,17)),((19,(8,18)),((2,7),((11,12),(14,(4,10))))))))));
(21,(((13,16),(6,20)),((1,(5,15)),((9,(3,17)),((2,7),((19,(8,18)),((11,12),(10,(4,14)))))))));
(21,(((6,20),(9,((3,17),((19,(8,18)),((2,7),((11,12),(14,(4,10)))))))),((13,16),(1,(5,15)))));
(21,((1,(5,15)),((6,20),((13,16),((2,7),(((19,(8,18)),((11,12),(14,(4,10)))),(9,(3,17))))))));
(21,(((6,20),(13,16)),((1,(5,15)),((19,(8,18)),((9,(3,17)),((2,7),((14,(4,10)),(11,12))))))));
(21,((13,16),(((9,(3,17)),((19,(8,18)),((2,7),((11,12),(14,(4,10)))))),((6,20),(1,(5,15))))));
(21,(((19,(8,18)),(((2,7),((11,12),(14,(4,10)))),(9,(3,17)))),((1,(5,15)),((13,16),(6,20)))));
(21,((1,(5,15)),((6,20),((13,16),(((19,(8,18)),((11,12),(14,(4,10)))),((2,7),(9,(3,17))))))));
(21,(((13,16),(6,20)),((1,(5,15)),(((2,7),(19,(8,18))),(((11,12),(14,(4,10))),(9,(3,17)))))));
(21,((13,16),((6,20),((1,(5,15)),((18,19),((9,(3,17)),((2,7),((14,(8,(4,10))),(11,12)))))))));
(21,((6,20),((13,16),((1,(5,15)),(9,((3,17),(((2,7),(4,(10,14))),((11,12),(19,(8,18))))))))));
(21,(((13,16),(6,20)),((1,(5,15)),(9,((3,17),((19,(8,18)),((2,7),((11,12),(14,(4,10))))))))));
(21,((1,(5,15)),(((3,17),(9,((11,12),((19,(8,18)),((2,7),(14,(4,10))))))),((13,16),(6,20)))));
(21,(((13,16),(6,20)),((1,(5,15)),((12,(14,(4,10))),((9,(3,17)),((2,(7,11)),(19,(8,18))))))));
