(((1,((7)#H1,14)),((((13,#H1),5),11),12)),((3,((6,(17,8)),(19,(10,9)))),(15,((4,(2,(16,18))),20))));
(((((18)#H1,6),20),(((((((11,#H1),17),(13,10)),14),2),(((9,(12,5)),(4,((8,15),16))),(3,7))),1)),19);
(((((8)#H1,18),((2,#H1),13)),((9,(4,12)),(15,3))),(((5,14),(17,16)),((1,(((10,6),(11,19)),20)),7)));
((8,(1,(14,((15)#H1,20)))),((17,(12,((16,#H1),9))),((13,((((3,(11,4)),10),7),(2,5))),((19,18),6))));
(((19,((9)#H1,17)),(((20,(15,(((5,#H1),7),2))),(14,(12,18))),(((16,3),10),8))),((6,(11,(1,13))),4));
(((((19,((8)#H1,18)),(((14,((4,#H1),10)),(11,12)),(7,2))),((3,17),9)),(1,(5,15))),((20,6),(16,13)));
(((((7)#H1,9),(((3,#H1),8),(11,(19,(12,16))))),((17,20),(1,6))),((4,((14,5),(18,(10,(13,15))))),2));
(((((18)#H1,5),((((8,#H1),3),6),20)),13),(((14,7),((16,10),(11,(9,19)))),(((4,17),2),(12,(1,15)))));
(((((((((12)#H1,2),11),7),(((20,#H1),1),17)),6),((9,8),19)),(((((4,3),15),10),((13,18),16)),14)),5);
(((((((14)#H1,5),((12,#H1),10)),(13,(8,7))),16),(2,9)),((3,(1,(((17,(15,6)),(18,11)),4))),(19,20)));
((((16)#H1,3),((1,#H1),8)),((((7,20),((17,19),15)),((10,(12,(2,5))),((13,14),(9,(4,11))))),(6,18)));
(((8,(3,((9)#H1,1))),(17,((((((20,#H1),19),7),(5,13)),((18,(10,4)),((14,12),2))),(11,15)))),(16,6));
(((((12)#H1,15),5),((7,((18,((4,((10,#H1),6)),(16,3))),2)),14)),((((20,13),1),17),(19,(8,(9,11)))));
((((((5)#H1,14),9),((13,#H1),19)),12),(((((4,6),(15,10)),((18,(7,1)),8)),(3,16)),((20,11),(17,2))));
(((((((5)#H1,17),15),19),(((4,#H1),11),(1,12))),((6,3),((16,((8,13),10)),(14,2)))),((7,(18,9)),20));
((((8)#H1,7),(((4,#H1),1),3)),((((5,((9,6),(12,(((14,10),2),(17,(13,20)))))),18),19),((11,16),15)));
(19,(((((((10)#H1,11),6),((5,#H1),1)),(13,15)),(14,((8,7),17))),(16,(((18,20),9),((2,3),(4,12))))));
(((9)#H1,16),(((8,#H1),19),(18,(((11,(((7,6),(2,1)),(20,4))),((12,((17,10),5)),(13,15))),(14,3)))));
((((20)#H1,17),(((((16,#H1),12),3),(((4,8),(15,7)),(13,11))),(((10,(((1,5),9),(6,19))),18),2))),14);
((((8,((5)#H1,15)),(11,(19,((14,#H1),12)))),7),((13,(10,(6,((20,17),2)))),(4,(((9,(18,16)),3),1))));
